%YAML 1.1
%TAG !u! tag:unity3d.com,2011:
--- !u!1 &2916113425920483793
GameObject:
  m_ObjectHideFlags: 0
  m_CorrespondingSourceObject: {fileID: 0}
  m_PrefabInstance: {fileID: 0}
  m_PrefabAsset: {fileID: 0}
  serializedVersion: 6
  m_Component:
  - component: {fileID: 1885894219808723448}
  - component: {fileID: 1952629844832982898}
  m_Layer: 0
  m_Name: UnstableGround
  m_TagString: Untagged
  m_Icon: {fileID: 0}
  m_NavMeshLayer: 0
  m_StaticEditorFlags: 0
  m_IsActive: 1
--- !u!4 &1885894219808723448
Transform:
  m_ObjectHideFlags: 0
  m_CorrespondingSourceObject: {fileID: 0}
  m_PrefabInstance: {fileID: 0}
  m_PrefabAsset: {fileID: 0}
  m_GameObject: {fileID: 2916113425920483793}
  m_LocalRotation: {x: 0, y: 0, z: 0, w: 1}
  m_LocalPosition: {x: 0, y: 0, z: 0}
  m_LocalScale: {x: 1, y: 1, z: 1}
  m_Children: []
  m_Father: {fileID: 0}
  m_RootOrder: 0
  m_LocalEulerAnglesHint: {x: 0, y: 0, z: 0}
--- !u!114 &1952629844832982898
MonoBehaviour:
  m_ObjectHideFlags: 0
  m_CorrespondingSourceObject: {fileID: 0}
  m_PrefabInstance: {fileID: 0}
  m_PrefabAsset: {fileID: 0}
  m_GameObject: {fileID: 2916113425920483793}
  m_Enabled: 1
  m_EditorHideFlags: 0
  m_Script: {fileID: 11500000, guid: c94e3aa4d82594038b1bef846a88b14b, type: 3}
  m_Name: 
  m_EditorClassIdentifier: 
  goingDown: 0
  crystalAnimations:
  - sprites:
    - {fileID: 21300000, guid: f0c27b8f5c43cbf44ae2303efa07931e, type: 3}
    - {fileID: 21300000, guid: 51cc8da7702449546a35e7b38c858c9d, type: 3}
    fps: 0
  - sprites:
    - {fileID: 21300000, guid: 7f831040acdded943afba59779d7baa0, type: 3}
    - {fileID: 21300000, guid: dd51a4d9324ad8a4db9641b6dbf2071b, type: 3}
    fps: 0
  - sprites:
    - {fileID: 21300000, guid: 86f6273961978604eab549dc29175fe1, type: 3}
    - {fileID: 21300000, guid: 7ccb93f0b7a35294f943b3773f4acf25, type: 3}
    fps: 0
  - sprites:
    - {fileID: 21300000, guid: 9e2079db49530ef4ca71458711d234f7, type: 3}
    - {fileID: 21300000, guid: a38cdd0a72a248a409667df08fdcd128, type: 3}
    fps: 0
  - sprites:
    - {fileID: 21300000, guid: 78881536fabde1144906542114dacca8, type: 3}
    - {fileID: 21300000, guid: 7a8e1b1b3f860ef43902ca48eda52702, type: 3}
    fps: 0
  purpleCrystals:
  - {fileID: 21300000, guid: 1f1aabe2220f42141a11a4dacc8c3492, type: 3}
  - {fileID: 21300000, guid: be524dd909394ff49acfa1ddbb945d34, type: 3}
  - {fileID: 21300000, guid: 45ef744072869464e8930771e0e5061f, type: 3}
  - {fileID: 21300000, guid: 49215824ea4ffed45873d5aa86c52d1d, type: 3}
  - {fileID: 21300000, guid: bd81b850ef10d2d43bee35d6860a0eee, type: 3}
  - {fileID: 21300000, guid: 94ce56ce5897a514ca2b5310fc4b74f6, type: 3}
