%YAML 1.1
%TAG !u! tag:unity3d.com,2011:
--- !u!1 &5650152180101034806
GameObject:
  m_ObjectHideFlags: 0
  m_CorrespondingSourceObject: {fileID: 0}
  m_PrefabInstance: {fileID: 0}
  m_PrefabAsset: {fileID: 0}
  serializedVersion: 6
  m_Component:
  - component: {fileID: 1977885660222547944}
  - component: {fileID: 7708623242946705051}
  - component: {fileID: 3842169169318626967}
  - component: {fileID: 2590016997838545062}
  m_Layer: 0
  m_Name: Crystal Spike 1
  m_TagString: Untagged
  m_Icon: {fileID: 0}
  m_NavMeshLayer: 0
  m_StaticEditorFlags: 0
  m_IsActive: 1
--- !u!4 &1977885660222547944
Transform:
  m_ObjectHideFlags: 0
  m_CorrespondingSourceObject: {fileID: 0}
  m_PrefabInstance: {fileID: 0}
  m_PrefabAsset: {fileID: 0}
  m_GameObject: {fileID: 5650152180101034806}
  m_LocalRotation: {x: 0, y: 0, z: 0, w: 1}
  m_LocalPosition: {x: -3.76, y: 40.94, z: 0}
  m_LocalScale: {x: 1, y: 1, z: 1}
  m_Children: []
  m_Father: {fileID: 0}
  m_RootOrder: 0
  m_LocalEulerAnglesHint: {x: 0, y: 0, z: 0}
--- !u!212 &7708623242946705051
SpriteRenderer:
  m_ObjectHideFlags: 0
  m_CorrespondingSourceObject: {fileID: 0}
  m_PrefabInstance: {fileID: 0}
  m_PrefabAsset: {fileID: 0}
  m_GameObject: {fileID: 5650152180101034806}
  m_Enabled: 1
  m_CastShadows: 0
  m_ReceiveShadows: 0
  m_DynamicOccludee: 1
  m_MotionVectors: 1
  m_LightProbeUsage: 1
  m_ReflectionProbeUsage: 1
  m_RayTracingMode: 0
  m_RayTraceProcedural: 0
  m_RenderingLayerMask: 1
  m_RendererPriority: 0
  m_Materials:
  - {fileID: 10754, guid: 0000000000000000f000000000000000, type: 0}
  m_StaticBatchInfo:
    firstSubMesh: 0
    subMeshCount: 0
  m_StaticBatchRoot: {fileID: 0}
  m_ProbeAnchor: {fileID: 0}
  m_LightProbeVolumeOverride: {fileID: 0}
  m_ScaleInLightmap: 1
  m_ReceiveGI: 1
  m_PreserveUVs: 0
  m_IgnoreNormalsForChartDetection: 0
  m_ImportantGI: 0
  m_StitchLightmapSeams: 1
  m_SelectedEditorRenderState: 0
  m_MinimumChartSize: 4
  m_AutoUVMaxDistance: 0.5
  m_AutoUVMaxAngle: 89
  m_LightmapParameters: {fileID: 0}
  m_SortingLayerID: 864692043
  m_SortingLayer: -15
  m_SortingOrder: 0
  m_Sprite: {fileID: 21300000, guid: a93994a0e0b50294f9fdd8a3a05c27f2, type: 3}
  m_Color: {r: 1, g: 1, b: 1, a: 1}
  m_FlipX: 0
  m_FlipY: 0
  m_DrawMode: 0
  m_Size: {x: 16, y: 16}
  m_AdaptiveModeThreshold: 0.5
  m_SpriteTileMode: 0
  m_WasSpriteAssigned: 1
  m_MaskInteraction: 0
  m_SpriteSortPoint: 0
--- !u!114 &3842169169318626967
MonoBehaviour:
  m_ObjectHideFlags: 0
  m_CorrespondingSourceObject: {fileID: 0}
  m_PrefabInstance: {fileID: 0}
  m_PrefabAsset: {fileID: 0}
  m_GameObject: {fileID: 5650152180101034806}
  m_Enabled: 1
  m_EditorHideFlags: 0
  m_Script: {fileID: 11500000, guid: 90ab8116e25b87c428dd5976dc403665, type: 3}
  m_Name: 
  m_EditorClassIdentifier: 
  animationNormal:
    sprites:
    - {fileID: 21300000, guid: a93994a0e0b50294f9fdd8a3a05c27f2, type: 3}
    fps: 30
  animationShine:
    sprites:
    - {fileID: 21300000, guid: a93994a0e0b50294f9fdd8a3a05c27f2, type: 3}
    - {fileID: 21300000, guid: 857828bbc5ee78c46a649a992c0b90e1, type: 3}
    - {fileID: 21300000, guid: 96e233e1d1d90a8479802ac5877f7fd9, type: 3}
    - {fileID: 21300000, guid: 524eb64286550e74caed9ed38e36a2d3, type: 3}
    - {fileID: 21300000, guid: 577731052b22b674e9304beba648d96a, type: 3}
    - {fileID: 21300000, guid: cc8ba8896cedae64fbb692fa806f1eb2, type: 3}
    - {fileID: 21300000, guid: e960dd659f3f90f46baf2ece2679af8b, type: 3}
    - {fileID: 21300000, guid: 4c640d28275a89a45a11807af2ff4b23, type: 3}
    - {fileID: 21300000, guid: 285eb5252983ae146a5f59196b2720a5, type: 3}
    fps: 20
  animationEmpty:
    sprites:
    - {fileID: 0}
    fps: 30
  isBroken: 0
--- !u!114 &2590016997838545062
MonoBehaviour:
  m_ObjectHideFlags: 0
  m_CorrespondingSourceObject: {fileID: 0}
  m_PrefabInstance: {fileID: 0}
  m_PrefabAsset: {fileID: 0}
  m_GameObject: {fileID: 5650152180101034806}
  m_Enabled: 1
  m_EditorHideFlags: 0
  m_Script: {fileID: 11500000, guid: a2cedcea314d944e09159c2372cec04f, type: 3}
  m_Name: 
  m_EditorClassIdentifier: 
