%YAML 1.1
%TAG !u! tag:unity3d.com,2011:
--- !u!114 &11400000
MonoBehaviour:
  m_ObjectHideFlags: 0
  m_CorrespondingSourceObject: {fileID: 0}
  m_PrefabInstance: {fileID: 0}
  m_PrefabAsset: {fileID: 0}
  m_GameObject: {fileID: 0}
  m_Enabled: 1
  m_EditorHideFlags: 0
  m_Script: {fileID: 11500000, guid: 4fd5aeb3978634247971e94c6922a9a2, type: 3}
  m_Name: Pinball Thumbnails
  m_EditorClassIdentifier: 
  difficulties:
  - sprites:
    - {fileID: 21300000, guid: 7abf8b1a667bc234585311f9485ad76d, type: 3}
    - {fileID: 21300000, guid: e7660366efe08734189a6a65a6baf34a, type: 3}
    - {fileID: 21300000, guid: 3102379b79e7a6a4fb597b545d3eebc9, type: 3}
    - {fileID: 21300000, guid: 6071be8703f4aee4a8b2c6bdbcb6136e, type: 3}
    - {fileID: 21300000, guid: 40181b5897617604384c51f620638f1b, type: 3}
  - sprites:
    - {fileID: 21300000, guid: 65871fa8fb469ae4bb39cebcd5889f23, type: 3}
    - {fileID: 21300000, guid: 9652b16da0a58cf4f890fac7ea9c355f, type: 3}
    - {fileID: 21300000, guid: 20c152c3842f6054d943785fe95ad24a, type: 3}
    - {fileID: 21300000, guid: 5d04b1d318219ab49a4793eebe1b56ca, type: 3}
    - {fileID: 21300000, guid: f4ed5f82e83aeb9408deb52bf1ea5d68, type: 3}
  - sprites:
    - {fileID: 21300000, guid: b05bf20e311ac8c4589f039094f0bbe0, type: 3}
    - {fileID: 21300000, guid: b60903f127326e941a3ec6bb9a463a01, type: 3}
    - {fileID: 21300000, guid: 928cd41070e09f3438de84f5e61c4012, type: 3}
    - {fileID: 21300000, guid: c182d19264ff2554c866e3e4d0babeac, type: 3}
    - {fileID: 21300000, guid: c33dfba3cef7875428e44599e9a0f56b, type: 3}
  - sprites:
    - {fileID: 21300000, guid: c13784cea4c89114b861d6cc5fd3fc38, type: 3}
    - {fileID: 21300000, guid: 2b740c4b5b4e88d4694764ea7155d1c1, type: 3}
    - {fileID: 21300000, guid: 3f4e1ab0cbf8ab84faf31aaec1fa8996, type: 3}
    - {fileID: 21300000, guid: d4b1c5891a6791b45a3a442fd40da9ec, type: 3}
    - {fileID: 21300000, guid: 71aaf9c30aca59f4ba55f66b4b426d67, type: 3}
