%YAML 1.1
%TAG !u! tag:unity3d.com,2011:
--- !u!114 &11400000
MonoBehaviour:
  m_ObjectHideFlags: 0
  m_CorrespondingSourceObject: {fileID: 0}
  m_PrefabInstance: {fileID: 0}
  m_PrefabAsset: {fileID: 0}
  m_GameObject: {fileID: 0}
  m_Enabled: 1
  m_EditorHideFlags: 0
  m_Script: {fileID: 11500000, guid: 4fd5aeb3978634247971e94c6922a9a2, type: 3}
  m_Name: Racing Thumbnails
  m_EditorClassIdentifier: 
  difficulties:
  - sprites:
    - {fileID: 21300000, guid: 8b945c1de7f908f4d8baf60508867531, type: 3}
    - {fileID: 21300000, guid: b783b9780b614ce479d81717d23dc604, type: 3}
    - {fileID: 21300000, guid: a4d55f431f340fc4aa9ce7040aa18a73, type: 3}
    - {fileID: 21300000, guid: 3375c936209932d4b93a81dbf9dc70e7, type: 3}
    - {fileID: 21300000, guid: 8eac3fcbf588e494f90d18422e447a6b, type: 3}
  - sprites:
    - {fileID: 21300000, guid: fcf409f3efcf0e24ca435c39c2147e1a, type: 3}
    - {fileID: 21300000, guid: ffca7bf7e45b1ec429905346d6f60cc0, type: 3}
    - {fileID: 21300000, guid: 53be0663e4d48fe45bb04687c9cdbc49, type: 3}
    - {fileID: 21300000, guid: 15abe96da7e2d1f429f04df6eb29fb81, type: 3}
    - {fileID: 21300000, guid: 23fd0720e0300a141babcbc6332d1626, type: 3}
  - sprites:
    - {fileID: 21300000, guid: 97336803b1cbcc049bb6d5a2c34f1e1a, type: 3}
    - {fileID: 21300000, guid: 05d275146ef517f419bd8a28cabdea39, type: 3}
    - {fileID: 21300000, guid: 7d529f8249dc33f40a784be1ecc29323, type: 3}
    - {fileID: 21300000, guid: 32d2bd5f2e01afc4f8ff84c85d933402, type: 3}
    - {fileID: 21300000, guid: 86016cc66a01c5e49953e81aec09c405, type: 3}
  - sprites:
    - {fileID: 21300000, guid: 22d67dd2fc4f85a458c54f0d2f58e1b2, type: 3}
    - {fileID: 21300000, guid: 7be2fd7cd67b63d45a5690252ec817af, type: 3}
    - {fileID: 21300000, guid: 1bef8e11cd9fa904898c9870017dee5e, type: 3}
    - {fileID: 21300000, guid: 1bb70c8a2b881c242a5463c317db1505, type: 3}
    - {fileID: 21300000, guid: fff515947ff9117468e88a456c38ac9f, type: 3}
