%YAML 1.1
%TAG !u! tag:unity3d.com,2011:
--- !u!1 &6039086772589614463
GameObject:
  m_ObjectHideFlags: 0
  m_CorrespondingSourceObject: {fileID: 0}
  m_PrefabInstance: {fileID: 0}
  m_PrefabAsset: {fileID: 0}
  serializedVersion: 6
  m_Component:
  - component: {fileID: 3345693173776177609}
  - component: {fileID: 3796106968403414507}
  - component: {fileID: 716594110848820458}
  - component: {fileID: 4436507208553316731}
  m_Layer: 0
  m_Name: Scuttlebug
  m_TagString: Untagged
  m_Icon: {fileID: 0}
  m_NavMeshLayer: 0
  m_StaticEditorFlags: 0
  m_IsActive: 1
--- !u!4 &3345693173776177609
Transform:
  m_ObjectHideFlags: 0
  m_CorrespondingSourceObject: {fileID: 0}
  m_PrefabInstance: {fileID: 0}
  m_PrefabAsset: {fileID: 0}
  m_GameObject: {fileID: 6039086772589614463}
  m_LocalRotation: {x: 0, y: 0, z: 0, w: 1}
  m_LocalPosition: {x: -214.55997, y: -349.37985, z: 0}
  m_LocalScale: {x: 1, y: 1, z: 1}
  m_Children: []
  m_Father: {fileID: 0}
  m_RootOrder: 0
  m_LocalEulerAnglesHint: {x: 0, y: 0, z: 0}
--- !u!212 &3796106968403414507
SpriteRenderer:
  m_ObjectHideFlags: 0
  m_CorrespondingSourceObject: {fileID: 0}
  m_PrefabInstance: {fileID: 0}
  m_PrefabAsset: {fileID: 0}
  m_GameObject: {fileID: 6039086772589614463}
  m_Enabled: 1
  m_CastShadows: 0
  m_ReceiveShadows: 0
  m_DynamicOccludee: 1
  m_MotionVectors: 1
  m_LightProbeUsage: 1
  m_ReflectionProbeUsage: 1
  m_RayTracingMode: 0
  m_RayTraceProcedural: 0
  m_RenderingLayerMask: 1
  m_RendererPriority: 0
  m_Materials:
  - {fileID: 10754, guid: 0000000000000000f000000000000000, type: 0}
  m_StaticBatchInfo:
    firstSubMesh: 0
    subMeshCount: 0
  m_StaticBatchRoot: {fileID: 0}
  m_ProbeAnchor: {fileID: 0}
  m_LightProbeVolumeOverride: {fileID: 0}
  m_ScaleInLightmap: 1
  m_ReceiveGI: 1
  m_PreserveUVs: 0
  m_IgnoreNormalsForChartDetection: 0
  m_ImportantGI: 0
  m_StitchLightmapSeams: 1
  m_SelectedEditorRenderState: 0
  m_MinimumChartSize: 4
  m_AutoUVMaxDistance: 0.5
  m_AutoUVMaxAngle: 89
  m_LightmapParameters: {fileID: 0}
  m_SortingLayerID: 864692043
  m_SortingLayer: -14
  m_SortingOrder: 0
  m_Sprite: {fileID: 21300000, guid: d21c51a06a19d0e4eb899d581c45ef97, type: 3}
  m_Color: {r: 1, g: 1, b: 1, a: 1}
  m_FlipX: 0
  m_FlipY: 0
  m_DrawMode: 0
  m_Size: {x: 32, y: 32}
  m_AdaptiveModeThreshold: 0.5
  m_SpriteTileMode: 0
  m_WasSpriteAssigned: 1
  m_MaskInteraction: 0
  m_SpriteSortPoint: 0
--- !u!114 &716594110848820458
MonoBehaviour:
  m_ObjectHideFlags: 0
  m_CorrespondingSourceObject: {fileID: 0}
  m_PrefabInstance: {fileID: 0}
  m_PrefabAsset: {fileID: 0}
  m_GameObject: {fileID: 6039086772589614463}
  m_Enabled: 1
  m_EditorHideFlags: 0
  m_Script: {fileID: 11500000, guid: e63b76e3239e6a046bbe7c3d061b9f3d, type: 3}
  m_Name: 
  m_EditorClassIdentifier: 
  deathAnimation:
    frozenSprite: {fileID: 21300000, guid: 3e16766ac527bfc48af82d4f73848250, type: 3}
    debris:
    - {fileID: 21300000, guid: ff00d13fb1d563f499b0b634b733a2f6, type: 3}
    sfxDeath: {fileID: 8300000, guid: 61aba45c77e5c3940b7fe53c43fe6b56, type: 3}
  animationWalk:
    sprites:
    - {fileID: 21300000, guid: d21c51a06a19d0e4eb899d581c45ef97, type: 3}
    - {fileID: 21300000, guid: bfce88b8f04fa6d41832624e30107ef9, type: 3}
    - {fileID: 21300000, guid: 798130f363e2f4d409b9ece62bc84591, type: 3}
    - {fileID: 21300000, guid: bf06a1a3c7a671846a74c26e8f943aa0, type: 3}
    - {fileID: 21300000, guid: 3c549a05db6a7ad4a91ec909cba2d41e, type: 3}
    - {fileID: 21300000, guid: 95aa7a38bade17a4d88e8d180c34887e, type: 3}
    - {fileID: 21300000, guid: 19a7629acbe4d9e4ba98671161a71c2c, type: 3}
    - {fileID: 21300000, guid: 6ac2589a8fdb93a4284124c790f056b0, type: 3}
    - {fileID: 21300000, guid: f3962143abc9646408500f0b4734e6bf, type: 3}
    fps: 30
  animationTurn:
    sprites:
    - {fileID: 21300000, guid: 19b11969cdf1ac74eb835ae54ebe6a49, type: 3}
    - {fileID: 21300000, guid: 5510686873a236944b3bda04ae500f5b, type: 3}
    - {fileID: 21300000, guid: 634f3ba50b33e2f4ca76101b12be0d37, type: 3}
    - {fileID: 21300000, guid: 935c7fb44ec1fd04499e7223421ff38f, type: 3}
    fps: 15
  animationRotate1:
    sprites:
    - {fileID: 21300000, guid: 932af35dc463e8e47baef7035484e94a, type: 3}
    - {fileID: 21300000, guid: b07c4db8bbffa7244a5edc5bc6c62cc3, type: 3}
    - {fileID: 21300000, guid: 70ad750e8f527204c9a17c673db9027a, type: 3}
    - {fileID: 21300000, guid: f46a644a76f82134bab4482f5ae20b23, type: 3}
    - {fileID: 21300000, guid: 1449574f419515747a1d34ffb4b726b4, type: 3}
    - {fileID: 21300000, guid: ddbdcc8bb9e990140b99102e098d4cc0, type: 3}
    - {fileID: 21300000, guid: 956288dce818111439016dd0d7ba2522, type: 3}
    - {fileID: 21300000, guid: c9139a030b7f2574dbdaaa2c4f3e36a8, type: 3}
    fps: 16
  animationRotate2:
    sprites:
    - {fileID: 21300000, guid: 956288dce818111439016dd0d7ba2522, type: 3}
    - {fileID: 21300000, guid: ddbdcc8bb9e990140b99102e098d4cc0, type: 3}
    - {fileID: 21300000, guid: 1449574f419515747a1d34ffb4b726b4, type: 3}
    - {fileID: 21300000, guid: f46a644a76f82134bab4482f5ae20b23, type: 3}
    - {fileID: 21300000, guid: 70ad750e8f527204c9a17c673db9027a, type: 3}
    - {fileID: 21300000, guid: b07c4db8bbffa7244a5edc5bc6c62cc3, type: 3}
    - {fileID: 21300000, guid: 932af35dc463e8e47baef7035484e94a, type: 3}
    - {fileID: 21300000, guid: c9139a030b7f2574dbdaaa2c4f3e36a8, type: 3}
    fps: 16
  animationCharging:
    sprites:
    - {fileID: 21300000, guid: fea3bae60a5d4924f9078f54cfc94128, type: 3}
    - {fileID: 21300000, guid: f27368ae563d99f499dd554045587aba, type: 3}
    - {fileID: 21300000, guid: 2f01679de7ca28c4a87a241102f1a6cf, type: 3}
    - {fileID: 21300000, guid: fea3bae60a5d4924f9078f54cfc94128, type: 3}
    - {fileID: 21300000, guid: f27368ae563d99f499dd554045587aba, type: 3}
    - {fileID: 21300000, guid: 2f01679de7ca28c4a87a241102f1a6cf, type: 3}
    - {fileID: 21300000, guid: fea3bae60a5d4924f9078f54cfc94128, type: 3}
    - {fileID: 21300000, guid: f27368ae563d99f499dd554045587aba, type: 3}
    - {fileID: 21300000, guid: 2f01679de7ca28c4a87a241102f1a6cf, type: 3}
    fps: 30
  animationChargingRing:
    sprites:
    - {fileID: 21300000, guid: 0938cc69c1628334da5a751e45604b29, type: 3}
    - {fileID: 21300000, guid: bc7e8a956dea80a47a900efb2538d8e4, type: 3}
    - {fileID: 21300000, guid: d1cf3196e1cb2cb439b9513172db1c1f, type: 3}
    - {fileID: 21300000, guid: d84d96b34c4e8ae4399ffa13d3874e3d, type: 3}
    - {fileID: 21300000, guid: 634b2d814ad44024abd4bdbbc78bcc52, type: 3}
    - {fileID: 21300000, guid: 090adb1f7f5288d458ef4e6cdc0baacf, type: 3}
    - {fileID: 21300000, guid: cf75f3357a642c640a28e17541cb7eb9, type: 3}
    - {fileID: 21300000, guid: 9105cfd85e8fbfd42916f6f74b718eea, type: 3}
    - {fileID: 21300000, guid: 4913e9068e1d6274e94e98c08cecd068, type: 3}
    fps: 30
  animationElectric:
    sprites:
    - {fileID: 21300000, guid: 46dd4bcf11b07bc43b7b78bbbe538c20, type: 3}
    - {fileID: 21300000, guid: 224da645c2ebd5c4caeb2c5d87f6d2d6, type: 3}
    - {fileID: 21300000, guid: a6594c2525e1f754faefe90f79dd9331, type: 3}
    - {fileID: 21300000, guid: 0a70eee731b775d4b98c8820383e5653, type: 3}
    - {fileID: 21300000, guid: 46dd4bcf11b07bc43b7b78bbbe538c20, type: 3}
    - {fileID: 21300000, guid: 4e406fab8c1941f4ca8a400cf1468564, type: 3}
    - {fileID: 21300000, guid: 09d2de0171774a74fbadaf7df4c9a051, type: 3}
    - {fileID: 21300000, guid: b8afa17b27cae3c4d977ddb8bdeffb37, type: 3}
    - {fileID: 21300000, guid: 224da645c2ebd5c4caeb2c5d87f6d2d6, type: 3}
    - {fileID: 21300000, guid: a6594c2525e1f754faefe90f79dd9331, type: 3}
    - {fileID: 21300000, guid: 0a70eee731b775d4b98c8820383e5653, type: 3}
    - {fileID: 21300000, guid: 46dd4bcf11b07bc43b7b78bbbe538c20, type: 3}
    - {fileID: 21300000, guid: 4e406fab8c1941f4ca8a400cf1468564, type: 3}
    - {fileID: 21300000, guid: 09d2de0171774a74fbadaf7df4c9a051, type: 3}
    - {fileID: 21300000, guid: b8afa17b27cae3c4d977ddb8bdeffb37, type: 3}
    - {fileID: 21300000, guid: 224da645c2ebd5c4caeb2c5d87f6d2d6, type: 3}
    - {fileID: 21300000, guid: a6594c2525e1f754faefe90f79dd9331, type: 3}
    - {fileID: 21300000, guid: 0a70eee731b775d4b98c8820383e5653, type: 3}
    - {fileID: 21300000, guid: 46dd4bcf11b07bc43b7b78bbbe538c20, type: 3}
    - {fileID: 21300000, guid: 4e406fab8c1941f4ca8a400cf1468564, type: 3}
    - {fileID: 21300000, guid: 09d2de0171774a74fbadaf7df4c9a051, type: 3}
    - {fileID: 21300000, guid: b8afa17b27cae3c4d977ddb8bdeffb37, type: 3}
    - {fileID: 21300000, guid: 224da645c2ebd5c4caeb2c5d87f6d2d6, type: 3}
    - {fileID: 21300000, guid: a6594c2525e1f754faefe90f79dd9331, type: 3}
    - {fileID: 21300000, guid: 0a70eee731b775d4b98c8820383e5653, type: 3}
    - {fileID: 21300000, guid: 46dd4bcf11b07bc43b7b78bbbe538c20, type: 3}
    - {fileID: 21300000, guid: 4e406fab8c1941f4ca8a400cf1468564, type: 3}
    - {fileID: 21300000, guid: 09d2de0171774a74fbadaf7df4c9a051, type: 3}
    - {fileID: 21300000, guid: b8afa17b27cae3c4d977ddb8bdeffb37, type: 3}
    - {fileID: 21300000, guid: 224da645c2ebd5c4caeb2c5d87f6d2d6, type: 3}
    - {fileID: 21300000, guid: a6594c2525e1f754faefe90f79dd9331, type: 3}
    - {fileID: 21300000, guid: 0a70eee731b775d4b98c8820383e5653, type: 3}
    - {fileID: 21300000, guid: 46dd4bcf11b07bc43b7b78bbbe538c20, type: 3}
    - {fileID: 21300000, guid: 4e406fab8c1941f4ca8a400cf1468564, type: 3}
    - {fileID: 21300000, guid: 09d2de0171774a74fbadaf7df4c9a051, type: 3}
    - {fileID: 21300000, guid: b8afa17b27cae3c4d977ddb8bdeffb37, type: 3}
    - {fileID: 21300000, guid: 224da645c2ebd5c4caeb2c5d87f6d2d6, type: 3}
    - {fileID: 21300000, guid: a6594c2525e1f754faefe90f79dd9331, type: 3}
    - {fileID: 21300000, guid: 0a70eee731b775d4b98c8820383e5653, type: 3}
    - {fileID: 21300000, guid: 46dd4bcf11b07bc43b7b78bbbe538c20, type: 3}
    fps: 20
  animationAfterElectric:
    sprites:
    - {fileID: 21300000, guid: 485a9af8b1306464593311c3044080dc, type: 3}
    - {fileID: 21300000, guid: 727bbc90d262cf540beeb240dfdb6027, type: 3}
    fps: 12
--- !u!114 &4436507208553316731
MonoBehaviour:
  m_ObjectHideFlags: 0
  m_CorrespondingSourceObject: {fileID: 0}
  m_PrefabInstance: {fileID: 0}
  m_PrefabAsset: {fileID: 0}
  m_GameObject: {fileID: 6039086772589614463}
  m_Enabled: 1
  m_EditorHideFlags: 0
  m_Script: {fileID: 11500000, guid: a2cedcea314d944e09159c2372cec04f, type: 3}
  m_Name: 
  m_EditorClassIdentifier: 
