%YAML 1.1
%TAG !u! tag:unity3d.com,2011:
--- !u!114 &11400000
MonoBehaviour:
  m_ObjectHideFlags: 0
  m_CorrespondingSourceObject: {fileID: 0}
  m_PrefabInstance: {fileID: 0}
  m_PrefabAsset: {fileID: 0}
  m_GameObject: {fileID: 0}
  m_Enabled: 1
  m_EditorHideFlags: 0
  m_Script: {fileID: 11500000, guid: deada51ddafa6304c894ffaffa3f8d7c, type: 3}
  m_Name: TilesetTombstoneInactive
  m_EditorClassIdentifier: 
  type: 1
  flowIntoSlopes: 0
  flowIntoOutside: 1
  singleSquare:
  - {fileID: 21300000, guid: 8e4ad7176686640bbb595822b80a62ae, type: 3}
  - {fileID: 21300000, guid: 52f1399be6bbe4bc5beb7972e53e643d, type: 3}
  - {fileID: 21300000, guid: ad6024536f1024db7a0fa62b115168f9, type: 3}
  interior:
  - {fileID: 21300000, guid: 8e1e887cab0f24167ba9450a836527db, type: 3}
  - {fileID: 21300000, guid: b79c60d2a73b242d6a211b71c52e8f90, type: 3}
  - {fileID: 21300000, guid: 90ef8fc06a9fe4ae6bc0178781dad378, type: 3}
  - {fileID: 21300000, guid: f156cc8c203cf45688a2696b2231fd7b, type: 3}
  - {fileID: 21300000, guid: dc80cf8eec89741cfacf22409d7838d9, type: 3}
  - {fileID: 21300000, guid: cb11898e5f0ed46ae82bc85bfc016280, type: 3}
  - {fileID: 21300000, guid: a230164bbd026452380680e3d57ddbe2, type: 3}
  - {fileID: 21300000, guid: e8a6513c8d89d45cca172dff4c91d34f, type: 3}
  - {fileID: 21300000, guid: 30c71e5a0528b456fb035ddbf1fa3b4f, type: 3}
  - {fileID: 21300000, guid: 3ba12b00ac6304f0ea6d93a514e4b6c4, type: 3}
  - {fileID: 21300000, guid: ab5fbe7b4ddde43238e95b947b1c1aec, type: 3}
  - {fileID: 21300000, guid: 6648697f576f241d4a1be2310abeb750, type: 3}
  - {fileID: 21300000, guid: 52e9e122f84f24011a1cb93d3687fcd3, type: 3}
  - {fileID: 21300000, guid: ef08610aef0794a7ab9e0cbf476012ad, type: 3}
  - {fileID: 21300000, guid: ca9a37a897465442bb66bf55112fc35a, type: 3}
  - {fileID: 21300000, guid: 3674ed62661de4613a91dc2a54f84744, type: 3}
  - {fileID: 21300000, guid: 025f8bdd2a59144bfb57b74dd4f044f5, type: 3}
  - {fileID: 21300000, guid: a3d795a3410b34b5d85b8f92ec6680b4, type: 3}
  - {fileID: 21300000, guid: 1a6e7697019644104b5fc523c612ee5a, type: 3}
  - {fileID: 21300000, guid: 213592c67361b4c2bb5aedebcfaf7e79, type: 3}
  - {fileID: 21300000, guid: 0cba8d27ef3e54a14b54377da6af3ba6, type: 3}
  - {fileID: 21300000, guid: 2b9fd3d8b4d0d4390a13ab4dbb2b27c2, type: 3}
  - {fileID: 21300000, guid: a756960124ecf4ba6a849f3b170c281f, type: 3}
  - {fileID: 21300000, guid: 8e4fe191b64644b83ac3de50c06b3e1e, type: 3}
  - {fileID: 21300000, guid: 57fda012baf804c5ba846bb8e3aaf3dd, type: 3}
  interiorStyle: 1
  interiorGridColumns: 5
  interiorGridRows: 5
  interiorUnderneathEdges: 0
  interiorUnderneathJoinedSlopes: 0
  interiorUnderneathAllCurves: 0
  bottom:
  - {fileID: 21300000, guid: e34da23411a9b419b8a2130ed24fce17, type: 3}
  - {fileID: 21300000, guid: d04d9c78a02674bd487b8af87f9ad6b2, type: 3}
  - {fileID: 21300000, guid: 8d7224840ba9743899307ad2fad9638d, type: 3}
  - {fileID: 21300000, guid: 49029ac7b6f0b47ef87764f9ca3c002c, type: 3}
  left:
  - {fileID: 21300000, guid: c2cb3525b71624fc38be5143afb6e00e, type: 3}
  - {fileID: 21300000, guid: ff8bc5891148a47898e52c9c94104130, type: 3}
  - {fileID: 21300000, guid: 58db418ef5cc8460d924f66524aa5ba3, type: 3}
  - {fileID: 21300000, guid: 402fdf5cada5e4153861cc3135a5ad87, type: 3}
  right:
  - {fileID: 21300000, guid: 90c9482002e894368a6e3a8d75120e01, type: 3}
  - {fileID: 21300000, guid: 9ca191e36b2564e87a1e7bc60b80a775, type: 3}
  - {fileID: 21300000, guid: bc4ee6b94b6bd46759bd266c5aedcd85, type: 3}
  - {fileID: 21300000, guid: 09992271d1d184a7580da7a79c30c0bc, type: 3}
  top:
  - {fileID: 21300000, guid: b51de9f709bf24c0ebea11b4295d084e, type: 3}
  - {fileID: 21300000, guid: b8c9202f1ddc645f7b34b1619a42a2c4, type: 3}
  - {fileID: 21300000, guid: 37d42b7c51eee43f48885c2b42c9c691, type: 3}
  - {fileID: 21300000, guid: c2f0a017854624258bed048c173d7bdf, type: 3}
  bottomLeft: {fileID: 21300000, guid: 8741ac3c9b95246d6ba2006354c5d3b6, type: 3}
  bottomRight: {fileID: 21300000, guid: 43e72a72dd7aa48b18d361ce60c79a79, type: 3}
  topLeft: {fileID: 21300000, guid: cacc88e0c4bf048a79eaa05d8287395a, type: 3}
  topRight: {fileID: 21300000, guid: f5d6b685285634a5089f2d3e99c64961, type: 3}
  insideBottomLeft: {fileID: 21300000, guid: 9af4b61546d8448379f50ae17178940b, type: 3}
  insideBottomRight: {fileID: 21300000, guid: 88124711f5bf242a8858ff145c00c0a7, type: 3}
  insideTopLeft: {fileID: 21300000, guid: 3f9a8f7d8e2b44e14b7260e115875ef9, type: 3}
  insideTopRight: {fileID: 21300000, guid: 79a552a0cbddd40cd98d5040f064eedd, type: 3}
  slope22BottomLeft: {fileID: 0}
  slope22BottomRight: {fileID: 0}
  slope22TopLeft: {fileID: 0}
  slope22TopRight: {fileID: 0}
  slope45BottomLeft: {fileID: 0}
  slope45BottomRight: {fileID: 0}
  slope45TopLeft: {fileID: 0}
  slope45TopRight: {fileID: 0}
  slopeJoined22BottomLeft: {fileID: 0}
  slopeJoined22BottomRight: {fileID: 0}
  slopeJoined22TopLeft: {fileID: 0}
  slopeJoined22TopRight: {fileID: 0}
  slopeJoined45BottomLeft: {fileID: 0}
  slopeJoined45BottomRight: {fileID: 0}
  slopeJoined45TopLeft: {fileID: 0}
  slopeJoined45TopRight: {fileID: 0}
  slopeJoinedLeft22BottomLeft: {fileID: 0}
  slopeJoinedLeft22BottomRight: {fileID: 0}
  slopeJoinedLeft22TopLeft: {fileID: 0}
  slopeJoinedLeft22TopRight: {fileID: 0}
  slopeJoinedLeft45BottomLeft: {fileID: 0}
  slopeJoinedLeft45BottomRight: {fileID: 0}
  slopeJoinedLeft45TopLeft: {fileID: 0}
  slopeJoinedLeft45TopRight: {fileID: 0}
  slopeJoinedRight22BottomLeft: {fileID: 0}
  slopeJoinedRight22BottomRight: {fileID: 0}
  slopeJoinedRight22TopLeft: {fileID: 0}
  slopeJoinedRight22TopRight: {fileID: 0}
  slopeJoinedRight45BottomLeft: {fileID: 0}
  slopeJoinedRight45BottomRight: {fileID: 0}
  slopeJoinedRight45TopLeft: {fileID: 0}
  slopeJoinedRight45TopRight: {fileID: 0}
  curve3Plus1BottomLeft: {fileID: 0}
  curve3Plus1BottomRight: {fileID: 0}
  curve3Plus1TopLeft: {fileID: 0}
  curve3Plus1TopRight: {fileID: 0}
  curve3Plus1BottomLeftWithOutside: {fileID: 0}
  curve3Plus1BottomRightWithOutside: {fileID: 0}
  curve3Plus1TopLeftWithOutside: {fileID: 0}
  curve3Plus1TopRightWithOutside: {fileID: 0}
  curve3Plus1BottomLeftJoined: {fileID: 0}
  curve3Plus1BottomRightJoined: {fileID: 0}
  curve3Plus1TopLeftJoined: {fileID: 0}
  curve3Plus1TopRightJoined: {fileID: 0}
  curveOut3Plus1BottomLeft: {fileID: 0}
  curveOut3Plus1BottomRight: {fileID: 0}
  curveOut3Plus1TopLeft: {fileID: 0}
  curveOut3Plus1TopRight: {fileID: 0}
  singleRowLeft: {fileID: 21300000, guid: c9fb46dc0361d443aad923b24aeee01a, type: 3}
  singleRowMiddle:
  - {fileID: 21300000, guid: 13cff2426144d4ae0b76249d56f117bd, type: 3}
  - {fileID: 21300000, guid: 183e42e3835db4ff5bb281e046fb53b9, type: 3}
  - {fileID: 21300000, guid: 010c434b39c0343d989efabd915083ea, type: 3}
  singleRowRight: {fileID: 21300000, guid: 36785c9e57fa5487bbef14c0f85b781b, type: 3}
  pillar1WideTop: {fileID: 21300000, guid: 6eeb50d7cc2d34e87b8bc120eeeb91f4, type: 3}
  pillar1WideMiddle:
  - {fileID: 21300000, guid: a5442e1e34ce044c3a378b55f206d8f3, type: 3}
  - {fileID: 21300000, guid: 1e5fc1d6f84934474b196c671537a14b, type: 3}
  - {fileID: 21300000, guid: b8a0fc32caea640caafd3cc98cef0845, type: 3}
  pillar1WideBottom: {fileID: 21300000, guid: 9bcc3fad082e7462cbaafd585208ccf5, type: 3}
  pillar2WideTop: {fileID: 0}
  pillar2WideMiddle: []
  pillar2WideBottom: {fileID: 0}
  bottomLeftWithoutRoundedCorner: {fileID: 0}
  bottomRightWithoutRoundedCorner: {fileID: 0}
