%YAML 1.1
%TAG !u! tag:unity3d.com,2011:
--- !u!114 &11400000
MonoBehaviour:
  m_ObjectHideFlags: 0
  m_CorrespondingSourceObject: {fileID: 0}
  m_PrefabInstance: {fileID: 0}
  m_PrefabAsset: {fileID: 0}
  m_GameObject: {fileID: 0}
  m_Enabled: 1
  m_EditorHideFlags: 0
  m_Script: {fileID: 11500000, guid: deada51ddafa6304c894ffaffa3f8d7c, type: 3}
  m_Name: TilesetWaterOutside
  m_EditorClassIdentifier: 
  type: 2
  flowIntoSlopes: 0
  singleSquare: []
  interior:
  - {fileID: 21300000, guid: 4c734e7607553e84488753e8d21c4998, type: 3}
  - {fileID: 21300000, guid: ade519abf3e797140b47acab0f61aa31, type: 3}
  - {fileID: 21300000, guid: 681a4901e62ffe54a925d9f913ca9fc3, type: 3}
  - {fileID: 21300000, guid: e7b725b9edf1b104fa565381ec81c147, type: 3}
  - {fileID: 21300000, guid: f559dad9119ebb24b88d6980bd6f370e, type: 3}
  - {fileID: 21300000, guid: d217213704fd03b46a53f48297813e39, type: 3}
  - {fileID: 21300000, guid: 62a7cd24f2f16f74198fff2cb0fa588a, type: 3}
  - {fileID: 21300000, guid: b2210e081c90c624f8e7c01abfc93d60, type: 3}
  - {fileID: 21300000, guid: 38e09bef340d74b4d9855d7c239ef267, type: 3}
  - {fileID: 21300000, guid: 5e6908d82ffc7e24791cae1035b721f7, type: 3}
  - {fileID: 21300000, guid: bed17c26e63951f468c5c2b6cdc59481, type: 3}
  - {fileID: 21300000, guid: e67e7171a06f19a44a519fa7b8f9ffac, type: 3}
  - {fileID: 21300000, guid: 599ffbf15b3dd6e449df84aa05f00c60, type: 3}
  - {fileID: 21300000, guid: 3c9d5518c7a85e141ac75430af5e840c, type: 3}
  - {fileID: 21300000, guid: 03fdfd4a8d252a24eb9bd6dfc994a8d6, type: 3}
  - {fileID: 21300000, guid: 82e6791afdeb9d54b8d190bdacf0edf8, type: 3}
  interiorStyle: 1
  interiorGridColumns: 4
  interiorGridRows: 4
  interiorUnderneathEdges: 1
  interiorUnderneathJoinedSlopes: 0
  interiorUnderneathAllCurves: 0
  bottom:
  - {fileID: 21300000, guid: ba5ca7383c6bd6448b9888defe332dbd, type: 3}
  - {fileID: 21300000, guid: 2ed304c9ea83e474eb4466db533b3811, type: 3}
  - {fileID: 21300000, guid: fdc18112901ef134c939380c0ee60565, type: 3}
  - {fileID: 21300000, guid: 3b03d69c905a21b41a237d359c651059, type: 3}
  left:
  - {fileID: 21300000, guid: 100d57a13c94468489cecccbdf5617cb, type: 3}
  - {fileID: 21300000, guid: 09e6338fcc9d60647a0e4c91f1b71ef4, type: 3}
  - {fileID: 21300000, guid: f01d3a9f50915d54e92f0da92ed8598b, type: 3}
  - {fileID: 21300000, guid: 207980d67bfb87f4da9a9b69c80ef35e, type: 3}
  right:
  - {fileID: 21300000, guid: 43b6648b04c790442bbeb3e071764fe1, type: 3}
  - {fileID: 21300000, guid: ea0dc719fbe4b264bb8c9011c6654f85, type: 3}
  - {fileID: 21300000, guid: f9596af49b660ca4bbd8c1cfff068116, type: 3}
  - {fileID: 21300000, guid: 95bbd197e1cc394429722e8a1778307f, type: 3}
  top:
  - {fileID: 21300000, guid: fa1e6a42b24bca8489685c4100e42c1c, type: 3}
  - {fileID: 21300000, guid: a56fa55bf0beed148bf0cb2bdca0d8bb, type: 3}
  - {fileID: 21300000, guid: 7071372732164f14382c911b75c942ac, type: 3}
  - {fileID: 21300000, guid: dd7956c033f203446b5d2af2fd09e350, type: 3}
  bottomLeft: {fileID: 21300000, guid: d846480665535fb4d9ea982180f800fc, type: 3}
  bottomRight: {fileID: 21300000, guid: 66bb032d5f4178a45a68ad5e37fc475e, type: 3}
  topLeft: {fileID: 21300000, guid: 858ef6115ae3bc449add776f84fa9c96, type: 3}
  topRight: {fileID: 21300000, guid: 125a312cc26b6f447a9a7ab3f8dec47f, type: 3}
  insideBottomLeft: {fileID: 21300000, guid: c783f9cfcf4a4b543a9fb89481f4e9cf, type: 3}
  insideBottomRight: {fileID: 21300000, guid: 5267a25000653aa4a813e75a08eeab77, type: 3}
  insideTopLeft: {fileID: 21300000, guid: 7f726d845f673994e94d35219b04aa15, type: 3}
  insideTopRight: {fileID: 21300000, guid: 41737523317fcd146918f3d992531863, type: 3}
  slope22BottomLeft: {fileID: 0}
  slope22BottomRight: {fileID: 0}
  slope22TopLeft: {fileID: 0}
  slope22TopRight: {fileID: 0}
  slope45BottomLeft: {fileID: 0}
  slope45BottomRight: {fileID: 0}
  slope45TopLeft: {fileID: 0}
  slope45TopRight: {fileID: 0}
  slopeJoined22BottomLeft: {fileID: 0}
  slopeJoined22BottomRight: {fileID: 0}
  slopeJoined22TopLeft: {fileID: 0}
  slopeJoined22TopRight: {fileID: 0}
  slopeJoined45BottomLeft: {fileID: 0}
  slopeJoined45BottomRight: {fileID: 0}
  slopeJoined45TopLeft: {fileID: 0}
  slopeJoined45TopRight: {fileID: 0}
  slopeJoinedLeft22BottomLeft: {fileID: 0}
  slopeJoinedLeft22BottomRight: {fileID: 0}
  slopeJoinedLeft22TopLeft: {fileID: 0}
  slopeJoinedLeft22TopRight: {fileID: 0}
  slopeJoinedLeft45BottomLeft: {fileID: 0}
  slopeJoinedLeft45BottomRight: {fileID: 0}
  slopeJoinedLeft45TopLeft: {fileID: 0}
  slopeJoinedLeft45TopRight: {fileID: 0}
  slopeJoinedRight22BottomLeft: {fileID: 0}
  slopeJoinedRight22BottomRight: {fileID: 0}
  slopeJoinedRight22TopLeft: {fileID: 0}
  slopeJoinedRight22TopRight: {fileID: 0}
  slopeJoinedRight45BottomLeft: {fileID: 0}
  slopeJoinedRight45BottomRight: {fileID: 0}
  slopeJoinedRight45TopLeft: {fileID: 0}
  slopeJoinedRight45TopRight: {fileID: 0}
  curve3Plus1BottomLeft: {fileID: 0}
  curve3Plus1BottomRight: {fileID: 0}
  curve3Plus1TopLeft: {fileID: 0}
  curve3Plus1TopRight: {fileID: 0}
  curve3Plus1BottomLeftWithOutside: {fileID: 0}
  curve3Plus1BottomRightWithOutside: {fileID: 0}
  curve3Plus1TopLeftWithOutside: {fileID: 0}
  curve3Plus1TopRightWithOutside: {fileID: 0}
  curve3Plus1BottomLeftJoined: {fileID: 0}
  curve3Plus1BottomRightJoined: {fileID: 0}
  curve3Plus1TopLeftJoined: {fileID: 0}
  curve3Plus1TopRightJoined: {fileID: 0}
  curveOut3Plus1BottomLeft: {fileID: 0}
  curveOut3Plus1BottomRight: {fileID: 0}
  curveOut3Plus1TopLeft: {fileID: 0}
  curveOut3Plus1TopRight: {fileID: 0}
  singleRowLeft: {fileID: 0}
  singleRowMiddle: []
  singleRowRight: {fileID: 0}
  pillar1WideTop: {fileID: 0}
  pillar1WideMiddle: []
  pillar1WideBottom: {fileID: 0}
  pillar2WideTop: {fileID: 0}
  pillar2WideMiddle: []
  pillar2WideBottom: {fileID: 0}
