%YAML 1.1
%TAG !u! tag:unity3d.com,2011:
--- !u!114 &11400000
MonoBehaviour:
  m_ObjectHideFlags: 0
  m_CorrespondingSourceObject: {fileID: 0}
  m_PrefabInstance: {fileID: 0}
  m_PrefabAsset: {fileID: 0}
  m_GameObject: {fileID: 0}
  m_Enabled: 1
  m_EditorHideFlags: 0
  m_Script: {fileID: 11500000, guid: deada51ddafa6304c894ffaffa3f8d7c, type: 3}
  m_Name: TilesetGravityAreasDown
  m_EditorClassIdentifier: 
  type: 0
  flowIntoSlopes: 0
  singleSquare: []
  interior:
  - {fileID: 21300000, guid: 45aa658a797f28d459366ca208bbfc12, type: 3}
  - {fileID: 21300000, guid: ca3918f8be222fb499054030ecee6d06, type: 3}
  - {fileID: 21300000, guid: d93373b402c8b65418322e2f3ad23719, type: 3}
  - {fileID: 21300000, guid: 1f09dd673cb104f4e8d697a13043d851, type: 3}
  - {fileID: 21300000, guid: 95d3e9e4e112c6e44a8be1c9dc7c2242, type: 3}
  - {fileID: 21300000, guid: c83143f0341b22b4ebf81203a2ec3d10, type: 3}
  - {fileID: 21300000, guid: 4bc2311b614a2f94facfad054f9cf47b, type: 3}
  - {fileID: 21300000, guid: 16474f0a6e728074188c4f41647bf25e, type: 3}
  - {fileID: 21300000, guid: bfc3ea0cfc137454e9904779c4b0f29f, type: 3}
  - {fileID: 21300000, guid: 0d3e54186e78ea04e84540a9544b8164, type: 3}
  - {fileID: 21300000, guid: b39fca5cdf1500848b5afafb5564e4ae, type: 3}
  - {fileID: 21300000, guid: 4d57166cc78c3b9418e14ec41224bf97, type: 3}
  - {fileID: 21300000, guid: e27774870d550984a94396e9ba8d1ff6, type: 3}
  - {fileID: 21300000, guid: 511842581250e9c42a6f250e3fcdcbef, type: 3}
  - {fileID: 21300000, guid: 572689e4afe77594c954e7c0caa63ff6, type: 3}
  - {fileID: 21300000, guid: 382ad1e8bd8f6704bb09054b0de60042, type: 3}
  interiorStyle: 1
  interiorGridColumns: 4
  interiorGridRows: 4
  interiorUnderneathEdges: 0
  interiorUnderneathJoinedSlopes: 0
  interiorUnderneathAllCurves: 0
  bottom:
  - {fileID: 21300000, guid: cbf95dbd3d75e3146b89bc199ccdaa58, type: 3}
  - {fileID: 21300000, guid: 51e828280c6c58d4aace9951e14d3401, type: 3}
  - {fileID: 21300000, guid: aeb7350ee05a48340a964acd10eb9864, type: 3}
  - {fileID: 21300000, guid: 2aec9182872784d4993dabd42f7e88fe, type: 3}
  left:
  - {fileID: 21300000, guid: 8fadb2551760d8949a3e2cc6ee714bfc, type: 3}
  - {fileID: 21300000, guid: e3469e47d44f2c740a37bcfdd644516c, type: 3}
  - {fileID: 21300000, guid: 65d7868306ee45f49b193768f0ebc55f, type: 3}
  - {fileID: 21300000, guid: e298a5411dd0766488f3e13dbbb4aca8, type: 3}
  right:
  - {fileID: 21300000, guid: 7d6eda20f3a44024bb86a968886d41a3, type: 3}
  - {fileID: 21300000, guid: 4be0cf6b810d0634d98b00e2ee88eb98, type: 3}
  - {fileID: 21300000, guid: 37fe5e7c9e632d546a9ab037330d5fa5, type: 3}
  - {fileID: 21300000, guid: 673daa900b6cfd341be43829f6583cce, type: 3}
  top:
  - {fileID: 21300000, guid: d115a06b3af0cdb40a83dce3075bfee8, type: 3}
  - {fileID: 21300000, guid: ade8bbd442c2c0b4884b44c2e2376b6d, type: 3}
  - {fileID: 21300000, guid: bb79b17de31fb2042afea57844675224, type: 3}
  - {fileID: 21300000, guid: 5a728b97082906a4bb18870868235688, type: 3}
  bottomLeft: {fileID: 21300000, guid: e81dc7f1091aa504ab2d542446bb4ad4, type: 3}
  bottomRight: {fileID: 21300000, guid: 16fc9df4a8149a24ab8bcaf1ac48a49a, type: 3}
  topLeft: {fileID: 21300000, guid: 3700bb1247dba704e81ece90760a03c1, type: 3}
  topRight: {fileID: 21300000, guid: b06e890f7313f8848ab91c59fdce1909, type: 3}
  insideBottomLeft: {fileID: 21300000, guid: 1f0461e7e98f4624bb8551478ca09f47, type: 3}
  insideBottomRight: {fileID: 21300000, guid: c47fcfd58920c9f4cbbdaffae16cd7b5, type: 3}
  insideTopLeft: {fileID: 21300000, guid: fdc8e42bd3d56264c81d5ea2ecb529b6, type: 3}
  insideTopRight: {fileID: 21300000, guid: 3affdb41265e1ab4a95176a379cda371, type: 3}
  slope22BottomLeft: {fileID: 0}
  slope22BottomRight: {fileID: 0}
  slope22TopLeft: {fileID: 0}
  slope22TopRight: {fileID: 0}
  slope45BottomLeft: {fileID: 0}
  slope45BottomRight: {fileID: 0}
  slope45TopLeft: {fileID: 0}
  slope45TopRight: {fileID: 0}
  slopeJoined22BottomLeft: {fileID: 0}
  slopeJoined22BottomRight: {fileID: 0}
  slopeJoined22TopLeft: {fileID: 0}
  slopeJoined22TopRight: {fileID: 0}
  slopeJoined45BottomLeft: {fileID: 0}
  slopeJoined45BottomRight: {fileID: 0}
  slopeJoined45TopLeft: {fileID: 0}
  slopeJoined45TopRight: {fileID: 0}
  slopeJoinedLeft22BottomLeft: {fileID: 0}
  slopeJoinedLeft22BottomRight: {fileID: 0}
  slopeJoinedLeft22TopLeft: {fileID: 0}
  slopeJoinedLeft22TopRight: {fileID: 0}
  slopeJoinedLeft45BottomLeft: {fileID: 0}
  slopeJoinedLeft45BottomRight: {fileID: 0}
  slopeJoinedLeft45TopLeft: {fileID: 0}
  slopeJoinedLeft45TopRight: {fileID: 0}
  slopeJoinedRight22BottomLeft: {fileID: 0}
  slopeJoinedRight22BottomRight: {fileID: 0}
  slopeJoinedRight22TopLeft: {fileID: 0}
  slopeJoinedRight22TopRight: {fileID: 0}
  slopeJoinedRight45BottomLeft: {fileID: 0}
  slopeJoinedRight45BottomRight: {fileID: 0}
  slopeJoinedRight45TopLeft: {fileID: 0}
  slopeJoinedRight45TopRight: {fileID: 0}
  curve3Plus1BottomLeft: {fileID: 0}
  curve3Plus1BottomRight: {fileID: 0}
  curve3Plus1TopLeft: {fileID: 0}
  curve3Plus1TopRight: {fileID: 0}
  curve3Plus1BottomLeftWithOutside: {fileID: 0}
  curve3Plus1BottomRightWithOutside: {fileID: 0}
  curve3Plus1TopLeftWithOutside: {fileID: 0}
  curve3Plus1TopRightWithOutside: {fileID: 0}
  curve3Plus1BottomLeftJoined: {fileID: 0}
  curve3Plus1BottomRightJoined: {fileID: 0}
  curve3Plus1TopLeftJoined: {fileID: 0}
  curve3Plus1TopRightJoined: {fileID: 0}
  curveOut3Plus1BottomLeft: {fileID: 0}
  curveOut3Plus1BottomRight: {fileID: 0}
  curveOut3Plus1TopLeft: {fileID: 0}
  curveOut3Plus1TopRight: {fileID: 0}
  singleRowLeft: {fileID: 0}
  singleRowMiddle: []
  singleRowRight: {fileID: 0}
  pillar1WideTop: {fileID: 0}
  pillar1WideMiddle: []
  pillar1WideBottom: {fileID: 0}
  pillar2WideTop: {fileID: 0}
  pillar2WideMiddle: []
  pillar2WideBottom: {fileID: 0}
