%YAML 1.1
%TAG !u! tag:unity3d.com,2011:
--- !u!114 &11400000
MonoBehaviour:
  m_ObjectHideFlags: 0
  m_CorrespondingSourceObject: {fileID: 0}
  m_PrefabInstance: {fileID: 0}
  m_PrefabAsset: {fileID: 0}
  m_GameObject: {fileID: 0}
  m_Enabled: 1
  m_EditorHideFlags: 0
  m_Script: {fileID: 11500000, guid: deada51ddafa6304c894ffaffa3f8d7c, type: 3}
  m_Name: TilesetGravityAreasUp
  m_EditorClassIdentifier: 
  type: 0
  flowIntoSlopes: 0
  singleSquare:
  - {fileID: 21300000, guid: 0dbd592cd3b1e564987740ce2ef210c6, type: 3}
  - {fileID: 21300000, guid: d6202859653da544cae238264edbdbe7, type: 3}
  - {fileID: 21300000, guid: 27bb6087c9d32534782424189d6df57b, type: 3}
  interior:
  - {fileID: 21300000, guid: 7f531410706ac5842a428c954f4d5aba, type: 3}
  - {fileID: 21300000, guid: 713ec4a9222e4404cbec8ab91d969c8f, type: 3}
  - {fileID: 21300000, guid: 15ee7529b41d07d4e831dfb6ec1a02ad, type: 3}
  - {fileID: 21300000, guid: bce3f37f56b723b4390e6f8602ca416b, type: 3}
  - {fileID: 21300000, guid: f1ce35428a405f04f8a1afda36dfce3a, type: 3}
  - {fileID: 21300000, guid: 78e84ae135baec9459435928b367de27, type: 3}
  - {fileID: 21300000, guid: 525c944a9aedcfc48a27e6ac523407be, type: 3}
  - {fileID: 21300000, guid: a472c43633a6c784ca4c19be77a838d5, type: 3}
  - {fileID: 21300000, guid: 9c044f089ce4723419372ff5095f8025, type: 3}
  - {fileID: 21300000, guid: 394a8a8b8f05d464d89877d5a172f2a5, type: 3}
  - {fileID: 21300000, guid: 4c2775da793027543a3faa5b853008b3, type: 3}
  - {fileID: 21300000, guid: 9aca27f70e580bf47ab522caceadd428, type: 3}
  - {fileID: 21300000, guid: 10ba518cbd593c140aec65255ab50f36, type: 3}
  - {fileID: 21300000, guid: 06c31b246e77c474eb556a48dff3caa7, type: 3}
  - {fileID: 21300000, guid: 26a6945bb79931949a0ddab478467fd1, type: 3}
  - {fileID: 21300000, guid: fa109ac4b43a53c4c98a51ff088ba5fb, type: 3}
  interiorStyle: 1
  interiorGridColumns: 4
  interiorGridRows: 4
  interiorUnderneathEdges: 0
  interiorUnderneathJoinedSlopes: 0
  interiorUnderneathAllCurves: 0
  bottom:
  - {fileID: 21300000, guid: d4bc5e0c25b69684787ec506a2d8e4fc, type: 3}
  - {fileID: 21300000, guid: cad5bb0292982e0429854583a9f3b769, type: 3}
  - {fileID: 21300000, guid: ca699ffdbb4584e4e83f6dc10516e264, type: 3}
  - {fileID: 21300000, guid: 3a4345b59df509b4481a2550c6d27cff, type: 3}
  left:
  - {fileID: 21300000, guid: e51c26f6ceb5f3840adda81e5f67bc70, type: 3}
  - {fileID: 21300000, guid: 3a7049df504a5114fbd3e1d3190410e4, type: 3}
  - {fileID: 21300000, guid: 14ce510adb67f0f469bfd8b3c9b05173, type: 3}
  - {fileID: 21300000, guid: fe65a4f06e11dfc4daf4bd85bfb1cd12, type: 3}
  right:
  - {fileID: 21300000, guid: fe15af0b5ef5bc6409f417c0768178dc, type: 3}
  - {fileID: 21300000, guid: 3fe80be4eb509f64f8c26ca397f45949, type: 3}
  - {fileID: 21300000, guid: 48e958dcff0323647bf7af66664ad758, type: 3}
  - {fileID: 21300000, guid: 4d1b8a9c251f4144084bc63d0e830e7c, type: 3}
  top:
  - {fileID: 21300000, guid: 78c014513c820f440a0b3a701ade349d, type: 3}
  - {fileID: 21300000, guid: 8f7ba446c05848c4bb7f420ba704571d, type: 3}
  - {fileID: 21300000, guid: 472c5b1cd30513d48b891fd269e26193, type: 3}
  - {fileID: 21300000, guid: 1e15e4218a1727e41a197dde997ea2c8, type: 3}
  bottomLeft: {fileID: 21300000, guid: b9996ea664c5cbb4d802c8b588ebb652, type: 3}
  bottomRight: {fileID: 21300000, guid: 68db61dd3b41fad438cbd259e61847af, type: 3}
  topLeft: {fileID: 21300000, guid: c0051cd77ad211a49985fe9bdf213dbe, type: 3}
  topRight: {fileID: 21300000, guid: 2a4d91dac7e53334c942036b40388ef4, type: 3}
  insideBottomLeft: {fileID: 21300000, guid: e3b0f49cdb82812418e2cf6f435d9ac5, type: 3}
  insideBottomRight: {fileID: 21300000, guid: d96ae4896e76cd2498c8fa171e722366, type: 3}
  insideTopLeft: {fileID: 21300000, guid: 0ccd23e9273df614b9aeba3af2897e80, type: 3}
  insideTopRight: {fileID: 21300000, guid: 06602c4d73f559647962effb0ad70f7a, type: 3}
  slope22BottomLeft: {fileID: 0}
  slope22BottomRight: {fileID: 0}
  slope22TopLeft: {fileID: 0}
  slope22TopRight: {fileID: 0}
  slope45BottomLeft: {fileID: 0}
  slope45BottomRight: {fileID: 0}
  slope45TopLeft: {fileID: 0}
  slope45TopRight: {fileID: 0}
  slopeJoined22BottomLeft: {fileID: 0}
  slopeJoined22BottomRight: {fileID: 0}
  slopeJoined22TopLeft: {fileID: 0}
  slopeJoined22TopRight: {fileID: 0}
  slopeJoined45BottomLeft: {fileID: 0}
  slopeJoined45BottomRight: {fileID: 0}
  slopeJoined45TopLeft: {fileID: 0}
  slopeJoined45TopRight: {fileID: 0}
  slopeJoinedLeft22BottomLeft: {fileID: 0}
  slopeJoinedLeft22BottomRight: {fileID: 0}
  slopeJoinedLeft22TopLeft: {fileID: 0}
  slopeJoinedLeft22TopRight: {fileID: 0}
  slopeJoinedLeft45BottomLeft: {fileID: 0}
  slopeJoinedLeft45BottomRight: {fileID: 0}
  slopeJoinedLeft45TopLeft: {fileID: 0}
  slopeJoinedLeft45TopRight: {fileID: 0}
  slopeJoinedRight22BottomLeft: {fileID: 0}
  slopeJoinedRight22BottomRight: {fileID: 0}
  slopeJoinedRight22TopLeft: {fileID: 0}
  slopeJoinedRight22TopRight: {fileID: 0}
  slopeJoinedRight45BottomLeft: {fileID: 0}
  slopeJoinedRight45BottomRight: {fileID: 0}
  slopeJoinedRight45TopLeft: {fileID: 0}
  slopeJoinedRight45TopRight: {fileID: 0}
  curve3Plus1BottomLeft: {fileID: 0}
  curve3Plus1BottomRight: {fileID: 0}
  curve3Plus1TopLeft: {fileID: 0}
  curve3Plus1TopRight: {fileID: 0}
  curve3Plus1BottomLeftWithOutside: {fileID: 0}
  curve3Plus1BottomRightWithOutside: {fileID: 0}
  curve3Plus1TopLeftWithOutside: {fileID: 0}
  curve3Plus1TopRightWithOutside: {fileID: 0}
  curve3Plus1BottomLeftJoined: {fileID: 0}
  curve3Plus1BottomRightJoined: {fileID: 0}
  curve3Plus1TopLeftJoined: {fileID: 0}
  curve3Plus1TopRightJoined: {fileID: 0}
  curveOut3Plus1BottomLeft: {fileID: 0}
  curveOut3Plus1BottomRight: {fileID: 0}
  curveOut3Plus1TopLeft: {fileID: 0}
  curveOut3Plus1TopRight: {fileID: 0}
  singleRowLeft: {fileID: 21300000, guid: ca2d27c65d88cff429dd08484b337dec, type: 3}
  singleRowMiddle:
  - {fileID: 21300000, guid: 49fde2be61cb58649905d05f952a82cb, type: 3}
  - {fileID: 21300000, guid: 9f30078997b001446ad89e30d24b46be, type: 3}
  - {fileID: 21300000, guid: 2dca8577bf88c1c4380fe7212da5f76e, type: 3}
  singleRowRight: {fileID: 21300000, guid: 66653f2e713a2c54aa4ed387e7af5d57, type: 3}
  pillar1WideTop: {fileID: 21300000, guid: 6699a91a6884405468f46857b3ad8c7a, type: 3}
  pillar1WideMiddle:
  - {fileID: 21300000, guid: a2720fddf03bbfc4d8116ffb0b2c3476, type: 3}
  - {fileID: 21300000, guid: b907cfa42c8440d4c83961ec3a6ab5c9, type: 3}
  - {fileID: 21300000, guid: bf6fb486703a8404e9fa127362e39b06, type: 3}
  pillar1WideBottom: {fileID: 21300000, guid: ff3792b4e8e95a94da10edf4f7ddc8c6, type: 3}
  pillar2WideTop: {fileID: 0}
  pillar2WideMiddle: []
  pillar2WideBottom: {fileID: 0}
