%YAML 1.1
%TAG !u! tag:unity3d.com,2011:
--- !u!114 &11400000
MonoBehaviour:
  m_ObjectHideFlags: 0
  m_CorrespondingSourceObject: {fileID: 0}
  m_PrefabInstance: {fileID: 0}
  m_PrefabAsset: {fileID: 0}
  m_GameObject: {fileID: 0}
  m_Enabled: 1
  m_EditorHideFlags: 0
  m_Script: {fileID: 11500000, guid: a4e34d1056652374eaac7b6c926f1f94, type: 3}
  m_Name: ThemeOpeningTutorial
  m_EditorClassIdentifier: 
  normalTiles: {fileID: 11400000, guid: a268bd7cb4ec95546be42ba3bc94c620, type: 2}
  dirtTiles: {fileID: 0}
  outsideTiles: {fileID: 11400000, guid: 78d6a2c8570876748819a443a78029fd, type: 2}
  backTiles: {fileID: 0}
  iceTilesBase: {fileID: 0}
  iceTilesCover: {fileID: 0}
  checkerboardLightTiles: {fileID: 11400000, guid: 54f0d5abd1e60ad41876295ca7130ad4,
    type: 2}
  checkerboardDarkTiles: {fileID: 11400000, guid: ff01742b64f88a44b91c274e358a71de,
    type: 2}
  cloudLeft: {fileID: 21300000, guid: 8711e8492d43c614db609fc78f94f7f4, type: 3}
  cloudRight: {fileID: 21300000, guid: c2e5cad3ed601b94ab6d762e48a0a321, type: 3}
  cloudMiddle:
  - {fileID: 21300000, guid: b12f36a2e1b275c46b69d0283019a498, type: 3}
  - {fileID: 21300000, guid: f8c27a503767b2642bafb491d166f047, type: 3}
  - {fileID: 21300000, guid: c1acbdcf4b848684ea365036a0ab4965, type: 3}
  movingCloudLeft: {fileID: 0}
  movingCloudRight: {fileID: 0}
  movingCloudCenter: {fileID: 0}
  movingCloudSingle: {fileID: 0}
  outsideTexture: {fileID: 21300000, guid: 1149985d19cecb74b88712e82b770655, type: 3}
  outsideTextureSize: 12
  foliageTallAnimated: []
  foliageShortAnimated: []
  decorationSprites: []
  pillar:
    top: {fileID: 0}
    middle: []
  spaceInteriorBgRows1: []
  spaceInteriorBgRows2: []
  spaceInteriorBgRows3: []
  spaceInteriorBgRows14: []
  spaceInteriorBgColumn1: {fileID: 0}
  spaceInteriorBgColumn2: {fileID: 0}
  spaceInteriorBgColumn3: {fileID: 0}
  spaceInteriorBackFallbackTiles: {fileID: 0}
  spaceInteriorGravityEdgingTiles: {fileID: 0}
