%YAML 1.1
%TAG !u! tag:unity3d.com,2011:
--- !u!114 &11400000
MonoBehaviour:
  m_ObjectHideFlags: 0
  m_CorrespondingSourceObject: {fileID: 0}
  m_PrefabInstance: {fileID: 0}
  m_PrefabAsset: {fileID: 0}
  m_GameObject: {fileID: 0}
  m_Enabled: 1
  m_EditorHideFlags: 0
  m_Script: {fileID: 11500000, guid: a4e34d1056652374eaac7b6c926f1f94, type: 3}
  m_Name: ThemeConflictCanyon
  m_EditorClassIdentifier: 
  normalTiles: {fileID: 11400000, guid: 41bc9fd9bbaed0f47b6c8b252b6e5278, type: 2}
  dirtTiles: {fileID: 11400000, guid: 24525b3e38d20004b82f03946c27b11c, type: 2}
  outsideTiles: {fileID: 11400000, guid: 7d1655c6881ead3468e85c491c90c195, type: 2}
  backTiles: {fileID: 11400000, guid: ae58f7923e50644449174f67ca15a81c, type: 2}
  backTilesForTunnel: {fileID: 0}
  iceTilesBase: {fileID: 0}
  iceTilesCover: {fileID: 0}
  checkerboardLightTiles: {fileID: 11400000, guid: 54f0d5abd1e60ad41876295ca7130ad4,
    type: 2}
  checkerboardDarkTiles: {fileID: 11400000, guid: ff01742b64f88a44b91c274e358a71de,
    type: 2}
  dirtTiles2: {fileID: 0}
  conflictCanyonSand: {fileID: 11400000, guid: a4c1d54efbeb787478cb04765c6c2c5c, type: 2}
  gravityGroundTiles: {fileID: 0}
  cloudLeft: {fileID: 21300000, guid: f33a88b9da65f7440a671293cd31c49f, type: 3}
  cloudRight: {fileID: 21300000, guid: 557dd2074e5170c4ab560ab1e783c5cc, type: 3}
  cloudMiddle:
  - {fileID: 21300000, guid: 6ff56efc492afb14fa476b4b41ee751f, type: 3}
  - {fileID: 21300000, guid: 5cdbfe6b1e6dd1c44ad51c9d43816d9c, type: 3}
  - {fileID: 21300000, guid: b37feb73e9812c94384ee95ccd817e73, type: 3}
  movingCloudLeft: {fileID: 21300000, guid: 59641306068470942b9e89998b7339ca, type: 3}
  movingCloudRight: {fileID: 21300000, guid: 013c7ece55391394e9224bd78bd7a6d4, type: 3}
  movingCloudCenter: {fileID: 21300000, guid: 71006720f231d5344a62ab1f4f39bfdb, type: 3}
  movingCloudSingle: {fileID: 21300000, guid: e2799d3110341394f9649542f2b9f576, type: 3}
  outsideTexture: {fileID: 21300000, guid: 7f9a28b27e4d4be4eb3405685d591b89, type: 3}
  outsideTextureSize: 4
  foliageTallAnimated: []
  foliageShortAnimated: []
  decorationSprites:
  - name: cactus_1
    sprite: {fileID: 21300000, guid: 0b42d8d05cd95ff47930f7f380f22ce1, type: 3}
    prefab: {fileID: 7043789061018439710, guid: 633061a47d46c7b4c8708a1ea57959e7,
      type: 3}
    style: 0
    flipSpriteHorizontally: 0
    reachLeft: 2
    reachRight: 2
    reachAbove: 6
    reachBelow: 0
    onlyOnInterior: 0
    inFrontOfFoliage: 0
    sortingOrder: 0
  - name: cactus_2
    sprite: {fileID: 21300000, guid: 8fab6eb94843eee409ef8af354260892, type: 3}
    prefab: {fileID: 1429647304380521869, guid: 73103888570546f4da817e03ff60f91e,
      type: 3}
    style: 0
    flipSpriteHorizontally: 0
    reachLeft: 2
    reachRight: 2
    reachAbove: 5
    reachBelow: 0
    onlyOnInterior: 0
    inFrontOfFoliage: 0
    sortingOrder: 0
  - name: barrel_1
    sprite: {fileID: 21300000, guid: 3693ac2714a99954d8ca68d4ab2ed573, type: 3}
    prefab: {fileID: 0}
    style: 0
    flipSpriteHorizontally: 0
    reachLeft: 3
    reachRight: 3
    reachAbove: 2
    reachBelow: 0
    onlyOnInterior: 0
    inFrontOfFoliage: 0
    sortingOrder: 0
  - name: barrel_2
    sprite: {fileID: 21300000, guid: fb774bd701ce1854087d5c4ba8664ca6, type: 3}
    prefab: {fileID: 0}
    style: 0
    flipSpriteHorizontally: 0
    reachLeft: 1
    reachRight: 1
    reachAbove: 4
    reachBelow: 0
    onlyOnInterior: 0
    inFrontOfFoliage: 0
    sortingOrder: 0
  - name: barrel_3
    sprite: {fileID: 21300000, guid: 6c25fe278414282418ab4c082ae41ec5, type: 3}
    prefab: {fileID: 0}
    style: 0
    flipSpriteHorizontally: 0
    reachLeft: 1
    reachRight: 1
    reachAbove: 4
    reachBelow: 0
    onlyOnInterior: 0
    inFrontOfFoliage: 0
    sortingOrder: 0
  - name: fan_1
    sprite: {fileID: 21300000, guid: f4261db1f09d21f44828ed46e4bde05f, type: 3}
    prefab: {fileID: 4724161102613886556, guid: 9537ed4f9e8e10c4d8be8df407ab6720,
      type: 3}
    style: 4
    flipSpriteHorizontally: 0
    reachLeft: 2
    reachRight: 2
    reachAbove: 2
    reachBelow: 2
    onlyOnInterior: 1
    inFrontOfFoliage: 0
    sortingOrder: 0
  - name: fan_2
    sprite: {fileID: 21300000, guid: 14a33580e73bcaf448e483078bec77d1, type: 3}
    prefab: {fileID: 8124772153402678696, guid: 2786e30bb46945b46b100cea7c3c8c5f,
      type: 3}
    style: 4
    flipSpriteHorizontally: 0
    reachLeft: 3
    reachRight: 3
    reachAbove: 3
    reachBelow: 3
    onlyOnInterior: 1
    inFrontOfFoliage: 0
    sortingOrder: 0
  - name: light
    sprite: {fileID: 21300000, guid: a1782109f26278e418a634320a814828, type: 3}
    prefab: {fileID: 0}
    style: 5
    flipSpriteHorizontally: 0
    reachLeft: 2
    reachRight: 2
    reachAbove: 3
    reachBelow: 3
    onlyOnInterior: 0
    inFrontOfFoliage: 0
    sortingOrder: 0
  decorationSpritesRailingsForTombstoneHill: []
  pillar:
    top: {fileID: 0}
    middle: []
  spaceInteriorBgRows1: []
  spaceInteriorBgRows2: []
  spaceInteriorBgRows3: []
  spaceInteriorBgRows14: []
  spaceInteriorBgColumn1: {fileID: 0}
  spaceInteriorBgColumn2: {fileID: 0}
  spaceInteriorBgColumn3: {fileID: 0}
  spaceInteriorBackFallbackTiles: {fileID: 0}
  spaceInteriorGravityEdgingTiles: {fileID: 0}
