%YAML 1.1
%TAG !u! tag:unity3d.com,2011:
--- !u!114 &11400000
MonoBehaviour:
  m_ObjectHideFlags: 0
  m_CorrespondingSourceObject: {fileID: 0}
  m_PrefabInstance: {fileID: 0}
  m_PrefabAsset: {fileID: 0}
  m_GameObject: {fileID: 0}
  m_Enabled: 1
  m_EditorHideFlags: 0
  m_Script: {fileID: 11500000, guid: a4e34d1056652374eaac7b6c926f1f94, type: 3}
  m_Name: ThemeMoltenFortress
  m_EditorClassIdentifier: 
  normalTiles: {fileID: 11400000, guid: f93b40a075f68394a9ef6a3d443e0ee9, type: 2}
  dirtTiles: {fileID: 11400000, guid: 14baff143e3873840914ee27b6220b69, type: 2}
  outsideTiles: {fileID: 11400000, guid: aa10de0e3437ebf4daa04c5644789d51, type: 2}
  backTiles: {fileID: 11400000, guid: 1169cc562a7ecac47bb2c18f29a2d61d, type: 2}
  iceTilesBase: {fileID: 0}
  iceTilesCover: {fileID: 0}
  checkerboardLightTiles: {fileID: 11400000, guid: 54f0d5abd1e60ad41876295ca7130ad4,
    type: 2}
  checkerboardDarkTiles: {fileID: 11400000, guid: ff01742b64f88a44b91c274e358a71de,
    type: 2}
  backTilesTunnel: {fileID: 0}
  dirtTiles2: {fileID: 0}
  gravityGroundTiles: {fileID: 0}
  cloudLeft: {fileID: 21300000, guid: 7a54ff088d01a1743b011959a59188e7, type: 3}
  cloudRight: {fileID: 21300000, guid: 292e9a3067fa45a4fb3dd9a0d3d29007, type: 3}
  cloudMiddle:
  - {fileID: 21300000, guid: e1a3a5ce5a04c7f4d836a9cdf66fe323, type: 3}
  - {fileID: 21300000, guid: a475bb6237529374db511fda4c08883f, type: 3}
  - {fileID: 21300000, guid: 520560b1cda3bca46a81a8fe8b00e0ca, type: 3}
  movingCloudLeft: {fileID: 21300000, guid: 59641306068470942b9e89998b7339ca, type: 3}
  movingCloudRight: {fileID: 21300000, guid: 013c7ece55391394e9224bd78bd7a6d4, type: 3}
  movingCloudCenter: {fileID: 21300000, guid: 71006720f231d5344a62ab1f4f39bfdb, type: 3}
  movingCloudSingle: {fileID: 21300000, guid: e2799d3110341394f9649542f2b9f576, type: 3}
  outsideTexture: {fileID: 21300000, guid: ea592bbd58717da4e8359a15cf27685f, type: 3}
  outsideTextureSize: 4
  foliageTallAnimated: []
  foliageShortAnimated: []
  decorationSprites: []
  pillar:
    top: {fileID: 0}
    middle: []
  spaceInteriorBgRows1: []
  spaceInteriorBgRows2: []
  spaceInteriorBgRows3: []
  spaceInteriorBgRows14: []
  spaceInteriorBgColumn1: {fileID: 0}
  spaceInteriorBgColumn2: {fileID: 0}
  spaceInteriorBgColumn3: {fileID: 0}
  spaceInteriorBackFallbackTiles: {fileID: 0}
  spaceInteriorGravityEdgingTiles: {fileID: 0}
