
Logo shine frames.png
size: 2035,2078
format: RGBA8888
filter: Linear,Linear
repeat: none
1
  rotate: false
  xy: 483, 344
  size: 42, 61
  orig: 42, 61
  offset: 0, 0
  index: -1
10
  rotate: false
  xy: 2, 1521
  size: 576, 555
  orig: 576, 555
  offset: 0, 0
  index: -1
11
  rotate: false
  xy: 551, 511
  size: 518, 451
  orig: 518, 451
  offset: 0, 0
  index: -1
12
  rotate: false
  xy: 2, 8
  size: 479, 397
  orig: 479, 397
  offset: 0, 0
  index: -1
13
  rotate: true
  xy: 1099, 1109
  size: 410, 353
  orig: 410, 353
  offset: 0, 0
  index: -1
14
  rotate: false
  xy: 1099, 741
  size: 367, 366
  orig: 367, 366
  offset: 0, 0
  index: -1
15
  rotate: true
  xy: 1071, 420
  size: 319, 372
  orig: 319, 372
  offset: 0, 0
  index: -1
16
  rotate: false
  xy: 1468, 728
  size: 300, 388
  orig: 300, 388
  offset: 0, 0
  index: -1
17
  rotate: false
  xy: 1454, 1118
  size: 287, 406
  orig: 287, 406
  offset: 0, 0
  index: -1
18
  rotate: true
  xy: 1055, 110
  size: 308, 399
  orig: 308, 399
  offset: 0, 0
  index: -1
19
  rotate: true
  xy: 1445, 441
  size: 285, 316
  orig: 285, 316
  offset: 0, 0
  index: -1
2
  rotate: false
  xy: 1738, 189
  size: 172, 232
  orig: 172, 232
  offset: 0, 0
  index: -1
20
  rotate: false
  xy: 1743, 1218
  size: 290, 319
  orig: 290, 319
  offset: 0, 0
  index: -1
21
  rotate: false
  xy: 1456, 124
  size: 280, 315
  orig: 280, 315
  offset: 0, 0
  index: -1
22
  rotate: false
  xy: 1763, 423
  size: 269, 302
  orig: 269, 302
  offset: 0, 0
  index: -1
23
  rotate: false
  xy: 1770, 940
  size: 244, 276
  orig: 244, 276
  offset: 0, 0
  index: -1
24
  rotate: true
  xy: 1770, 727
  size: 211, 236
  orig: 211, 236
  offset: 0, 0
  index: -1
25
  rotate: true
  xy: 1738, 6
  size: 181, 209
  orig: 181, 209
  offset: 0, 0
  index: -1
26
  rotate: true
  xy: 483, 2
  size: 148, 179
  orig: 148, 179
  offset: 0, 0
  index: -1
27
  rotate: false
  xy: 664, 19
  size: 93, 131
  orig: 93, 131
  offset: 0, 0
  index: -1
3
  rotate: true
  xy: 551, 152
  size: 357, 502
  orig: 357, 502
  offset: 0, 0
  index: -1
4
  rotate: false
  xy: 1612, 1539
  size: 411, 537
  orig: 411, 537
  offset: 0, 0
  index: -1
5
  rotate: false
  xy: 1145, 1526
  size: 465, 550
  orig: 465, 550
  offset: 0, 0
  index: -1
6
  rotate: false
  xy: 579, 964
  size: 518, 555
  orig: 518, 555
  offset: 0, 0
  index: -1
7
  rotate: false
  xy: 2, 407
  size: 547, 555
  orig: 547, 555
  offset: 0, 0
  index: -1
8
  rotate: false
  xy: 580, 1521
  size: 563, 555
  orig: 563, 555
  offset: 0, 0
  index: -1
9
  rotate: false
  xy: 2, 964
  size: 575, 555
  orig: 575, 555
  offset: 0, 0
  index: -1
