{
"skeleton": {
	"hash": "Ar3r0dfQnClLkBUxERXN7a+A9UQ",
	"spine": "3.8.99",
	"x": 1651.03,
	"y": 639.1,
	"width": 811.32,
	"height": 417.7,
	"images": "../Title Screen Trying/logo shone frames/images/",
	"audio": "C:/Users/mat/OneDrive/Desktop/Title Screen Trying/./logo shone frames"
},
"bones": [
	{ "name": "root" }
],
"slots": [
	{ "name": "1", "bone": "root", "attachment": "1" },
	{ "name": "2", "bone": "root", "attachment": "2" },
	{ "name": "3", "bone": "root", "attachment": "3" },
	{ "name": "4", "bone": "root", "attachment": "4" },
	{ "name": "5", "bone": "root", "attachment": "5" },
	{ "name": "6", "bone": "root", "attachment": "6" },
	{ "name": "7", "bone": "root", "attachment": "7" },
	{ "name": "8", "bone": "root", "attachment": "8" },
	{ "name": "9", "bone": "root", "attachment": "9" },
	{ "name": "10", "bone": "root", "attachment": "10" },
	{ "name": "11", "bone": "root", "attachment": "11" },
	{ "name": "12", "bone": "root", "attachment": "12" },
	{ "name": "13", "bone": "root", "attachment": "13" },
	{ "name": "14", "bone": "root", "attachment": "14" },
	{ "name": "15", "bone": "root", "attachment": "15" },
	{ "name": "16", "bone": "root", "attachment": "16" },
	{ "name": "17", "bone": "root", "attachment": "17" },
	{ "name": "18", "bone": "root", "attachment": "18" },
	{ "name": "19", "bone": "root", "attachment": "19" },
	{ "name": "20", "bone": "root", "attachment": "20" },
	{ "name": "21", "bone": "root", "attachment": "21" },
	{ "name": "22", "bone": "root", "attachment": "22" },
	{ "name": "23", "bone": "root", "attachment": "23" },
	{ "name": "24", "bone": "root", "attachment": "24" },
	{ "name": "25", "bone": "root", "attachment": "25" },
	{ "name": "26", "bone": "root", "attachment": "26" },
	{ "name": "27", "bone": "root", "attachment": "27" }
],
"skins": [
	{
		"name": "default",
		"attachments": {
			"1": {
				"1": {
					"type": "mesh",
					"uvs": [ 1, 1, 0, 1, 0, 0, 1, 0 ],
					"triangles": [ 1, 2, 3, 1, 3, 0 ],
					"vertices": [ 1682.64, 706.08, 1651.03, 706.08, 1651.03, 751.99, 1682.64, 751.99 ],
					"hull": 4,
					"edges": [ 0, 2, 2, 4, 4, 6, 0, 6 ],
					"width": 42,
					"height": 61
				}
			},
			"2": {
				"2": {
					"type": "mesh",
					"uvs": [ 1, 1, 0, 1, 0, 0, 1, 0 ],
					"triangles": [ 1, 2, 3, 1, 3, 0 ],
					"vertices": [ 1780.48, 685.01, 1651.03, 685.01, 1651.03, 859.61, 1780.48, 859.61 ],
					"hull": 4,
					"edges": [ 0, 2, 2, 4, 4, 6, 0, 6 ],
					"width": 172,
					"height": 232
				}
			},
			"3": {
				"3": {
					"type": "mesh",
					"uvs": [ 1, 1, 0, 1, 0, 0, 1, 0 ],
					"triangles": [ 1, 2, 3, 1, 3, 0 ],
					"vertices": [ 1919.72, 664.69, 1651.03, 664.69, 1651.03, 1042.5, 1919.72, 1042.5 ],
					"hull": 4,
					"edges": [ 0, 2, 2, 4, 4, 6, 0, 6 ],
					"width": 357,
					"height": 502
				}
			},
			"4": {
				"4": {
					"type": "mesh",
					"uvs": [ 1, 1, 0, 1, 0, 0, 1, 0 ],
					"triangles": [ 1, 2, 3, 1, 3, 0 ],
					"vertices": [ 1960.36, 643.61, 1651.03, 643.61, 1651.03, 1047.77, 1960.36, 1047.77 ],
					"hull": 4,
					"edges": [ 0, 2, 2, 4, 4, 6, 0, 6 ],
					"width": 411,
					"height": 537
				}
			},
			"5": {
				"5": {
					"type": "mesh",
					"uvs": [ 1, 1, 0, 1, 0, 0, 1, 0 ],
					"triangles": [ 1, 2, 3, 1, 3, 0 ],
					"vertices": [ 2001, 639.1, 1651.03, 639.1, 1651.03, 1053.03, 2001, 1053.03 ],
					"hull": 4,
					"edges": [ 0, 2, 2, 4, 4, 6, 0, 6 ],
					"width": 465,
					"height": 550
				}
			},
			"6": {
				"6": {
					"type": "mesh",
					"uvs": [ 1, 1, 0, 1, 0, 0, 1, 0 ],
					"triangles": [ 1, 2, 3, 1, 3, 0 ],
					"vertices": [ 2040.89, 639.1, 1651.03, 639.1, 1651.03, 1056.8, 2040.89, 1056.8 ],
					"hull": 4,
					"edges": [ 0, 2, 2, 4, 4, 6, 0, 6 ],
					"width": 518,
					"height": 555
				}
			},
			"7": {
				"7": {
					"type": "mesh",
					"uvs": [ 1, 1, 0, 1, 0, 0, 1, 0 ],
					"triangles": [ 1, 2, 3, 1, 3, 0 ],
					"vertices": [ 2077.77, 639.1, 1666.09, 639.1, 1666.09, 1056.8, 2077.77, 1056.8 ],
					"hull": 4,
					"edges": [ 0, 2, 2, 4, 4, 6, 0, 6 ],
					"width": 547,
					"height": 555
				}
			},
			"8": {
				"8": {
					"type": "mesh",
					"uvs": [ 1, 1, 0, 1, 0, 0, 1, 0 ],
					"triangles": [ 1, 2, 3, 1, 3, 0 ],
					"vertices": [ 2115.4, 639.1, 1691.68, 639.1, 1691.68, 1056.8, 2115.4, 1056.8 ],
					"hull": 4,
					"edges": [ 0, 2, 2, 4, 4, 6, 0, 6 ],
					"width": 563,
					"height": 555
				}
			},
			"9": {
				"9": {
					"type": "mesh",
					"uvs": [ 1, 1, 0, 1, 0, 0, 1, 0 ],
					"triangles": [ 1, 2, 3, 1, 3, 0 ],
					"vertices": [ 2150.77, 639.1, 1718.02, 639.1, 1718.02, 1056.8, 2150.77, 1056.8 ],
					"hull": 4,
					"edges": [ 0, 2, 2, 4, 4, 6, 0, 6 ],
					"width": 575,
					"height": 555
				}
			},
			"10": {
				"10": {
					"type": "mesh",
					"uvs": [ 1, 1, 0, 1, 0, 0, 1, 0 ],
					"triangles": [ 1, 2, 3, 1, 3, 0 ],
					"vertices": [ 2179.37, 639.1, 1745.86, 639.1, 1745.86, 1056.8, 2179.37, 1056.8 ],
					"hull": 4,
					"edges": [ 0, 2, 2, 4, 4, 6, 0, 6 ],
					"width": 576,
					"height": 555
				}
			},
			"11": {
				"11": {
					"type": "mesh",
					"uvs": [ 1, 1, 0, 1, 0, 0, 1, 0 ],
					"triangles": [ 1, 2, 3, 1, 3, 0 ],
					"vertices": [ 2217, 717.37, 1827.15, 717.37, 1827.15, 1056.8, 2217, 1056.8 ],
					"hull": 4,
					"edges": [ 0, 2, 2, 4, 4, 6, 0, 6 ],
					"width": 518,
					"height": 451
				}
			},
			"12": {
				"12": {
					"type": "mesh",
					"uvs": [ 1, 1, 0, 1, 0, 0, 1, 0 ],
					"triangles": [ 1, 2, 3, 1, 3, 0 ],
					"vertices": [ 2247.86, 758.01, 1887.35, 758.01, 1887.35, 1056.8, 2247.86, 1056.8 ],
					"hull": 4,
					"edges": [ 0, 2, 2, 4, 4, 6, 0, 6 ],
					"width": 479,
					"height": 397
				}
			},
			"13": {
				"13": {
					"type": "mesh",
					"uvs": [ 1, 1, 0, 1, 0, 0, 1, 0 ],
					"triangles": [ 1, 2, 3, 1, 3, 0 ],
					"vertices": [ 2256.13, 790.37, 1947.56, 790.37, 1947.56, 1056.04, 2256.13, 1056.04 ],
					"hull": 4,
					"edges": [ 0, 2, 2, 4, 4, 6, 0, 6 ],
					"width": 410,
					"height": 353
				}
			},
			"14": {
				"14": {
					"type": "mesh",
					"uvs": [ 1, 1, 0, 1, 0, 0, 1, 0 ],
					"triangles": [ 1, 2, 3, 1, 3, 0 ],
					"vertices": [ 2258.39, 779.84, 1982.18, 779.84, 1982.18, 1055.29, 2258.39, 1055.29 ],
					"hull": 4,
					"edges": [ 0, 2, 2, 4, 4, 6, 0, 6 ],
					"width": 367,
					"height": 366
				}
			},
			"15": {
				"15": {
					"type": "mesh",
					"uvs": [ 1, 1, 0, 1, 0, 0, 1, 0 ],
					"triangles": [ 1, 2, 3, 1, 3, 0 ],
					"vertices": [ 2263.66, 770.05, 2023.58, 770.05, 2023.58, 1050.02, 2263.66, 1050.02 ],
					"hull": 4,
					"edges": [ 0, 2, 2, 4, 4, 6, 0, 6 ],
					"width": 319,
					"height": 372
				}
			},
			"16": {
				"16": {
					"type": "mesh",
					"uvs": [ 1, 1, 0, 1, 0, 0, 1, 0 ],
					"triangles": [ 1, 2, 3, 1, 3, 0 ],
					"vertices": [ 2314.84, 748.98, 2089.05, 748.98, 2089.05, 1040.99, 2314.84, 1040.99 ],
					"hull": 4,
					"edges": [ 0, 2, 2, 4, 4, 6, 0, 6 ],
					"width": 300,
					"height": 388
				}
			},
			"17": {
				"17": {
					"type": "mesh",
					"uvs": [ 1, 1, 0, 1, 0, 0, 1, 0 ],
					"triangles": [ 1, 2, 3, 1, 3, 0 ],
					"vertices": [ 2341.93, 726.4, 2125.93, 726.4, 2125.93, 1031.96, 2341.93, 1031.96 ],
					"hull": 4,
					"edges": [ 0, 2, 2, 4, 4, 6, 0, 6 ],
					"width": 287,
					"height": 406
				}
			},
			"18": {
				"18": {
					"type": "mesh",
					"uvs": [ 1, 1, 0, 1, 0, 0, 1, 0 ],
					"triangles": [ 1, 2, 3, 1, 3, 0 ],
					"vertices": [ 2367.52, 711.35, 2135.72, 711.35, 2135.72, 1011.64, 2367.52, 1011.64 ],
					"hull": 4,
					"edges": [ 0, 2, 2, 4, 4, 6, 0, 6 ],
					"width": 308,
					"height": 399
				}
			},
			"19": {
				"19": {
					"type": "mesh",
					"uvs": [ 1, 1, 0, 1, 0, 0, 1, 0 ],
					"triangles": [ 1, 2, 3, 1, 3, 0 ],
					"vertices": [ 2381.07, 677.48, 2166.57, 677.48, 2166.57, 915.31, 2381.07, 915.31 ],
					"hull": 4,
					"edges": [ 0, 2, 2, 4, 4, 6, 0, 6 ],
					"width": 285,
					"height": 316
				}
			},
			"20": {
				"20": {
					"type": "mesh",
					"uvs": [ 1, 1, 0, 1, 0, 0, 1, 0 ],
					"triangles": [ 1, 2, 3, 1, 3, 0 ],
					"vertices": [ 2417.19, 651.14, 2198.94, 651.14, 2198.94, 891.22, 2417.19, 891.22 ],
					"hull": 4,
					"edges": [ 0, 2, 2, 4, 4, 6, 0, 6 ],
					"width": 290,
					"height": 319
				}
			},
			"21": {
				"21": {
					"type": "mesh",
					"uvs": [ 1, 1, 0, 1, 0, 0, 1, 0 ],
					"triangles": [ 1, 2, 3, 1, 3, 0 ],
					"vertices": [ 2436.01, 639.1, 2225.28, 639.1, 2225.28, 876.17, 2436.01, 876.17 ],
					"hull": 4,
					"edges": [ 0, 2, 2, 4, 4, 6, 0, 6 ],
					"width": 280,
					"height": 315
				}
			},
			"22": {
				"22": {
					"type": "mesh",
					"uvs": [ 1, 1, 0, 1, 0, 0, 1, 0 ],
					"triangles": [ 1, 2, 3, 1, 3, 0 ],
					"vertices": [ 2461.6, 639.1, 2259.15, 639.1, 2259.15, 866.39, 2461.6, 866.39 ],
					"hull": 4,
					"edges": [ 0, 2, 2, 4, 4, 6, 0, 6 ],
					"width": 269,
					"height": 302
				}
			},
			"23": {
				"23": {
					"type": "mesh",
					"uvs": [ 1, 1, 0, 1, 0, 0, 1, 0 ],
					"triangles": [ 1, 2, 3, 1, 3, 0 ],
					"vertices": [ 2462.35, 639.1, 2278.71, 639.1, 2278.71, 846.82, 2462.35, 846.82 ],
					"hull": 4,
					"edges": [ 0, 2, 2, 4, 4, 6, 0, 6 ],
					"width": 244,
					"height": 276
				}
			},
			"24": {
				"24": {
					"type": "mesh",
					"uvs": [ 1, 1, 0, 1, 0, 0, 1, 0 ],
					"triangles": [ 1, 2, 3, 1, 3, 0 ],
					"vertices": [ 2462.35, 639.1, 2303.55, 639.1, 2303.55, 816.71, 2462.35, 816.71 ],
					"hull": 4,
					"edges": [ 0, 2, 2, 4, 4, 6, 0, 6 ],
					"width": 211,
					"height": 236
				}
			},
			"25": {
				"25": {
					"type": "mesh",
					"uvs": [ 1, 1, 0, 1, 0, 0, 1, 0 ],
					"triangles": [ 1, 2, 3, 1, 3, 0 ],
					"vertices": [ 2462.35, 639.1, 2326.13, 639.1, 2326.13, 796.39, 2462.35, 796.39 ],
					"hull": 4,
					"edges": [ 0, 2, 2, 4, 4, 6, 0, 6 ],
					"width": 181,
					"height": 209
				}
			},
			"26": {
				"26": {
					"type": "mesh",
					"uvs": [ 1, 1, 0, 1, 0, 0, 1, 0 ],
					"triangles": [ 1, 2, 3, 1, 3, 0 ],
					"vertices": [ 2462.35, 639.1, 2350.96, 639.1, 2350.96, 773.81, 2462.35, 773.81 ],
					"hull": 4,
					"edges": [ 0, 2, 2, 4, 4, 6, 0, 6 ],
					"width": 148,
					"height": 179
				}
			},
			"27": {
				"27": {
					"type": "mesh",
					"uvs": [ 1, 1, 0, 1, 0, 0, 1, 0 ],
					"triangles": [ 1, 2, 3, 1, 3, 0 ],
					"vertices": [ 2462.35, 651.14, 2392.36, 651.14, 2392.36, 749.73, 2462.35, 749.73 ],
					"hull": 4,
					"edges": [ 0, 2, 2, 4, 4, 6, 0, 6 ],
					"width": 93,
					"height": 131
				}
			}
		}
	}
],
"animations": {
	"animation": {
		"slots": {
			"1": {
				"color": [
					{ "time": 9.0667, "color": "ffffff00" }
				]
			},
			"2": {
				"color": [
					{ "time": 8.8333, "color": "ffffff00" }
				]
			},
			"3": {
				"color": [
					{ "time": 8.9, "color": "ffffff00" }
				]
			},
			"4": {
				"color": [
					{ "time": 8.9333, "color": "ffffff00" }
				]
			},
			"5": {
				"color": [
					{ "time": 8.9667, "color": "ffffff00" }
				]
			},
			"6": {
				"color": [
					{ "time": 9, "color": "ffffff00" }
				]
			},
			"7": {
				"color": [
					{ "time": 9, "color": "ffffffff" },
					{ "time": 9.0333, "color": "ffffff00" }
				]
			},
			"8": {
				"color": [
					{ "time": 9.0667, "color": "ffffff00" }
				]
			},
			"9": {
				"color": [
					{ "time": 9.1, "color": "ffffff00" }
				]
			},
			"10": {
				"color": [
					{ "time": 9.1, "color": "ffffffff" },
					{ "time": 9.1333, "color": "ffffff00" }
				]
			},
			"11": {
				"color": [
					{ "time": 9.1667, "color": "ffffff00", "curve": "stepped" },
					{ "time": 12.1, "color": "ffffff00" }
				]
			},
			"12": {
				"color": [
					{ "time": 9.2, "color": "ffffff00" }
				]
			},
			"13": {
				"color": [
					{ "time": 9.2333, "color": "ffffff00" }
				]
			},
			"14": {
				"color": [
					{ "time": 9.2667, "color": "ffffff00" }
				]
			},
			"15": {
				"color": [
					{ "time": 9.3, "color": "ffffff00" }
				]
			},
			"16": {
				"color": [
					{ "time": 9.3333, "color": "ffffff00" }
				]
			},
			"17": {
				"color": [
					{ "time": 9.3667, "color": "ffffff00" }
				]
			},
			"18": {
				"color": [
					{ "time": 9.4, "color": "ffffff00" }
				]
			},
			"19": {
				"color": [
					{ "time": 9.4333, "color": "ffffff00" }
				]
			},
			"20": {
				"color": [
					{ "time": 9.4667, "color": "ffffff00" }
				]
			},
			"21": {
				"color": [
					{ "time": 9.5, "color": "ffffff00" }
				]
			},
			"22": {
				"color": [
					{ "time": 9.5333, "color": "ffffff00" }
				]
			},
			"23": {
				"color": [
					{ "time": 9.5667, "color": "ffffff00" }
				]
			},
			"24": {
				"color": [
					{ "time": 9.6, "color": "ffffff00" }
				]
			},
			"25": {
				"color": [
					{ "time": 9.6333, "color": "ffffff00" }
				]
			},
			"26": {
				"color": [
					{ "time": 9.6667, "color": "ffffff00" }
				]
			},
			"27": {
				"color": [
					{ "time": 9.7, "color": "ffffff00" }
				]
			}
		},
		"deform": {
			"default": {
				"1": {
					"1": [
						{
							"time": 9.0667,
							"vertices": [ -2023.4175, -624.6501, -2017.1473, -624.6501, -2017.1473, -633.75665, -2023.4175, -633.75665 ]
						}
					]
				},
				"2": {
					"2": [
						{
							"time": 8.8333,
							"vertices": [ -2042.825, -620.47003, -2017.1473, -620.47003, -2017.1473, -655.10486, -2042.825, -655.10486 ]
						}
					]
				},
				"3": {
					"3": [
						{
							"time": 8.8667,
							"vertices": [ -2070.443, -616.4392, -2017.1473, -616.4392, -2017.1473, -691.3819, -2070.443, -691.3819 ]
						}
					]
				},
				"4": {
					"4": [
						{
							"time": 8.9,
							"vertices": [ -2078.505, -612.25916, -2017.1473, -612.25916, -2017.1473, -692.42694, -2078.505, -692.42694 ]
						}
					]
				},
				"5": {
					"5": [
						{
							"time": 8.9333,
							"vertices": [ -2086.5664, -611.3635, -2017.1473, -611.3635, -2017.1473, -693.4719, -2086.5664, -693.4719 ]
						}
					]
				},
				"6": {
					"6": [
						{
							"time": 8.9667,
							"vertices": [ -2094.4785, -611.3635, -2017.1473, -611.3635, -2017.1473, -694.2184, -2094.4785, -694.2184 ]
						}
					]
				},
				"7": {
					"7": [
						{
							"time": 9,
							"vertices": [ -2101.7937, -611.3635, -2020.133, -611.3635, -2020.133, -694.2184, -2101.7937, -694.2184 ]
						}
					]
				},
				"8": {
					"8": [
						{
							"time": 9.0333,
							"vertices": [ -2109.258, -611.3635, -2025.209, -611.3635, -2025.209, -694.2184, -2109.258, -694.2184 ]
						}
					]
				},
				"9": {
					"9": [
						{
							"time": 9.0667,
							"vertices": [ -2116.2747, -611.3635, -2030.434, -611.3635, -2030.434, -694.2184, -2116.2747, -694.2184 ]
						}
					]
				},
				"10": {
					"10": [
						{
							"time": 9.1,
							"vertices": [ -2121.9475, -611.3635, -2035.9578, -611.3635, -2035.9578, -694.2184, -2121.9475, -694.2184 ]
						}
					]
				},
				"11": {
					"11": [
						{
							"time": 9.1333,
							"vertices": [ -2129.4119, -626.8894, -2052.0806, -626.8894, -2052.0806, -694.2184, -2129.4119, -694.2184 ]
						}
					]
				},
				"12": {
					"12": [
						{
							"time": 9.1667,
							"vertices": [ -2135.5327, -634.951, -2064.024, -634.951, -2064.024, -694.2184, -2135.5327, -694.2184 ]
						}
					]
				},
				"13": {
					"13": [
						{
							"time": 9.2,
							"vertices": [ -2137.175, -641.37036, -2075.967, -641.37036, -2075.967, -694.0691, -2137.175, -694.0691 ]
						}
					]
				},
				"14": {
					"14": [
						{
							"time": 9.2333,
							"vertices": [ -2137.6228, -639.2803, -2082.8342, -639.2803, -2082.8342, -693.9198, -2137.6228, -693.9198 ]
						}
					]
				},
				"15": {
					"15": [
						{
							"time": 9.2667,
							"vertices": [ -2138.6677, -637.3396, -2091.045, -637.3396, -2091.045, -692.87476, -2138.6677, -692.87476 ]
						}
					]
				},
				"16": {
					"16": [
						{
							"time": 9.3,
							"vertices": [ -2148.8193, -633.15955, -2104.033, -633.15955, -2104.033, -691.0833, -2148.8193, -691.0833 ]
						}
					]
				},
				"17": {
					"17": [
						{
							"time": 9.3333,
							"vertices": [ -2154.1938, -628.6809, -2111.3481, -628.6809, -2111.3481, -689.2919, -2154.1938, -689.2919 ]
						}
					]
				},
				"18": {
					"18": [
						{
							"time": 9.3667,
							"vertices": [ -2159.2695, -625.6951, -2113.289, -625.6951, -2113.289, -685.2611, -2159.2695, -685.2611 ]
						}
					]
				},
				"19": {
					"19": [
						{
							"time": 9.4,
							"vertices": [ -2161.9568, -618.9772, -2119.4097, -618.9772, -2119.4097, -666.15216, -2161.9568, -666.15216 ]
						}
					]
				},
				"20": {
					"20": [
						{
							"time": 9.4333,
							"vertices": [ -2169.1226, -613.7521, -2125.829, -612.51294, -2125.829, -662.6141, -2169.1226, -661.37494 ]
						}
					]
				},
				"21": {
					"21": [
						{
							"time": 9.4667,
							"vertices": [ -2172.855, -611.3635, -2131.0542, -611.3635, -2131.0542, -658.3892, -2172.855, -658.3892 ]
						}
					]
				},
				"22": {
					"22": [
						{
							"time": 9.5,
							"vertices": [ -2177.9307, -611.3635, -2137.7722, -611.3635, -2137.7722, -656.4485, -2177.9307, -656.4485 ]
						}
					]
				},
				"23": {
					"23": [
						{
							"time": 9.5333,
							"vertices": [ -2178.08, -611.3635, -2141.6536, -611.3635, -2141.6536, -652.567, -2178.08, -652.567 ]
						}
					]
				},
				"24": {
					"24": [
						{
							"time": 9.5667,
							"vertices": [ -2178.08, -611.3635, -2146.5803, -611.3635, -2146.5803, -646.59546, -2178.08, -646.59546 ]
						}
					]
				},
				"25": {
					"25": [
						{
							"time": 9.6,
							"vertices": [ -2178.08, -611.3635, -2151.0588, -611.3635, -2151.0588, -642.5647, -2178.08, -642.5647 ]
						}
					]
				},
				"26": {
					"26": [
						{
							"time": 9.6333,
							"vertices": [ -2178.08, -611.3635, -2155.9854, -611.3635, -2155.9854, -638.08606, -2178.08, -638.08606 ]
						}
					]
				},
				"27": {
					"27": [
						{
							"time": 9.6667,
							"vertices": [ -2178.08, -613.7521, -2164.196, -613.7521, -2164.196, -633.30884, -2178.08, -633.30884 ]
						}
					]
				}
			}
		}
	}
}
}