%YAML 1.1
%TAG !u! tag:unity3d.com,2011:
--- !u!1 &4742108012371252221
GameObject:
  m_ObjectHideFlags: 0
  m_CorrespondingSourceObject: {fileID: 0}
  m_PrefabInstance: {fileID: 0}
  m_PrefabAsset: {fileID: 0}
  serializedVersion: 6
  m_Component:
  - component: {fileID: 4742108012371252162}
  - component: {fileID: 4742108012371252161}
  - component: {fileID: 6857908415894665672}
  - component: {fileID: 4742108012371252163}
  m_Layer: 0
  m_Name: GrabHookFlying
  m_TagString: Untagged
  m_Icon: {fileID: 0}
  m_NavMeshLayer: 0
  m_StaticEditorFlags: 0
  m_IsActive: 1
--- !u!4 &4742108012371252162
Transform:
  m_ObjectHideFlags: 0
  m_CorrespondingSourceObject: {fileID: 0}
  m_PrefabInstance: {fileID: 0}
  m_PrefabAsset: {fileID: 0}
  m_GameObject: {fileID: 4742108012371252221}
  m_LocalRotation: {x: 0, y: 0, z: 0, w: 1}
  m_LocalPosition: {x: 3, y: -1, z: 0}
  m_LocalScale: {x: 1, y: 1, z: 1}
  m_Children: []
  m_Father: {fileID: 0}
  m_RootOrder: 0
  m_LocalEulerAnglesHint: {x: 0, y: 0, z: 0}
--- !u!212 &4742108012371252161
SpriteRenderer:
  m_ObjectHideFlags: 0
  m_CorrespondingSourceObject: {fileID: 0}
  m_PrefabInstance: {fileID: 0}
  m_PrefabAsset: {fileID: 0}
  m_GameObject: {fileID: 4742108012371252221}
  m_Enabled: 1
  m_CastShadows: 0
  m_ReceiveShadows: 0
  m_DynamicOccludee: 1
  m_MotionVectors: 1
  m_LightProbeUsage: 1
  m_ReflectionProbeUsage: 1
  m_RayTracingMode: 0
  m_RenderingLayerMask: 1
  m_RendererPriority: 0
  m_Materials:
  - {fileID: 10754, guid: 0000000000000000f000000000000000, type: 0}
  m_StaticBatchInfo:
    firstSubMesh: 0
    subMeshCount: 0
  m_StaticBatchRoot: {fileID: 0}
  m_ProbeAnchor: {fileID: 0}
  m_LightProbeVolumeOverride: {fileID: 0}
  m_ScaleInLightmap: 1
  m_ReceiveGI: 1
  m_PreserveUVs: 0
  m_IgnoreNormalsForChartDetection: 0
  m_ImportantGI: 0
  m_StitchLightmapSeams: 1
  m_SelectedEditorRenderState: 0
  m_MinimumChartSize: 4
  m_AutoUVMaxDistance: 0.5
  m_AutoUVMaxAngle: 89
  m_LightmapParameters: {fileID: 0}
  m_SortingLayerID: 115992415
  m_SortingLayer: -12
  m_SortingOrder: 0
  m_Sprite: {fileID: 21300000, guid: c12156ba92acfc64397986f63512e39e, type: 3}
  m_Color: {r: 1, g: 1, b: 1, a: 1}
  m_FlipX: 0
  m_FlipY: 0
  m_DrawMode: 0
  m_Size: {x: 5, y: 5}
  m_AdaptiveModeThreshold: 0.5
  m_SpriteTileMode: 0
  m_WasSpriteAssigned: 1
  m_MaskInteraction: 0
  m_SpriteSortPoint: 0
--- !u!114 &6857908415894665672
MonoBehaviour:
  m_ObjectHideFlags: 0
  m_CorrespondingSourceObject: {fileID: 0}
  m_PrefabInstance: {fileID: 0}
  m_PrefabAsset: {fileID: 0}
  m_GameObject: {fileID: 4742108012371252221}
  m_Enabled: 1
  m_EditorHideFlags: 0
  m_Script: {fileID: 11500000, guid: 492352485fbf6724092d118389931be1, type: 3}
  m_Name: 
  m_EditorClassIdentifier: 
  animationFlying:
    sprites:
    - {fileID: 21300000, guid: c12156ba92acfc64397986f63512e39e, type: 3}
    - {fileID: 21300000, guid: 55a8ce3c63c98a842a30e71728b460ad, type: 3}
    - {fileID: 21300000, guid: 5204d1e63d950ed46907d8c9d959a7d4, type: 3}
    - {fileID: 21300000, guid: 678cca1f29f11684dbc11191a41db4e8, type: 3}
    - {fileID: 21300000, guid: 5b28251123dddb040968250dbaea716f, type: 3}
    fps: 30
  animationShine:
    sprites:
    - {fileID: 21300000, guid: f3313e13f554d654aa3d3eb50242ac9e, type: 3}
    - {fileID: 21300000, guid: e81601904b0c18d4ba01fd62d27acd01, type: 3}
    - {fileID: 21300000, guid: b955398d2c05f1a4fae5a6e65637f1c3, type: 3}
    - {fileID: 21300000, guid: 79ac9456924f1114fb643f4ba2db291b, type: 3}
    - {fileID: 21300000, guid: eedfec00493286740814762e5a7d2284, type: 3}
    - {fileID: 21300000, guid: 870225a3b8ee63a4582d068bd67e3eab, type: 3}
    - {fileID: 21300000, guid: 0681d046947791e47acf982e26d8bc04, type: 3}
    - {fileID: 21300000, guid: b33c1015b39873c48869d890d549c571, type: 3}
    - {fileID: 21300000, guid: 1822043d1dc3d9341acad99ec8e4e8c8, type: 3}
    - {fileID: 21300000, guid: 482a9f12d9857e74aa815c875803716e, type: 3}
    fps: 30
--- !u!114 &4742108012371252163
MonoBehaviour:
  m_ObjectHideFlags: 0
  m_CorrespondingSourceObject: {fileID: 0}
  m_PrefabInstance: {fileID: 0}
  m_PrefabAsset: {fileID: 0}
  m_GameObject: {fileID: 4742108012371252221}
  m_Enabled: 1
  m_EditorHideFlags: 0
  m_Script: {fileID: 11500000, guid: a2cedcea314d944e09159c2372cec04f, type: 3}
  m_Name: 
  m_EditorClassIdentifier: 
