{
"skeleton": {
	"hash": "wNDJxZjhk7oRioU6QOBC9+X04OQ",
	"spine": "3.8.99",
	"x": -1502.83,
	"y": -5047.06,
	"width": 2940.13,
	"height": 6876.02,
	"images": "./Polished Background/images/",
	"audio": "C:/Users/mat/OneDrive/Desktop/Title Screen Trying/./Polished Background"
},
"bones": [
	{ "name": "root" }
],
"slots": [
	{ "name": "floor", "bone": "root", "attachment": "Sky optimised" },
	{ "name": "Layer 1", "bone": "root", "attachment": "Background optimised" },
	{ "name": "Sun optimised", "bone": "root", "attachment": "Sun optimised" },
	{ "name": "shine 1", "bone": "root", "attachment": "shine 1" },
	{ "name": "shine 2", "bone": "root", "attachment": "shine 2" },
	{ "name": "lense flare 1", "bone": "root", "attachment": "lense flare 1" },
	{ "name": "lense flare 2", "bone": "root", "attachment": "lense flare 2" },
	{ "name": "lense flare 3", "bone": "root", "attachment": "lense flare 3" },
	{ "name": "lense flare 4", "bone": "root", "attachment": "lense flare 4" },
	{ "name": "lense flare 5", "bone": "root", "attachment": "lense flare 5" },
	{ "name": "lense flare 6", "bone": "root", "attachment": "lense flare 6" },
	{ "name": "lense flare 7", "bone": "root", "attachment": "lense flare 7" },
	{ "name": "lense flare 8", "bone": "root", "attachment": "lense flare 8" },
	{ "name": "lense flare 9", "bone": "root", "attachment": "lense flare 9" },
	{ "name": "lense flare 10", "bone": "root", "attachment": "lense flare 10" },
	{ "name": "lense flare 11", "bone": "root", "attachment": "lense flare 11" },
	{ "name": "lense flare 12", "bone": "root", "attachment": "lense flare 12" },
	{ "name": "Logo curved", "bone": "root", "attachment": "Logo curved" },
	{ "name": "Shape 2", "bone": "root", "attachment": "Shape 2" }
],
"skins": [
	{
		"name": "default",
		"attachments": {
			"Layer 1": {
				"Background optimised": {
					"type": "mesh",
					"uvs": [ 1, 1, 0, 1, 0, 0, 1, 0 ],
					"triangles": [ 1, 2, 3, 1, 3, 0 ],
					"vertices": [ 1350.97, -3034.31, -1415.91, -3034.31, -1415.91, -184.4, 1350.97, -184.4 ],
					"hull": 4,
					"edges": [ 0, 2, 2, 4, 4, 6, 0, 6 ],
					"width": 1459,
					"height": 1524
				}
			},
			"Logo curved": {
				"Logo curved": {
					"type": "mesh",
					"uvs": [ 1, 1, 0, 1, 0, 0, 1, 0 ],
					"triangles": [ 1, 2, 3, 1, 3, 0 ],
					"vertices": [ 299.96, -3122.67, -364.9, -3122.67, -364.9, -2768.16, 299.96, -2768.16 ],
					"hull": 4,
					"edges": [ 0, 2, 2, 4, 4, 6, 0, 6 ],
					"width": 1099,
					"height": 586
				}
			},
			"Shape 2": {
				"Shape 2": {
					"type": "mesh",
					"uvs": [ 1, 1, 0, 1, 0, 0, 1, 0 ],
					"triangles": [ 1, 2, 3, 1, 3, 0 ],
					"vertices": [ 1234.29, -1330.63, -1259.37, -1330.63, -1259.37, 1715.97, 1234.29, 1715.97 ],
					"hull": 4,
					"edges": [ 0, 2, 2, 4, 4, 6, 0, 6 ],
					"width": 1031,
					"height": 1259
				}
			},
			"Sun optimised": {
				"Sun optimised": {
					"type": "mesh",
					"uvs": [ 1, 1, 0, 1, 0, 0, 1, 0 ],
					"triangles": [ 1, 2, 3, 1, 3, 0 ],
					"vertices": [ 628.24, -441.29, -648.25, -441.29, -648.25, 835.19, 628.24, 835.19 ],
					"hull": 4,
					"edges": [ 0, 2, 2, 4, 4, 6, 0, 6 ],
					"width": 751,
					"height": 751
				}
			},
			"floor": {
				"Sky optimised": {
					"type": "mesh",
					"uvs": [ 1, 1, 0, 1, 0, 0, 1, 0 ],
					"triangles": [ 1, 2, 3, 1, 3, 0 ],
					"vertices": [ 1437.29, -5047.06, -1502.83, -5047.06, -1502.83, 1828.96, 1437.29, 1828.96 ],
					"hull": 4,
					"edges": [ 0, 2, 2, 4, 4, 6, 0, 6 ],
					"width": 175,
					"height": 175
				}
			},
			"lense flare 1": {
				"lense flare 1": {
					"type": "mesh",
					"uvs": [ 1, 1, 0, 1, 0, 0, 1, 0 ],
					"triangles": [ 1, 2, 3, 1, 3, 0 ],
					"vertices": [ -262.66, -618.12, -768.41, -618.12, -768.41, -112.37, -262.66, -112.37 ],
					"hull": 4,
					"edges": [ 0, 2, 2, 4, 4, 6, 0, 6 ],
					"width": 209,
					"height": 209
				}
			},
			"lense flare 2": {
				"lense flare 2": {
					"type": "mesh",
					"uvs": [ 1, 1, 0, 1, 0, 0, 1, 0 ],
					"triangles": [ 1, 2, 3, 1, 3, 0 ],
					"vertices": [ 1110.01, 775.11, 783.33, 775.11, 783.33, 1101.79, 1110.01, 1101.79 ],
					"hull": 4,
					"edges": [ 0, 2, 2, 4, 4, 6, 0, 6 ],
					"width": 135,
					"height": 135
				}
			},
			"lense flare 3": {
				"lense flare 3": {
					"type": "mesh",
					"uvs": [ 1, 1, 0, 1, 0, 0, 1, 0 ],
					"triangles": [ 1, 2, 3, 1, 3, 0 ],
					"vertices": [ -523.4, -684.06, -851.29, -684.06, -851.29, -356.17, -523.4, -356.17 ],
					"hull": 4,
					"edges": [ 0, 2, 2, 4, 4, 6, 0, 6 ],
					"width": 136,
					"height": 136
				}
			},
			"lense flare 4": {
				"lense flare 4": {
					"type": "mesh",
					"uvs": [ 1, 1, 0, 1, 0, 0, 1, 0 ],
					"triangles": [ 1, 2, 3, 1, 3, 0 ],
					"vertices": [ 1227.37, 867.07, 899.48, 867.07, 899.48, 1194.96, 1227.37, 1194.96 ],
					"hull": 4,
					"edges": [ 0, 2, 2, 4, 4, 6, 0, 6 ],
					"width": 136,
					"height": 136
				}
			},
			"lense flare 5": {
				"lense flare 5": {
					"type": "mesh",
					"uvs": [ 1, 1, 0, 1, 0, 0, 1, 0 ],
					"triangles": [ 1, 2, 3, 1, 3, 0 ],
					"vertices": [ -743, -882.49, -1064.84, -882.49, -1064.84, -560.65, -743, -560.65 ],
					"hull": 4,
					"edges": [ 0, 2, 2, 4, 4, 6, 0, 6 ],
					"width": 133,
					"height": 133
				}
			},
			"lense flare 6": {
				"lense flare 6": {
					"type": "mesh",
					"uvs": [ 1, 1, 0, 1, 0, 0, 1, 0 ],
					"triangles": [ 1, 2, 3, 1, 3, 0 ],
					"vertices": [ 846.85, 559.14, 525.01, 559.14, 525.01, 880.98, 846.85, 880.98 ],
					"hull": 4,
					"edges": [ 0, 2, 2, 4, 4, 6, 0, 6 ],
					"width": 133,
					"height": 133
				}
			},
			"lense flare 7": {
				"lense flare 7": {
					"type": "mesh",
					"uvs": [ 1, 1, 0, 1, 0, 0, 1, 0 ],
					"triangles": [ 1, 2, 3, 1, 3, 0 ],
					"vertices": [ -205.79, -362.82, -516.14, -362.82, -516.14, -52.48, -205.79, -52.48 ],
					"hull": 4,
					"edges": [ 0, 2, 2, 4, 4, 6, 0, 6 ],
					"width": 128,
					"height": 128
				}
			},
			"lense flare 8": {
				"lense flare 8": {
					"type": "mesh",
					"uvs": [ 1, 1, 0, 1, 0, 0, 1, 0 ],
					"triangles": [ 1, 2, 3, 1, 3, 0 ],
					"vertices": [ -478.02, -428.16, -577.24, -428.16, -577.24, -328.95, -478.02, -328.95 ],
					"hull": 4,
					"edges": [ 0, 2, 2, 4, 4, 6, 0, 6 ],
					"width": 41,
					"height": 41
				}
			},
			"lense flare 9": {
				"lense flare 9": {
					"type": "mesh",
					"uvs": [ 1, 1, 0, 1, 0, 0, 1, 0 ],
					"triangles": [ 1, 2, 3, 1, 3, 0 ],
					"vertices": [ 820.83, 750.31, 721.62, 750.31, 721.62, 849.52, 820.83, 849.52 ],
					"hull": 4,
					"edges": [ 0, 2, 2, 4, 4, 6, 0, 6 ],
					"width": 41,
					"height": 41
				}
			},
			"lense flare 10": {
				"lense flare 10": {
					"type": "mesh",
					"uvs": [ 1, 1, 0, 1, 0, 0, 1, 0 ],
					"triangles": [ 1, 2, 3, 1, 3, 0 ],
					"vertices": [ -373.97, -365.85, -509.48, -365.85, -509.48, -230.34, -373.97, -230.34 ],
					"hull": 4,
					"edges": [ 0, 2, 2, 4, 4, 6, 0, 6 ],
					"width": 56,
					"height": 56
				}
			},
			"lense flare 11": {
				"lense flare 11": {
					"type": "mesh",
					"uvs": [ 1, 1, 0, 1, 0, 0, 1, 0 ],
					"triangles": [ 1, 2, 3, 1, 3, 0 ],
					"vertices": [ 691.37, 211.89, 105.16, 211.89, 105.16, 798.1, 691.37, 798.1 ],
					"hull": 4,
					"edges": [ 0, 2, 2, 4, 4, 6, 0, 6 ],
					"width": 242,
					"height": 242
				}
			},
			"lense flare 12": {
				"lense flare 12": {
					"type": "mesh",
					"uvs": [ 1, 1, 0, 1, 0, 0, 1, 0 ],
					"triangles": [ 1, 2, 3, 1, 3, 0 ],
					"vertices": [ -928.72, -1060.35, -1252.98, -1060.35, -1252.98, -736.09, -928.72, -736.09 ],
					"hull": 4,
					"edges": [ 0, 2, 2, 4, 4, 6, 0, 6 ],
					"width": 134,
					"height": 134
				}
			},
			"shine 1": {
				"shine 1": {
					"type": "mesh",
					"uvs": [ 1, 1, 0, 1, 0, 0, 1, 0 ],
					"triangles": [ 1, 2, 3, 1, 3, 0 ],
					"vertices": [ 1413.7, -1108.14, -1400.6, -1108.14, -1400.6, 1326.23, 1413.7, 1326.23 ],
					"hull": 4,
					"edges": [ 0, 2, 2, 4, 4, 6, 0, 6 ],
					"width": 1163,
					"height": 1006
				}
			},
			"shine 2": {
				"shine 2": {
					"type": "mesh",
					"uvs": [ 1, 1, 0, 1, 0, 0, 1, 0 ],
					"triangles": [ 1, 2, 3, 1, 3, 0 ],
					"vertices": [ 1437.29, -1000.46, -1479.24, -1000.46, -1479.24, 1326.23, 1437.29, 1326.23 ],
					"hull": 4,
					"edges": [ 0, 2, 2, 4, 4, 6, 0, 6 ],
					"width": 1205,
					"height": 962
				}
			}
		}
	}
],
"animations": {
	"animation": {
		"slots": {
			"Layer 1": {
				"color": [
					{ "color": "ffffff00", "curve": "stepped" },
					{ "time": 6.4333, "color": "ffffff00" },
					{ "time": 6.4667, "color": "ffffffff" }
				]
			}
		},
		"deform": {
			"default": {
				"Layer 1": {
					"Background optimised": [
						{
							"vertices": [ 111.22012, -1749.7273, -111.21946, -1749.7273, -111.21946, -1493.9329, 111.22012, -1493.9329 ],
							"curve": "stepped"
						},
						{
							"time": 6.5,
							"vertices": [ 111.22012, -1749.7273, -111.21946, -1749.7273, -111.21946, -1493.9329, 111.22012, -1493.9329 ],
							"curve": 0.25,
							"c3": 0.75
						},
						{
							"time": 7.2,
							"vertices": [ 111.22015, 1082.2725, -111.21942, 1082.2725, -111.21942, 1338.0669, 111.22015, 1338.0669 ],
							"curve": "stepped"
						},
						{
							"time": 12.1,
							"vertices": [ 111.22015, 1082.2725, -111.21942, 1082.2725, -111.21942, 1338.0669, 111.22015, 1338.0669 ]
						}
					]
				},
				"Logo curved": {
					"Logo curved": [
						{
							"vertices": [ -8.28029, -318.78027, -8.28029, -318.78027, -8.28029, -318.78027, -8.28029, -318.78027 ]
						},
						{
							"time": 6.5,
							"vertices": [ -8.28026, 287.13623, -8.28026, 287.13623, -8.28026, 287.13623, -8.28026, 287.13623 ],
							"curve": 0.25,
							"c3": 0.75
						},
						{
							"time": 7.2,
							"vertices": [ -8.28016, 3136.301, -8.28016, 3136.301, -8.28016, 3136.301, -8.28016, 3136.301 ]
						}
					]
				},
				"Shape 2": {
					"Shape 2": [
						{
							"vertices": [ -17.44215, -340.18805, -17.44215, -340.18805, -17.44215, -340.18805, -17.44215, -340.18805 ]
						}
					]
				},
				"Sun optimised": {
					"Sun optimised": [
						{
							"vertices": [ -35.99953, -360, -35.99953, -360, -35.99953, -360, -35.99953, -360 ],
							"curve": "stepped"
						},
						{
							"time": 6.4667,
							"vertices": [ -35.99953, -360, -35.99953, -360, -35.99953, -360, -35.99953, -360 ],
							"curve": 0.25,
							"c3": 0.75
						},
						{
							"time": 7.2,
							"vertices": [ -35.99939, 3076.1877, -35.99939, 3076.1877, -35.99939, 3076.1877, -35.99939, 3076.1877 ]
						}
					]
				},
				"floor": {
					"Sky optimised": [
						{
							"vertices": [ -10.88391, -352.19397, -10.88391, -352.19397, -10.88391, -352.19397, -10.88391, -352.19397 ],
							"curve": "stepped"
						},
						{
							"time": 6.4667,
							"vertices": [ -10.88391, -352.19397, -10.88391, -352.19397, -10.88391, -352.19397, -10.88391, -352.19397 ],
							"curve": 0.25,
							"c3": 0.75
						},
						{
							"time": 7.2,
							"vertices": [ -10.88378, 3102.8875, -10.88378, 3102.8875, -10.88378, 3102.8875, -10.88378, 3102.8875 ]
						}
					]
				},
				"lense flare 1": {
					"lense flare 1": [
						{
							"vertices": [ 70.1866, -343.49786, 73.73003, -403.26282, 13.96489, -406.80676, 10.42183, -347.04144 ]
						},
						{
							"time": 6.4667,
							"vertices": [ -16.50392, -318.92487, -16.50392, -318.92487, -16.50392, -318.92487, -16.50392, -318.92487 ],
							"curve": 0.25,
							"c3": 0.75
						},
						{
							"time": 7.2,
							"vertices": [ -674.152, 3352.2537, -710.6986, 3802.2708, -260.67896, 3838.8179, -224.13309, 3388.7986 ]
						}
					]
				},
				"lense flare 2": {
					"lense flare 2": [
						{
							"vertices": [ -104.07185, -191.05103, -101.78273, -229.6549, -140.3868, -231.94385, -142.67598, -193.33948 ]
						},
						{
							"time": 6.4667,
							"vertices": [ -16.50392, -318.92487, -16.50392, -318.92487, -16.50392, -318.92487, -16.50392, -318.92487 ],
							"curve": 0.25,
							"c3": 0.75
						},
						{
							"time": 7.2,
							"vertices": [ 664.74695, 2231.5269, 641.1399, 2522.2092, 931.8229, 2545.8186, 955.4297, 2255.135 ]
						}
					]
				},
				"lense flare 3": {
					"lense flare 3": [
						{
							"vertices": [ 79.80583, -373.8484, 82.10332, -412.59473, 43.35625, -414.89264, 41.0587, -376.1452 ]
						},
						{
							"time": 6.4667,
							"vertices": [ -16.50392, -318.92487, -16.50392, -318.92487, -16.50392, -318.92487, -16.50392, -318.92487 ],
							"curve": 0.25,
							"c3": 0.75
						},
						{
							"time": 7.2,
							"vertices": [ -751.66797, 3579.4968, -775.3616, 3871.256, -483.60168, 3894.9504, -459.9076, 3603.1929 ]
						}
					]
				},
				"lense flare 4": {
					"lense flare 4": [
						{
							"vertices": [ -115.76064, -177.82635, -113.46236, -216.57361, -152.20998, -218.87097, -154.50734, -180.12317 ]
						},
						{
							"time": 6.4667,
							"vertices": [ -16.50392, -318.92487, -16.50392, -318.92487, -16.50392, -318.92487, -16.50392, -318.92487 ],
							"curve": 0.25,
							"c3": 0.75
						},
						{
							"time": 7.2,
							"vertices": [ 755.0503, 2133.741, 731.355, 2425.502, 1023.1144, 2449.1958, 1046.8083, 2157.437 ]
						}
					]
				},
				"lense flare 5": {
					"lense flare 5": [
						{
							"vertices": [ 104.79277, -398.40826, 107.04741, -436.44025, 69.01561, -438.69586, 66.76073, -400.66364 ]
						},
						{
							"time": 6.4667,
							"vertices": [ -16.50392, -318.92487, -16.50392, -318.92487, -16.50392, -318.92487, -16.50392, -318.92487 ],
							"curve": 0.25,
							"c3": 0.75
						},
						{
							"time": 7.2,
							"vertices": [ -944.0985, 3760.5615, -967.35596, 4046.9397, -680.97925, 4070.1946, -657.7219, 3783.8203 ]
						}
					]
				},
				"lense flare 6": {
					"lense flare 6": [
						{
							"vertices": [ -76.70564, -220.63556, -74.45143, -258.66766, -112.48351, -260.9225, -114.73848, -222.89056 ]
						},
						{
							"time": 6.4667,
							"vertices": [ -16.50392, -318.92487, -16.50392, -318.92487, -16.50392, -318.92487, -16.50392, -318.92487 ],
							"curve": 0.25,
							"c3": 0.75
						},
						{
							"time": 7.2,
							"vertices": [ 453.557, 2450.0818, 430.3, 2736.4578, 716.6762, 2759.7134, 739.9337, 2473.3394 ]
						}
					]
				},
				"lense flare 7": {
					"lense flare 7": [
						{
							"vertices": [ 39.61954, -338.56702, 41.79381, -375.24078, 5.12068, -377.41534, 2.94528, -340.74127 ]
						},
						{
							"time": 6.4667,
							"vertices": [ -16.50392, -318.92487, -16.50392, -318.92487, -16.50392, -318.92487, -16.50392, -318.92487 ],
							"curve": 0.25,
							"c3": 0.75
						},
						{
							"time": 7.2,
							"vertices": [ -442.87866, 3320.1038, -465.30524, 3596.2505, -189.15753, 3618.6768, -166.73083, 3342.5286 ]
						}
					]
				},
				"lense flare 8": {
					"lense flare 8": [
						{
							"vertices": [ 49.24776, -370.27905, 49.94292, -382.00293, 38.21861, -382.6988, 37.52351, -370.97412 ]
						},
						{
							"time": 6.4667,
							"vertices": [ -16.50392, -318.92487, -16.50392, -318.92487, -16.50392, -318.92487, -16.50392, -318.92487 ],
							"curve": 0.25,
							"c3": 0.75
						},
						{
							"time": 7.2,
							"vertices": [ -520.68787, 3557.6152, -527.8572, 3645.8972, -439.57654, 3653.0662, -432.40674, 3564.7854 ]
						}
					]
				},
				"lense flare 9": {
					"lense flare 9": [
						{
							"vertices": [ -99.11446, -225.04846, -98.41969, -236.77313, -110.14369, -237.46796, -110.83913, -225.74396 ]
						},
						{
							"time": 6.4667,
							"vertices": [ -16.50392, -318.92487, -16.50392, -318.92487, -16.50392, -318.92487, -16.50392, -318.92487 ],
							"curve": 0.25,
							"c3": 0.75
						},
						{
							"time": 7.2,
							"vertices": [ 621.78125, 2487.043, 614.6112, 2575.3247, 702.89233, 2582.4941, 710.06177, 2494.2126 ]
						}
					]
				},
				"lense flare 10": {
					"lense flare 10": [
						{
							"vertices": [ 41.15523, -358.41943, 42.10466, -374.43317, 26.09154, -375.3828, 25.14189, -359.36914 ]
						},
						{
							"time": 6.4667,
							"vertices": [ -16.50392, -318.92487, -16.50392, -318.92487, -16.50392, -318.92487, -16.50392, -318.92487 ],
							"curve": 0.25,
							"c3": 0.75
						},
						{
							"time": 7.2,
							"vertices": [ -457.72278, 3469.5315, -467.51593, 3590.1091, -346.93707, 3599.901, -337.1444, 3479.324 ]
						}
					]
				},
				"lense flare 11": {
					"lense flare 11": [
						{
							"vertices": [ -34.58186, -236.57483, -30.47427, -305.84793, -99.74741, -309.956, -103.85475, -240.68207 ]
						},
						{
							"time": 6.4667,
							"vertices": [ -16.50392, -318.92487, -16.50392, -318.92487, -16.50392, -318.92487, -16.50392, -318.92487 ],
							"curve": 0.25,
							"c3": 0.75
						},
						{
							"time": 7.2,
							"vertices": [ 133.33801, 2563.3325, 90.97752, 3084.9465, 612.5905, 3127.3066, 654.9497, 2605.692 ]
						}
					]
				},
				"lense flare 12": {
					"lense flare 12": [
						{
							"vertices": [ 127.11198, -419.10956, 129.38329, -457.42755, 91.06468, -459.69995, 88.79344, -421.38208 ]
						},
						{
							"time": 6.4667,
							"vertices": [ -16.50392, -318.92487, -16.50392, -318.92487, -16.50392, -318.92487, -16.50392, -318.92487 ],
							"curve": 0.25,
							"c3": 0.75
						},
						{
							"time": 7.2,
							"vertices": [ -1115.7822, 3912.967, -1139.2134, 4201.496, -850.6831, 4224.9287, -827.25073, 3936.4001 ]
						}
					]
				},
				"shine 1": {
					"shine 1": [
						{
							"vertices": [ 185.28418, -493.47223, -218.29199, -493.47223, -218.29199, -144.37732, 185.28418, -144.37732 ]
						},
						{
							"time": 0.8667,
							"vertices": [ -16.50392, -318.92487, -16.50392, -318.92487, -16.50392, -318.92487, -16.50392, -318.92487 ]
						},
						{
							"time": 1.2,
							"vertices": [ 185.28418, -493.47223, -218.29199, -493.47223, -218.29199, -144.37732, 185.28418, -144.37732 ]
						},
						{
							"time": 1.5333,
							"vertices": [ -16.50392, -318.92487, -16.50392, -318.92487, -16.50392, -318.92487, -16.50392, -318.92487 ]
						},
						{
							"time": 1.8667,
							"vertices": [ 185.28418, -493.47223, -218.29199, -493.47223, -218.29199, -144.37732, 185.28418, -144.37732 ]
						},
						{
							"time": 2.2,
							"vertices": [ -16.50392, -318.92487, -16.50392, -318.92487, -16.50392, -318.92487, -16.50392, -318.92487 ]
						},
						{
							"time": 2.5333,
							"vertices": [ 185.28418, -493.47223, -218.29199, -493.47223, -218.29199, -144.37732, 185.28418, -144.37732 ]
						},
						{
							"time": 2.8667,
							"vertices": [ -16.50392, -318.92487, -16.50392, -318.92487, -16.50392, -318.92487, -16.50392, -318.92487 ]
						},
						{
							"time": 3.2,
							"vertices": [ 185.28418, -493.47223, -218.29199, -493.47223, -218.29199, -144.37732, 185.28418, -144.37732 ]
						},
						{
							"time": 3.5333,
							"vertices": [ -16.50392, -318.92487, -16.50392, -318.92487, -16.50392, -318.92487, -16.50392, -318.92487 ]
						},
						{
							"time": 3.8667,
							"vertices": [ 185.28418, -493.47223, -218.29199, -493.47223, -218.29199, -144.37732, 185.28418, -144.37732 ]
						},
						{
							"time": 4.2,
							"vertices": [ -16.50392, -318.92487, -16.50392, -318.92487, -16.50392, -318.92487, -16.50392, -318.92487 ]
						},
						{
							"time": 4.5333,
							"vertices": [ 185.28418, -493.47223, -218.29199, -493.47223, -218.29199, -144.37732, 185.28418, -144.37732 ]
						},
						{
							"time": 4.8667,
							"vertices": [ -16.50392, -318.92487, -16.50392, -318.92487, -16.50392, -318.92487, -16.50392, -318.92487 ]
						},
						{
							"time": 5.2,
							"vertices": [ 185.28418, -493.47223, -218.29199, -493.47223, -218.29199, -144.37732, 185.28418, -144.37732 ]
						},
						{
							"time": 5.5333,
							"vertices": [ -16.50392, -318.92487, -16.50392, -318.92487, -16.50392, -318.92487, -16.50392, -318.92487 ]
						},
						{
							"time": 5.8667,
							"vertices": [ 185.28418, -493.47223, -218.29199, -493.47223, -218.29199, -144.37732, 185.28418, -144.37732 ]
						},
						{
							"time": 6.4667,
							"vertices": [ -16.50392, -318.92487, -16.50392, -318.92487, -16.50392, -318.92487, -16.50392, -318.92487 ],
							"curve": 0.25,
							"c3": 0.75
						},
						{
							"time": 7.2,
							"vertices": [ -16.50378, 3103.2412, -16.50378, 3103.2412, -16.50378, 3103.2412, -16.50378, 3103.2412 ]
						}
					]
				},
				"shine 2": {
					"shine 2": [
						{
							"vertices": [ -16.50392, -318.92487, -16.50392, -318.92487, -16.50392, -318.92487, -16.50392, -318.92487 ]
						},
						{
							"time": 0.8667,
							"vertices": [ 451.09753, -691.9584, -484.10535, -691.9584, -484.10535, 54.10876, 451.09753, 54.10876 ]
						},
						{
							"time": 1.2,
							"vertices": [ -16.50392, -318.92487, -16.50392, -318.92487, -16.50392, -318.92487, -16.50392, -318.92487 ]
						},
						{
							"time": 1.5333,
							"vertices": [ 451.09753, -691.9584, -484.10535, -691.9584, -484.10535, 54.10876, 451.09753, 54.10876 ]
						},
						{
							"time": 1.8667,
							"vertices": [ -16.50392, -318.92487, -16.50392, -318.92487, -16.50392, -318.92487, -16.50392, -318.92487 ]
						},
						{
							"time": 2.2,
							"vertices": [ 451.09753, -691.9584, -484.10535, -691.9584, -484.10535, 54.10876, 451.09753, 54.10876 ]
						},
						{
							"time": 2.5333,
							"vertices": [ -16.50392, -318.92487, -16.50392, -318.92487, -16.50392, -318.92487, -16.50392, -318.92487 ]
						},
						{
							"time": 2.8667,
							"vertices": [ 451.09753, -691.9584, -484.10535, -691.9584, -484.10535, 54.10876, 451.09753, 54.10876 ]
						},
						{
							"time": 3.2,
							"vertices": [ -16.50392, -318.92487, -16.50392, -318.92487, -16.50392, -318.92487, -16.50392, -318.92487 ]
						},
						{
							"time": 3.5333,
							"vertices": [ 451.09753, -691.9584, -484.10535, -691.9584, -484.10535, 54.10876, 451.09753, 54.10876 ]
						},
						{
							"time": 3.8667,
							"vertices": [ -16.50392, -318.92487, -16.50392, -318.92487, -16.50392, -318.92487, -16.50392, -318.92487 ]
						},
						{
							"time": 4.2,
							"vertices": [ 451.09753, -691.9584, -484.10535, -691.9584, -484.10535, 54.10876, 451.09753, 54.10876 ]
						},
						{
							"time": 4.5333,
							"vertices": [ -16.50392, -318.92487, -16.50392, -318.92487, -16.50392, -318.92487, -16.50392, -318.92487 ]
						},
						{
							"time": 4.8667,
							"vertices": [ 451.09753, -691.9584, -484.10535, -691.9584, -484.10535, 54.10876, 451.09753, 54.10876 ]
						},
						{
							"time": 5.2,
							"vertices": [ -16.50392, -318.92487, -16.50392, -318.92487, -16.50392, -318.92487, -16.50392, -318.92487 ]
						},
						{
							"time": 5.5333,
							"vertices": [ 451.09753, -691.9584, -484.10535, -691.9584, -484.10535, 54.10876, 451.09753, 54.10876 ]
						},
						{
							"time": 5.8667,
							"vertices": [ -16.50392, -318.92487, -16.50392, -318.92487, -16.50392, -318.92487, -16.50392, -318.92487 ]
						},
						{
							"time": 6.2,
							"vertices": [ 451.09753, -691.9584, -484.10535, -691.9584, -484.10535, 54.10876, 451.09753, 54.10876 ]
						},
						{
							"time": 6.4667,
							"vertices": [ -16.50392, -318.92487, -16.50392, -318.92487, -16.50392, -318.92487, -16.50392, -318.92487 ],
							"curve": 0.25,
							"c3": 0.75
						},
						{
							"time": 7.2,
							"vertices": [ -16.50378, 3103.2412, -16.50378, 3103.2412, -16.50378, 3103.2412, -16.50378, 3103.2412 ]
						}
					]
				}
			}
		}
	}
}
}