%YAML 1.1
%TAG !u! tag:unity3d.com,2011:
--- !u!1 &481461629656723840
GameObject:
  m_ObjectHideFlags: 0
  m_CorrespondingSourceObject: {fileID: 0}
  m_PrefabInstance: {fileID: 0}
  m_PrefabAsset: {fileID: 0}
  serializedVersion: 6
  m_Component:
  - component: {fileID: 5734200083048037945}
  - component: {fileID: 2352360146678328325}
  - component: {fileID: 6942848521359112213}
  - component: {fileID: 481461629656723847}
  m_Layer: 0
  m_Name: Timer Coin Piece Purple
  m_TagString: Untagged
  m_Icon: {fileID: 0}
  m_NavMeshLayer: 0
  m_StaticEditorFlags: 0
  m_IsActive: 1
--- !u!4 &5734200083048037945
Transform:
  m_ObjectHideFlags: 0
  m_CorrespondingSourceObject: {fileID: 0}
  m_PrefabInstance: {fileID: 0}
  m_PrefabAsset: {fileID: 0}
  m_GameObject: {fileID: 481461629656723840}
  m_LocalRotation: {x: 0, y: 0, z: 0, w: 1}
  m_LocalPosition: {x: 9.822605, y: 31.62241, z: 0}
  m_LocalScale: {x: 1, y: 1, z: 1}
  m_Children: []
  m_Father: {fileID: 0}
  m_RootOrder: 0
  m_LocalEulerAnglesHint: {x: 0, y: 0, z: 0}
--- !u!212 &2352360146678328325
SpriteRenderer:
  m_ObjectHideFlags: 0
  m_CorrespondingSourceObject: {fileID: 0}
  m_PrefabInstance: {fileID: 0}
  m_PrefabAsset: {fileID: 0}
  m_GameObject: {fileID: 481461629656723840}
  m_Enabled: 1
  m_CastShadows: 0
  m_ReceiveShadows: 0
  m_DynamicOccludee: 1
  m_MotionVectors: 1
  m_LightProbeUsage: 1
  m_ReflectionProbeUsage: 1
  m_RayTracingMode: 0
  m_RayTraceProcedural: 0
  m_RenderingLayerMask: 1
  m_RendererPriority: 0
  m_Materials:
  - {fileID: 10754, guid: 0000000000000000f000000000000000, type: 0}
  m_StaticBatchInfo:
    firstSubMesh: 0
    subMeshCount: 0
  m_StaticBatchRoot: {fileID: 0}
  m_ProbeAnchor: {fileID: 0}
  m_LightProbeVolumeOverride: {fileID: 0}
  m_ScaleInLightmap: 1
  m_ReceiveGI: 1
  m_PreserveUVs: 0
  m_IgnoreNormalsForChartDetection: 0
  m_ImportantGI: 0
  m_StitchLightmapSeams: 1
  m_SelectedEditorRenderState: 0
  m_MinimumChartSize: 4
  m_AutoUVMaxDistance: 0.5
  m_AutoUVMaxAngle: 89
  m_LightmapParameters: {fileID: 0}
  m_SortingLayerID: -1751151575
  m_SortingLayer: -2
  m_SortingOrder: 0
  m_Sprite: {fileID: 21300000, guid: 5354d18a35961d947a4fb143716adfc4, type: 3}
  m_Color: {r: 1, g: 1, b: 1, a: 1}
  m_FlipX: 0
  m_FlipY: 0
  m_DrawMode: 0
  m_Size: {x: 45.714287, y: 45.714287}
  m_AdaptiveModeThreshold: 0.5
  m_SpriteTileMode: 0
  m_WasSpriteAssigned: 1
  m_MaskInteraction: 0
  m_SpriteSortPoint: 0
--- !u!114 &6942848521359112213
MonoBehaviour:
  m_ObjectHideFlags: 0
  m_CorrespondingSourceObject: {fileID: 0}
  m_PrefabInstance: {fileID: 0}
  m_PrefabAsset: {fileID: 0}
  m_GameObject: {fileID: 481461629656723840}
  m_Enabled: 1
  m_EditorHideFlags: 0
  m_Script: {fileID: 11500000, guid: a2cedcea314d944e09159c2372cec04f, type: 3}
  m_Name: 
  m_EditorClassIdentifier: 
--- !u!114 &481461629656723847
MonoBehaviour:
  m_ObjectHideFlags: 0
  m_CorrespondingSourceObject: {fileID: 0}
  m_PrefabInstance: {fileID: 0}
  m_PrefabAsset: {fileID: 0}
  m_GameObject: {fileID: 481461629656723840}
  m_Enabled: 1
  m_EditorHideFlags: 0
  m_Script: {fileID: 11500000, guid: 1f8fa2455b2710b45b2083e4eb75109d, type: 3}
  m_Name: 
  m_EditorClassIdentifier: 
  animationNormal:
    sprites:
    - {fileID: 0}
    fps: 30
  animationCollect:
    sprites: []
    fps: 30
  suckActive: 0
  velocity: {x: 0, y: 0}
  color: 0
  appearAnimation:
    sprites:
    - {fileID: 21300000, guid: 8e7f0704ed9424b498ce47fed01e013d, type: 3}
    - {fileID: 21300000, guid: dc07571ca90d82943a40bd0d857a4730, type: 3}
    - {fileID: 21300000, guid: 935c663a4e1efd644b5cbc52321e4ba7, type: 3}
    fps: 15
  stillAnimation:
    sprites:
    - {fileID: 21300000, guid: 6814543965820ec46b7a3491966e89be, type: 3}
    fps: 30
  disappearAnimation:
    sprites:
    - {fileID: 21300000, guid: 935c663a4e1efd644b5cbc52321e4ba7, type: 3}
    - {fileID: 21300000, guid: dc07571ca90d82943a40bd0d857a4730, type: 3}
    - {fileID: 21300000, guid: 8e7f0704ed9424b498ce47fed01e013d, type: 3}
    fps: 15
  shownAnimation:
    sprites:
    - {fileID: 21300000, guid: 5354d18a35961d947a4fb143716adfc4, type: 3}
    - {fileID: 21300000, guid: f24b5fd9b48d21a429261b2357c36db1, type: 3}
    - {fileID: 21300000, guid: e1d343c0d9837c8489f53e101e6b21a0, type: 3}
    - {fileID: 21300000, guid: 2346b105cd1dd1d4fae1340581008003, type: 3}
    - {fileID: 21300000, guid: 41b81070737350041a32628733e48ffd, type: 3}
    - {fileID: 21300000, guid: 587f89c7179aa404ba94f4e475d5fa35, type: 3}
    - {fileID: 21300000, guid: dca89cf5bb3fb9440907a1e4ccdd118e, type: 3}
    - {fileID: 21300000, guid: 6814543965820ec46b7a3491966e89be, type: 3}
    fps: 20
  hideAnimation:
    sprites:
    - {fileID: 0}
    fps: 30
  hitParticleAnimation:
    sprites:
    - {fileID: 21300000, guid: fc8aca7893096f8438509c7aa6bdb245, type: 3}
    - {fileID: 21300000, guid: 54915b4ab7f47ea40b15eabc4221c89d, type: 3}
    - {fileID: 21300000, guid: 98213876cb0dfd7488a41d40b1b6e42e, type: 3}
    - {fileID: 21300000, guid: a6ce025a2472998438e957993679d102, type: 3}
    - {fileID: 21300000, guid: a86573ad519cf0843b20b7b50456df2f, type: 3}
    fps: 20
  state: 0
