%YAML 1.1
%TAG !u! tag:unity3d.com,2011:
--- !u!114 &11400000
MonoBehaviour:
  m_ObjectHideFlags: 0
  m_CorrespondingSourceObject: {fileID: 0}
  m_PrefabInstance: {fileID: 0}
  m_PrefabAsset: {fileID: 0}
  m_GameObject: {fileID: 0}
  m_Enabled: 1
  m_EditorHideFlags: 0
  m_Script: {fileID: 11500000, guid: bbb281ee3bf0b054c82ac2347e9e782c, type: 3}
  m_Name: Default Local Group
  m_EditorClassIdentifier: 
  m_GroupName: Default Local Group
  m_Data:
    m_SerializedData: []
  m_GUID: aeaa39ce93d969c4b8b925cac3c02b57
  m_SerializeEntries:
  - m_GUID: 7b012ed7af4c7fa43a5af0b90d6c1643
    m_Address: Assets/Ingame/Player Characters/King/King.prefab
    m_ReadOnly: 0
    m_SerializedLabels: []
    m_MainAsset: {fileID: 0}
    m_TargetAsset: {fileID: 0}
  - m_GUID: 18ac99a8bc6b9fd478e72214bfe2fb21
    m_Address: Assets/Ingame/Player Characters/Puffer/Puffer.prefab
    m_ReadOnly: 0
    m_SerializedLabels: []
    m_MainAsset: {fileID: 0}
    m_TargetAsset: {fileID: 0}
  - m_GUID: 01855c2607d93794db42b2a8cdc0a29d
    m_Address: Assets/Ingame/Player Characters/Sprout/Sprout.prefab
    m_ReadOnly: 0
    m_SerializedLabels: []
    m_MainAsset: {fileID: 0}
    m_TargetAsset: {fileID: 0}
  - m_GUID: 7f8b7fbabe4fb4732b5769b9b474d4e5
    m_Address: Assets/Ingame/Player Characters/Yolk/Yolk.prefab
    m_ReadOnly: 0
    m_SerializedLabels: []
    m_MainAsset: {fileID: 0}
    m_TargetAsset: {fileID: 0}
  - m_GUID: 7b4fd484dd712754e85d340c0588039d
    m_Address: Assets/Ingame/Player Characters/Goop/Goop.prefab
    m_ReadOnly: 0
    m_SerializedLabels: []
    m_MainAsset: {fileID: 0}
    m_TargetAsset: {fileID: 0}
  - m_GUID: 548e61498d07ded4a9b41518f811b3e0
    m_Address: Assets/Ingame/Assets For Rainy Ruins.asset
    m_ReadOnly: 0
    m_SerializedLabels: []
    m_MainAsset: {fileID: 0}
    m_TargetAsset: {fileID: 0}
  - m_GUID: 1cd33d0a119748d4a82c5f0fdb198356
    m_Address: Assets/Ingame/Assets For Capital Highway.asset
    m_ReadOnly: 0
    m_SerializedLabels: []
    m_MainAsset: {fileID: 0}
    m_TargetAsset: {fileID: 0}
  - m_GUID: 1cb03cd7a4fd6574bb297d8243b379db
    m_Address: Assets/Ingame/Assets For Conflict Canyon.asset
    m_ReadOnly: 0
    m_SerializedLabels: []
    m_MainAsset: {fileID: 0}
    m_TargetAsset: {fileID: 0}
  - m_GUID: 4349d34d03a37ab46a4a9df4a636e6fb
    m_Address: Assets/Ingame/Assets For Hot N Cold Springs.asset
    m_ReadOnly: 0
    m_SerializedLabels: []
    m_MainAsset: {fileID: 0}
    m_TargetAsset: {fileID: 0}
  - m_GUID: 6959e1a67459c294d91b2cd4b0ccf81f
    m_Address: Assets/Ingame/Assets For Gravity Galaxy.asset
    m_ReadOnly: 0
    m_SerializedLabels: []
    m_MainAsset: {fileID: 0}
    m_TargetAsset: {fileID: 0}
  - m_GUID: fedfb55c20858024db6e1d190f982ee7
    m_Address: Assets/Ingame/Assets For VR Training Room.asset
    m_ReadOnly: 0
    m_SerializedLabels: []
    m_MainAsset: {fileID: 0}
    m_TargetAsset: {fileID: 0}
  - m_GUID: 2c68727ac8c9ab34b9bb109edaef1b28
    m_Address: Assets/Ingame/Assets For Opening Tutorial.asset
    m_ReadOnly: 0
    m_SerializedLabels: []
    m_MainAsset: {fileID: 0}
    m_TargetAsset: {fileID: 0}
  - m_GUID: 8fb83ec8abaa5ab40a192f52ee46d8fa
    m_Address: Assets/Ingame/Assets For Water Theme.asset
    m_ReadOnly: 0
    m_SerializedLabels: []
    m_MainAsset: {fileID: 0}
    m_TargetAsset: {fileID: 0}
  - m_GUID: 658414ebaaedc2e4888010952bc36233
    m_Address: Assets/Ingame/Assets For Treasure Mines.asset
    m_ReadOnly: 0
    m_SerializedLabels: []
    m_MainAsset: {fileID: 0}
    m_TargetAsset: {fileID: 0}
  - m_GUID: fda1226d3854cd840a0c039149ab0a72
    m_Address: Assets/Ingame/Assets For Air Theme.asset
    m_ReadOnly: 0
    m_SerializedLabels: []
    m_MainAsset: {fileID: 0}
    m_TargetAsset: {fileID: 0}
  - m_GUID: 731f693f5aac74342a490d37ca343d3a
    m_Address: Assets/Ingame/Items/Trophies/multiplayer/Fly Multiplayer Loser.prefab
    m_ReadOnly: 0
    m_SerializedLabels: []
    m_MainAsset: {fileID: 0}
    m_TargetAsset: {fileID: 0}
  - m_GUID: f82253ecb588249fd87e82c8d299ec2e
    m_Address: Assets/Ingame/Assets For Tombstone Hill.asset
    m_ReadOnly: 0
    m_SerializedLabels: []
    m_MainAsset: {fileID: 0}
    m_TargetAsset: {fileID: 0}
  - m_GUID: f23b9e31beecebd44ba69797c88b5100
    m_Address: Assets/Ingame/Assets For Lava Castle.asset
    m_ReadOnly: 0
    m_SerializedLabels: []
    m_MainAsset: {fileID: 0}
    m_TargetAsset: {fileID: 0}
  m_ReadOnly: 0
  m_Settings: {fileID: 11400000, guid: 0e34a43caec618343bbaf073de9be296, type: 2}
  m_SchemaSet:
    m_Schemas:
    - {fileID: 11400000, guid: df501b0a76317ff4ca0f133e4bf3e11a, type: 2}
    - {fileID: 11400000, guid: 67458be6a8a700e44ad7d6d0c37069e2, type: 2}
