%YAML 1.1
%TAG !u! tag:unity3d.com,2011:
--- !u!114 &11400000
MonoBehaviour:
  m_ObjectHideFlags: 0
  m_CorrespondingSourceObject: {fileID: 0}
  m_PrefabInstance: {fileID: 0}
  m_PrefabAsset: {fileID: 0}
  m_GameObject: {fileID: 0}
  m_Enabled: 1
  m_EditorHideFlags: 0
  m_Script: {fileID: 11500000, guid: deada51ddafa6304c894ffaffa3f8d7c, type: 3}
  m_Name: TilesetSpaceExteriorSecondary
  m_EditorClassIdentifier: 
  type: 1
  flowIntoSlopes: 0
  singleSquare:
  - {fileID: 21300000, guid: d11c62e17723d5a47beb0fbd77dc5bc1, type: 3}
  - {fileID: 21300000, guid: 7ed30446adc59764d8138962c97ac7ae, type: 3}
  - {fileID: 21300000, guid: ccd0aeb9c9d7d694abefd29e4a1160c7, type: 3}
  interior:
  - {fileID: 21300000, guid: 4b3f223fe4093ce4da42eb67cc90dee1, type: 3}
  - {fileID: 21300000, guid: b8eb63b7557e2f14780d433f7095ce86, type: 3}
  - {fileID: 21300000, guid: 3d11067b6360fa340ba2a35467063f18, type: 3}
  - {fileID: 21300000, guid: ad296f95244797d4a80194a6fe471778, type: 3}
  - {fileID: 21300000, guid: 7b28e8f6b5ef86842bcc22da4100af02, type: 3}
  - {fileID: 21300000, guid: cd1d08c4d1f274e46970ca4288b5c22d, type: 3}
  - {fileID: 21300000, guid: ea924041a81f1a246ba2b326833f646c, type: 3}
  - {fileID: 21300000, guid: 3c09883a273f8394987f7c27b0ca9b7f, type: 3}
  - {fileID: 21300000, guid: 90bf40d64d87ed5438157e08210421ab, type: 3}
  - {fileID: 21300000, guid: ad3d59a873e639b46aca412f07fef2c8, type: 3}
  - {fileID: 21300000, guid: 587ef7e7208efad4596bacf4bb84d55a, type: 3}
  - {fileID: 21300000, guid: ae61a0742e322d74f84afd34c29feec1, type: 3}
  - {fileID: 21300000, guid: 1a987c1da2cbcb9468c7740e8b31a460, type: 3}
  - {fileID: 21300000, guid: 2206437c18956214589f9574b5a8b4cf, type: 3}
  - {fileID: 21300000, guid: 88c2a7ba73be4f54997d8a16985c3c2f, type: 3}
  - {fileID: 21300000, guid: 07b0c197bb6c69f47aa97d10d313ba77, type: 3}
  - {fileID: 21300000, guid: aec9012310e63744793c2a796911e96a, type: 3}
  - {fileID: 21300000, guid: 5dab67a03f09b7b4689cc6781f30f47d, type: 3}
  - {fileID: 21300000, guid: bb956ccef6c73d2438d374a59f9d952c, type: 3}
  - {fileID: 21300000, guid: dcf7c1724dd7b6e46857b5b9557bb343, type: 3}
  - {fileID: 21300000, guid: 08ec780c08da97d458d49b560d803cec, type: 3}
  - {fileID: 21300000, guid: c1dc3fbcc68fc9742a0e56e56238bff2, type: 3}
  - {fileID: 21300000, guid: af57a05e0c37ae64fb2a4404a4962b90, type: 3}
  - {fileID: 21300000, guid: 743b84bf9933ca045bfe1264504246dd, type: 3}
  - {fileID: 21300000, guid: 3bd6e0b9ef041d8498b20588f7f85679, type: 3}
  - {fileID: 21300000, guid: bbaabf206a72eab4fad2297533af9946, type: 3}
  - {fileID: 21300000, guid: c148f1e65087ee641afbd55600d128e0, type: 3}
  - {fileID: 21300000, guid: 4eddc7de0cc3a9949a2bcdffd376fff2, type: 3}
  - {fileID: 21300000, guid: 26ce63eac0a17084392a9f66016388e7, type: 3}
  - {fileID: 21300000, guid: 0447f946b34f7c6459f39fb02fb80cdb, type: 3}
  - {fileID: 21300000, guid: 18048f46f0b001847b61da3dbb29a358, type: 3}
  - {fileID: 21300000, guid: 6401b0f3b59a127478a4d9580e4be343, type: 3}
  - {fileID: 21300000, guid: 51831554002adbe499ddd7a684c62416, type: 3}
  - {fileID: 21300000, guid: 81ee93cec4b2649429455485abb6eb60, type: 3}
  - {fileID: 21300000, guid: 371b5abe56002624096d2742aa48d134, type: 3}
  - {fileID: 21300000, guid: f876ce9564c7f6f47ab8ba2ed849594b, type: 3}
  - {fileID: 21300000, guid: 5af7ffb97c23e9f4e9d8195770aa7b2c, type: 3}
  - {fileID: 21300000, guid: c692b6b2ff6b5f742be255c617a3e4af, type: 3}
  - {fileID: 21300000, guid: ec087848a26a8484ab67ad34f9167920, type: 3}
  - {fileID: 21300000, guid: 43edf05bb2fd649469b414a50c588f90, type: 3}
  - {fileID: 21300000, guid: c1314767a1262534786f8962c258946f, type: 3}
  - {fileID: 21300000, guid: 9765284ee8516e54796de269b39d5a3a, type: 3}
  - {fileID: 21300000, guid: cfd191ecb6058bf4c982fe69e95dc06b, type: 3}
  - {fileID: 21300000, guid: 43ab23f253839c44b90c77eb9e31b0af, type: 3}
  - {fileID: 21300000, guid: 57ac2417f504f2d46b68db213422bcc0, type: 3}
  - {fileID: 21300000, guid: 3bef1d4f14be2444aa832cba8a4b85bf, type: 3}
  - {fileID: 21300000, guid: 95bd819d26ca63e4eb9306cfef94e1a6, type: 3}
  - {fileID: 21300000, guid: 595f69d767087af42bc4533f5568e7ea, type: 3}
  interiorStyle: 1
  interiorGridColumns: 8
  interiorGridRows: 6
  interiorUnderneathEdges: 0
  interiorUnderneathJoinedSlopes: 0
  bottom:
  - {fileID: 21300000, guid: 6678c2dd44343f74484949d3bce47af2, type: 3}
  - {fileID: 21300000, guid: a0b089dc831b84d40bcddfb757f5e8a5, type: 3}
  - {fileID: 21300000, guid: a1122b6138a33e14c81cbea0bd31b467, type: 3}
  - {fileID: 21300000, guid: 4ff0ff51889531c4689bbe0e88d91ac6, type: 3}
  left:
  - {fileID: 21300000, guid: 7ba4bd957e9e81048a23462a9d1bed0b, type: 3}
  - {fileID: 21300000, guid: 64a036bde1c645241a3d1ac0ac460cc5, type: 3}
  - {fileID: 21300000, guid: 60ffa85cdbeccfa43bb6bbe285b3b4e7, type: 3}
  - {fileID: 21300000, guid: ab3fb97337a645c4d945be7d18f6e67b, type: 3}
  right:
  - {fileID: 21300000, guid: 4952c07d6744bd745af0b5b15906da69, type: 3}
  - {fileID: 21300000, guid: 2891d28dde8497644bc465baa78824a3, type: 3}
  - {fileID: 21300000, guid: 4cd72fcd73c0a2d489a06bfeea2d9bc7, type: 3}
  - {fileID: 21300000, guid: 9c1c5fa9550007c49a65f509f315063e, type: 3}
  top:
  - {fileID: 21300000, guid: 16c5875fc0b11fc4bb305ed514906c01, type: 3}
  - {fileID: 21300000, guid: 0f93d96ae508a9e4c885d0f0ce91dbdf, type: 3}
  - {fileID: 21300000, guid: 4c61142d8e982d646a6a03092ee43eee, type: 3}
  - {fileID: 21300000, guid: 8d34dc037c53d794c8cc999b434cf374, type: 3}
  bottomLeft: {fileID: 21300000, guid: 94e58013128fe2a4285b63cec42ccd8e, type: 3}
  bottomRight: {fileID: 21300000, guid: 607268fd6f0c58e4a82dacbd1b034b86, type: 3}
  topLeft: {fileID: 21300000, guid: 1a684a1e44a469a489bab4984ff46c83, type: 3}
  topRight: {fileID: 21300000, guid: f4f2b5bedf5167d45b3c659e503fd331, type: 3}
  insideBottomLeft: {fileID: 21300000, guid: ff55fabfe4b0ae34181bb303d4696c25, type: 3}
  insideBottomRight: {fileID: 21300000, guid: 455ab5d9dd35135428db828ac42e0e0a, type: 3}
  insideTopLeft: {fileID: 21300000, guid: 956c9b8343e8a14468d2574c2e96cc14, type: 3}
  insideTopRight: {fileID: 21300000, guid: 94a821dcbd863b84894ce5890328b58e, type: 3}
  slope22BottomLeft: {fileID: 21300000, guid: b9d141e577bab684cbc33bbfeecd0855, type: 3}
  slope22BottomRight: {fileID: 21300000, guid: a6abc94f1254c7d479e01cccd4e0119f, type: 3}
  slope22TopLeft: {fileID: 21300000, guid: a6b0b428b412e974480abcfe09e1f2c6, type: 3}
  slope22TopRight: {fileID: 21300000, guid: 17a5de7e1b3c5bf43853c40044626494, type: 3}
  slope45BottomLeft: {fileID: 21300000, guid: 14f66e5c81dff284799a80021bffb137, type: 3}
  slope45BottomRight: {fileID: 21300000, guid: bb41a996facda62469c30e10d0430e88, type: 3}
  slope45TopLeft: {fileID: 21300000, guid: ff3fbd41dc4f6ca46b79b8bb4069ac7f, type: 3}
  slope45TopRight: {fileID: 21300000, guid: f249baf800cb96a469b8e765481efb23, type: 3}
  slopeJoined22BottomLeft: {fileID: 21300000, guid: d45f0f779b405f444b0340d089400ae9,
    type: 3}
  slopeJoined22BottomRight: {fileID: 21300000, guid: c7203f6cd51f93845a011d4659ced4f7,
    type: 3}
  slopeJoined22TopLeft: {fileID: 21300000, guid: 06fe4b13f9ed30a4dbd93eb45694b55f,
    type: 3}
  slopeJoined22TopRight: {fileID: 21300000, guid: 58d4b39a2f60b434a806058bfd5ca30c,
    type: 3}
  slopeJoined45BottomLeft: {fileID: 21300000, guid: 6346ccb4f943f784b89b9d948bbf59fb,
    type: 3}
  slopeJoined45BottomRight: {fileID: 21300000, guid: f2cd6fca47aa2d1448e9160b1bd1099e,
    type: 3}
  slopeJoined45TopLeft: {fileID: 21300000, guid: e26546bc910ac474e842400a5f8219fb,
    type: 3}
  slopeJoined45TopRight: {fileID: 21300000, guid: 04337937dd035dd4ba91c43d19f7cb34,
    type: 3}
  slopeJoinedLeft22BottomLeft: {fileID: 21300000, guid: cf1fb2f1d70fbfa4aa01a24b02ba4316,
    type: 3}
  slopeJoinedLeft22BottomRight: {fileID: 21300000, guid: e2fa2525bd5dd0a4cad6102df6b496f6,
    type: 3}
  slopeJoinedLeft22TopLeft: {fileID: 21300000, guid: e0e405142c3abe449aca09344e4f2e7b,
    type: 3}
  slopeJoinedLeft22TopRight: {fileID: 21300000, guid: 7c3fb6ca73b816c47a5262501ff91e99,
    type: 3}
  slopeJoinedLeft45BottomLeft: {fileID: 21300000, guid: 739e2495427b94b47a3a39bc1e220ed8,
    type: 3}
  slopeJoinedLeft45BottomRight: {fileID: 21300000, guid: 3d3e722ac476c8649b9d1b2d07bbc6d3,
    type: 3}
  slopeJoinedLeft45TopLeft: {fileID: 21300000, guid: d233553821c9c054ea91c4acb917e8cf,
    type: 3}
  slopeJoinedLeft45TopRight: {fileID: 21300000, guid: 43ad9ebe9281c1e4785357086b77d556,
    type: 3}
  slopeJoinedRight22BottomLeft: {fileID: 21300000, guid: 12023191c29cfef418c46a5574ac5bf3,
    type: 3}
  slopeJoinedRight22BottomRight: {fileID: 21300000, guid: 76f79aff84cee8e4aacd7a46c6b4cca2,
    type: 3}
  slopeJoinedRight22TopLeft: {fileID: 21300000, guid: b402de7d3eb356d4899cd829dad21523,
    type: 3}
  slopeJoinedRight22TopRight: {fileID: 21300000, guid: 156d8074538d5ac49b45394b09104c0a,
    type: 3}
  slopeJoinedRight45BottomLeft: {fileID: 21300000, guid: 483b6a0d1a94a9d4a944ebebfc861063,
    type: 3}
  slopeJoinedRight45BottomRight: {fileID: 21300000, guid: 112502f5e8612f0438f4b2c7f6a7aad6,
    type: 3}
  slopeJoinedRight45TopLeft: {fileID: 21300000, guid: c1c77b6ba14af334d9fc3af89f7de3fe,
    type: 3}
  slopeJoinedRight45TopRight: {fileID: 21300000, guid: 93481057e6f60134f9bcf5cdfe60a5dc,
    type: 3}
  curve3Plus1BottomLeft: {fileID: 21300000, guid: 40ebf29b486aa1d4da8559259d9b0ba2,
    type: 3}
  curve3Plus1BottomRight: {fileID: 21300000, guid: c0ef4d1b71147a74eb5e6a3dd41fbc72,
    type: 3}
  curve3Plus1TopLeft: {fileID: 21300000, guid: b18b2db3db10c89449447241b1e5455c, type: 3}
  curve3Plus1TopRight: {fileID: 21300000, guid: d22422ce7d5cf0b4c825db00b76dc5fa,
    type: 3}
  curve3Plus1BottomLeftWithOutside: {fileID: 21300000, guid: a39ed3bead34aeb4f8aab004b71330d3,
    type: 3}
  curve3Plus1BottomRightWithOutside: {fileID: 21300000, guid: 3e8cc907b1f64ee41b5298da1566e2d7,
    type: 3}
  curve3Plus1TopLeftWithOutside: {fileID: 21300000, guid: 60f60cc72f909d64289380ab7b301c60,
    type: 3}
  curve3Plus1TopRightWithOutside: {fileID: 21300000, guid: c668c99739b0c8c40a663ed992e5082b,
    type: 3}
  curve3Plus1BottomLeftJoined: {fileID: 0}
  curve3Plus1BottomRightJoined: {fileID: 0}
  curve3Plus1TopLeftJoined: {fileID: 0}
  curve3Plus1TopRightJoined: {fileID: 0}
  curveOut3Plus1BottomLeft: {fileID: 21300000, guid: 736a258fc9c8c9e43b7d590282dc1a0f,
    type: 3}
  curveOut3Plus1BottomRight: {fileID: 21300000, guid: d79efb10fc96fe343b4d59c36b3c2268,
    type: 3}
  curveOut3Plus1TopLeft: {fileID: 21300000, guid: 5d4ceb22d75199d4195e126ea50b5c44,
    type: 3}
  curveOut3Plus1TopRight: {fileID: 21300000, guid: 66db55a0296edfa43ad15add5fe610f6,
    type: 3}
  singleRowLeft: {fileID: 21300000, guid: 59137ce04dcbfdc42b0aa41beef0f6fa, type: 3}
  singleRowMiddle:
  - {fileID: 21300000, guid: 8d10dbbd06dd91f4880c10a2e55c423c, type: 3}
  - {fileID: 21300000, guid: cc2fd4972e82b1845a7dac276d311f78, type: 3}
  - {fileID: 21300000, guid: 0afac3079d92aa14c934a9e41475a1dd, type: 3}
  singleRowRight: {fileID: 21300000, guid: 7ee9b9df28bf46241934ed945cd29911, type: 3}
  pillar1WideTop: {fileID: 21300000, guid: c83d7c6f5ee040840a7a0f044c60d99e, type: 3}
  pillar1WideMiddle:
  - {fileID: 21300000, guid: 51d581aa6665c354d9bb5c693a195bba, type: 3}
  - {fileID: 21300000, guid: f68ac49ebd3eff749bcaf540a2c86501, type: 3}
  - {fileID: 21300000, guid: 7334c25938af4fd428de74fbabc6cbbe, type: 3}
  pillar1WideBottom: {fileID: 21300000, guid: 489414e7173fff647a22dce893a06bcd, type: 3}
  pillar2WideTop: {fileID: 0}
  pillar2WideMiddle: []
  pillar2WideBottom: {fileID: 0}
