%YAML 1.1
%TAG !u! tag:unity3d.com,2011:
--- !u!114 &11400000
MonoBehaviour:
  m_ObjectHideFlags: 0
  m_CorrespondingSourceObject: {fileID: 0}
  m_PrefabInstance: {fileID: 0}
  m_PrefabAsset: {fileID: 0}
  m_GameObject: {fileID: 0}
  m_Enabled: 1
  m_EditorHideFlags: 0
  m_Script: {fileID: 11500000, guid: deada51ddafa6304c894ffaffa3f8d7c, type: 3}
  m_Name: TilesetSpaceInteriorGravityEdging
  m_EditorClassIdentifier: 
  type: 2
  flowIntoSlopes: 0
  singleSquare: []
  interior:
  - {fileID: 0}
  - {fileID: 0}
  - {fileID: 0}
  - {fileID: 0}
  - {fileID: 0}
  - {fileID: 0}
  - {fileID: 0}
  - {fileID: 0}
  - {fileID: 0}
  - {fileID: 0}
  - {fileID: 0}
  - {fileID: 0}
  - {fileID: 0}
  - {fileID: 0}
  - {fileID: 0}
  - {fileID: 0}
  interiorStyle: 1
  interiorGridColumns: 4
  interiorGridRows: 4
  interiorUnderneathEdges: 0
  interiorUnderneathJoinedSlopes: 0
  interiorUnderneathAllCurves: 0
  bottom:
  - {fileID: 21300000, guid: a1838ec7138b501438bf901f679d3577, type: 3}
  - {fileID: 21300000, guid: aad6bf6baab0ace4894841db9cae4449, type: 3}
  - {fileID: 21300000, guid: 55814528b18112a4994c70459fd386d6, type: 3}
  - {fileID: 21300000, guid: 33177e5307d97b347ba9487b9012ba57, type: 3}
  left:
  - {fileID: 21300000, guid: b6b1b2d969015ed45a161f8702e27dd8, type: 3}
  - {fileID: 21300000, guid: 0f92ef75da351bf479377a21855fb529, type: 3}
  - {fileID: 21300000, guid: ffc91d4e68d08f64d8ed658f13cc574c, type: 3}
  - {fileID: 21300000, guid: 3ca774381e59b9d49b2dcedafb315ebf, type: 3}
  right:
  - {fileID: 21300000, guid: 8c7c70615aae02e4a8e3970d2568b2bf, type: 3}
  - {fileID: 21300000, guid: 5074d4bb78b612543a99d0c158ace0b5, type: 3}
  - {fileID: 21300000, guid: 35d72279e8fb0b04c91c4af16b9d3700, type: 3}
  - {fileID: 21300000, guid: f7702eb39b9fddc4b8e8a3cde126981d, type: 3}
  top:
  - {fileID: 21300000, guid: 8df5ef98e4863e44ab63d95b4bc86a89, type: 3}
  - {fileID: 21300000, guid: 1022883ca261a594d981384e9d2d4aa5, type: 3}
  - {fileID: 21300000, guid: cb2704c467b3df74e881ce88754c4685, type: 3}
  - {fileID: 21300000, guid: 010522552237ba340a83d47027d9877d, type: 3}
  bottomLeft: {fileID: 21300000, guid: eb684b948c259d444a13ddfb7ca0b1fd, type: 3}
  bottomRight: {fileID: 21300000, guid: 8dd21c18c2ca1e148b15b78fda2be1b5, type: 3}
  topLeft: {fileID: 21300000, guid: bf762db777d965a4faa4b4fb1b5743ac, type: 3}
  topRight: {fileID: 21300000, guid: 290f6638ed0419d4da85fad7775840a4, type: 3}
  insideBottomLeft: {fileID: 21300000, guid: b7a0092d72bb8df4684d740a4d3d61db, type: 3}
  insideBottomRight: {fileID: 21300000, guid: 16fc60550f4e3fa49bdc9564357e6d4b, type: 3}
  insideTopLeft: {fileID: 21300000, guid: 6cca15a0c1c91164fa601f27e916f54b, type: 3}
  insideTopRight: {fileID: 21300000, guid: 370ea3e3549334c46a09d4864cb8888c, type: 3}
  slope22BottomLeft: {fileID: 0}
  slope22BottomRight: {fileID: 0}
  slope22TopLeft: {fileID: 0}
  slope22TopRight: {fileID: 0}
  slope45BottomLeft: {fileID: 0}
  slope45BottomRight: {fileID: 0}
  slope45TopLeft: {fileID: 0}
  slope45TopRight: {fileID: 0}
  slopeJoined22BottomLeft: {fileID: 0}
  slopeJoined22BottomRight: {fileID: 0}
  slopeJoined22TopLeft: {fileID: 0}
  slopeJoined22TopRight: {fileID: 0}
  slopeJoined45BottomLeft: {fileID: 0}
  slopeJoined45BottomRight: {fileID: 0}
  slopeJoined45TopLeft: {fileID: 0}
  slopeJoined45TopRight: {fileID: 0}
  slopeJoinedLeft22BottomLeft: {fileID: 0}
  slopeJoinedLeft22BottomRight: {fileID: 0}
  slopeJoinedLeft22TopLeft: {fileID: 0}
  slopeJoinedLeft22TopRight: {fileID: 0}
  slopeJoinedLeft45BottomLeft: {fileID: 0}
  slopeJoinedLeft45BottomRight: {fileID: 0}
  slopeJoinedLeft45TopLeft: {fileID: 0}
  slopeJoinedLeft45TopRight: {fileID: 0}
  slopeJoinedRight22BottomLeft: {fileID: 0}
  slopeJoinedRight22BottomRight: {fileID: 0}
  slopeJoinedRight22TopLeft: {fileID: 0}
  slopeJoinedRight22TopRight: {fileID: 0}
  slopeJoinedRight45BottomLeft: {fileID: 0}
  slopeJoinedRight45BottomRight: {fileID: 0}
  slopeJoinedRight45TopLeft: {fileID: 0}
  slopeJoinedRight45TopRight: {fileID: 0}
  curve3Plus1BottomLeft: {fileID: 0}
  curve3Plus1BottomRight: {fileID: 0}
  curve3Plus1TopLeft: {fileID: 0}
  curve3Plus1TopRight: {fileID: 0}
  curve3Plus1BottomLeftWithOutside: {fileID: 0}
  curve3Plus1BottomRightWithOutside: {fileID: 0}
  curve3Plus1TopLeftWithOutside: {fileID: 0}
  curve3Plus1TopRightWithOutside: {fileID: 0}
  curve3Plus1BottomLeftJoined: {fileID: 0}
  curve3Plus1BottomRightJoined: {fileID: 0}
  curve3Plus1TopLeftJoined: {fileID: 0}
  curve3Plus1TopRightJoined: {fileID: 0}
  curveOut3Plus1BottomLeft: {fileID: 0}
  curveOut3Plus1BottomRight: {fileID: 0}
  curveOut3Plus1TopLeft: {fileID: 0}
  curveOut3Plus1TopRight: {fileID: 0}
  singleRowLeft: {fileID: 0}
  singleRowMiddle: []
  singleRowRight: {fileID: 0}
  pillar1WideTop: {fileID: 0}
  pillar1WideMiddle: []
  pillar1WideBottom: {fileID: 0}
  pillar2WideTop: {fileID: 0}
  pillar2WideMiddle: []
  pillar2WideBottom: {fileID: 0}
