%YAML 1.1
%TAG !u! tag:unity3d.com,2011:
--- !u!1001 &3667253709869752676
PrefabInstance:
  m_ObjectHideFlags: 0
  serializedVersion: 2
  m_Modification:
    m_TransformParent: {fileID: 0}
    m_Modifications:
    - target: {fileID: 4881267362023932269, guid: bba5d8c5a31524b439de7831f5348373,
        type: 3}
      propertyPath: m_IsActive
      value: 1
      objectReference: {fileID: 0}
    - target: {fileID: 4881267362023932274, guid: bba5d8c5a31524b439de7831f5348373,
        type: 3}
      propertyPath: m_LocalRotation.w
      value: 1
      objectReference: {fileID: 0}
    - target: {fileID: 4881267362023932274, guid: bba5d8c5a31524b439de7831f5348373,
        type: 3}
      propertyPath: m_LocalRotation.x
      value: 0
      objectReference: {fileID: 0}
    - target: {fileID: 4881267362023932274, guid: bba5d8c5a31524b439de7831f5348373,
        type: 3}
      propertyPath: m_LocalRotation.y
      value: 0
      objectReference: {fileID: 0}
    - target: {fileID: 4881267362023932274, guid: bba5d8c5a31524b439de7831f5348373,
        type: 3}
      propertyPath: m_LocalRotation.z
      value: 0
      objectReference: {fileID: 0}
    - target: {fileID: 4881267362023932274, guid: bba5d8c5a31524b439de7831f5348373,
        type: 3}
      propertyPath: m_LocalEulerAnglesHint.z
      value: 0
      objectReference: {fileID: 0}
    - target: {fileID: 4881267362286522205, guid: bba5d8c5a31524b439de7831f5348373,
        type: 3}
      propertyPath: m_RootOrder
      value: 0
      objectReference: {fileID: 0}
    - target: {fileID: 4881267362286522205, guid: bba5d8c5a31524b439de7831f5348373,
        type: 3}
      propertyPath: m_LocalScale.x
      value: 0.5
      objectReference: {fileID: 0}
    - target: {fileID: 4881267362286522205, guid: bba5d8c5a31524b439de7831f5348373,
        type: 3}
      propertyPath: m_LocalScale.y
      value: 0.5
      objectReference: {fileID: 0}
    - target: {fileID: 4881267362286522205, guid: bba5d8c5a31524b439de7831f5348373,
        type: 3}
      propertyPath: m_LocalPosition.x
      value: 0
      objectReference: {fileID: 0}
    - target: {fileID: 4881267362286522205, guid: bba5d8c5a31524b439de7831f5348373,
        type: 3}
      propertyPath: m_LocalPosition.y
      value: 0
      objectReference: {fileID: 0}
    - target: {fileID: 4881267362286522205, guid: bba5d8c5a31524b439de7831f5348373,
        type: 3}
      propertyPath: m_LocalPosition.z
      value: 0
      objectReference: {fileID: 0}
    - target: {fileID: 4881267362286522205, guid: bba5d8c5a31524b439de7831f5348373,
        type: 3}
      propertyPath: m_LocalRotation.w
      value: 1
      objectReference: {fileID: 0}
    - target: {fileID: 4881267362286522205, guid: bba5d8c5a31524b439de7831f5348373,
        type: 3}
      propertyPath: m_LocalRotation.x
      value: 0
      objectReference: {fileID: 0}
    - target: {fileID: 4881267362286522205, guid: bba5d8c5a31524b439de7831f5348373,
        type: 3}
      propertyPath: m_LocalRotation.y
      value: 0
      objectReference: {fileID: 0}
    - target: {fileID: 4881267362286522205, guid: bba5d8c5a31524b439de7831f5348373,
        type: 3}
      propertyPath: m_LocalRotation.z
      value: 0
      objectReference: {fileID: 0}
    - target: {fileID: 4881267362286522205, guid: bba5d8c5a31524b439de7831f5348373,
        type: 3}
      propertyPath: m_LocalEulerAnglesHint.x
      value: 0
      objectReference: {fileID: 0}
    - target: {fileID: 4881267362286522205, guid: bba5d8c5a31524b439de7831f5348373,
        type: 3}
      propertyPath: m_LocalEulerAnglesHint.y
      value: 0
      objectReference: {fileID: 0}
    - target: {fileID: 4881267362286522205, guid: bba5d8c5a31524b439de7831f5348373,
        type: 3}
      propertyPath: m_LocalEulerAnglesHint.z
      value: 0
      objectReference: {fileID: 0}
    - target: {fileID: 4881267362286522206, guid: bba5d8c5a31524b439de7831f5348373,
        type: 3}
      propertyPath: m_Name
      value: Apple Boulder Small
      objectReference: {fileID: 0}
    - target: {fileID: 4881267362286522207, guid: bba5d8c5a31524b439de7831f5348373,
        type: 3}
      propertyPath: size
      value: 0
      objectReference: {fileID: 0}
    - target: {fileID: 4881267362286522207, guid: bba5d8c5a31524b439de7831f5348373,
        type: 3}
      propertyPath: animationBreak.fps
      value: 20
      objectReference: {fileID: 0}
    m_RemovedComponents: []
  m_SourcePrefab: {fileID: 100100000, guid: bba5d8c5a31524b439de7831f5348373, type: 3}
