%YAML 1.1
%TAG !u! tag:unity3d.com,2011:
--- !u!114 &11400000
MonoBehaviour:
  m_ObjectHideFlags: 0
  m_CorrespondingSourceObject: {fileID: 0}
  m_PrefabInstance: {fileID: 0}
  m_PrefabAsset: {fileID: 0}
  m_GameObject: {fileID: 0}
  m_Enabled: 1
  m_EditorHideFlags: 0
  m_Script: {fileID: 11500000, guid: ff69f2d29266b824eb35844a0940431a, type: 3}
  m_Name: TileThemeAbseiling
  m_EditorClassIdentifier: 
  normalTiles: {fileID: 11400000, guid: c51382e4811fc9b458d146d47a2db283, type: 2}
  dirtTiles: {fileID: 11400000, guid: c990e87d0aff9c84682b9fca33a23d0b, type: 2}
  backTiles: {fileID: 11400000, guid: a9bb5fa1c1449204f8c7b457ad631faf, type: 2}
  cloudLeft: {fileID: 21300000, guid: ef16ac1fb8b460d46ad6ac3f838822db, type: 3}
  cloudRight: {fileID: 21300000, guid: ba3935d86fb7d6a49b0a943c6da425a4, type: 3}
  cloudMiddle:
  - {fileID: 21300000, guid: ebf523c5bc7b2a1419dcd8d95def7a6c, type: 3}
  - {fileID: 21300000, guid: 695fd4f6fbdbe8b4281dd8de1fb13a79, type: 3}
  - {fileID: 21300000, guid: d5e9e790ca6bbc0409f72fc288f59f99, type: 3}
