
temple plants large.png
size: 1778,1582
format: RGBA8888
filter: Linear,Linear
repeat: none
Layer 21
  rotate: false
  xy: 575, 970
  size: 882, 610
  orig: 882, 1213
  offset: 0, 0
  index: -1
Layer 27
  rotate: false
  xy: 1238, 451
  size: 538, 517
  orig: 538, 517
  offset: 0, 0
  index: -1
Layer 37
  rotate: false
  xy: 2, 398
  size: 571, 1182
  orig: 571, 1182
  offset: 0, 0
  index: -1
Layer 39
  rotate: false
  xy: 814, 2
  size: 489, 437
  orig: 489, 437
  offset: 0, 0
  index: -1
Layer 41
  rotate: false
  xy: 575, 441
  size: 661, 527
  orig: 662, 527
  offset: 0, 0
  index: -1
Layer 42
  rotate: false
  xy: 1459, 974
  size: 267, 606
  orig: 267, 606
  offset: 0, 0
  index: -1
Layer 44
  rotate: false
  xy: 2, 35
  size: 810, 361
  orig: 810, 361
  offset: 0, 0
  index: -1
