{
"skeleton": {
	"hash": "t5eA6g/CmvRYoX1v83yb8SpeMe8",
	"spine": "3.8.95",
	"x": 535.03,
	"y": -3688.61,
	"width": 1892.97,
	"height": 3288.52,
	"images": "./images/",
	"audio": "C:/Users/mat/OneDrive/Desktop/Mother Desktop/Leap Day 2 Desktop/Artwork/Backgrounds/Temple/Temple Foliage/Temple plants large"
},
"bones": [
	{ "name": "root" }
],
"slots": [
	{ "name": "Layer 37", "bone": "root", "attachment": "Layer 37" },
	{ "name": "Layer 27", "bone": "root", "attachment": "Layer 27" },
	{ "name": "Layer 21", "bone": "root", "attachment": "Layer 21" },
	{ "name": "Layer 44", "bone": "root", "attachment": "Layer 44" },
	{ "name": "Layer 41", "bone": "root", "attachment": "Layer 41" },
	{ "name": "Layer 39", "bone": "root", "attachment": "Layer 39" },
	{ "name": "Layer 42", "bone": "root", "attachment": "Layer 42" }
],
"skins": [
	{
		"name": "default",
		"attachments": {
			"Layer 21": {
				"Layer 21": {
					"type": "mesh",
					"uvs": [ 0.66597, 0.49894, 0.72065, 0.50174, 0.84908, 0.51859, 0.91385, 0.53272, 0.97127, 0.54893, 0.99987, 0.56289, 0.99944, 0.61043, 0.98837, 0.62204, 0.9772, 0.62254, 0.96423, 0.62884, 0.96647, 0.62674, 0.86979, 0.59135, 0.78286, 0.56643, 0.65977, 0.55072, 0.56128, 0.55127, 0.49829, 0.56081, 0.43553, 0.578, 0.39434, 0.5936, 0.34042, 0.63447, 0.4039, 0.63995, 0.43993, 0.6504, 0.46949, 0.66935, 0.51654, 0.71439, 0.52184, 0.78131, 0.50073, 0.8455, 0.47821, 0.87878, 0.44165, 0.90914, 0.39493, 0.93062, 0.39368, 0.932, 0.31357, 0.9532, 0.25656, 0.95299, 0.21152, 0.99853, 0.21014, 1, 0.18819, 0.9976, 0.18487, 0.94884, 0.13752, 0.93199, 0.0903, 0.90922, 0.06114, 0.88934, 0.02346, 0.85098, 5.8E-4, 0.80261, 0.00131, 0.75068, 0.0175, 0.70777, 0.04455, 0.67097, 0.0941, 0.64059, 0.14682, 0.62423, 0.20492, 0.61748, 0.2486, 0.62134, 0.27423, 0.63447, 0.2976, 0.59207, 0.32255, 0.57209, 0.34173, 0.55617, 0.39538, 0.52743, 0.46746, 0.51026, 0.5408, 0.49895, 0.62011, 0.49746, 0.6658, 0.49721, 0.32108, 0.64881, 0.27134, 0.7261, 0.23703, 0.82582, 0.24389, 0.71986, 0.22458, 0.91804, 0.20611, 0.98453, 0.13392, 0.82043, 0.03989, 0.8369, 0.2316, 0.86608, 0.17337, 0.87045, 0.12048, 0.9095, 0.30371, 0.88471, 0.36535, 0.92508, 0.2416, 0.75522, 0.15154, 0.72831, 0.03234, 0.72099, 0.2537, 0.69227, 0.21367, 0.65754, 0.14735, 0.63985, 0.28962, 0.6977, 0.36981, 0.68926, 0.49153, 0.71062, 0.25918, 0.76144, 0.37485, 0.7582, 0.49489, 0.80518, 0.32166, 0.82598, 0.45711, 0.87555 ],
					"triangles": [ 0, 13, 54, 0, 54, 55, 14, 53, 54, 14, 54, 13, 15, 52, 53, 15, 53, 14, 12, 1, 2, 13, 0, 1, 12, 13, 1, 16, 51, 52, 16, 52, 15, 17, 50, 51, 11, 2, 3, 12, 2, 11, 16, 17, 51, 49, 50, 17, 5, 8, 4, 5, 6, 8, 7, 8, 6, 4, 11, 3, 10, 4, 8, 10, 11, 4, 9, 10, 8, 18, 49, 17, 48, 49, 18, 18, 47, 48, 74, 44, 45, 43, 44, 74, 56, 47, 18, 73, 45, 46, 73, 46, 47, 74, 45, 73, 76, 18, 19, 56, 18, 76, 72, 73, 47, 75, 72, 47, 56, 75, 47, 76, 75, 56, 22, 77, 21, 76, 20, 21, 76, 19, 20, 21, 77, 76, 59, 73, 72, 71, 41, 42, 57, 72, 75, 59, 72, 57, 70, 74, 73, 70, 73, 59, 43, 74, 70, 42, 43, 70, 71, 42, 70, 40, 41, 71, 69, 70, 59, 69, 59, 57, 79, 76, 77, 75, 76, 79, 57, 75, 79, 78, 69, 57, 78, 57, 79, 77, 23, 79, 23, 77, 22, 80, 79, 23, 62, 71, 70, 62, 70, 69, 40, 71, 62, 39, 40, 62, 58, 62, 69, 58, 69, 78, 81, 78, 79, 58, 78, 81, 63, 39, 62, 24, 80, 23, 38, 39, 63, 58, 65, 62, 64, 65, 58, 80, 81, 79, 82, 80, 24, 82, 81, 80, 25, 82, 24, 81, 64, 58, 67, 81, 82, 67, 64, 81, 37, 63, 62, 37, 62, 65, 38, 63, 37, 82, 68, 67, 26, 82, 25, 66, 36, 37, 65, 66, 37, 60, 65, 64, 60, 64, 67, 35, 66, 65, 26, 68, 82, 27, 68, 26, 60, 35, 65, 36, 66, 35, 28, 68, 27, 34, 35, 60, 30, 60, 67, 29, 30, 67, 61, 34, 60, 68, 29, 67, 29, 68, 28, 30, 61, 60, 33, 34, 61, 31, 61, 30, 33, 61, 31, 32, 33, 31 ],
					"vertices": [ 1708.1, -2005.44, 1804.5, -2012.21, 2030.94, -2053.1, 2145.12, -2087.39, 2246.34, -2126.71, 2296.77, -2160.58, 2296.02, -2275.91, 2276.5, -2304.08, 2256.81, -2305.28, 2233.94, -2320.58, 2237.88, -2315.48, 2067.44, -2229.62, 1914.19, -2169.17, 1697.18, -2131.04, 1523.54, -2132.37, 1412.49, -2155.52, 1301.85, -2197.22, 1229.22, -2235.07, 1134.17, -2334.22, 1246.07, -2347.53, 1309.6, -2372.86, 1361.71, -2418.84, 1444.66, -2528.11, 1454, -2690.45, 1416.79, -2846.19, 1377.09, -2926.93, 1312.63, -3000.56, 1230.27, -3052.68, 1228.06, -3056.03, 1086.83, -3107.47, 986.31, -3106.95, 906.91, -3217.42, 904.47, -3221, 865.78, -3215.18, 859.93, -3096.88, 776.45, -3056, 693.2, -3000.76, 641.79, -2952.53, 575.36, -2859.47, 535.03, -2742.12, 536.3, -2616.14, 564.85, -2512.06, 612.54, -2422.78, 699.89, -2349.07, 792.84, -2309.39, 895.27, -2293, 972.28, -2302.38, 1017.47, -2334.22, 1058.67, -2231.37, 1102.66, -2182.89, 1136.48, -2144.28, 1231.06, -2074.54, 1358.13, -2032.9, 1487.43, -2005.45, 1627.26, -2001.83, 1707.81, -2001.22, 1100.07, -2369.02, 1012.37, -2556.51, 951.89, -2798.43, 963.99, -2541.39, 929.93, -3022.16, 897.37, -3183.48, 770.09, -2785.36, 604.33, -2825.32, 942.3, -2896.12, 839.65, -2906.72, 746.41, -3001.44, 1069.45, -2941.31, 1178.12, -3039.23, 959.95, -2627.16, 801.17, -2561.88, 591.01, -2544.12, 981.27, -2474.44, 910.69, -2390.2, 793.77, -2347.28, 1044.6, -2487.61, 1185.97, -2467.16, 1400.57, -2518.96, 990.93, -2642.25, 1194.85, -2634.4, 1406.49, -2748.36, 1101.08, -2798.82, 1339.89, -2919.08 ],
					"hull": 56,
					"edges": [ 0, 2, 2, 4, 4, 6, 6, 8, 8, 10, 10, 12, 12, 14, 14, 16, 16, 18, 18, 20, 20, 22, 22, 24, 24, 26, 26, 28, 28, 30, 30, 32, 32, 34, 34, 36, 36, 38, 38, 40, 40, 42, 42, 44, 46, 48, 48, 50, 50, 52, 54, 56, 56, 58, 58, 60, 60, 62, 62, 64, 66, 68, 76, 78, 82, 84, 86, 88, 90, 92, 92, 94, 94, 96, 96, 98, 98, 100, 100, 102, 102, 104, 104, 106, 108, 110, 110, 0, 106, 108, 88, 90, 78, 80, 80, 82, 84, 86, 44, 46, 52, 54, 64, 66, 68, 70, 72, 74, 70, 72, 74, 76, 112, 36, 120, 122, 116, 124, 124, 126, 116, 128, 128, 120, 128, 130, 130, 132, 128, 134, 134, 136, 116, 138, 138, 118, 138, 140, 140, 142, 94, 144, 144, 118, 144, 146, 146, 148, 112, 150, 150, 114, 150, 152, 152, 154, 114, 156, 156, 116, 156, 158, 158, 160, 116, 162, 162, 164 ],
					"width": 1763,
					"height": 2426
				}
			},
			"Layer 27": {
				"Layer 27": {
					"type": "mesh",
					"uvs": [ 0.91465, 0.0326, 0.97482, 0.11677, 0.99925, 0.18024, 0.99932, 0.63626, 0.96583, 0.56059, 0.94219, 0.43963, 0.92386, 0.36051, 0.89873, 0.28547, 0.86744, 0.21515, 0.82419, 0.16258, 0.78972, 0.13788, 0.74874, 0.13582, 0.71696, 0.14796, 0.69512, 0.16897, 0.73618, 0.17104, 0.80568, 0.2009, 0.86246, 0.25408, 0.90286, 0.34822, 0.9226, 0.41796, 0.93107, 0.51277, 0.92359, 0.59343, 0.89301, 0.71834, 0.83541, 0.82267, 0.7691, 0.89389, 0.68216, 0.95302, 0.60831, 0.98545, 0.46291, 1, 0.36303, 0.97963, 0.26225, 0.92946, 0.20242, 0.96718, 0.15036, 0.98586, 0.1465, 0.91475, 0.14736, 0.85737, 0.07911, 0.79885, 0.01732, 0.66679, 0, 0.56567, 0.00772, 0.40671, 0.06887, 0.24848, 0.14143, 0.15499, 0.25134, 0.07922, 0.32834, 0.05308, 0.43907, 0.05305, 0.50407, 0.07179, 0.55506, 0.10421, 0.57521, 0.11182, 0.6101, 0.08207, 0.66208, 0.03775, 0.73808, 0.00457, 0.81263, 0, 0.86075, 0.00752, 0.59022, 0.26735, 0.48611, 0.43001, 0.3607, 0.605, 0.24712, 0.81697, 0.2069, 0.88351, 0.1927, 0.92541, 0.54053, 0.23777, 0.45061, 0.4029, 0.46954, 0.14165, 0.3678, 0.09728, 0.32757, 0.2772, 0.24239, 0.23284, 0.16431, 0.19587, 0.22819, 0.53106, 0.13355, 0.51874, 0.04837, 0.51874, 0.51214, 0.64197, 0.62335, 0.71591, 0.71089, 0.85147, 0.64701, 0.43987, 0.78898, 0.53106, 0.86469, 0.61733, 0.6967, 0.28213, 0.80554, 0.34867, 0.86469, 0.41276, 0.38436, 0.82189, 0.5003, 0.88351, 0.55709, 0.93034, 0.16431, 0.7307, 0.10042, 0.71591, 0.87653, 0.13918, 0.90492, 0.09482, 0.81501, 0.09728, 0.82447, 0.05785, 0.76295, 0.08496, 0.76295, 0.04553, 0.71326, 0.09235, 0.67067, 0.12686, 0.64865, 0.21255, 0.63044, 0.17369, 0.5615, 0.16161, 0.94514, 0.20573 ],
					"triangles": [ 85, 47, 48, 83, 48, 49, 85, 48, 83, 84, 85, 83, 86, 46, 47, 86, 47, 85, 86, 85, 84, 0, 83, 49, 81, 83, 0, 59, 40, 41, 82, 84, 83, 82, 83, 81, 81, 0, 1, 87, 46, 86, 45, 46, 87, 11, 86, 84, 10, 84, 82, 11, 84, 10, 80, 82, 81, 9, 10, 82, 58, 41, 42, 58, 42, 43, 59, 41, 58, 12, 86, 11, 87, 86, 12, 90, 43, 44, 58, 43, 90, 80, 9, 82, 13, 87, 12, 89, 45, 87, 89, 87, 13, 44, 45, 89, 90, 44, 89, 62, 38, 39, 1, 80, 81, 91, 1, 2, 91, 80, 1, 88, 89, 13, 8, 9, 80, 8, 80, 91, 61, 62, 39, 56, 58, 90, 37, 38, 62, 50, 90, 89, 50, 89, 88, 56, 90, 50, 39, 59, 61, 59, 39, 40, 60, 59, 58, 60, 58, 56, 60, 61, 59, 72, 13, 14, 72, 14, 15, 88, 13, 72, 50, 88, 72, 7, 8, 91, 73, 72, 15, 73, 15, 16, 73, 16, 17, 91, 6, 7, 57, 60, 56, 57, 56, 50, 74, 73, 17, 17, 18, 74, 51, 57, 50, 2, 5, 6, 69, 50, 72, 69, 72, 73, 51, 50, 69, 64, 65, 36, 61, 64, 37, 61, 37, 62, 63, 64, 61, 60, 63, 61, 64, 36, 37, 57, 63, 60, 70, 69, 73, 70, 73, 74, 91, 2, 6, 2, 3, 5, 3, 4, 5, 35, 36, 65, 18, 19, 74, 52, 63, 57, 52, 57, 51, 74, 19, 70, 20, 71, 19, 71, 70, 19, 66, 51, 69, 52, 51, 66, 34, 35, 65, 64, 34, 65, 79, 34, 64, 67, 66, 69, 67, 69, 70, 67, 70, 71, 21, 71, 20, 67, 71, 21, 78, 64, 63, 78, 63, 52, 79, 64, 78, 33, 34, 79, 53, 78, 52, 75, 52, 66, 53, 52, 75, 22, 67, 21, 68, 67, 22, 78, 33, 79, 32, 78, 53, 32, 33, 78, 54, 32, 53, 76, 75, 66, 76, 66, 67, 77, 76, 67, 23, 68, 22, 31, 32, 54, 55, 31, 54, 28, 53, 75, 54, 53, 28, 55, 54, 28, 68, 77, 67, 24, 77, 68, 24, 68, 23, 29, 55, 28, 27, 28, 75, 27, 75, 76, 25, 77, 24, 30, 31, 55, 30, 55, 29, 26, 27, 76, 26, 76, 77, 26, 77, 25 ],
					"vertices": [ 2315.16, -938.68, 2379.91, -1025.62, 2406.19, -1091.18, 2406.27, -1562.25, 2370.23, -1484.09, 2344.79, -1359.14, 2325.07, -1277.41, 2298.03, -1199.89, 2264.37, -1127.25, 2217.83, -1072.94, 2180.74, -1047.43, 2136.65, -1045.31, 2102.45, -1057.84, 2078.95, -1079.55, 2123.12, -1081.68, 2197.91, -1112.53, 2259.01, -1167.47, 2302.49, -1264.72, 2323.72, -1336.75, 2332.83, -1434.69, 2324.79, -1518.02, 2291.88, -1647.05, 2229.9, -1754.81, 2158.55, -1828.39, 2065.01, -1889.47, 1985.55, -1922.97, 1829.09, -1938, 1721.62, -1916.96, 1613.18, -1865.14, 1548.8, -1904.1, 1492.78, -1923.4, 1488.63, -1849.94, 1489.56, -1790.67, 1416.12, -1730.21, 1349.64, -1593.79, 1331, -1489.34, 1339.3, -1325.13, 1405.11, -1161.68, 1483.17, -1065.11, 1601.44, -986.83, 1684.3, -959.83, 1803.44, -959.8, 1873.38, -979.15, 1928.25, -1012.65, 1949.93, -1020.51, 1987.47, -989.78, 2043.4, -944, 2125.18, -909.72, 2205.38, -905, 2257.17, -912.77, 1966.08, -1181.17, 1854.05, -1349.2, 1719.11, -1529.97, 1596.91, -1748.93, 1553.62, -1817.67, 1538.35, -1860.95, 1912.61, -1150.62, 1815.86, -1321.2, 1836.23, -1051.32, 1726.75, -1005.49, 1683.47, -1191.35, 1591.81, -1145.52, 1507.8, -1107.33, 1576.54, -1453.59, 1474.7, -1440.86, 1383.04, -1440.86, 1882.06, -1568.16, 2001.72, -1644.54, 2095.92, -1784.57, 2027.18, -1359.39, 2179.94, -1453.59, 2261.41, -1542.7, 2080.65, -1196.44, 2197.76, -1265.19, 2261.41, -1331.38, 1744.57, -1754.02, 1869.33, -1817.67, 1930.43, -1866.04, 1507.8, -1659.82, 1439.05, -1644.54, 2274.14, -1048.78, 2304.69, -1002.95, 2207.95, -1005.49, 2218.13, -964.76, 2151.93, -992.76, 2151.93, -952.03, 2098.47, -1000.4, 2052.64, -1036.05, 2028.94, -1124.57, 2009.36, -1084.42, 1935.17, -1071.94, 2347.98, -1117.52 ],
					"hull": 50,
					"edges": [ 0, 98, 0, 2, 2, 4, 4, 6, 42, 44, 44, 46, 46, 48, 48, 50, 50, 52, 52, 54, 56, 58, 58, 60, 60, 62, 62, 64, 64, 66, 66, 68, 68, 70, 72, 74, 76, 78, 78, 80, 80, 82, 82, 84, 84, 86, 86, 88, 92, 94, 94, 96, 96, 98, 70, 72, 74, 76, 54, 56, 24, 26, 26, 28, 28, 30, 30, 32, 32, 34, 34, 36, 6, 8, 22, 24, 20, 22, 18, 20, 16, 18, 14, 16, 12, 14, 8, 10, 10, 12, 36, 38, 38, 40, 40, 42, 100, 102, 102, 104, 104, 106, 106, 108, 108, 110, 112, 114, 114, 104, 112, 116, 116, 118, 114, 120, 120, 122, 122, 124, 104, 126, 126, 128, 128, 130, 104, 132, 132, 134, 134, 136, 102, 138, 138, 140, 140, 142, 100, 144, 144, 146, 146, 148, 106, 150, 150, 152, 152, 154, 106, 156, 156, 158, 18, 160, 160, 162, 162, 0, 20, 164, 164, 166, 166, 96, 22, 168, 168, 170, 170, 94, 24, 172, 172, 92, 26, 174, 88, 90, 90, 92, 174, 90, 26, 176, 176, 100, 176, 178, 88, 180, 180, 112, 178, 180, 16, 182, 182, 2 ],
					"width": 1076,
					"height": 1033
				}
			},
			"Layer 37": {
				"Layer 37": {
					"type": "mesh",
					"uvs": [ 0.44381, 0.00931, 0.53393, 0.05088, 0.54818, 0.04612, 0.63484, 0.02805, 0.71688, 0.02729, 0.81588, 0.03533, 0.89347, 0.07954, 0.92246, 0.08615, 0.93958, 0.10496, 0.9318, 0.12517, 0.92512, 0.12245, 0.96233, 0.18285, 0.97524, 0.25296, 0.99949, 0.25257, 0.99965, 1, 0.98458, 1, 0.95209, 0.97882, 0.87562, 0.92843, 0.85486, 0.87242, 0.85347, 0.87097, 0.77405, 0.80987, 0.80149, 0.75557, 0.93494, 0.71643, 0.92282, 0.69048, 0.89185, 0.67903, 0.8406, 0.65662, 0.75732, 0.60488, 0.70212, 0.5449, 0.74957, 0.46525, 0.80834, 0.4245, 0.80005, 0.42419, 0.7589, 0.38686, 0.73385, 0.30207, 0.83077, 0.26771, 0.83161, 0.26724, 0.85176, 0.20766, 0.85254, 0.19691, 0.84347, 0.13888, 0.80174, 0.1321, 0.78224, 0.12182, 0.78326, 0.10371, 0.75918, 0.08642, 0.70604, 0.07258, 0.63726, 0.07144, 0.58531, 0.07799, 0.64217, 0.0797, 0.73076, 0.09744, 0.76103, 0.13177, 0.77103, 0.15957, 0.76496, 0.1924, 0.71018, 0.25295, 0.66002, 0.29158, 0.57497, 0.31388, 0.47092, 0.3331, 0.3774, 0.33841, 0.25939, 0.31743, 0.23417, 0.31474, 0.19704, 0.32625, 0.15542, 0.33914, 0.1323, 0.33559, 0.13403, 0.31177, 0.13537, 0.29326, 0.02355, 0.22725, 0, 0.18344, 0, 0.15788, 0.00152, 0.13991, 0.03991, 0.08626, 0.08486, 0.0585, 0.13036, 0.03783, 0.20051, 0.02185, 0.25644, 0.00947, 0.35794, 4.0E-5, 0.51079, 0.09855, 0.44575, 0.12929, 0.33781, 0.19143, 0.25339, 0.24155, 0.19112, 0.29434, 0.16621, 0.31572, 0.29076, 0.18074, 0.39593, 0.11392, 0.47758, 0.07783, 0.30875, 0.07182, 0.22156, 0.03373, 0.40977, 0.04041, 0.33642, 0.01368, 0.17589, 0.14265, 0.06657, 0.11525, 0.13853, 0.20212, 0.0555, 0.19344, 0.39455, 0.26761, 0.47758, 0.30503, 0.47204, 0.2088, 0.63257, 0.25959, 0.58414, 0.14466, 0.71976, 0.18809, 0.6132, 0.11058, 0.73083, 0.14332 ],
					"triangles": [ 84, 70, 71, 82, 69, 70, 83, 71, 0, 84, 71, 83, 1, 83, 0, 42, 43, 3, 2, 3, 43, 84, 82, 70, 81, 84, 83, 81, 82, 84, 4, 42, 3, 42, 4, 5, 80, 83, 1, 44, 2, 43, 1, 2, 44, 72, 80, 1, 41, 42, 5, 41, 5, 6, 44, 72, 1, 40, 41, 6, 95, 44, 45, 72, 44, 95, 79, 81, 83, 79, 83, 80, 73, 79, 80, 86, 66, 67, 10, 7, 8, 9, 10, 8, 72, 73, 80, 37, 38, 40, 39, 40, 38, 6, 37, 40, 10, 37, 6, 10, 6, 7, 65, 66, 86, 82, 85, 68, 82, 68, 69, 85, 82, 81, 85, 81, 79, 67, 68, 85, 86, 67, 85, 96, 46, 47, 95, 45, 46, 96, 95, 46, 93, 72, 95, 93, 95, 96, 73, 72, 93, 96, 47, 48, 78, 85, 79, 88, 63, 64, 94, 93, 96, 94, 96, 48, 74, 78, 79, 74, 79, 73, 49, 94, 48, 86, 64, 65, 88, 86, 85, 86, 88, 64, 11, 36, 37, 11, 37, 10, 87, 88, 85, 87, 85, 78, 91, 73, 93, 74, 73, 91, 62, 63, 88, 75, 87, 78, 75, 78, 74, 35, 36, 11, 11, 12, 35, 93, 92, 91, 50, 94, 49, 93, 94, 92, 50, 92, 94, 34, 35, 12, 89, 74, 91, 90, 89, 91, 75, 74, 89, 51, 92, 50, 87, 62, 88, 61, 87, 75, 61, 62, 87, 76, 61, 75, 92, 90, 91, 52, 90, 92, 77, 60, 61, 51, 52, 92, 55, 56, 76, 75, 55, 76, 76, 77, 61, 57, 77, 76, 89, 55, 75, 56, 57, 76, 90, 54, 89, 53, 90, 52, 54, 55, 89, 59, 60, 77, 90, 53, 54, 58, 59, 77, 58, 77, 57, 31, 32, 33, 29, 30, 31, 31, 12, 29, 26, 28, 29, 27, 28, 26, 12, 33, 34, 33, 12, 31, 24, 25, 29, 26, 29, 25, 29, 23, 24, 29, 13, 23, 13, 22, 23, 19, 21, 22, 20, 21, 19, 18, 19, 22, 16, 17, 18, 13, 16, 22, 16, 18, 22, 13, 29, 12, 13, 14, 16, 14, 15, 16 ],
					"vertices": [ 1772.38, -422.01, 1875.21, -520.23, 1891.47, -508.99, 1990.36, -466.28, 2083.96, -464.49, 2196.92, -483.49, 2285.45, -587.96, 2318.53, -603.58, 2338.06, -648.02, 2329.18, -695.78, 2321.57, -689.34, 2364.02, -832.07, 2378.75, -997.75, 2406.42, -996.82, 2406.6, -2763, 2389.41, -2763, 2352.34, -2712.94, 2265.08, -2593.88, 2241.39, -2461.53, 2239.81, -2458.09, 2149.19, -2313.72, 2180.51, -2185.4, 2332.77, -2092.92, 2318.94, -2031.6, 2283.6, -2004.54, 2225.12, -1951.59, 2130.1, -1829.32, 2067.12, -1687.6, 2121.25, -1499.38, 2188.32, -1403.09, 2178.86, -1402.35, 2131.91, -1314.14, 2103.32, -1113.79, 2213.91, -1032.61, 2214.86, -1031.48, 2237.86, -890.71, 2238.74, -865.3, 2228.4, -728.18, 2180.79, -712.15, 2158.54, -687.86, 2159.69, -645.06, 2132.23, -604.22, 2071.59, -571.5, 1993.11, -568.82, 1933.84, -584.3, 1998.72, -588.32, 2099.79, -630.26, 2134.33, -711.37, 2145.74, -777.07, 2138.82, -854.65, 2076.31, -997.73, 2019.09, -1089, 1922.04, -1141.69, 1803.32, -1187.11, 1696.61, -1199.67, 1561.96, -1150.08, 1533.19, -1143.74, 1490.82, -1170.93, 1443.34, -1201.39, 1416.96, -1193, 1418.93, -1136.72, 1420.46, -1092.98, 1292.87, -936.99, 1266, -833.47, 1266, -773.07, 1267.73, -730.6, 1311.53, -603.83, 1362.83, -538.24, 1414.74, -489.4, 1494.79, -451.64, 1558.6, -422.38, 1674.41, -400.09, 1848.81, -632.87, 1774.6, -705.5, 1651.44, -852.35, 1555.12, -970.78, 1484.06, -1095.52, 1455.64, -1146.05, 1597.75, -827.09, 1717.76, -669.19, 1810.92, -583.92, 1618.28, -569.71, 1518.8, -479.71, 1733.55, -495.5, 1649.86, -432.34, 1466.7, -737.08, 1341.95, -672.35, 1424.06, -877.62, 1329.32, -857.09, 1716.18, -1032.36, 1810.92, -1120.78, 1804.6, -893.41, 1987.77, -1013.41, 1932.5, -741.82, 2087.24, -844.46, 1965.66, -661.29, 2099.87, -738.66 ],
					"hull": 72,
					"edges": [ 0, 142, 0, 2, 2, 4, 4, 6, 6, 8, 8, 10, 18, 20, 20, 22, 22, 24, 26, 28, 28, 30, 30, 32, 32, 34, 34, 36, 36, 38, 38, 40, 40, 42, 42, 44, 44, 46, 46, 48, 48, 50, 50, 52, 52, 54, 54, 56, 56, 58, 58, 60, 60, 62, 62, 64, 64, 66, 66, 68, 68, 70, 70, 72, 72, 74, 74, 76, 94, 96, 102, 104, 104, 106, 106, 108, 108, 110, 110, 112, 116, 118, 122, 124, 124, 126, 126, 128, 128, 130, 130, 132, 132, 134, 136, 138, 138, 140, 98, 100, 24, 26, 76, 78, 82, 84, 84, 86, 86, 88, 92, 94, 88, 90, 90, 92, 78, 80, 80, 82, 96, 98, 100, 102, 134, 136, 140, 142, 88, 144, 144, 146, 146, 148, 148, 150, 150, 152, 152, 154, 112, 114, 114, 116, 118, 120, 120, 122, 150, 156, 156, 158, 158, 160, 160, 2, 158, 162, 162, 164, 160, 166, 166, 168, 156, 170, 170, 172, 150, 174, 174, 176, 150, 178, 178, 180, 148, 182, 182, 184, 146, 186, 186, 188, 144, 190, 190, 192, 10, 12, 12, 14, 14, 16, 16, 18 ],
					"width": 1141,
					"height": 2363
				}
			},
			"Layer 39": {
				"Layer 39": {
					"type": "mesh",
					"uvs": [ 0.99958, 0.06107, 0.99694, 0.313, 0.92882, 0.31838, 0.84788, 0.42696, 0.74044, 0.504, 0.65846, 0.52312, 0.60728, 0.5205, 0.61723, 0.5443, 0.61937, 0.64299, 0.59887, 0.75119, 0.55508, 0.85017, 0.49928, 0.90679, 0.43342, 0.93709, 0.2929, 0.9597, 0.20314, 0.93735, 0.15737, 1, 0.12049, 0.9767, 0.11097, 0.93834, 0.11106, 0.90237, 0.03727, 0.83602, 0.0012, 0.76049, 5.7E-4, 0.62939, 0.02013, 0.54274, 0.06649, 0.453, 0.10251, 0.41279, 0.16781, 0.36056, 0.25706, 0.34078, 0.33087, 0.34096, 0.42088, 0.38495, 0.51039, 0.39367, 0.5796, 0.40041, 0.66334, 0.36805, 0.73846, 0.31194, 0.80324, 0.23485, 0.81103, 0.2045, 0.77297, 0.13854, 0.77713, 0.06063, 0.85303, 0.00323, 0.91574, 3.6E-4, 0.57452, 0.45563, 0.24838, 0.71542, 0.31673, 0.5757, 0.41633, 0.46655, 0.48078, 0.42944, 0.38313, 0.39451, 0.34407, 0.44035, 0.28744, 0.55606, 0.52569, 0.81584, 0.44367, 0.7307, 0.33235, 0.69141, 0.57256, 0.64119, 0.51398, 0.58662, 0.3968, 0.54077, 0.18198, 0.65648, 0.08824, 0.62591, 0.03942, 0.63465, 0.22494, 0.49275, 0.1644, 0.46437, 0.10972, 0.45563, 0.29915, 0.39669, 0.264, 0.37923, 0.14878, 0.95337, 0.1644, 0.89661, 0.20737, 0.79183, 0.12925, 0.72852, 0.03942, 0.72415, 0.30697, 0.79183, 0.3968, 0.83985, 0.42805, 0.90098, 0.44758, 0.42071 ],
					"triangles": [ 37, 35, 36, 34, 35, 37, 34, 37, 38, 0, 34, 38, 0, 2, 34, 2, 33, 34, 0, 1, 2, 60, 26, 27, 44, 27, 28, 59, 60, 27, 59, 27, 44, 69, 28, 29, 44, 28, 69, 3, 33, 2, 32, 33, 3, 43, 69, 29, 45, 59, 44, 39, 29, 30, 57, 58, 24, 23, 24, 58, 25, 57, 24, 42, 44, 69, 45, 44, 42, 42, 69, 43, 25, 60, 57, 60, 25, 26, 56, 60, 59, 56, 59, 45, 56, 57, 60, 4, 32, 3, 31, 32, 4, 30, 5, 39, 30, 31, 5, 5, 6, 39, 4, 5, 31, 42, 41, 45, 39, 6, 7, 46, 56, 45, 41, 46, 45, 42, 52, 41, 39, 43, 29, 51, 39, 7, 51, 43, 39, 42, 43, 51, 52, 42, 51, 58, 22, 23, 54, 58, 57, 54, 22, 58, 55, 21, 22, 54, 55, 22, 50, 51, 7, 50, 7, 8, 53, 57, 56, 53, 56, 46, 54, 57, 53, 49, 41, 52, 40, 53, 46, 40, 46, 41, 40, 41, 49, 65, 21, 55, 64, 54, 53, 65, 55, 54, 64, 65, 54, 48, 52, 51, 48, 51, 50, 49, 52, 48, 9, 50, 8, 48, 50, 9, 20, 21, 65, 66, 40, 49, 66, 49, 48, 40, 64, 53, 63, 40, 66, 63, 64, 40, 47, 48, 9, 19, 20, 65, 19, 65, 64, 67, 66, 48, 67, 48, 47, 10, 47, 9, 62, 64, 63, 18, 19, 64, 68, 67, 47, 62, 18, 64, 11, 68, 47, 11, 47, 10, 12, 68, 11, 14, 62, 63, 61, 18, 62, 61, 62, 14, 17, 18, 61, 66, 14, 63, 13, 66, 67, 13, 67, 68, 13, 68, 12, 13, 14, 66, 16, 17, 61, 15, 61, 14, 16, 61, 15 ],
					"vertices": [ 2408.59, -1826.37, 2406.01, -2046.57, 2339.46, -2051.27, 2260.38, -2146.16, 2155.41, -2213.5, 2075.31, -2230.21, 2025.31, -2227.91, 2035.04, -2248.72, 2037.13, -2334.97, 2017.1, -2429.54, 1974.31, -2516.05, 1919.8, -2565.53, 1855.45, -2592.01, 1718.17, -2611.78, 1630.46, -2592.24, 1585.75, -2647, 1549.72, -2626.63, 1540.42, -2593.11, 1540.5, -2561.67, 1468.41, -2503.69, 1433.17, -2437.67, 1432.56, -2323.09, 1451.66, -2247.36, 1496.96, -2168.92, 1532.16, -2133.78, 1595.96, -2088.13, 1683.15, -2070.84, 1755.26, -2071, 1843.2, -2109.45, 1930.65, -2117.07, 1998.27, -2122.96, 2080.08, -2094.67, 2153.48, -2045.64, 2216.77, -1978.26, 2224.38, -1951.73, 2187.19, -1894.08, 2191.26, -1825.99, 2265.41, -1775.82, 2326.68, -1773.32, 1993.3, -2171.22, 1674.67, -2398.28, 1741.45, -2276.16, 1838.75, -2180.76, 1901.72, -2148.33, 1806.32, -2117.8, 1768.16, -2157.87, 1712.83, -2258.99, 1945.6, -2486.04, 1865.47, -2411.63, 1756.71, -2377.29, 1991.39, -2333.4, 1934.15, -2285.7, 1819.67, -2245.64, 1609.79, -2346.76, 1518.21, -2320.05, 1470.51, -2327.68, 1651.77, -2203.66, 1592.62, -2178.86, 1539.2, -2171.22, 1724.27, -2119.71, 1689.93, -2104.44, 1577.36, -2606.25, 1592.62, -2556.64, 1634.6, -2465.06, 1558.28, -2409.72, 1470.51, -2405.91, 1731.91, -2465.06, 1819.67, -2507.03, 1850.2, -2560.46, 1869.28, -2140.7 ],
					"hull": 39,
					"edges": [ 0, 76, 0, 2, 2, 4, 6, 8, 12, 14, 14, 16, 16, 18, 18, 20, 20, 22, 22, 24, 24, 26, 26, 28, 28, 30, 32, 34, 34, 36, 36, 38, 38, 40, 40, 42, 42, 44, 44, 46, 46, 48, 48, 50, 50, 52, 52, 54, 64, 66, 66, 68, 68, 70, 70, 72, 72, 74, 74, 76, 30, 32, 62, 64, 60, 62, 54, 56, 4, 6, 14, 78, 56, 58, 58, 60, 78, 58, 80, 82, 82, 84, 84, 86, 88, 90, 90, 92, 94, 96, 96, 98, 100, 102, 102, 104, 104, 82, 98, 80, 80, 106, 106, 108, 108, 110, 92, 112, 112, 114, 114, 116, 90, 118, 118, 120, 122, 124, 124, 126, 126, 128, 128, 130, 126, 132, 132, 134, 134, 136, 126, 80, 92, 80, 58, 138, 138, 88, 84, 138, 8, 10, 10, 12, 10, 60 ],
					"width": 977,
					"height": 874
				}
			},
			"Layer 41": {
				"Layer 41": {
					"type": "mesh",
					"uvs": [ 0.86107, 0, 0.86663, 0, 0.96455, 0.01504, 0.99846, 0.0649, 0.99902, 0.12252, 0.97989, 0.16038, 0.85719, 0.1241, 0.75627, 0.12506, 0.73426, 0.12976, 0.79461, 0.19743, 0.81798, 0.27068, 0.83507, 0.35547, 0.83149, 0.49465, 0.8047, 0.64991, 0.72346, 0.77004, 0.67043, 0.82388, 0.5834, 0.88228, 0.46596, 0.91788, 0.39566, 0.92404, 0.33596, 0.90763, 0.31309, 0.94804, 0.28367, 1, 0.26067, 0.93204, 0.23781, 0.86453, 0.14371, 0.81221, 0.07763, 0.73587, 0.02237, 0.59485, 0, 0.45523, 0, 0.4223, 0.04641, 0.21019, 0.11258, 0.12751, 0.21702, 0.1631, 0.28702, 0.22334, 0.30796, 0.19493, 0.30357, 0.14086, 0.27444, 0.10955, 0.20641, 0.0725, 0.20433, 0.04721, 0.2998, 0.01647, 0.36708, 0.01731, 0.44629, 0.05043, 0.51161, 0.10945, 0.61388, 0.03362, 0.75643, 0.00404, 0.60633, 0.12429, 0.53482, 0.14015, 0.4549, 0.25289, 0.40443, 0.35683, 0.35676, 0.48366, 0.3175, 0.6563, 0.28665, 0.93993, 0.32871, 0.46429, 0.37218, 0.33216, 0.41705, 0.22823, 0.67206, 0.1271, 0.38429, 0.4104, 0.52922, 0.44139, 0.69747, 0.48895, 0.77599, 0.55237, 0.59091, 0.2388, 0.69186, 0.23704, 0.76898, 0.25465, 0.37218, 0.12605, 0.30908, 0.06263, 0.253, 0.06263, 0.35767, 0.37626, 0.29086, 0.29341, 0.1899, 0.22823, 0.10297, 0.19476, 0.32254, 0.56993, 0.23337, 0.50833, 0.12821, 0.48895, 0.03567, 0.5048, 0.3349, 0.57976, 0.45631, 0.5876, 0.60213, 0.66159, 0.69186, 0.76376, 0.31067, 0.71903, 0.39461, 0.71972, 0.48435, 0.78843, 0.53342, 0.85537, 0.19972, 0.64221, 0.11559, 0.62988, 0.06792, 0.64926 ],
					"triangles": [ 63, 38, 39, 64, 37, 38, 63, 64, 38, 36, 37, 64, 35, 64, 63, 36, 64, 35, 6, 43, 0, 44, 41, 42, 43, 54, 42, 7, 43, 6, 54, 44, 42, 62, 39, 40, 63, 39, 62, 54, 43, 8, 7, 8, 43, 45, 41, 44, 34, 35, 63, 34, 63, 62, 5, 2, 3, 5, 3, 4, 6, 1, 2, 6, 0, 1, 2, 5, 6, 67, 68, 30, 33, 34, 62, 68, 29, 30, 31, 67, 30, 67, 31, 32, 41, 53, 62, 41, 62, 40, 46, 53, 41, 33, 62, 53, 60, 54, 8, 61, 60, 8, 59, 45, 44, 59, 44, 54, 59, 54, 60, 45, 46, 41, 46, 45, 59, 9, 61, 8, 61, 9, 10, 66, 32, 33, 52, 66, 33, 67, 32, 66, 53, 52, 33, 47, 52, 53, 47, 53, 46, 65, 66, 52, 65, 52, 47, 55, 65, 47, 56, 46, 59, 47, 46, 56, 55, 47, 56, 28, 72, 27, 51, 66, 65, 51, 65, 55, 48, 51, 55, 71, 68, 67, 71, 67, 66, 70, 71, 66, 28, 29, 68, 68, 71, 28, 57, 60, 61, 11, 57, 61, 11, 61, 10, 59, 60, 57, 56, 59, 57, 12, 57, 11, 71, 72, 28, 51, 70, 66, 58, 57, 12, 69, 70, 51, 69, 51, 48, 73, 69, 48, 74, 55, 56, 48, 55, 74, 73, 48, 74, 26, 27, 72, 82, 72, 71, 81, 82, 71, 26, 72, 82, 70, 81, 71, 81, 70, 69, 83, 26, 82, 13, 58, 12, 49, 81, 69, 49, 69, 73, 75, 56, 57, 74, 56, 75, 77, 81, 49, 78, 73, 74, 49, 73, 78, 77, 49, 78, 25, 83, 82, 26, 83, 25, 58, 76, 75, 58, 75, 57, 76, 58, 13, 14, 76, 13, 79, 74, 75, 78, 74, 79, 81, 25, 82, 23, 24, 81, 24, 25, 81, 15, 75, 76, 80, 79, 75, 15, 76, 14, 75, 16, 80, 77, 23, 81, 15, 16, 75, 19, 77, 78, 18, 19, 78, 50, 23, 77, 78, 79, 18, 17, 79, 80, 17, 80, 16, 17, 18, 79, 50, 22, 23, 77, 19, 50, 20, 50, 19, 21, 22, 50, 21, 50, 20 ],
					"vertices": [ 2211.2, -2305, 2218.55, -2305, 2348.1, -2320.84, 2392.97, -2373.34, 2393.71, -2434.02, 2368.4, -2473.88, 2206.07, -2435.68, 2072.55, -2436.69, 2043.43, -2441.64, 2123.27, -2512.9, 2154.19, -2590.02, 2176.8, -2679.31, 2172.06, -2825.87, 2136.62, -2989.36, 2029.14, -3115.86, 1958.97, -3172.54, 1843.84, -3234.04, 1688.47, -3271.53, 1595.45, -3278.01, 1516.48, -3260.74, 1486.21, -3303.29, 1447.3, -3358, 1416.86, -3286.44, 1386.62, -3215.35, 1262.13, -3160.26, 1174.71, -3079.88, 1101.6, -2931.37, 1072, -2784.36, 1072, -2749.68, 1133.4, -2526.33, 1220.94, -2439.27, 1359.12, -2476.75, 1451.73, -2540.18, 1479.43, -2510.27, 1473.63, -2453.33, 1435.08, -2420.36, 1345.08, -2381.34, 1342.33, -2354.71, 1468.63, -2322.35, 1557.64, -2323.23, 1662.44, -2358.11, 1748.86, -2420.25, 1884.16, -2340.41, 2072.76, -2309.25, 1874.18, -2435.88, 1779.57, -2452.57, 1673.84, -2571.29, 1607.06, -2680.74, 1543.99, -2814.3, 1492.05, -2996.09, 1451.24, -3294.74, 1506.89, -2793.89, 1564.39, -2654.77, 1623.75, -2545.32, 1961.14, -2438.84, 1580.42, -2737.15, 1772.15, -2769.78, 1994.75, -2819.86, 2098.63, -2886.64, 1853.77, -2556.45, 1987.33, -2554.6, 2089.36, -2573.15, 1564.39, -2437.73, 1480.92, -2370.95, 1406.72, -2370.95, 1545.2, -2701.2, 1456.8, -2613.96, 1323.24, -2545.32, 1208.23, -2510.08, 1498.72, -2905.14, 1380.75, -2840.27, 1241.62, -2819.86, 1119.19, -2836.56, 1515.08, -2915.48, 1675.69, -2923.74, 1868.61, -3001.65, 1987.33, -3109.24, 1483.02, -3062.14, 1594.07, -3062.87, 1712.79, -3135.21, 1777.72, -3205.7, 1336.23, -2981.25, 1224.93, -2968.26, 1161.86, -2988.67 ],
					"hull": 44,
					"edges": [ 0, 86, 0, 2, 2, 4, 4, 6, 6, 8, 8, 10, 10, 12, 12, 14, 14, 16, 16, 18, 18, 20, 20, 22, 24, 26, 28, 30, 30, 32, 34, 36, 36, 38, 50, 52, 52, 54, 54, 56, 58, 60, 60, 62, 62, 64, 64, 66, 66, 68, 68, 70, 70, 72, 72, 74, 74, 76, 76, 78, 78, 80, 80, 82, 84, 86, 56, 58, 32, 34, 26, 28, 22, 24, 82, 84, 42, 44, 44, 46, 38, 40, 40, 42, 88, 90, 90, 92, 92, 94, 104, 106, 106, 82, 16, 108, 108, 88, 94, 110, 110, 96, 110, 112, 112, 114, 114, 116, 92, 118, 118, 120, 120, 122, 106, 124, 124, 126, 126, 128, 102, 130, 130, 104, 130, 132, 132, 134, 134, 136, 98, 138, 138, 102, 138, 140, 140, 142, 142, 144, 96, 146, 146, 98, 146, 148, 148, 150, 150, 152, 98, 154, 154, 100, 154, 156, 156, 158, 158, 160, 154, 162, 162, 164, 164, 166, 46, 48, 48, 50 ],
					"width": 1323,
					"height": 1053
				}
			},
			"Layer 42": {
				"Layer 42": {
					"type": "mesh",
					"uvs": [ 0.95882, 0, 0.95928, 0.12746, 0.86301, 0.13661, 0.75772, 0.14663, 0.61025, 0.17295, 0.54837, 0.19931, 0.52316, 0.21769, 0.49106, 0.26136, 0.47847, 0.30568, 0.49647, 0.34733, 0.50822, 0.36526, 0.54354, 0.40883, 0.57675, 0.44978, 0.60454, 0.46942, 0.66428, 0.54222, 0.69622, 0.56657, 0.82236, 0.57251, 0.94884, 0.61196, 1, 0.67015, 0.99999, 0.73077, 0.98974, 0.80528, 0.93066, 0.8596, 0.79745, 0.91831, 0.63648, 0.9537, 0.50353, 0.95381, 0.39124, 0.95391, 0.3347, 0.97575, 0.27278, 0.99968, 0.2429, 0.96944, 0.22745, 0.92653, 0.12701, 0.89949, 0.04327, 0.84747, 0, 0.7814, 0, 0.73823, 0.00574, 0.66887, 0.09353, 0.60058, 0.20979, 0.56293, 0.35111, 0.53991, 0.51027, 0.54862, 0.46251, 0.52796, 0.40249, 0.48248, 0.34456, 0.43859, 0.28824, 0.36552, 0.26911, 0.26592, 0.3102, 0.19366, 0.40553, 0.11693, 0.55072, 0.065, 0.6693, 0.034, 0.79662, 0.01693, 0.9098, 0.00175, 0.34001, 0.90762, 0.39948, 0.81928, 0.4701, 0.75058, 0.5147, 0.67369, 0.55558, 0.6099, 0.54815, 0.57391, 0.67823, 0.60008, 0.6485, 0.64098, 0.5593, 0.70805, 0.36231, 0.62462, 0.23594, 0.6099, 0.17276, 0.60826, 0.28426, 0.70314, 0.16533, 0.69169, 0.06869, 0.69987, 0.23594, 0.78493, 0.13559, 0.78984, 0.08356, 0.80456, 0.56673, 0.82746, 0.72655, 0.86509, 0.76743, 0.89126, 0.68195, 0.74894, 0.82318, 0.77021, 0.90867, 0.79802, 0.59688, 0.67979, 0.74513, 0.67369, 0.86778, 0.68514, 0.93468, 0.70805, 0.76371, 0.62298, 0.85663, 0.62953, 0.91982, 0.64916, 0.46266, 0.58699, 0.35116, 0.57227, 0.28054, 0.58209 ],
					"triangles": [ 49, 0, 1, 48, 49, 1, 2, 48, 1, 3, 47, 48, 2, 3, 48, 46, 47, 3, 4, 46, 3, 45, 46, 4, 5, 44, 45, 4, 5, 45, 6, 44, 5, 7, 44, 6, 43, 44, 7, 8, 43, 7, 42, 43, 8, 42, 8, 9, 10, 41, 42, 10, 42, 9, 41, 10, 11, 40, 41, 11, 40, 11, 12, 13, 39, 40, 13, 40, 12, 38, 39, 13, 14, 38, 13, 81, 82, 37, 83, 36, 37, 55, 38, 14, 55, 14, 15, 82, 83, 37, 38, 81, 37, 81, 38, 55, 56, 55, 15, 61, 35, 36, 60, 61, 36, 83, 60, 36, 54, 55, 56, 81, 55, 54, 78, 15, 16, 79, 78, 16, 56, 15, 78, 59, 82, 81, 83, 82, 59, 60, 83, 59, 17, 79, 16, 57, 54, 56, 57, 56, 78, 80, 79, 17, 80, 17, 18, 54, 59, 81, 53, 54, 57, 53, 59, 54, 75, 57, 78, 74, 53, 57, 74, 57, 75, 76, 79, 80, 75, 78, 79, 76, 75, 79, 63, 35, 61, 63, 61, 60, 34, 35, 63, 64, 34, 63, 62, 60, 59, 62, 59, 53, 63, 60, 62, 58, 53, 74, 77, 80, 18, 76, 80, 77, 19, 77, 18, 33, 34, 64, 71, 74, 75, 58, 74, 71, 52, 62, 53, 52, 53, 58, 52, 58, 71, 72, 75, 76, 72, 76, 77, 72, 77, 19, 71, 75, 72, 66, 32, 33, 65, 63, 62, 65, 62, 52, 66, 64, 63, 66, 63, 65, 66, 33, 64, 73, 72, 19, 67, 32, 66, 20, 73, 19, 51, 65, 52, 68, 52, 71, 51, 52, 68, 31, 32, 67, 21, 73, 20, 69, 71, 72, 69, 72, 73, 69, 73, 21, 68, 71, 69, 70, 69, 21, 30, 67, 66, 31, 67, 30, 50, 65, 51, 22, 70, 21, 65, 30, 66, 50, 30, 65, 50, 29, 30, 23, 68, 69, 23, 69, 70, 23, 70, 22, 68, 50, 51, 24, 68, 23, 24, 50, 68, 25, 50, 24, 28, 50, 27, 28, 29, 50, 25, 26, 50, 50, 26, 27 ],
					"vertices": [ 2406.05, -2478, 2406.3, -2632.35, 2354.98, -2643.44, 2298.86, -2655.57, 2220.27, -2687.44, 2187.28, -2719.37, 2173.84, -2741.62, 2156.74, -2794.51, 2150.03, -2848.18, 2159.62, -2898.62, 2165.88, -2920.33, 2184.71, -2973.09, 2202.41, -3022.68, 2217.22, -3046.46, 2249.06, -3134.63, 2266.09, -3164.12, 2333.32, -3171.31, 2400.73, -3219.09, 2428, -3289.55, 2427.99, -3362.96, 2422.53, -3453.19, 2391.04, -3518.98, 2320.04, -3590.07, 2234.24, -3632.93, 2163.38, -3633.06, 2103.53, -3633.18, 2073.4, -3659.64, 2040.39, -3688.61, 2024.47, -3652, 2016.23, -3600.02, 1962.7, -3567.28, 1918.06, -3504.29, 1895, -3424.27, 1895, -3372, 1898.06, -3288, 1944.85, -3205.3, 2006.82, -3159.71, 2082.14, -3131.83, 2166.98, -3142.37, 2141.52, -3117.36, 2109.53, -3062.28, 2078.65, -3009.14, 2048.63, -2920.65, 2038.43, -2800.02, 2060.34, -2712.52, 2111.15, -2619.6, 2188.53, -2556.72, 2251.74, -2519.17, 2319.6, -2498.5, 2379.92, -2480.12, 2076.23, -3577.12, 2107.92, -3470.15, 2145.56, -3386.95, 2169.33, -3293.84, 2191.12, -3216.58, 2187.16, -3173, 2256.5, -3204.7, 2240.65, -3254.22, 2193.1, -3335.44, 2088.11, -3234.41, 2020.76, -3216.58, 1987.08, -3214.6, 2046.51, -3329.5, 1983.12, -3315.63, 1931.61, -3325.54, 2020.76, -3428.55, 1967.27, -3434.49, 1939.54, -3452.32, 2197.07, -3480.06, 2282.25, -3525.62, 2304.04, -3557.32, 2258.48, -3384.97, 2333.76, -3410.72, 2379.32, -3444.4, 2213.14, -3301.22, 2292.15, -3293.84, 2357.53, -3307.71, 2393.19, -3335.44, 2302.06, -3232.43, 2351.58, -3240.35, 2385.26, -3264.13, 2141.6, -3188.85, 2082.17, -3171.02, 2044.53, -3182.91 ],
					"hull": 50,
					"edges": [ 0, 2, 6, 8, 8, 10, 10, 12, 12, 14, 14, 16, 16, 18, 18, 20, 24, 26, 26, 28, 28, 30, 30, 32, 32, 34, 34, 36, 36, 38, 38, 40, 40, 42, 42, 44, 44, 46, 54, 56, 56, 58, 58, 60, 60, 62, 62, 64, 64, 66, 66, 68, 68, 70, 74, 76, 76, 78, 82, 84, 84, 86, 86, 88, 88, 90, 90, 92, 92, 94, 98, 0, 50, 52, 52, 54, 100, 54, 100, 102, 102, 104, 104, 106, 106, 108, 108, 110, 110, 76, 30, 112, 112, 114, 116, 104, 106, 118, 118, 120, 120, 122, 104, 124, 124, 126, 126, 128, 102, 130, 130, 132, 132, 134, 102, 136, 136, 138, 138, 140, 104, 142, 142, 144, 144, 146, 114, 148, 148, 116, 148, 150, 150, 152, 152, 154, 114, 156, 156, 158, 158, 160, 108, 162, 162, 164, 164, 166, 70, 72, 72, 74, 2, 4, 4, 6, 94, 96, 96, 98, 20, 22, 22, 24, 78, 80, 80, 82, 46, 48, 48, 50 ],
					"width": 533,
					"height": 1211
				}
			},
			"Layer 44": {
				"Layer 44": {
					"type": "mesh",
					"uvs": [ 0.22364, 0, 0.26781, 0.01546, 0.2985, 0.10301, 0.32848, 0.06663, 0.38535, 0.1145, 0.40584, 0.15781, 0.42241, 0.23898, 0.41804, 0.34907, 0.40363, 0.43896, 0.40909, 0.48395, 0.43215, 0.60882, 0.47889, 0.7533, 0.51778, 0.81205, 0.55832, 0.8502, 0.62779, 0.87534, 0.67282, 0.87376, 0.69975, 0.86553, 0.75596, 0.83204, 0.84562, 0.7569, 0.87194, 0.71864, 0.88633, 0.63058, 0.93886, 0.57769, 0.99941, 0.67561, 0.9951, 0.82258, 0.95826, 0.95242, 0.92571, 0.97771, 0.8777, 0.97153, 0.84976, 0.89281, 0.83061, 0.91753, 0.7708, 0.97598, 0.65333, 1, 0.59804, 0.99972, 0.5246, 0.96585, 0.45312, 0.86861, 0.39228, 0.72605, 0.3627, 0.61523, 0.30217, 0.74838, 0.24701, 0.82916, 0.18374, 0.87526, 0.10725, 0.83267, 0.06113, 0.9167, 0.03483, 0.93248, 0.03524, 0.88989, 0.04406, 0.75318, 0.0106, 0.65014, 5.2E-4, 0.57449, 4.8E-4, 0.46257, 0.01546, 0.32002, 0.04464, 0.20259, 0.09911, 0.10625, 0.15231, 0.03909, 0.18784, 0, 0.33105, 0.11877, 0.25803, 0.2191, 0.19605, 0.38552, 0.16348, 0.53424, 0.16224, 0.3479, 0.19456, 0.21091, 0.23921, 0.11152, 0.2457, 0.54735, 0.2555, 0.36531, 0.32431, 0.44554, 0.29101, 0.70885, 0.3548, 0.56296, 0.33825, 0.2381, 0.39312, 0.36335, 0.0874, 0.4612, 0.02643, 0.46903, 0.11092, 0.27724, 0.0604, 0.24202, 0.16492, 0.15395, 0.1266, 0.11677, 0.21892, 0.06393, 0.19453, 0.04044, 0.12398, 0.66081, 0.05082, 0.88196, 0.19018, 0.67256, 0.23547, 0.78802, 0.0726, 0.57862, 0.02469, 0.59428, 0.31057, 0.66543, 0.05209, 0.29404, 0.10893, 0.37226, 0.04143, 0.33395 ],
					"triangles": [ 73, 51, 0, 50, 51, 73, 72, 73, 0, 1, 72, 0, 58, 1, 2, 58, 72, 1, 71, 49, 50, 52, 3, 4, 2, 3, 52, 70, 50, 73, 71, 50, 70, 72, 70, 73, 57, 72, 58, 57, 70, 72, 53, 58, 2, 57, 58, 53, 53, 2, 52, 64, 52, 4, 64, 4, 5, 53, 52, 64, 64, 5, 6, 69, 48, 49, 68, 49, 71, 68, 71, 70, 69, 49, 68, 81, 48, 69, 47, 48, 81, 83, 47, 81, 56, 68, 70, 56, 70, 57, 6, 65, 64, 7, 65, 6, 53, 54, 57, 60, 53, 64, 54, 56, 57, 68, 81, 69, 82, 68, 56, 82, 81, 68, 83, 81, 82, 53, 60, 54, 8, 65, 7, 61, 60, 64, 61, 64, 65, 61, 65, 8, 66, 83, 82, 67, 46, 47, 83, 67, 47, 66, 67, 83, 55, 56, 54, 82, 56, 55, 66, 82, 55, 59, 54, 60, 59, 60, 61, 55, 54, 59, 63, 61, 8, 35, 63, 8, 45, 46, 67, 78, 67, 66, 78, 66, 55, 79, 45, 67, 78, 79, 67, 9, 35, 8, 10, 35, 9, 44, 45, 79, 74, 78, 55, 80, 59, 61, 80, 61, 63, 80, 63, 35, 76, 55, 59, 74, 55, 76, 62, 59, 80, 76, 59, 62, 34, 35, 10, 36, 62, 80, 36, 80, 35, 43, 79, 78, 43, 78, 74, 44, 79, 43, 34, 10, 11, 77, 76, 62, 77, 62, 36, 22, 20, 21, 37, 77, 36, 74, 75, 43, 33, 34, 11, 33, 11, 12, 76, 39, 74, 38, 76, 77, 38, 77, 37, 38, 39, 76, 39, 75, 74, 42, 43, 75, 27, 18, 19, 28, 17, 18, 40, 75, 39, 27, 28, 18, 41, 42, 75, 41, 75, 40, 22, 23, 20, 23, 19, 20, 24, 19, 23, 25, 27, 19, 32, 12, 13, 33, 12, 32, 25, 26, 27, 29, 17, 28, 16, 17, 29, 19, 24, 25, 31, 13, 14, 32, 13, 31, 30, 14, 15, 31, 14, 30, 30, 15, 16, 30, 16, 29 ],
					"vertices": [ 1031.3, -1379, 1102.86, -1390.14, 1152.57, -1453.27, 1201.14, -1427.04, 1293.27, -1461.55, 1326.46, -1492.78, 1353.3, -1551.3, 1346.23, -1630.68, 1322.87, -1695.49, 1331.73, -1727.93, 1369.09, -1817.96, 1444.81, -1922.13, 1507.81, -1964.49, 1573.48, -1992, 1686.02, -2010.12, 1758.97, -2008.98, 1802.59, -2003.05, 1893.65, -1978.9, 2038.9, -1924.72, 2081.54, -1897.14, 2104.86, -1833.65, 2189.96, -1795.51, 2288.05, -1866.11, 2281.07, -1972.08, 2221.38, -2065.69, 2168.65, -2083.93, 2090.87, -2079.48, 2045.61, -2022.71, 2014.58, -2040.54, 1917.69, -2082.68, 1727.39, -2100, 1637.83, -2099.8, 1518.85, -2075.38, 1403.05, -2005.27, 1304.5, -1902.48, 1256.57, -1822.58, 1158.52, -1918.58, 1069.15, -1976.83, 966.65, -2010.06, 842.74, -1979.35, 768.03, -2039.94, 725.42, -2051.31, 726.09, -2020.61, 740.38, -1922.04, 686.17, -1847.75, 669.85, -1793.21, 669.78, -1712.51, 694.05, -1609.73, 741.32, -1525.07, 829.55, -1455.61, 915.75, -1407.18, 973.3, -1379, 1205.3, -1464.63, 1087.02, -1536.97, 986.6, -1656.96, 933.84, -1764.18, 931.83, -1629.84, 984.18, -1531.07, 1056.52, -1459.4, 1067.03, -1773.64, 1082.92, -1642.39, 1194.39, -1700.24, 1140.44, -1890.08, 1243.77, -1784.9, 1216.96, -1550.67, 1305.85, -1640.98, 810.59, -1711.53, 711.82, -1717.17, 848.69, -1578.89, 766.85, -1553.49, 936.17, -1490, 874.09, -1463.19, 1023.65, -1425.09, 984.15, -1408.16, 869.86, -1855.45, 751.33, -2014.89, 977.09, -1863.91, 1050.46, -1947.16, 786.61, -1796.19, 709, -1807.47, 1172.13, -1858.77, 753.38, -1591, 845.46, -1647.4, 736.12, -1619.78 ],
					"hull": 52,
					"edges": [ 0, 102, 0, 2, 2, 4, 6, 8, 8, 10, 10, 12, 12, 14, 14, 16, 16, 18, 22, 24, 30, 32, 36, 38, 38, 40, 40, 42, 42, 44, 46, 48, 48, 50, 50, 52, 52, 54, 54, 56, 56, 58, 58, 60, 60, 62, 62, 64, 64, 66, 66, 68, 70, 72, 72, 74, 74, 76, 76, 78, 80, 82, 82, 84, 86, 88, 88, 90, 90, 92, 92, 94, 94, 96, 96, 98, 98, 100, 100, 102, 4, 6, 78, 80, 84, 86, 20, 22, 18, 20, 68, 70, 28, 30, 26, 28, 24, 26, 32, 34, 34, 36, 44, 46, 104, 106, 106, 108, 108, 110, 110, 112, 112, 114, 114, 116, 116, 4, 110, 118, 108, 120, 120, 122, 118, 124, 122, 126, 106, 128, 128, 130, 110, 132, 132, 134, 112, 136, 136, 138, 114, 140, 140, 142, 116, 144, 144, 146, 110, 148, 148, 150, 148, 152, 152, 154, 148, 156, 156, 158, 16, 70, 118, 160, 162, 164, 164, 166 ],
					"width": 1620,
					"height": 721
				}
			}
		}
	}
],
"animations": {
	"animation": {
		"deform": {
			"default": {
				"Layer 21": {
					"Layer 21": [
						{ "time": 0.1333, "curve": 0.291, "c3": 0.629, "c4": 0.4 },
						{
							"time": 1.4333,
							"vertices": [ 18.69177, 37.39758, 18.0531, 31.18713, 14.94031, 16.65173, 12.48828, 9.3501, 9.73804, 2.89673, 0, 0, 0, 0, 0, 0, 0, 0, 0, 0, 0, 0, 3.46704, 14.66309, 7.68909, 24.43262, 10.60413, 38.36548, 10.88086, 49.57983, 9.61755, 56.79858, 7.15601, 64.02979, 4.86255, 68.79858, 0.12769, 82.77954, 0.76147, 90.16772, 2.28931, 94.4021, 5.20093, 97.92822, 12.20825, 103.61963, 22.86426, 104.58667, 33.18884, 102.47705, 38.58484, 100.04028, 43.5675, 95.96069, 47.1731, 90.65649, 47.39832, 90.5166, 51.08789, 81.34058, 51.27051, 74.72827, 29.40515, 74.62866, 24.76172, 69.59277, 29.3465, 91.45581, 50.88287, 66.39331, 48.37421, 60.81396, 44.92218, 55.21924, 41.8606, 51.73413, 35.88416, 47.16406, 28.25385, 44.25659, 19.96442, 44.06763, 13.05652, 45.72021, 7.08203, 48.66309, 2.04559, 54.24927, -0.76599, 60.2771, -2.06567, 66.97778, -1.61511, 72.06323, 0.38116, 75.10425, 5.45898, 79.80396, 8.49622, 76.86182, 10.91943, 74.59766, 15.22546, 68.34485, 17.64905, 60.0531, 19.15112, 51.64697, 19.09314, 42.61011, 18.96448, 37.40833, 2.49109, 80.61304, 15.01196, 75.25049, 31.05396, 71.7959, 14.12268, 72.03442, 45.81592, 70.83643, 36.96112, 73.92798, 30.5882, 59.81079, 33.57513, 48.99487, 37.50043, 71.37646, 38.41925, 64.64893, 44.85034, 58.72241, 40.19763, 79.83765, 46.40186, 87.19629, 19.77197, 71.95605, 15.82239, 61.37183, 15.10956, 47.51025, 9.68121, 73.02686, 4.29443, 68.20166, 1.72351, 60.42017, 10.4104, 77.21997, 8.75952, 86.47485, 11.70154, 100.70044, 20.69727, 74.02637, 19.7395, 87.42041, 26.77637, 101.58691, 30.75732, 81.60889, 38.14978, 97.57617 ],
							"curve": 0.31,
							"c2": 0.27,
							"c3": 0.648,
							"c4": 0.64
						},
						{ "time": 2.6667 }
					]
				},
				"Layer 27": {
					"Layer 27": [
						{ "curve": 0.322, "c3": 0.656, "c4": 0.34 },
						{
							"time": 0.3333,
							"offset": 22,
							"vertices": [ -0.7438, 0.15445, -0.83277, 0.43325, -0.99903, 0.62935, -1.0312, 0.27532, -1.30437, -0.31462, -1.7662, -0.78658, -2.56168, -1.10256, -3.14724, -1.2485, -3.71375, 0, -4.60302, -1.19557, -5.62777, -0.88743, -6.47202, -0.35327, -7.03844, 0.24456, -7.49717, 1.01643, -7.73912, 1.66578, -7.8066, 2.927, -7.60111, 3.78275, -4.0E-5, 3.0E-5, -5.0E-5, 1.0E-5, 24.00007, -11.99998, -5.0E-5, -3.0E-5, -12.00031, -12.00002, -5.99802, 6.17214, -4.88014, 6.65954, -4.03515, 6.77372, -2.71956, 6.6513, -1.42956, 6.0674, -0.68074, 5.40783, -0.09248, 4.43168, 0.0962, 3.75725, 0.05599, 2.80072, -0.12319, 2.24574, -0.41079, 1.81655, -0.48123, 1.64515, -0.24723, 1.33327, 0.10135, 0.86871, 0.34878, 0.20045, 0, 0, 0, 0, -1.77663, 1.57008, -3.08772, 2.52657, -4.4932, 3.67142, -6.20961, 4.72698, 5.0E-5, -5.0E-5, 2.0E-5, -3.0E-5, -1.51313, 1.98895, -2.84984, 2.82363, -0.68997, 2.56849, -0.28482, 3.43191, -1.76238, 3.84255, -1.36325, 4.56289, -1.02813, 5.22446, -3.83151, 4.79021, -3.69474, 5.60354, -3.66358, 6.33939, -4.85517, 2.37608, -5.50907, 1.4413, -6.66534, 0.73257, -3.22828, 1.14003, -4.03656, -0.05445, -4.77966, -0.67835, -1.93815, 0.65539, -2.52986, -0.26153, -3.08301, -0.75012, -6.30072, 3.54313, -6.85415, 2.56307, -7.2633, 2.08888, -5.46394, 5.41215, -5.31799, 5.9589, 0, 0, 0, 0, 0, 0, 0, 0, -0.3271, 0.01385, 0, 0, -0.37019, 0.44573, -0.64083, 0.82577, -1.3435, 1.04611, -1.01457, 1.1897, -0.88923, 1.78105 ],
							"curve": 0.31,
							"c2": 0.15,
							"c3": 0.645,
							"c4": 0.5
						},
						{
							"time": 1.2,
							"offset": 22,
							"vertices": [ -7.82544, 1.625, -8.76147, 4.55823, -10.51074, 6.62134, -10.84912, 2.89661, -13.72314, -3.31006, -18.58203, -8.27551, -26.95117, -11.59998, -33.11182, -13.13538, -39.07202, 0, -48.42798, -12.57849, -59.20923, -9.33655, -68.09155, -3.71667, -74.05078, 2.573, -78.87708, 10.69373, -81.42261, 17.52551, -82.13257, 30.79468, -79.97058, 39.79797, -75.20593, 48.77258, -78.26648, 54.34998, -79.69727, 59.15076, -73.47742, 59.23889, -68.474, 58.94873, -63.10461, 64.93652, -51.34351, 70.06445, -42.45349, 71.26575, -28.6123, 69.97778, -15.04028, 63.83459, -7.16199, 56.89532, -0.97302, 46.62537, 1.01208, 39.52972, 0.58911, 29.46613, -1.29602, 23.62726, -4.3219, 19.11176, -5.06299, 17.30847, -2.60107, 14.02722, 1.06628, 9.13959, 3.66943, 2.10889, 0, 0, 0, 0, -18.69177, 16.51868, -32.4856, 26.58179, -47.27258, 38.62671, -65.33081, 49.73218, -70.98352, 53.63403, -74.58496, 55.0791, -15.91956, 20.92554, -29.98291, 29.70715, -7.25916, 27.02283, -2.99658, 36.10681, -18.54187, 40.42712, -14.34265, 48.00574, -10.81689, 54.96606, -40.31104, 50.39734, -38.87207, 58.95435, -38.54419, 66.69617, -51.08081, 24.99854, -57.96045, 15.16382, -70.12549, 7.70728, -33.96448, 11.99414, -42.46826, -0.57288, -50.28638, -7.13684, -20.39111, 6.89526, -26.61646, -2.75159, -32.43604, -7.89197, -66.28931, 37.27698, -72.11194, 26.96582, -76.4165, 21.97693, -57.4856, 56.9408, -55.95007, 62.69312, 0, 0, 0, 0, 0, 0, 0, 0, -3.44141, 0.14569, 0, 0, -3.89478, 4.68945, -6.74207, 8.68781, -14.13489, 11.00598, -10.67419, 12.51672, -9.35547, 18.73828 ],
							"curve": 0.324,
							"c2": 0.29,
							"c3": 0.658,
							"c4": 0.62
						},
						{
							"time": 1.7667,
							"offset": 22,
							"vertices": [ -5.18008, 1.07568, -5.79969, 3.01734, -6.95763, 4.38302, -7.18162, 1.91742, -9.08409, -2.19111, -12.30045, -5.47801, -17.84043, -7.67865, -21.9185, -8.69501, -25.86388, 0, -32.05709, -8.32638, -39.19378, -6.18036, -45.07347, -2.46027, -49.0182, 1.70321, -52.21299, 7.07875, -53.89801, 11.60108, -54.36797, 20.38466, -52.93684, 26.34442, -61.49844, 21.63689, -69.38412, 39.83241, -72.43438, 55.14494, -53.10571, 53.6204, -55.66257, 39.27146, -41.77235, 42.98499, -33.98703, 46.37944, -28.10225, 47.17464, -18.94003, 46.32207, -9.95597, 42.25556, -4.74091, 37.66208, -0.6441, 30.86384, 0.66995, 26.16685, 0.38996, 19.50522, -0.85791, 15.64016, -2.8609, 12.6511, -3.35146, 11.45741, -1.72179, 9.28537, 0.70583, 6.04999, 2.429, 1.39599, 0, 0, 0, 0, -12.37309, 10.9346, -21.50397, 17.59592, -31.29227, 25.5691, -43.24599, 32.92041, -46.98782, 35.50326, -57.7468, 41.02965, -10.53801, 13.85174, -19.84731, 19.66477, -4.80523, 17.88787, -1.9836, 23.90104, -12.27386, 26.76089, -9.49417, 31.77758, -7.16029, 36.385, -26.68405, 33.36071, -25.73152, 39.02506, -25.51448, 44.14979, -33.81314, 16.54788, -38.36715, 10.03775, -46.41984, 5.10186, -22.48292, 7.93957, -28.11203, -0.37922, -33.28726, -4.72426, -13.49798, 4.56435, -17.61887, -1.82142, -21.47116, -5.22412, -43.88046, 24.67564, -47.73478, 17.85013, -50.5842, 14.54771, -38.05281, 37.69218, -37.03637, 41.49995, 0, 0, 0, 0, 0, 0, 0, 0, -2.27805, 0.09644, 0, 0, -2.57816, 3.1042, -4.46294, 5.75093, -9.35664, 7.28545, -7.06582, 8.28549, -6.19289, 12.40388 ],
							"curve": 0.322,
							"c2": 0.29,
							"c3": 0.656,
							"c4": 0.62
						},
						{ "time": 2.6667 }
					]
				},
				"Layer 37": {
					"Layer 37": [
						{ "curve": 0.251, "c3": 0.624, "c4": 0.49 },
						{
							"time": 1.3,
							"vertices": [ -48.79199, -53.75403, -40.005, -43.64136, -41.13525, -42.16077, -45.59302, -33.04459, -46.17688, -24.24393, -44.89014, -13.52902, -35.45166, -4.73401, -34.12695, -1.55164, -30.03125, 0.48364, -25.49854, -0.13934, -26.07129, -0.88501, -12.82739, 3.74359, 0, 0, 0, 0, 0, 0, 0, 0, 0, 0, 0, 0, 0, 0, 0, 0, 0, 0, 0, 0, 0, 0, 0, 0, 0, 0, 0, 0, 0, 0, 0, 0, 0, 0, 0, 0, 0, 0, 0, 0, 0, 0, 0, 0, 0, 0, -6.74927, -7.8692, -9.14453, -7.89856, -22.00293, -9.48102, -23.2998, -14.03229, -25.4856, -16.23401, -29.51929, -16.31506, -33.2417, -19.08136, -36.0509, -24.93298, -35.95508, -32.3299, -34.23584, -37.83929, -34.14465, -31.71613, -30.64746, -22.01782, -23.16748, -18.40808, -17.03564, -17.04218, -9.70264, -17.34912, 4.04004, -22.59662, 12.88281, -27.57764, 18.27185, -36.47583, 23.07214, -47.44629, 24.72852, -57.43396, 20.65955, -70.32593, 20.19067, -73.06177, 22.9364, -76.92786, 26.01477, -81.26172, 25.34082, -83.78125, 20.03699, -83.84521, 15.9137, -83.89526, 1.80017, -96.59534, -7.82275, -99.58289, -13.50635, -99.85114, -17.51111, -99.87634, -29.63538, -96.31677, -36.0354, -91.78101, -40.86243, -87.11243, -44.77075, -79.74689, -47.80847, -73.87161, -50.4198, -63.07162, -29.28735, -45.62531, -22.12292, -52.28723, -7.75745, -63.22626, 3.81543, -71.76514, 15.87024, -77.89856, 20.75098, -80.34888, -9.89624, -68.39062, -25.28784, -57.79785, -33.72595, -49.409, -34.20776, -67.60089, -42.23682, -77.36191, -41.70447, -57.08279, -47.27686, -65.23901, -17.78345, -81.12372, -23.32275, -93.15027, -4.36951, -84.51202, -5.8811, -93.51929, 8.89612, -56.33508, 16.79749, -47.02698, -4.57214, -48.63013, 5.90759, -30.8606, -19.40588, -37.2666, -10.43286, -22.24847, -27.13135, -34.5033, -20.44556, -21.52942 ],
							"curve": 0.374,
							"c2": 0.49,
							"c3": 0.751
						},
						{ "time": 2.6667 }
					]
				},
				"Layer 39": {
					"Layer 39": [
						{ "curve": 0.299, "c3": 0.636, "c4": 0.36 },
						{
							"time": 1.3333,
							"offset": 6,
							"vertices": [ -27.74341, 9.34229, -35.37598, 23.07104, -36.84155, 33.27393, -19.79041, 66.95532, -17.8573, 67.97241, -9.67163, 68.56104, -0.59534, 67.08643, 7.81848, 63.41309, 12.76636, 58.45654, 15.57385, 52.46289, 18.07312, 39.50879, 21.09912, 37.9187, 36.20679, 28.47998, 32.25928, 18.82861, 24.1748, 15.4397, 16.31543, 14.46191, 8.93225, 15.28711, 2.81934, 11.64087, -8.06445, 11.06348, -15.34705, 12.53687, -23.00439, 16.48633, -26.50317, 19.67188, -31.12939, 25.52686, -33.16614, 33.7334, -33.47729, 40.5863, -30.22156, 49.11499, -21.47083, 50.56152, -22.74829, 42.10791, -19.84082, 31.59814, -14.25854, 21.98303, 0, 0, 0, 0, 0, 0, 0, 0, 0, 0, 0, 0, -25.03149, 63.65723, -2.0166, 34.40796, -13.92065, 40.2002, -23.42627, 49.01636, -26.79272, 54.85156, -29.26123, 45.64844, -25.28149, 42.20337, -15.42334, 37.40479, 5.09717, 60.5481, -1.6106, 52.59814, -4.38184, 42.11011, -9.61255, 64.20923, -13.88623, 58.55396, -17.1748, 47.49561, -6.61755, 28.01123, -8.74182, 19.18872, -7.80017, 14.69189, -20.40479, 31.35278, -22.49353, 25.62012, -22.97693, 20.50952, -28.70886, 37.86133, -30.00452, 34.52979, 26.28662, 25.08887, 13.40149, 27.3291, 4.50964, 30.90356, -0.4032, 23.40137, -0.36804, 15.0459, 4.07031, 40.14868, 7.66113, 48.67749, 12.59863, 51.82153, -27.37158, 51.73486 ],
							"curve": 0.312,
							"c2": 0.24,
							"c3": 0.648,
							"c4": 0.59
						},
						{ "time": 2.5667 }
					]
				},
				"Layer 41": {
					"Layer 41": [
						{
							"offset": 50,
							"vertices": [ 8.28027, 8.28003 ],
							"curve": 0.25,
							"c3": 0.75
						},
						{
							"time": 1.3333,
							"vertices": [ -6.15234, -7.94263, -6.16504, -7.51636, 0, 0, 0, 0, 0, 0, 0, 0, 1.43579, -8.02002, 1.72021, -15.76294, 2.05566, -17.44409, 6.05469, -12.69287, 10.47559, -10.76978, 15.6167, -9.30786, 24.12549, -9.33618, 33.66797, -11.11621, 41.18628, -17.13745, 44.59229, -21.11206, 48.35339, -27.68652, 50.78931, -36.63525, 51.3219, -42.02002, 50.45264, -46.62964, 45.03955, -41.4314, 19.89294, -18.54272, 37.48145, -38.26929, 48.03882, -54.23828, 15.74927, -32.24805, 19.01978, -38.47607, 12.51172, -27.29321, 13.80176, -63.44482, 21.55786, -39.08374, 18.26807, -55.43408, 27.72266, -50.50244, 5.24377, -57.0769, 8.76672, -51.59863, 6.98511, -50.0415, 3.69263, -50.47437, 1.84521, -52.76611, -0.26709, -58.05176, -1.80603, -58.2561, -3.89612, -50.98535, -3.99463, -45.82056, -2.14868, -39.68335, 1.31042, -34.56592, -3.54822, -26.85205, -5.6731, -15.96533, 2.00623, -27.27051, 3.13318, -32.72974, 10.19812, -38.66357, 16.65869, -42.35278, 24.51135, -45.78613, 55.61963, -54.59497, 39.93042, -38.80054, 23.39111, -47.97217, 10.33984, -35.10278, 8.776, -41.61157, 2.03162, -22.22144, 19.97583, -43.802, 21.54553, -32.62598, 24.07532, -19.63037, 27.77393, -13.49243, 9.03442, -28.25098, 8.70178, -20.50757, 9.60596, -14.55859, 2.6355, -45.23608, -1.09741, -50.19043, -0.97266, -54.49438, 13.06519, -36.13745, 13.03796, -51.17944, 9.28186, -59.04248, 22.08325, -65.77271, 29.85693, -48.2583, 26.29297, -55.21021, 15.57568, -58.43091, 21.63464, -45.96802, 30.42957, -47.29272, 30.63794, -52.61401, 25.06409, -36.40894, 40.87317, -19.57349, 54.70862, -67.07275, 33.96143, -57.11426, 57.49353, -35.45459, 66.35706, -12.03345, 34.54492, -57.55591, 33.979, -44.49731, 30.38525, -43.23706 ],
							"curve": 0.25,
							"c3": 0.75
						},
						{
							"time": 2.6667,
							"offset": 50,
							"vertices": [ 8.28027, 8.28003 ]
						}
					]
				},
				"Layer 42": {
					"Layer 42": [
						{ "curve": 0.299, "c3": 0.636, "c4": 0.36 },
						{
							"time": 1.2333,
							"offset": 4,
							"vertices": [ -6.78076, 1.97827, -7.63135, 6.95874, -10.12939, 13.99194, -12.80859, 17.01636, -14.71313, 18.28296, -19.29761, 19.99292, -23.9895, 20.79102, -28.46265, 20.14233, -30.39624, 19.67578, -35.1062, 18.22534, -39.5376, 16.86206, -41.68579, 15.6521, -50.13965, 17.68652, -49.70312, 17.94141, -49.60205, 18.94312, -48.8999, 19.9519, -47.85278, 20.36694, -46.76074, 20.37354, -45.41528, 20.30298, -44.43433, 19.84058, -43.36792, 18.79126, -42.72095, 17.51855, -42.71094, 16.46484, -42.70264, 15.57373, -39.65771, 15.29199, -22.80701, 13.16162, -45.06055, 14.23657, -43.1864, 14.27124, -43.66772, 13.46973, -44.60034, 12.79785, -45.78821, 12.44678, -46.56592, 12.44165, -47.81763, 12.47681, -49.05469, 13.16479, -49.73914, 14.0813, -50.1637, 15.19946, -50.01489, 16.46411, -47.62524, 22.5813, -42.65894, 25.18066, -37.86609, 27.69092, -29.96948, 29.98657, -19.32422, 30.41553, -11.71558, 28.15234, -3.74097, 23.32349, 1.48804, 16.27637, 4.54443, 10.57422, 6.09912, 4.52734, 0, 0, -43.53369, 15.16187, -45.12988, 15.62085, -46.37231, 16.17212, -47.76099, 16.51563, -48.9126, 16.83252, -49.56177, 16.76929, -49.09717, 17.80225, -48.35889, 17.57446, -47.14355, 16.87402, -48.63696, 15.30029, -48.89441, 14.29565, -48.91956, 13.79492, -47.21631, 14.69043, -47.41675, 13.74658, -47.26257, 12.98096, -45.73865, 14.3208, -45.64526, 13.52393, -45.37598, 13.11304, -44.99097, 16.9502, -44.32275, 18.22266, -43.85498, 18.55127, -50.91748, 17.57495, -46.03882, 18.97632, -45.54272, 19.65894, -47.65649, 17.1687, -47.77466, 18.3457, -47.57544, 19.31885, -47.1665, 19.85376, -48.69043, 18.48633, -48.57837, 19.22266, -48.22681, 19.72656, -49.31982, 16.09131, -49.57959, 15.20386, -49.39807, 14.64478 ],
							"curve": 0.321,
							"c2": 0.29,
							"c3": 0.657,
							"c4": 0.63
						},
						{ "time": 2.6667 }
					]
				},
				"Layer 44": {
					"Layer 44": [
						{ "curve": 0.299, "c3": 0.636, "c4": 0.36 },
						{
							"time": 1.3333,
							"vertices": [ -20.67303, -69.42944, -21.7981, -75.13721, -27.02454, -78.92273, -25.07617, -82.90662, -28.1438, -90.18958, -30.75732, -92.75146, -35.54089, -94.7179, -41.88904, -93.8938, -27.47913, -67.3905, -14.38501, -66.09717, -7.39453, -62.86731, 0.59241, -56.56506, 3.73975, -51.45996, 5.70618, -46.18994, 6.78528, -37.24976, 6.4679, -31.49402, 5.86328, -28.06958, 3.67261, -20.95679, -1.05713, -9.65991, -3.36768, -6.38037, -8.45166, -4.7373, 0, 0, 0, 0, 0, 0, 0, 0, 0, 0, 10.99683, -5.07544, 6.65735, -8.82507, 8.16101, -11.21899, 11.79016, -18.7356, 13.75122, -33.70361, 14.01477, -40.77344, 12.4585, -50.24243, 7.28516, -59.60205, -0.521, -67.70239, -27.698, -47.00708, -64.39087, -77.89905, -68.77637, -70.53845, -71.11389, -62.2052, -68.24896, -52.35852, -45.09265, -54.69177, -41.99323, -62.91211, -48.09174, -63.38916, -63.31879, -44.32788, -57.18164, -40.2168, -52.75244, -39.0824, -46.27417, -39.33813, -38.10358, -41.61682, -31.4613, -45.68445, -26.17047, -52.98987, -22.56116, -60.06372, -20.48572, -64.77466, -28.10706, -83.11902, -33.53113, -73.39136, -42.83716, -64.94458, -51.27344, -60.36426, -40.48431, -60.63611, -32.72583, -65.15735, -27.20679, -71.19409, -52.46283, -71.02466, -41.97852, -72.72241, -46.98132, -81.48254, -62.04529, -76.54028, -53.93579, -85.17285, -35.04956, -83.77673, -42.58484, -90.62012, -46.64941, -50.64221, -46.784, -42.69678, -36.12677, -54.12817, -33.8244, -47.64148, -29.27484, -61.43616, -26.92297, -56.54004, -24.34778, -68.66638, -22.86133, -65.55103, -58.39246, -54.93445, -49.72668, -58.49841, -59.4173, -63.5144, -66.33636, -69.13428, -53.36676, -48.44421, -54.02209, -42.17896, -59.63354, -79.18445, -36.79126, -46.4397, -41.61511, -53.64819, -39.04547, -44.96069 ],
							"curve": 0.312,
							"c2": 0.24,
							"c3": 0.648,
							"c4": 0.59
						},
						{ "time": 2.6667 }
					]
				}
			}
		}
	}
}
}