%YAML 1.1
%TAG !u! tag:unity3d.com,2011:
--- !u!114 &11400000
MonoBehaviour:
  m_ObjectHideFlags: 0
  m_CorrespondingSourceObject: {fileID: 0}
  m_PrefabInstance: {fileID: 0}
  m_PrefabAsset: {fileID: 0}
  m_GameObject: {fileID: 0}
  m_Enabled: 1
  m_EditorHideFlags: 0
  m_Script: {fileID: 11500000, guid: deada51ddafa6304c894ffaffa3f8d7c, type: 3}
  m_Name: TilesetRollingSecondary
  m_EditorClassIdentifier: 
  type: 1
  flowIntoSlopes: 0
  singleSquare:
  - {fileID: 21300000, guid: 62b5b830f939015428ce0e380219f5e8, type: 3}
  - {fileID: 21300000, guid: 1f64a8b8033654340b5e556bdfbd9ddf, type: 3}
  - {fileID: 21300000, guid: 6bda28eea089cb24e9bf71c0f84feaca, type: 3}
  interior:
  - {fileID: 21300000, guid: fce5759faffd9e445aa73bbb1bd94543, type: 3}
  - {fileID: 21300000, guid: 692b2abbefe3c3544ba7363d62479d9c, type: 3}
  - {fileID: 21300000, guid: 5c838017270ce394297f16d26ceb15b3, type: 3}
  - {fileID: 21300000, guid: 4df2193c4e0d9b84785a4d5810f9c5ee, type: 3}
  - {fileID: 21300000, guid: 45834cb9b8fbb894e9bbe425382c981e, type: 3}
  - {fileID: 21300000, guid: c01d01d71dee89d4a933475d68fceb0e, type: 3}
  - {fileID: 21300000, guid: 941f0fbbe97bf014a8013de6bc99a01b, type: 3}
  - {fileID: 21300000, guid: b2c5159393812cf40917d9b5c41abc93, type: 3}
  - {fileID: 21300000, guid: e65291f53719b044aa1002e5af28545a, type: 3}
  - {fileID: 21300000, guid: 7dc42289bfbd8ae449d62ba55c7827a0, type: 3}
  - {fileID: 21300000, guid: 80fc6037e459cf74d91bd63855fa6055, type: 3}
  - {fileID: 21300000, guid: bd0100bded4ed834798ebf7f949ab8b8, type: 3}
  - {fileID: 21300000, guid: df4ea066dc4217d44baa91de7812bb82, type: 3}
  - {fileID: 21300000, guid: 4edcd8182803216429291b225603c809, type: 3}
  - {fileID: 21300000, guid: 89615d19dd2852848a87e457b5bcc9e7, type: 3}
  - {fileID: 21300000, guid: 2d1dd0c5528a59f4681b0450d0ec87f5, type: 3}
  - {fileID: 21300000, guid: 2e4afad0ab13fd044bd5d9c71109bfbc, type: 3}
  - {fileID: 21300000, guid: 212afc763b028e544bfd28472cf9967b, type: 3}
  - {fileID: 21300000, guid: de58919c4a5e34944a7c2aa665fa3c6b, type: 3}
  - {fileID: 21300000, guid: 6422530581ebc0c46b84b8369c3d3ded, type: 3}
  - {fileID: 21300000, guid: be7c23da06ce9d648ab0ac1cb13c6651, type: 3}
  - {fileID: 21300000, guid: 7d667c93db179ea46935452604748e07, type: 3}
  - {fileID: 21300000, guid: e68100b6393608f40ae8fa4989bba3bb, type: 3}
  - {fileID: 21300000, guid: e10c932946f121c42af8ff522309f1a6, type: 3}
  - {fileID: 21300000, guid: 4edac65434d85294580aa6cf73694201, type: 3}
  interiorStyle: 1
  interiorGridColumns: 5
  interiorGridRows: 5
  interiorUnderneathEdges: 0
  interiorUnderneathJoinedSlopes: 0
  interiorUnderneathAllCurves: 0
  bottom:
  - {fileID: 21300000, guid: a4471feed94a38e42a3076da0ad5cb54, type: 3}
  - {fileID: 21300000, guid: 2d5a00faa97602c499c78c5e89863ac5, type: 3}
  - {fileID: 21300000, guid: ad3aee93a30507e4298eac937da9ca18, type: 3}
  - {fileID: 21300000, guid: 639a71ab261da8d47804a1b4a28c1cde, type: 3}
  left:
  - {fileID: 21300000, guid: 05e9bcfa39780a048ba1c76901e6ffbe, type: 3}
  - {fileID: 21300000, guid: 8529ba92dc1830e499cebe1893221df3, type: 3}
  - {fileID: 21300000, guid: 0f5df6621a333184fad61d138742cfef, type: 3}
  - {fileID: 21300000, guid: 7292becd6b342604f9ed7e463284b255, type: 3}
  right:
  - {fileID: 21300000, guid: 1d83146e415ebd3409074194fc5dbbcd, type: 3}
  - {fileID: 21300000, guid: a90baeae110d40a42b8a57db2ce499b0, type: 3}
  - {fileID: 21300000, guid: 1cebf871855b18748902ac051a7a8b2c, type: 3}
  - {fileID: 21300000, guid: e6827849c2168bd4abf240f451b843f8, type: 3}
  top:
  - {fileID: 21300000, guid: 72334694cbbb6f840b743a364699d441, type: 3}
  - {fileID: 21300000, guid: b79f6db89146eaa45ac7e8041d293c86, type: 3}
  - {fileID: 21300000, guid: 336b28beb361c0e409aae52c8692423a, type: 3}
  - {fileID: 21300000, guid: 895f5a836f72fe145b938d38fad9ecd8, type: 3}
  bottomLeft: {fileID: 21300000, guid: a9989625eec6e8d4c8cce8c200aa2528, type: 3}
  bottomRight: {fileID: 21300000, guid: 5f224c86df07a9049917c4e9491ab61d, type: 3}
  topLeft: {fileID: 21300000, guid: 845bdaa9cb5d4fd4d95f666de3f1de70, type: 3}
  topRight: {fileID: 21300000, guid: 451cbc2aa0c386f4394b8b47235ebde8, type: 3}
  insideBottomLeft: {fileID: 21300000, guid: bca74fda15b4e4b4ab5ab28cb1394dc9, type: 3}
  insideBottomRight: {fileID: 21300000, guid: 106db4bf8cde25d46b8705bc0348f6cc, type: 3}
  insideTopLeft: {fileID: 21300000, guid: 2d55145419f05f846ae5713c517d794c, type: 3}
  insideTopRight: {fileID: 21300000, guid: 64fb1d0d2e9821a41b52e06d376ad332, type: 3}
  slope22BottomLeft: {fileID: 0}
  slope22BottomRight: {fileID: 0}
  slope22TopLeft: {fileID: 0}
  slope22TopRight: {fileID: 0}
  slope45BottomLeft: {fileID: 0}
  slope45BottomRight: {fileID: 0}
  slope45TopLeft: {fileID: 0}
  slope45TopRight: {fileID: 0}
  slopeJoined22BottomLeft: {fileID: 0}
  slopeJoined22BottomRight: {fileID: 0}
  slopeJoined22TopLeft: {fileID: 0}
  slopeJoined22TopRight: {fileID: 0}
  slopeJoined45BottomLeft: {fileID: 0}
  slopeJoined45BottomRight: {fileID: 0}
  slopeJoined45TopLeft: {fileID: 0}
  slopeJoined45TopRight: {fileID: 0}
  slopeJoinedLeft22BottomLeft: {fileID: 0}
  slopeJoinedLeft22BottomRight: {fileID: 0}
  slopeJoinedLeft22TopLeft: {fileID: 0}
  slopeJoinedLeft22TopRight: {fileID: 0}
  slopeJoinedLeft45BottomLeft: {fileID: 0}
  slopeJoinedLeft45BottomRight: {fileID: 0}
  slopeJoinedLeft45TopLeft: {fileID: 0}
  slopeJoinedLeft45TopRight: {fileID: 0}
  slopeJoinedRight22BottomLeft: {fileID: 0}
  slopeJoinedRight22BottomRight: {fileID: 0}
  slopeJoinedRight22TopLeft: {fileID: 0}
  slopeJoinedRight22TopRight: {fileID: 0}
  slopeJoinedRight45BottomLeft: {fileID: 0}
  slopeJoinedRight45BottomRight: {fileID: 0}
  slopeJoinedRight45TopLeft: {fileID: 0}
  slopeJoinedRight45TopRight: {fileID: 0}
  curve3Plus1BottomLeft: {fileID: 0}
  curve3Plus1BottomRight: {fileID: 0}
  curve3Plus1TopLeft: {fileID: 0}
  curve3Plus1TopRight: {fileID: 0}
  curve3Plus1BottomLeftWithOutside: {fileID: 0}
  curve3Plus1BottomRightWithOutside: {fileID: 0}
  curve3Plus1TopLeftWithOutside: {fileID: 0}
  curve3Plus1TopRightWithOutside: {fileID: 0}
  curve3Plus1BottomLeftJoined: {fileID: 0}
  curve3Plus1BottomRightJoined: {fileID: 0}
  curve3Plus1TopLeftJoined: {fileID: 0}
  curve3Plus1TopRightJoined: {fileID: 0}
  curveOut3Plus1BottomLeft: {fileID: 0}
  curveOut3Plus1BottomRight: {fileID: 0}
  curveOut3Plus1TopLeft: {fileID: 0}
  curveOut3Plus1TopRight: {fileID: 0}
  singleRowLeft: {fileID: 21300000, guid: 723efb028ccda3f4fb9141d529aa4a81, type: 3}
  singleRowMiddle:
  - {fileID: 21300000, guid: efdd9c7b46de3e3489e1a18b5aa1cf6f, type: 3}
  - {fileID: 21300000, guid: 827985b758b29f84486219d2a074892e, type: 3}
  - {fileID: 21300000, guid: 2eae44ccfb87de3449a6ae298de8f31c, type: 3}
  singleRowRight: {fileID: 21300000, guid: c6c41171b11a73e439413cb0f35ffb17, type: 3}
  pillar1WideTop: {fileID: 21300000, guid: a7964e92aa32a8d4ba58a28032ee4149, type: 3}
  pillar1WideMiddle:
  - {fileID: 21300000, guid: 25b842527dc9d4a4ab9ad6edceac3c15, type: 3}
  - {fileID: 21300000, guid: 9cbb5d0a1867cff4391529a4b6e4df26, type: 3}
  - {fileID: 21300000, guid: 57838d08d4f84a64d8d0701acd0db73e, type: 3}
  pillar1WideBottom: {fileID: 21300000, guid: 8f89223ed8663dc46a2d54f3ae6590c1, type: 3}
  pillar2WideTop: {fileID: 0}
  pillar2WideMiddle: []
  pillar2WideBottom: {fileID: 0}
