%YAML 1.1
%TAG !u! tag:unity3d.com,2011:
--- !u!1001 &7546240081717983091
PrefabInstance:
  m_ObjectHideFlags: 0
  serializedVersion: 2
  m_Modification:
    m_TransformParent: {fileID: 0}
    m_Modifications:
    - target: {fileID: 1651716257631528033, guid: d82f65aef5f9c4448afc45394473fedf,
        type: 3}
      propertyPath: m_Sprite
      value: 
      objectReference: {fileID: 21300000, guid: 3e3038ec6244da84dad58ffffa09578d,
        type: 3}
    - target: {fileID: 1651716257631528033, guid: d82f65aef5f9c4448afc45394473fedf,
        type: 3}
      propertyPath: m_Color.b
      value: 0.4666667
      objectReference: {fileID: 0}
    - target: {fileID: 1651716257631528033, guid: d82f65aef5f9c4448afc45394473fedf,
        type: 3}
      propertyPath: m_Color.g
      value: 0.007843138
      objectReference: {fileID: 0}
    - target: {fileID: 1651716257631528033, guid: d82f65aef5f9c4448afc45394473fedf,
        type: 3}
      propertyPath: m_Color.r
      value: 0.40000004
      objectReference: {fileID: 0}
    - target: {fileID: 2835502832520438186, guid: d82f65aef5f9c4448afc45394473fedf,
        type: 3}
      propertyPath: m_SizeDelta.x
      value: 655
      objectReference: {fileID: 0}
    - target: {fileID: 2835502832520438186, guid: d82f65aef5f9c4448afc45394473fedf,
        type: 3}
      propertyPath: m_SizeDelta.y
      value: 1059
      objectReference: {fileID: 0}
    - target: {fileID: 2835502832520438186, guid: d82f65aef5f9c4448afc45394473fedf,
        type: 3}
      propertyPath: m_LocalScale.x
      value: 1
      objectReference: {fileID: 0}
    - target: {fileID: 2835502832520438186, guid: d82f65aef5f9c4448afc45394473fedf,
        type: 3}
      propertyPath: m_LocalScale.y
      value: 1
      objectReference: {fileID: 0}
    - target: {fileID: 2835502832520438186, guid: d82f65aef5f9c4448afc45394473fedf,
        type: 3}
      propertyPath: m_AnchoredPosition.x
      value: 0.9
      objectReference: {fileID: 0}
    - target: {fileID: 2835502832520438186, guid: d82f65aef5f9c4448afc45394473fedf,
        type: 3}
      propertyPath: m_AnchoredPosition.y
      value: -18.74
      objectReference: {fileID: 0}
    - target: {fileID: 2841155895482341726, guid: d82f65aef5f9c4448afc45394473fedf,
        type: 3}
      propertyPath: m_Sprite
      value: 
      objectReference: {fileID: 21300000, guid: b99a873679fdaa140a334b922e420516,
        type: 3}
    - target: {fileID: 5195126556862947800, guid: d82f65aef5f9c4448afc45394473fedf,
        type: 3}
      propertyPath: m_Name
      value: goop 3
      objectReference: {fileID: 0}
    - target: {fileID: 5195126556862947807, guid: d82f65aef5f9c4448afc45394473fedf,
        type: 3}
      propertyPath: m_Pivot.x
      value: 0.5
      objectReference: {fileID: 0}
    - target: {fileID: 5195126556862947807, guid: d82f65aef5f9c4448afc45394473fedf,
        type: 3}
      propertyPath: m_Pivot.y
      value: 1.138
      objectReference: {fileID: 0}
    - target: {fileID: 5195126556862947807, guid: d82f65aef5f9c4448afc45394473fedf,
        type: 3}
      propertyPath: m_RootOrder
      value: 0
      objectReference: {fileID: 0}
    - target: {fileID: 5195126556862947807, guid: d82f65aef5f9c4448afc45394473fedf,
        type: 3}
      propertyPath: m_AnchorMax.x
      value: 0.5
      objectReference: {fileID: 0}
    - target: {fileID: 5195126556862947807, guid: d82f65aef5f9c4448afc45394473fedf,
        type: 3}
      propertyPath: m_AnchorMax.y
      value: 0.5
      objectReference: {fileID: 0}
    - target: {fileID: 5195126556862947807, guid: d82f65aef5f9c4448afc45394473fedf,
        type: 3}
      propertyPath: m_AnchorMin.x
      value: 0.5
      objectReference: {fileID: 0}
    - target: {fileID: 5195126556862947807, guid: d82f65aef5f9c4448afc45394473fedf,
        type: 3}
      propertyPath: m_AnchorMin.y
      value: 0.5
      objectReference: {fileID: 0}
    - target: {fileID: 5195126556862947807, guid: d82f65aef5f9c4448afc45394473fedf,
        type: 3}
      propertyPath: m_SizeDelta.x
      value: 655
      objectReference: {fileID: 0}
    - target: {fileID: 5195126556862947807, guid: d82f65aef5f9c4448afc45394473fedf,
        type: 3}
      propertyPath: m_SizeDelta.y
      value: 1059
      objectReference: {fileID: 0}
    - target: {fileID: 5195126556862947807, guid: d82f65aef5f9c4448afc45394473fedf,
        type: 3}
      propertyPath: m_LocalPosition.x
      value: 0
      objectReference: {fileID: 0}
    - target: {fileID: 5195126556862947807, guid: d82f65aef5f9c4448afc45394473fedf,
        type: 3}
      propertyPath: m_LocalPosition.y
      value: 0
      objectReference: {fileID: 0}
    - target: {fileID: 5195126556862947807, guid: d82f65aef5f9c4448afc45394473fedf,
        type: 3}
      propertyPath: m_LocalPosition.z
      value: 0
      objectReference: {fileID: 0}
    - target: {fileID: 5195126556862947807, guid: d82f65aef5f9c4448afc45394473fedf,
        type: 3}
      propertyPath: m_LocalRotation.w
      value: 1
      objectReference: {fileID: 0}
    - target: {fileID: 5195126556862947807, guid: d82f65aef5f9c4448afc45394473fedf,
        type: 3}
      propertyPath: m_LocalRotation.x
      value: 0
      objectReference: {fileID: 0}
    - target: {fileID: 5195126556862947807, guid: d82f65aef5f9c4448afc45394473fedf,
        type: 3}
      propertyPath: m_LocalRotation.y
      value: 0
      objectReference: {fileID: 0}
    - target: {fileID: 5195126556862947807, guid: d82f65aef5f9c4448afc45394473fedf,
        type: 3}
      propertyPath: m_LocalRotation.z
      value: 0
      objectReference: {fileID: 0}
    - target: {fileID: 5195126556862947807, guid: d82f65aef5f9c4448afc45394473fedf,
        type: 3}
      propertyPath: m_AnchoredPosition.x
      value: 0
      objectReference: {fileID: 0}
    - target: {fileID: 5195126556862947807, guid: d82f65aef5f9c4448afc45394473fedf,
        type: 3}
      propertyPath: m_AnchoredPosition.y
      value: 0
      objectReference: {fileID: 0}
    - target: {fileID: 5195126556862947807, guid: d82f65aef5f9c4448afc45394473fedf,
        type: 3}
      propertyPath: m_LocalEulerAnglesHint.x
      value: 0
      objectReference: {fileID: 0}
    - target: {fileID: 5195126556862947807, guid: d82f65aef5f9c4448afc45394473fedf,
        type: 3}
      propertyPath: m_LocalEulerAnglesHint.y
      value: 0
      objectReference: {fileID: 0}
    - target: {fileID: 5195126556862947807, guid: d82f65aef5f9c4448afc45394473fedf,
        type: 3}
      propertyPath: m_LocalEulerAnglesHint.z
      value: 0
      objectReference: {fileID: 0}
    m_RemovedComponents: []
  m_SourcePrefab: {fileID: 100100000, guid: d82f65aef5f9c4448afc45394473fedf, type: 3}
