%YAML 1.1
%TAG !u! tag:unity3d.com,2011:
--- !u!1001 &1846026779460940664
PrefabInstance:
  m_ObjectHideFlags: 0
  serializedVersion: 2
  m_Modification:
    m_TransformParent: {fileID: 0}
    m_Modifications:
    - target: {fileID: 1113080409362388761, guid: 1cf9c65f02af1b742b99da509316edb0,
        type: 3}
      propertyPath: m_Sprite
      value: 
      objectReference: {fileID: 21300000, guid: 3e3038ec6244da84dad58ffffa09578d,
        type: 3}
    - target: {fileID: 1113080409362388761, guid: 1cf9c65f02af1b742b99da509316edb0,
        type: 3}
      propertyPath: m_Color.b
      value: 0.6666667
      objectReference: {fileID: 0}
    - target: {fileID: 1113080409362388761, guid: 1cf9c65f02af1b742b99da509316edb0,
        type: 3}
      propertyPath: m_Color.g
      value: 0.28627452
      objectReference: {fileID: 0}
    - target: {fileID: 1113080409362388761, guid: 1cf9c65f02af1b742b99da509316edb0,
        type: 3}
      propertyPath: m_Color.r
      value: 0.78823537
      objectReference: {fileID: 0}
    - target: {fileID: 4523827750009443026, guid: 1cf9c65f02af1b742b99da509316edb0,
        type: 3}
      propertyPath: m_SizeDelta.x
      value: 2155.3
      objectReference: {fileID: 0}
    - target: {fileID: 4523827750009443026, guid: 1cf9c65f02af1b742b99da509316edb0,
        type: 3}
      propertyPath: m_SizeDelta.y
      value: 2147.9
      objectReference: {fileID: 0}
    - target: {fileID: 4523827750009443026, guid: 1cf9c65f02af1b742b99da509316edb0,
        type: 3}
      propertyPath: m_LocalScale.x
      value: 0.25662097
      objectReference: {fileID: 0}
    - target: {fileID: 4523827750009443026, guid: 1cf9c65f02af1b742b99da509316edb0,
        type: 3}
      propertyPath: m_LocalScale.y
      value: 0.25662097
      objectReference: {fileID: 0}
    - target: {fileID: 4523827750009443026, guid: 1cf9c65f02af1b742b99da509316edb0,
        type: 3}
      propertyPath: m_LocalScale.z
      value: 1
      objectReference: {fileID: 0}
    - target: {fileID: 4523827750009443026, guid: 1cf9c65f02af1b742b99da509316edb0,
        type: 3}
      propertyPath: m_AnchoredPosition.x
      value: 24.6
      objectReference: {fileID: 0}
    - target: {fileID: 4523827750009443026, guid: 1cf9c65f02af1b742b99da509316edb0,
        type: 3}
      propertyPath: m_AnchoredPosition.y
      value: -92.8
      objectReference: {fileID: 0}
    - target: {fileID: 4536171184527239718, guid: 1cf9c65f02af1b742b99da509316edb0,
        type: 3}
      propertyPath: m_Sprite
      value: 
      objectReference: {fileID: 21300000, guid: 662f2b3f2e8c7b244bdfe4d1fb47b22d,
        type: 3}
    - target: {fileID: 5419977614162552254, guid: 1cf9c65f02af1b742b99da509316edb0,
        type: 3}
      propertyPath: m_SizeDelta.x
      value: 607.6486
      objectReference: {fileID: 0}
    - target: {fileID: 5419977614162552254, guid: 1cf9c65f02af1b742b99da509316edb0,
        type: 3}
      propertyPath: m_AnchoredPosition.x
      value: 0.5074
      objectReference: {fileID: 0}
    - target: {fileID: 5874571361780961952, guid: 1cf9c65f02af1b742b99da509316edb0,
        type: 3}
      propertyPath: m_Name
      value: king base
      objectReference: {fileID: 0}
    - target: {fileID: 5874571361780961959, guid: 1cf9c65f02af1b742b99da509316edb0,
        type: 3}
      propertyPath: m_RootOrder
      value: 0
      objectReference: {fileID: 0}
    - target: {fileID: 5874571361780961959, guid: 1cf9c65f02af1b742b99da509316edb0,
        type: 3}
      propertyPath: m_LocalPosition.x
      value: 0
      objectReference: {fileID: 0}
    - target: {fileID: 5874571361780961959, guid: 1cf9c65f02af1b742b99da509316edb0,
        type: 3}
      propertyPath: m_LocalPosition.y
      value: 0
      objectReference: {fileID: 0}
    - target: {fileID: 5874571361780961959, guid: 1cf9c65f02af1b742b99da509316edb0,
        type: 3}
      propertyPath: m_LocalEulerAnglesHint.x
      value: 0
      objectReference: {fileID: 0}
    - target: {fileID: 5874571361780961959, guid: 1cf9c65f02af1b742b99da509316edb0,
        type: 3}
      propertyPath: m_LocalEulerAnglesHint.y
      value: 0
      objectReference: {fileID: 0}
    - target: {fileID: 5874571361780961959, guid: 1cf9c65f02af1b742b99da509316edb0,
        type: 3}
      propertyPath: m_LocalEulerAnglesHint.z
      value: 0
      objectReference: {fileID: 0}
    - target: {fileID: 5978328084977107394, guid: 1cf9c65f02af1b742b99da509316edb0,
        type: 3}
      propertyPath: m_Color.b
      value: 0.6666667
      objectReference: {fileID: 0}
    - target: {fileID: 5978328084977107394, guid: 1cf9c65f02af1b742b99da509316edb0,
        type: 3}
      propertyPath: m_Color.g
      value: 0.28627452
      objectReference: {fileID: 0}
    - target: {fileID: 5978328084977107394, guid: 1cf9c65f02af1b742b99da509316edb0,
        type: 3}
      propertyPath: m_Color.r
      value: 0.78823537
      objectReference: {fileID: 0}
    - target: {fileID: 6182103466512944034, guid: 1cf9c65f02af1b742b99da509316edb0,
        type: 3}
      propertyPath: m_Sprite
      value: 
      objectReference: {fileID: 21300000, guid: 8241d3820eeb03c458868443d32d7e83,
        type: 3}
    - target: {fileID: 6613071773300605115, guid: 1cf9c65f02af1b742b99da509316edb0,
        type: 3}
      propertyPath: m_text
      value: the x
      objectReference: {fileID: 0}
    - target: {fileID: 6613071773300605115, guid: 1cf9c65f02af1b742b99da509316edb0,
        type: 3}
      propertyPath: m_fontSize
      value: 87
      objectReference: {fileID: 0}
    m_RemovedComponents: []
  m_SourcePrefab: {fileID: 100100000, guid: 1cf9c65f02af1b742b99da509316edb0, type: 3}
