%YAML 1.1
%TAG !u! tag:unity3d.com,2011:
--- !u!1 &1523968149308619005
GameObject:
  m_ObjectHideFlags: 0
  m_CorrespondingSourceObject: {fileID: 0}
  m_PrefabInstance: {fileID: 0}
  m_PrefabAsset: {fileID: 0}
  serializedVersion: 6
  m_Component:
  - component: {fileID: 1523968149308618993}
  - component: {fileID: 1523968149308618992}
  - component: {fileID: 1523968149308619007}
  - component: {fileID: 2788518426353838235}
  m_Layer: 0
  m_Name: Trample Platform
  m_TagString: Untagged
  m_Icon: {fileID: 0}
  m_NavMeshLayer: 0
  m_StaticEditorFlags: 0
  m_IsActive: 1
--- !u!4 &1523968149308618993
Transform:
  m_ObjectHideFlags: 0
  m_CorrespondingSourceObject: {fileID: 0}
  m_PrefabInstance: {fileID: 0}
  m_PrefabAsset: {fileID: 0}
  m_GameObject: {fileID: 1523968149308619005}
  m_LocalRotation: {x: 0, y: 0, z: 0, w: 1}
  m_LocalPosition: {x: 2.25, y: 0, z: 0}
  m_LocalScale: {x: 1, y: 1, z: 1}
  m_Children: []
  m_Father: {fileID: 0}
  m_RootOrder: 0
  m_LocalEulerAnglesHint: {x: 0, y: 0, z: 0}
--- !u!212 &1523968149308618992
SpriteRenderer:
  m_ObjectHideFlags: 0
  m_CorrespondingSourceObject: {fileID: 0}
  m_PrefabInstance: {fileID: 0}
  m_PrefabAsset: {fileID: 0}
  m_GameObject: {fileID: 1523968149308619005}
  m_Enabled: 1
  m_CastShadows: 0
  m_ReceiveShadows: 0
  m_DynamicOccludee: 1
  m_MotionVectors: 1
  m_LightProbeUsage: 1
  m_ReflectionProbeUsage: 1
  m_RayTracingMode: 0
  m_RayTraceProcedural: 0
  m_RenderingLayerMask: 1
  m_RendererPriority: 0
  m_Materials:
  - {fileID: 10754, guid: 0000000000000000f000000000000000, type: 0}
  m_StaticBatchInfo:
    firstSubMesh: 0
    subMeshCount: 0
  m_StaticBatchRoot: {fileID: 0}
  m_ProbeAnchor: {fileID: 0}
  m_LightProbeVolumeOverride: {fileID: 0}
  m_ScaleInLightmap: 1
  m_ReceiveGI: 1
  m_PreserveUVs: 0
  m_IgnoreNormalsForChartDetection: 0
  m_ImportantGI: 0
  m_StitchLightmapSeams: 1
  m_SelectedEditorRenderState: 0
  m_MinimumChartSize: 4
  m_AutoUVMaxDistance: 0.5
  m_AutoUVMaxAngle: 89
  m_LightmapParameters: {fileID: 0}
  m_SortingLayerID: 115992415
  m_SortingLayer: -13
  m_SortingOrder: 0
  m_Sprite: {fileID: 21300000, guid: 1f3aad350ee164e4c84faa5e7779a6a7, type: 3}
  m_Color: {r: 1, g: 1, b: 1, a: 1}
  m_FlipX: 0
  m_FlipY: 0
  m_DrawMode: 0
  m_Size: {x: 2.06, y: 4.52}
  m_AdaptiveModeThreshold: 0.5
  m_SpriteTileMode: 0
  m_WasSpriteAssigned: 1
  m_MaskInteraction: 0
  m_SpriteSortPoint: 0
--- !u!114 &1523968149308619007
MonoBehaviour:
  m_ObjectHideFlags: 0
  m_CorrespondingSourceObject: {fileID: 0}
  m_PrefabInstance: {fileID: 0}
  m_PrefabAsset: {fileID: 0}
  m_GameObject: {fileID: 1523968149308619005}
  m_Enabled: 1
  m_EditorHideFlags: 0
  m_Script: {fileID: 11500000, guid: a2cedcea314d944e09159c2372cec04f, type: 3}
  m_Name: 
  m_EditorClassIdentifier: 
--- !u!114 &2788518426353838235
MonoBehaviour:
  m_ObjectHideFlags: 0
  m_CorrespondingSourceObject: {fileID: 0}
  m_PrefabInstance: {fileID: 0}
  m_PrefabAsset: {fileID: 0}
  m_GameObject: {fileID: 1523968149308619005}
  m_Enabled: 1
  m_EditorHideFlags: 0
  m_Script: {fileID: 11500000, guid: 9723b4cdd139f9640990db4967a13a99, type: 3}
  m_Name: 
  m_EditorClassIdentifier: 
  animationStatic:
    sprites:
    - {fileID: 21300000, guid: 1f3aad350ee164e4c84faa5e7779a6a7, type: 3}
    fps: 30
  animationUp:
    sprites:
    - {fileID: 21300000, guid: 1f3aad350ee164e4c84faa5e7779a6a7, type: 3}
    - {fileID: 21300000, guid: f8364b3817bf9a04b885598a6bb70585, type: 3}
    - {fileID: 21300000, guid: 4db112ca101eb4243b54a8eec3115cd7, type: 3}
    - {fileID: 21300000, guid: c5a86308eac6c8c458850cf3b2a8c525, type: 3}
    - {fileID: 21300000, guid: e02154a188173ca4e88fa53544347948, type: 3}
    - {fileID: 21300000, guid: 3bab50a80a0f81d4fbdc22654c058b66, type: 3}
    - {fileID: 21300000, guid: 8cf2bca0384b04343809a0c89c70734f, type: 3}
    - {fileID: 21300000, guid: 4e1cb6fefe7735a43bb5b05f9ae64047, type: 3}
    fps: 30
  animationDown:
    sprites:
    - {fileID: 21300000, guid: 45df2027d4ccb5a4f9c2ba9ebd040e47, type: 3}
    - {fileID: 21300000, guid: 0aa50c9526504b541b347bb98f74f58a, type: 3}
    - {fileID: 21300000, guid: 5ecf45806b4c7174ebe48c8b0883d6fb, type: 3}
    - {fileID: 21300000, guid: 2535b6f85574db143b70dcbcbfa10f34, type: 3}
    - {fileID: 21300000, guid: a4b771bacfea2bf4396a14af2eed61e7, type: 3}
    - {fileID: 21300000, guid: 383c65f43ea293d4691481a418306759, type: 3}
    - {fileID: 21300000, guid: a4b771bacfea2bf4396a14af2eed61e7, type: 3}
    - {fileID: 21300000, guid: 383c65f43ea293d4691481a418306759, type: 3}
    fps: 30
  animationTrampledStatic:
    sprites:
    - {fileID: 21300000, guid: 1cc3644fd78c08b4fad393d125d180b8, type: 3}
    fps: 30
  animationTrampledUp:
    sprites:
    - {fileID: 21300000, guid: 1cc3644fd78c08b4fad393d125d180b8, type: 3}
    - {fileID: 21300000, guid: b8a6a46ad265bea47a3a7c4a64bc2ee5, type: 3}
    - {fileID: 21300000, guid: 8dd877d294962c84c9a5b43e0ca0cdc2, type: 3}
    - {fileID: 21300000, guid: eceb46d88a189ab478c96d13c44fad1b, type: 3}
    fps: 30
  animationTrampledDown:
    sprites:
    - {fileID: 21300000, guid: eceb46d88a189ab478c96d13c44fad1b, type: 3}
    - {fileID: 21300000, guid: 8dd877d294962c84c9a5b43e0ca0cdc2, type: 3}
    - {fileID: 21300000, guid: b8a6a46ad265bea47a3a7c4a64bc2ee5, type: 3}
    - {fileID: 21300000, guid: 1cc3644fd78c08b4fad393d125d180b8, type: 3}
    fps: 30
  collideWithPlayer: 0
