%YAML 1.1
%TAG !u! tag:unity3d.com,2011:
--- !u!1001 &2542297158144271138
PrefabInstance:
  m_ObjectHideFlags: 0
  serializedVersion: 2
  m_Modification:
    m_TransformParent: {fileID: 0}
    m_Modifications:
    - target: {fileID: 229880085860183478, guid: 0d785fd3905ec4a479894168fc270d31,
        type: 3}
      propertyPath: m_Sprite
      value: 
      objectReference: {fileID: 21300000, guid: 3e3038ec6244da84dad58ffffa09578d,
        type: 3}
    - target: {fileID: 229880085860183478, guid: 0d785fd3905ec4a479894168fc270d31,
        type: 3}
      propertyPath: m_Color.b
      value: 0.18823531
      objectReference: {fileID: 0}
    - target: {fileID: 229880085860183478, guid: 0d785fd3905ec4a479894168fc270d31,
        type: 3}
      propertyPath: m_Color.g
      value: 0.43137258
      objectReference: {fileID: 0}
    - target: {fileID: 229880085860183478, guid: 0d785fd3905ec4a479894168fc270d31,
        type: 3}
      propertyPath: m_Color.r
      value: 0.85098046
      objectReference: {fileID: 0}
    - target: {fileID: 969396782995678715, guid: 0d785fd3905ec4a479894168fc270d31,
        type: 3}
      propertyPath: key
      value: ABSEILING
      objectReference: {fileID: 0}
    - target: {fileID: 2983536558117163955, guid: 0d785fd3905ec4a479894168fc270d31,
        type: 3}
      propertyPath: m_Color.a
      value: 0
      objectReference: {fileID: 0}
    - target: {fileID: 2983536558117163955, guid: 0d785fd3905ec4a479894168fc270d31,
        type: 3}
      propertyPath: m_Color.b
      value: 0.18823531
      objectReference: {fileID: 0}
    - target: {fileID: 2983536558117163955, guid: 0d785fd3905ec4a479894168fc270d31,
        type: 3}
      propertyPath: m_Color.g
      value: 0.43137258
      objectReference: {fileID: 0}
    - target: {fileID: 2983536558117163955, guid: 0d785fd3905ec4a479894168fc270d31,
        type: 3}
      propertyPath: m_Color.r
      value: 0.85098046
      objectReference: {fileID: 0}
    - target: {fileID: 3640345950054131837, guid: 0d785fd3905ec4a479894168fc270d31,
        type: 3}
      propertyPath: m_SizeDelta.x
      value: 786.2244
      objectReference: {fileID: 0}
    - target: {fileID: 3640345950054131837, guid: 0d785fd3905ec4a479894168fc270d31,
        type: 3}
      propertyPath: m_SizeDelta.y
      value: 786.2205
      objectReference: {fileID: 0}
    - target: {fileID: 3640345950054131837, guid: 0d785fd3905ec4a479894168fc270d31,
        type: 3}
      propertyPath: m_AnchoredPosition.x
      value: -0.3
      objectReference: {fileID: 0}
    - target: {fileID: 3640345950054131837, guid: 0d785fd3905ec4a479894168fc270d31,
        type: 3}
      propertyPath: m_AnchoredPosition.y
      value: -123.39
      objectReference: {fileID: 0}
    - target: {fileID: 3652825760127242377, guid: 0d785fd3905ec4a479894168fc270d31,
        type: 3}
      propertyPath: m_Sprite
      value: 
      objectReference: {fileID: 21300000, guid: 8edd1c4ebdf004340968b101382e05e5,
        type: 3}
    - target: {fileID: 6306340999394425364, guid: 0d785fd3905ec4a479894168fc270d31,
        type: 3}
      propertyPath: m_text
      value: abseiling
      objectReference: {fileID: 0}
    - target: {fileID: 6756645751016597512, guid: 0d785fd3905ec4a479894168fc270d31,
        type: 3}
      propertyPath: m_Pivot.x
      value: 0.5
      objectReference: {fileID: 0}
    - target: {fileID: 6756645751016597512, guid: 0d785fd3905ec4a479894168fc270d31,
        type: 3}
      propertyPath: m_Pivot.y
      value: 1.138
      objectReference: {fileID: 0}
    - target: {fileID: 6756645751016597512, guid: 0d785fd3905ec4a479894168fc270d31,
        type: 3}
      propertyPath: m_RootOrder
      value: 0
      objectReference: {fileID: 0}
    - target: {fileID: 6756645751016597512, guid: 0d785fd3905ec4a479894168fc270d31,
        type: 3}
      propertyPath: m_AnchorMax.x
      value: 0.5
      objectReference: {fileID: 0}
    - target: {fileID: 6756645751016597512, guid: 0d785fd3905ec4a479894168fc270d31,
        type: 3}
      propertyPath: m_AnchorMax.y
      value: 0.5
      objectReference: {fileID: 0}
    - target: {fileID: 6756645751016597512, guid: 0d785fd3905ec4a479894168fc270d31,
        type: 3}
      propertyPath: m_AnchorMin.x
      value: 0.5
      objectReference: {fileID: 0}
    - target: {fileID: 6756645751016597512, guid: 0d785fd3905ec4a479894168fc270d31,
        type: 3}
      propertyPath: m_AnchorMin.y
      value: 0.5
      objectReference: {fileID: 0}
    - target: {fileID: 6756645751016597512, guid: 0d785fd3905ec4a479894168fc270d31,
        type: 3}
      propertyPath: m_SizeDelta.x
      value: 655
      objectReference: {fileID: 0}
    - target: {fileID: 6756645751016597512, guid: 0d785fd3905ec4a479894168fc270d31,
        type: 3}
      propertyPath: m_SizeDelta.y
      value: 1059
      objectReference: {fileID: 0}
    - target: {fileID: 6756645751016597512, guid: 0d785fd3905ec4a479894168fc270d31,
        type: 3}
      propertyPath: m_LocalPosition.x
      value: 0
      objectReference: {fileID: 0}
    - target: {fileID: 6756645751016597512, guid: 0d785fd3905ec4a479894168fc270d31,
        type: 3}
      propertyPath: m_LocalPosition.y
      value: 0
      objectReference: {fileID: 0}
    - target: {fileID: 6756645751016597512, guid: 0d785fd3905ec4a479894168fc270d31,
        type: 3}
      propertyPath: m_LocalPosition.z
      value: 0
      objectReference: {fileID: 0}
    - target: {fileID: 6756645751016597512, guid: 0d785fd3905ec4a479894168fc270d31,
        type: 3}
      propertyPath: m_LocalRotation.w
      value: 1
      objectReference: {fileID: 0}
    - target: {fileID: 6756645751016597512, guid: 0d785fd3905ec4a479894168fc270d31,
        type: 3}
      propertyPath: m_LocalRotation.x
      value: -0
      objectReference: {fileID: 0}
    - target: {fileID: 6756645751016597512, guid: 0d785fd3905ec4a479894168fc270d31,
        type: 3}
      propertyPath: m_LocalRotation.y
      value: -0
      objectReference: {fileID: 0}
    - target: {fileID: 6756645751016597512, guid: 0d785fd3905ec4a479894168fc270d31,
        type: 3}
      propertyPath: m_LocalRotation.z
      value: -0
      objectReference: {fileID: 0}
    - target: {fileID: 6756645751016597512, guid: 0d785fd3905ec4a479894168fc270d31,
        type: 3}
      propertyPath: m_AnchoredPosition.x
      value: 658
      objectReference: {fileID: 0}
    - target: {fileID: 6756645751016597512, guid: 0d785fd3905ec4a479894168fc270d31,
        type: 3}
      propertyPath: m_AnchoredPosition.y
      value: 0
      objectReference: {fileID: 0}
    - target: {fileID: 6756645751016597512, guid: 0d785fd3905ec4a479894168fc270d31,
        type: 3}
      propertyPath: m_LocalEulerAnglesHint.x
      value: 0
      objectReference: {fileID: 0}
    - target: {fileID: 6756645751016597512, guid: 0d785fd3905ec4a479894168fc270d31,
        type: 3}
      propertyPath: m_LocalEulerAnglesHint.y
      value: 0
      objectReference: {fileID: 0}
    - target: {fileID: 6756645751016597512, guid: 0d785fd3905ec4a479894168fc270d31,
        type: 3}
      propertyPath: m_LocalEulerAnglesHint.z
      value: 0
      objectReference: {fileID: 0}
    - target: {fileID: 6756645751016597519, guid: 0d785fd3905ec4a479894168fc270d31,
        type: 3}
      propertyPath: m_Name
      value: abseiling
      objectReference: {fileID: 0}
    m_RemovedComponents: []
  m_SourcePrefab: {fileID: 100100000, guid: 0d785fd3905ec4a479894168fc270d31, type: 3}
