{
"skeleton": {
	"hash": "Eo8+/8lbiwR3Zs2VJFPpFJPd44Y",
	"spine": "3.8.99",
	"x": 7,
	"y": -4333,
	"width": 3538,
	"height": 4322,
	"images": "./images/",
	"audio": "C:/Users/mat/OneDrive/Desktop/Nitrome Splash"
},
"bones": [
	{ "name": "root" }
],
"slots": [
	{ "name": "blue background", "bone": "root", "attachment": "blue background" },
	{ "name": "Ship shadow", "bone": "root", "attachment": "Ship shadow" },
	{ "name": "water lines 1", "bone": "root", "attachment": "water lines 1" },
	{ "name": "water lines 2", "bone": "root", "attachment": "water lines 2" },
	{ "name": "water lines 3", "bone": "root", "attachment": "water lines 3" },
	{ "name": "water lines 4", "bone": "root", "attachment": "water lines 4" },
	{ "name": "water lines 5", "bone": "root", "attachment": "water lines 5" },
	{ "name": "water lines 6", "bone": "root", "attachment": "water lines 6" },
	{ "name": "back cloud 3", "bone": "root", "attachment": "back cloud 3" },
	{ "name": "back cloud 2", "bone": "root", "attachment": "back cloud 2" },
	{ "name": "back cloud 1", "bone": "root", "attachment": "back cloud 1" },
	{ "name": "Bird 6b", "bone": "root", "attachment": "Bird 6b" },
	{ "name": "Bird 5b", "bone": "root", "attachment": "Bird 5b" },
	{ "name": "Bird 4b", "bone": "root", "attachment": "Bird 4b" },
	{ "name": "Bird 3b", "bone": "root", "attachment": "Bird 3b" },
	{ "name": "Bird 2b", "bone": "root", "attachment": "Bird 2b" },
	{ "name": "Bird 1b", "bone": "root", "attachment": "Bird 1b" },
	{ "name": "boat back", "bone": "root", "attachment": "boat back" },
	{ "name": "Nitrome Logo", "bone": "root", "attachment": "Nitrome Logo" },
	{ "name": "cuboy white box", "bone": "root", "attachment": "cuboy white box" },
	{ "name": "cuboy pink box", "bone": "root", "attachment": "cuboy pink box" },
	{ "name": "cuboy face", "bone": "root", "attachment": "cuboy face" },
	{ "name": "cuboy tick", "bone": "root", "attachment": "cuboy tick" },
	{ "name": "shine 1", "bone": "root", "attachment": "shine 1" },
	{ "name": "shine 2", "bone": "root", "attachment": "shine 2" },
	{ "name": "shine 3", "bone": "root", "attachment": "shine 3" },
	{ "name": "shine 4", "bone": "root", "attachment": "shine 4" },
	{ "name": "shine 5", "bone": "root", "attachment": "shine 5" },
	{ "name": "shine 6", "bone": "root", "attachment": "shine 6" },
	{ "name": "shine 7", "bone": "root", "attachment": "shine 7" },
	{ "name": "shine 8", "bone": "root", "attachment": "shine 8" },
	{ "name": "shine 9", "bone": "root", "attachment": "shine 9" },
	{ "name": "shine 10", "bone": "root", "attachment": "shine 10" },
	{ "name": "shine 11", "bone": "root", "attachment": "shine 11" },
	{ "name": "shine 12", "bone": "root", "attachment": "shine 12" },
	{ "name": "boat front", "bone": "root", "attachment": "boat front" },
	{ "name": "Balloon", "bone": "root", "attachment": "Balloon" },
	{ "name": "Bird 6", "bone": "root", "attachment": "Bird 6" },
	{ "name": "Bird 5", "bone": "root", "attachment": "Bird 5" },
	{ "name": "Bird 4", "bone": "root", "attachment": "Bird 4" },
	{ "name": "Bird 3", "bone": "root", "attachment": "Bird 3" },
	{ "name": "Bird 2", "bone": "root", "attachment": "Bird 2" },
	{ "name": "Bird 1", "bone": "root", "attachment": "Bird 1" },
	{ "name": "Bird 6c", "bone": "root", "attachment": "Bird 6c" },
	{ "name": "Bird 5c", "bone": "root", "attachment": "Bird 5c" },
	{ "name": "Bird 4c", "bone": "root", "attachment": "Bird 4c" },
	{ "name": "Bird 3c", "bone": "root", "attachment": "Bird 3c" },
	{ "name": "Bird 2c", "bone": "root", "attachment": "Bird 2c" },
	{ "name": "Bird 1c", "bone": "root", "attachment": "Bird 1c" },
	{ "name": "Shape 2", "bone": "root", "attachment": "Shape 2" },
	{ "name": "front cloud 2", "bone": "root", "attachment": "front cloud 2" },
	{ "name": "front cloud 1", "bone": "root", "attachment": "front cloud 1" }
],
"skins": [
	{
		"name": "default",
		"attachments": {
			"Balloon": {
				"Balloon": {
					"type": "mesh",
					"uvs": [ 0.27301, 0.02179, 0.30531, 0.02129, 0.33152, 0.04631, 0.33432, 0.06473, 0.38129, 0.04241, 0.46175, 0.02422, 0.52308, 0.02942, 0.58322, 0.04329, 0.64169, 0.06542, 0.67507, 0.09169, 0.71867, 0.0814, 0.76223, 0.0872, 0.83013, 0.10681, 0.84079, 0.11044, 0.86184, 0.09215, 0.897, 0.0911, 0.92406, 0.10273, 0.9387, 0.12681, 0.93579, 0.18055, 0.89983, 0.23409, 0.84938, 0.26881, 0.81342, 0.28115, 0.75456, 0.28956, 0.75674, 0.29725, 0.73303, 0.35441, 0.74192, 0.3539, 0.76326, 0.36995, 0.77947, 0.39589, 0.77636, 0.42505, 0.75372, 0.45399, 0.72197, 0.46368, 0.70877, 0.4671, 0.79232, 0.56057, 0.89542, 0.67591, 0.91232, 0.6812, 0.93561, 0.71014, 0.94516, 0.71351, 0.97336, 0.72047, 0.9931, 0.73738, 0.9985, 0.7518, 0.99797, 0.77931, 0.98091, 0.80207, 0.94868, 0.81209, 0.90186, 0.80053, 0.88407, 0.75466, 0.89192, 0.73801, 0.86944, 0.70519, 0.87212, 0.69799, 0.76319, 0.57487, 0.64771, 0.44436, 0.64553, 0.47466, 0.63401, 0.49892, 0.60776, 0.51531, 0.57468, 0.52066, 0.5419, 0.50949, 0.52204, 0.48834, 0.51793, 0.65046, 0.51314, 0.83905, 0.52052, 0.8522, 0.52439, 0.90613, 0.52433, 0.90915, 0.54695, 0.93544, 0.54668, 0.9731, 0.52546, 0.99615, 0.50185, 0.9991, 0.46376, 0.98988, 0.447, 0.9755, 0.43331, 0.95313, 0.43963, 0.93723, 0.45804, 0.90378, 0.46169, 0.90103, 0.46527, 0.85129, 0.47765, 0.83836, 0.486, 0.64928, 0.49228, 0.47114, 0.48575, 0.47016, 0.46759, 0.49585, 0.44947, 0.51256, 0.44541, 0.5163, 0.46434, 0.53629, 0.47301, 0.56321, 0.46484, 0.5949, 0.44197, 0.61465, 0.41766, 0.62436, 0.39601, 0.62656, 0.36526, 0.62019, 0.34627, 0.60741, 0.33548, 0.59396, 0.32896, 0.57245, 0.32683, 0.55448, 0.32347, 0.55467, 0.3179, 0.55499, 0.23919, 0.55526, 0.17214, 0.54638, 0.11708, 0.52526, 0.08777, 0.50658, 0.04339, 0.46681, 0.03257, 0.46669, 0.01032, 0.4543, 0.00188, 0.44011, 0.00215, 0.36218, 0.01645, 0.30083, 0.065, 0.21924, 0.11631, 0.18121, 0.11524, 0.17709, 0.10323, 0.17151, 0.09872, 0.16206, 0.09712, 0.15209, 0.10317, 0.14186, 0.11094, 0.13356, 0.12716, 0.1308, 0.13512, 0.13098, 0.13779, 0.09437, 0.12154, 0.08275, 0.1123, 0.06578, 0.12067, 0.03716, 0.14937, 0.02564, 0.16988, 0.0174, 0.18372, 0.00995, 0.19925, 0.00159, 0.23786, 0.00158, 0.50062, 0.43325, 0.50377, 0.39372, 0.50481, 0.3524, 0.49852, 0.32096, 0.48594, 0.27604, 0.45972, 0.23472, 0.43351, 0.20597, 0.40834, 0.19339, 0.38317, 0.18171, 0.34857, 0.17183, 0.05737, 0.46184, 0.07053, 0.45709, 0.0823, 0.45175, 0.092, 0.46659, 0.11139, 0.47786, 0.13009, 0.48083, 0.14949, 0.47846, 0.1668, 0.46956, 0.17857, 0.47905, 0.19243, 0.48498, 0.21736, 0.48795, 0.23883, 0.48439, 0.25961, 0.47371, 0.27485, 0.47905, 0.30047, 0.48202, 0.32471, 0.47727, 0.33926, 0.46956, 0.34688, 0.46066, 0.36212, 0.46303, 0.38566, 0.45947, 0.40436, 0.44642, 0.41683, 0.4298, 0.42099, 0.41082, 0.45423, 0.39361, 0.48817, 0.37522, 0.33351, 0.5425, 0.3416, 0.5308, 0.35475, 0.51824, 0.37094, 0.50827, 0.37549, 0.49787, 0.37246, 0.4775, 0.42253, 0.4398, 0.43012, 0.46277, 0.43113, 0.4814, 0.43215, 0.50134, 0.43265, 0.51434, 0.43164, 0.5308, 0.42051, 0.5373, 0.40483, 0.53947, 0.38611, 0.5386, 0.37246, 0.5282, 0.35627, 0.58064, 0.36942, 0.59537, 0.38864, 0.60187, 0.41343, 0.60014, 0.43569, 0.5932, 0.45187, 0.58324, 0.32853, 0.53963, 0.33854, 0.5279, 0.35263, 0.51565, 0.43264, 0.50829, 0.11858, 0.1886, 0.12924, 0.19828, 0.15249, 0.2063, 0.1793, 0.21267, 0.20287, 0.21654, 0.23775, 0.21737, 0.27328, 0.21267, 0.30073, 0.2052, 0.32721, 0.19634, 0.34917, 0.18666, 0.36209, 0.17615, 0.14666, 0.14014, 0.16346, 0.14441, 0.18152, 0.14814, 0.20611, 0.14921, 0.22946, 0.14947, 0.2556, 0.14681, 0.27957, 0.14254, 0.30728, 0.13321, 0.3188, 0.12734, 0.32658, 0.13347, 0.33996, 0.14627, 0.34619, 0.16254, 0.11926, 0.16361, 0.12549, 0.14921, 0.13514, 0.13774, 0.18388, 0.15435, 0.17227, 0.15435, 0.16175, 0.15933, 0.15449, 0.1671, 0.15377, 0.17829, 0.15921, 0.18886, 0.17009, 0.19569, 0.18533, 0.19787, 0.19694, 0.19569, 0.2071, 0.18668, 0.20892, 0.17425, 0.20456, 0.16492, 0.19876, 0.15933, 0.19041, 0.15591, 0.16647, 0.17922, 0.18171, 0.18326, 0.19404, 0.18109, 0.25282, 0.15684, 0.24448, 0.16679, 0.24484, 0.17673, 0.25173, 0.18606, 0.26298, 0.1901, 0.27604, 0.19072, 0.28874, 0.18637, 0.30108, 0.17549, 0.30144, 0.16585, 0.29527, 0.14969, 0.26153, 0.15, 0.25681, 0.17114, 0.26951, 0.17425, 0.28258, 0.16896, 0.28911, 0.16337, 0.29527, 0.13788, 0.27421, 0.14831, 0.28949, 0.15158, 0.298, 0.15687, 0.35125, 0.15947, 0.35673, 0.1519, 0.35795, 0.14173, 0.35673, 0.13365, 0.35247, 0.12791, 0.34516, 0.12269, 0.33846, 0.1206, 0.32933, 0.12008, 0.32202, 0.1206, 0.3138, 0.09191, 0.32385, 0.08487, 0.32963, 0.07705, 0.33207, 0.06687, 0.19924, 0.0988, 0.22868, 0.09851, 0.25679, 0.09335, 0.26683, 0.08561, 0.27018, 0.0707, 0.26583, 0.0601, 0.26014, 0.04748, 0.25211, 0.04204, 0.24073, 0.03888, 0.22634, 0.03716, 0.2143, 0.03716, 0.20392, 0.03802, 0.1892, 0.04605, 0.1805, 0.05694, 0.17883, 0.06841, 0.18853, 0.08934, 0.18886, 0.03802, 0.18284, 0.03229, 0.17749, 0.02885, 0.16979, 0.0257, 0.18016, 0.09048, 0.18953, 0.09564, 0.26984, 0.0922, 0.28256, 0.08848, 0.25345, 0.0363, 0.26248, 0.02541, 0.53526, 0.34775, 0.57427, 0.34122, 0.59804, 0.33623, 0.62854, 0.32547, 0.66531, 0.31203, 0.69715, 0.29282, 0.71553, 0.27476, 0.73078, 0.26093, 0.74244, 0.23481, 0.77787, 0.22712, 0.81464, 0.22098, 0.84513, 0.20945, 0.88235, 0.18909, 0.89895, 0.1718, 0.9124, 0.14991, 0.92092, 0.12302, 0.48922, 0.11634, 0.57831, 0.06466, 0.63771, 0.09249, 0.65859, 0.10918, 0.68596, 0.14257, 0.64374, 0.18987, 0.60801, 0.21452, 0.59223, 0.21412, 0.55743, 0.18471, 0.50917, 0.14655, 0.48829, 0.12866, 0.73553, 0.21039, 0.72641, 0.17758, 0.71729, 0.15622, 0.70452, 0.12497, 0.68568, 0.10778 ],
					"triangles": [ 282, 120, 0, 276, 116, 117, 275, 117, 118, 276, 117, 275, 274, 275, 118, 282, 265, 120, 267, 119, 120, 266, 267, 120, 268, 118, 119, 268, 274, 118, 120, 265, 266, 268, 273, 274, 268, 119, 267, 282, 281, 265, 264, 265, 281, 269, 273, 268, 263, 281, 282, 264, 281, 263, 270, 275, 274, 269, 270, 274, 269, 274, 273, 0, 263, 282, 262, 263, 0, 300, 6, 7, 300, 7, 8, 256, 2, 3, 276, 275, 270, 256, 261, 262, 256, 0, 2, 2, 0, 1, 115, 270, 114, 270, 113, 114, 270, 115, 116, 276, 270, 116, 271, 113, 270, 256, 255, 261, 261, 259, 262, 0, 256, 262, 255, 254, 261, 280, 261, 254, 260, 261, 280, 269, 271, 270, 267, 272, 271, 277, 271, 272, 112, 113, 271, 253, 280, 254, 279, 260, 280, 301, 300, 8, 301, 8, 9, 265, 264, 262, 262, 264, 263, 260, 259, 261, 259, 260, 279, 277, 112, 271, 271, 269, 267, 272, 257, 278, 277, 272, 278, 269, 268, 267, 266, 258, 267, 266, 265, 258, 262, 258, 265, 259, 258, 262, 267, 258, 272, 258, 257, 272, 314, 9, 10, 302, 301, 9, 302, 9, 314, 299, 5, 6, 299, 6, 300, 4, 5, 299, 250, 251, 254, 253, 254, 251, 4, 255, 3, 4, 249, 255, 255, 256, 3, 254, 255, 249, 249, 250, 254, 252, 253, 251, 4, 248, 249, 298, 15, 16, 313, 314, 10, 298, 16, 17, 252, 200, 253, 4, 247, 248, 4, 299, 247, 200, 280, 253, 201, 200, 252, 251, 201, 252, 202, 201, 251, 309, 247, 299, 193, 207, 111, 240, 280, 200, 279, 280, 240, 277, 111, 112, 194, 193, 277, 277, 193, 111, 246, 247, 309, 199, 279, 240, 303, 314, 313, 302, 314, 303, 278, 194, 277, 195, 194, 278, 249, 202, 250, 248, 202, 249, 203, 248, 247, 203, 247, 246, 308, 299, 300, 309, 299, 308, 198, 258, 259, 259, 279, 199, 198, 259, 199, 257, 195, 278, 241, 198, 199, 206, 109, 110, 108, 109, 206, 196, 257, 258, 197, 196, 258, 195, 257, 196, 198, 197, 258, 234, 240, 200, 242, 199, 240, 298, 14, 15, 297, 298, 17, 235, 198, 241, 234, 242, 240, 241, 199, 242, 245, 203, 246, 221, 208, 195, 209, 194, 195, 209, 195, 208, 196, 221, 195, 11, 312, 313, 11, 313, 10, 303, 313, 312, 225, 197, 198, 225, 198, 235, 243, 234, 200, 242, 234, 243, 200, 201, 202, 210, 193, 194, 210, 194, 209, 220, 221, 196, 244, 203, 245, 107, 205, 106, 206, 107, 108, 204, 203, 244, 239, 241, 242, 239, 242, 243, 206, 205, 107, 219, 220, 196, 243, 203, 233, 239, 243, 233, 202, 243, 200, 226, 197, 225, 211, 193, 210, 238, 241, 239, 236, 225, 235, 226, 225, 236, 237, 235, 241, 105, 106, 205, 207, 206, 110, 207, 110, 111, 298, 297, 14, 297, 13, 14, 296, 13, 297, 130, 204, 244, 197, 219, 196, 218, 197, 226, 218, 219, 197, 238, 237, 241, 236, 235, 237, 232, 239, 233, 238, 239, 232, 202, 251, 250, 248, 203, 202, 203, 243, 202, 246, 129, 245, 129, 192, 245, 244, 245, 192, 130, 244, 192, 227, 226, 236, 218, 226, 227, 104, 105, 205, 206, 207, 193, 206, 193, 211, 12, 311, 312, 211, 205, 206, 212, 205, 211, 104, 205, 212, 222, 210, 209, 211, 210, 222, 212, 211, 222, 18, 297, 17, 296, 297, 18, 224, 221, 220, 224, 220, 219, 224, 219, 218, 103, 104, 212, 246, 309, 129, 208, 222, 209, 223, 208, 221, 223, 221, 224, 223, 222, 208, 307, 308, 300, 307, 300, 301, 307, 301, 302, 304, 307, 302, 228, 227, 236, 231, 238, 232, 237, 238, 231, 191, 130, 192, 217, 224, 218, 182, 103, 212, 213, 212, 222, 295, 13, 296, 303, 304, 302, 237, 228, 236, 230, 229, 237, 229, 228, 237, 231, 230, 237, 128, 129, 309, 214, 222, 223, 213, 222, 214, 216, 224, 217, 223, 224, 216, 215, 214, 223, 130, 232, 204, 204, 233, 203, 204, 232, 233, 190, 130, 191, 190, 232, 130, 216, 215, 223, 183, 182, 212, 183, 212, 213, 189, 231, 232, 189, 232, 190, 127, 128, 309, 127, 309, 308, 184, 183, 213, 184, 213, 214, 294, 13, 295, 311, 292, 310, 11, 12, 312, 12, 294, 311, 13, 294, 12, 185, 214, 215, 184, 214, 185, 188, 229, 230, 230, 231, 189, 305, 306, 307, 304, 305, 307, 186, 216, 217, 217, 227, 228, 227, 217, 218, 187, 228, 229, 187, 229, 188, 187, 217, 228, 186, 217, 187, 294, 293, 311, 293, 292, 311, 18, 295, 296, 19, 295, 18, 294, 295, 19, 126, 127, 308, 126, 308, 307, 291, 310, 292, 303, 311, 304, 290, 310, 291, 20, 294, 19, 293, 294, 20, 310, 304, 311, 311, 303, 312, 290, 289, 310, 289, 304, 310, 305, 304, 289, 125, 126, 307, 125, 307, 306, 21, 292, 293, 21, 293, 20, 292, 290, 291, 22, 292, 21, 22, 290, 292, 289, 290, 22, 288, 305, 289, 287, 305, 288, 125, 284, 124, 286, 305, 287, 286, 285, 306, 286, 306, 305, 306, 284, 125, 306, 285, 284, 283, 124, 284, 123, 124, 283, 288, 22, 23, 22, 288, 289, 23, 24, 288, 24, 287, 288, 102, 103, 182, 102, 182, 183, 102, 183, 184, 101, 102, 184, 124, 154, 125, 155, 124, 123, 127, 126, 128, 125, 153, 126, 155, 154, 124, 122, 155, 123, 191, 128, 190, 125, 154, 153, 28, 26, 27, 129, 128, 191, 122, 154, 155, 121, 154, 122, 162, 153, 154, 162, 154, 121, 152, 153, 162, 215, 216, 186, 185, 215, 186, 185, 101, 184, 186, 101, 185, 101, 138, 133, 24, 49, 286, 24, 286, 287, 285, 286, 49, 190, 128, 126, 152, 151, 153, 151, 152, 162, 101, 186, 138, 100, 101, 133, 99, 100, 133, 188, 230, 189, 26, 24, 25, 28, 24, 26, 99, 131, 98, 133, 132, 99, 153, 151, 148, 190, 153, 189, 153, 188, 189, 148, 188, 153, 191, 192, 129, 190, 126, 153, 148, 151, 149, 132, 131, 99, 75, 163, 162, 151, 162, 163, 150, 149, 151, 30, 49, 24, 24, 28, 30, 29, 30, 28, 134, 133, 135, 187, 188, 148, 186, 187, 138, 97, 98, 131, 96, 97, 131, 31, 49, 30, 138, 187, 143, 187, 148, 143, 121, 75, 162, 74, 75, 121, 143, 148, 144, 49, 284, 285, 147, 146, 148, 161, 149, 150, 135, 133, 136, 133, 138, 136, 148, 145, 144, 138, 140, 139, 138, 137, 136, 164, 163, 75, 146, 145, 148, 143, 142, 138, 138, 141, 140, 142, 141, 138, 283, 122, 123, 122, 284, 121, 49, 55, 121, 74, 121, 55, 284, 122, 283, 76, 164, 75, 161, 164, 160, 49, 50, 54, 165, 164, 76, 134, 132, 133, 95, 134, 135, 134, 131, 132, 95, 131, 134, 96, 131, 95, 148, 149, 147, 160, 180, 161, 150, 151, 163, 77, 181, 165, 49, 121, 284, 54, 50, 52, 54, 55, 49, 76, 77, 165, 78, 166, 181, 51, 52, 50, 147, 149, 161, 160, 159, 180, 180, 147, 161, 146, 147, 180, 77, 78, 181, 158, 180, 159, 53, 54, 52, 94, 135, 136, 95, 135, 94, 179, 146, 180, 179, 180, 158, 166, 171, 159, 158, 159, 171, 150, 164, 161, 163, 164, 150, 157, 179, 158, 165, 160, 164, 160, 181, 166, 181, 160, 165, 167, 166, 78, 159, 160, 166, 170, 171, 169, 167, 78, 79, 167, 168, 166, 171, 166, 169, 168, 169, 166, 179, 145, 146, 178, 179, 157, 178, 145, 179, 156, 178, 157, 139, 137, 138, 93, 139, 140, 93, 137, 139, 93, 140, 141, 94, 136, 137, 93, 94, 137, 178, 144, 145, 89, 178, 156, 89, 90, 178, 90, 91, 178, 144, 92, 142, 144, 142, 143, 141, 142, 92, 93, 141, 92, 178, 92, 144, 91, 92, 178, 73, 74, 55, 172, 88, 89, 48, 31, 32, 48, 49, 31, 171, 157, 158, 171, 156, 157, 156, 171, 170, 172, 156, 170, 172, 89, 156, 168, 79, 80, 79, 168, 167, 177, 168, 80, 176, 168, 177, 87, 88, 172, 173, 172, 170, 81, 177, 80, 170, 174, 173, 169, 168, 176, 175, 169, 176, 169, 174, 170, 175, 174, 169, 86, 87, 172, 86, 172, 173, 81, 82, 176, 81, 176, 177, 175, 176, 82, 85, 86, 173, 85, 173, 174, 83, 175, 82, 84, 174, 175, 84, 175, 83, 85, 174, 84, 73, 55, 56, 33, 48, 32, 47, 48, 33, 46, 47, 35, 34, 47, 33, 35, 47, 34, 45, 46, 35, 38, 39, 37, 45, 39, 43, 36, 45, 35, 44, 45, 43, 36, 39, 45, 36, 37, 39, 40, 41, 39, 39, 42, 43, 41, 42, 39, 72, 73, 56, 57, 72, 56, 58, 71, 72, 58, 72, 57, 59, 70, 58, 70, 71, 58, 60, 70, 59, 60, 61, 66, 60, 66, 68, 67, 68, 66, 60, 69, 70, 61, 64, 65, 69, 60, 68, 61, 65, 66, 61, 62, 64, 63, 64, 62 ],
					"vertices": [ 1522.65, -1443.15, 1555.86, -1442.54, 1582.81, -1472.57, 1585.68, -1494.68, 1633.97, -1467.9, 1716.67, -1446.07, 1779.73, -1452.3, 1841.55, -1468.95, 1901.66, -1495.51, 1935.97, -1527.03, 1980.79, -1514.68, 2025.57, -1521.65, 2095.37, -1545.17, 2106.33, -1549.53, 2127.97, -1527.57, 2164.12, -1526.32, 2191.94, -1540.27, 2206.98, -1569.17, 2203.99, -1633.66, 2167.02, -1697.91, 2115.17, -1739.58, 2078.19, -1754.37, 2017.69, -1764.47, 2019.93, -1773.7, 1995.56, -1842.29, 2004.69, -1841.68, 2026.63, -1860.94, 2043.3, -1892.06, 2040.1, -1927.05, 2016.83, -1961.79, 1984.19, -1973.41, 1970.62, -1977.52, 2056.5, -2089.68, 2162.49, -2228.1, 2179.86, -2234.44, 2203.81, -2269.17, 2213.63, -2273.21, 2242.61, -2281.57, 2262.91, -2301.85, 2268.46, -2319.16, 2267.91, -2352.17, 2250.38, -2379.48, 2217.24, -2391.5, 2169.11, -2377.64, 2150.83, -2322.6, 2158.89, -2302.61, 2135.78, -2263.23, 2138.54, -2254.59, 2026.56, -2106.85, 1907.85, -1950.23, 1905.61, -1986.59, 1893.76, -2015.71, 1866.78, -2035.37, 1832.77, -2041.79, 1799.08, -2028.39, 1778.66, -2003.01, 1774.43, -2197.55, 1769.51, -2423.86, 1777.1, -2439.64, 1781.07, -2504.35, 1781.01, -2507.98, 1804.27, -2539.53, 1803.99, -2584.72, 1782.17, -2612.37, 1757.9, -2615.92, 1718.74, -2604.85, 1701.52, -2587.6, 1687.44, -2560.75, 1693.94, -2541.68, 1712.87, -2501.53, 1716.61, -2498.24, 1720.29, -2438.55, 1733.02, -2423.04, 1741.61, -2196.14, 1748.06, -1982.37, 1741.35, -1981.2, 1722.68, -2012.03, 1704.05, -2032.07, 1699.88, -2036.56, 1719.34, -2060.55, 1728.26, -2092.85, 1719.86, -2130.88, 1696.34, -2154.58, 1671.36, -2166.23, 1649.09, -2168.88, 1617.49, -2161.23, 1597.97, -2145.89, 1586.88, -2129.75, 1580.17, -2103.94, 1577.99, -2082.38, 1574.53, -2082.61, 1568.8, -2082.99, 1487.89, -2083.31, 1418.96, -2072.66, 1362.36, -2047.31, 1332.22, -2024.9, 1286.61, -1977.17, 1275.48, -1977.02, 1252.61, -1962.16, 1243.94, -1945.13, 1244.21, -1851.62, 1258.91, -1777.99, 1308.82, -1680.09, 1361.57, -1634.45, 1360.47, -1629.5, 1348.12, -1622.81, 1343.49, -1611.47, 1341.84, -1599.51, 1348.06, -1587.24, 1356.05, -1577.27, 1372.72, -1573.96, 1380.9, -1574.18, 1383.64, -1530.25, 1366.95, -1516.3, 1357.45, -1495.94, 1366.05, -1461.59, 1395.55, -1447.77, 1416.64, -1437.88, 1430.87, -1428.94, 1446.83, -1418.91, 1486.52, -1418.89, 1756.64, -1936.9, 1759.87, -1889.46, 1760.95, -1839.88, 1754.48, -1802.15, 1741.55, -1748.25, 1714.6, -1698.66, 1687.65, -1664.16, 1661.77, -1649.07, 1635.9, -1635.06, 1600.33, -1623.2, 1300.97, -1971.21, 1314.5, -1965.51, 1326.61, -1959.1, 1336.58, -1976.91, 1356.51, -1990.43, 1375.73, -1993.99, 1395.67, -1991.15, 1413.47, -1980.47, 1425.57, -1991.86, 1439.81, -1998.98, 1465.45, -2002.54, 1487.52, -1998.27, 1508.88, -1985.45, 1524.54, -1991.86, 1550.89, -1995.42, 1575.81, -1989.72, 1590.76, -1980.47, 1598.59, -1969.79, 1614.25, -1972.63, 1638.46, -1968.36, 1657.69, -1952.7, 1670.5, -1932.76, 1674.77, -1909.98, 1708.95, -1889.33, 1743.84, -1867.26, 1584.85, -2068, 1593.17, -2053.96, 1606.69, -2038.88, 1623.33, -2026.92, 1628.01, -2014.44, 1624.89, -1990, 1676.37, -1944.76, 1684.17, -1972.32, 1685.21, -1994.68, 1686.25, -2018.6, 1686.77, -2034.2, 1685.73, -2053.96, 1674.29, -2061.76, 1658.17, -2064.36, 1638.93, -2063.32, 1624.89, -2050.84, 1608.25, -2113.76, 1621.77, -2131.44, 1641.53, -2139.24, 1667.01, -2137.16, 1689.89, -2128.84, 1706.53, -2116.88, 1579.73, -2064.55, 1590.02, -2050.48, 1604.51, -2035.78, 1686.75, -2026.95, 1363.9, -1643.32, 1374.86, -1654.94, 1398.76, -1664.56, 1426.32, -1672.2, 1450.55, -1676.85, 1486.41, -1677.84, 1522.93, -1672.2, 1551.15, -1663.24, 1578.37, -1652.61, 1600.95, -1640.99, 1614.23, -1628.38, 1392.76, -1585.17, 1410.04, -1590.29, 1428.6, -1594.77, 1453.88, -1596.05, 1477.88, -1596.37, 1504.76, -1593.17, 1529.4, -1588.05, 1557.88, -1576.85, 1569.72, -1569.81, 1577.72, -1577.17, 1591.48, -1592.53, 1597.88, -1612.05, 1364.6, -1613.33, 1371, -1596.05, 1380.92, -1582.29, 1431.03, -1602.22, 1419.1, -1602.22, 1408.28, -1608.19, 1400.82, -1617.52, 1400.07, -1630.94, 1405.67, -1643.63, 1416.86, -1651.83, 1432.52, -1654.44, 1444.46, -1651.83, 1454.9, -1641.02, 1456.77, -1626.1, 1452.29, -1614.91, 1446.32, -1608.19, 1437.75, -1604.09, 1413.13, -1632.06, 1428.79, -1636.91, 1441.48, -1634.3, 1501.9, -1605.21, 1493.32, -1617.14, 1493.7, -1629.08, 1500.78, -1640.27, 1512.35, -1645.12, 1525.77, -1645.86, 1538.83, -1640.64, 1551.51, -1627.59, 1551.88, -1616.02, 1545.54, -1596.63, 1510.85, -1597, 1506, -1622.37, 1519.06, -1626.1, 1532.49, -1619.75, 1539.2, -1613.04, 1545.54, -1582.45, 1523.89, -1594.97, 1539.59, -1598.9, 1548.35, -1605.24, 1603.09, -1608.36, 1608.72, -1599.29, 1609.97, -1587.08, 1608.72, -1577.38, 1604.34, -1570.49, 1596.83, -1564.23, 1589.94, -1561.73, 1580.55, -1561.1, 1573.04, -1561.73, 1564.59, -1527.3, 1574.92, -1518.84, 1580.86, -1509.45, 1583.37, -1497.25, 1446.82, -1535.56, 1477.09, -1535.21, 1505.98, -1529.02, 1516.3, -1519.73, 1519.74, -1501.85, 1515.27, -1489.12, 1509.42, -1473.98, 1501.17, -1467.45, 1489.47, -1463.66, 1474.68, -1461.6, 1462.3, -1461.6, 1451.63, -1462.63, 1436.5, -1472.26, 1427.55, -1485.33, 1425.83, -1499.09, 1435.81, -1524.21, 1436.15, -1462.63, 1429.96, -1455.75, 1424.46, -1451.62, 1416.54, -1447.84, 1427.21, -1525.58, 1436.84, -1531.77, 1519.4, -1527.65, 1532.47, -1523.17, 1502.54, -1460.57, 1511.83, -1447.49, 1792.25, -1834.3, 1832.35, -1826.47, 1856.79, -1820.47, 1888.13, -1807.57, 1925.94, -1791.43, 1958.67, -1768.38, 1977.57, -1746.71, 1993.24, -1730.12, 2005.23, -1698.77, 2041.65, -1689.55, 2079.45, -1682.17, 2110.8, -1668.34, 2149.06, -1643.91, 2166.12, -1623.17, 2179.95, -1596.89, 2188.71, -1564.62, 1744.92, -1556.6, 1836.5, -1494.59, 1897.56, -1527.98, 1919.03, -1548.02, 1947.17, -1588.09, 1903.76, -1644.85, 1867.03, -1674.42, 1850.81, -1673.95, 1815.04, -1638.65, 1765.43, -1592.86, 1743.97, -1571.39, 1998.13, -1669.47, 1988.75, -1630.09, 1979.38, -1604.47, 1966.25, -1566.97, 1946.88, -1546.34 ],
					"hull": 121,
					"edges": [ 0, 240, 0, 2, 2, 4, 4, 6, 6, 8, 8, 10, 10, 12, 12, 14, 14, 16, 16, 18, 18, 20, 20, 22, 22, 24, 24, 26, 26, 28, 28, 30, 30, 32, 32, 34, 34, 36, 36, 38, 38, 40, 40, 42, 42, 44, 44, 46, 46, 48, 48, 50, 50, 52, 52, 54, 54, 56, 56, 58, 58, 60, 60, 62, 66, 68, 68, 70, 70, 72, 72, 74, 74, 76, 76, 78, 78, 80, 80, 82, 82, 84, 84, 86, 86, 88, 88, 90, 90, 92, 98, 100, 100, 102, 102, 104, 104, 106, 114, 116, 116, 118, 118, 120, 120, 122, 122, 124, 124, 126, 126, 128, 128, 130, 130, 132, 132, 134, 134, 136, 136, 138, 138, 140, 140, 142, 142, 144, 144, 146, 146, 148, 168, 170, 182, 184, 184, 186, 186, 188, 188, 190, 190, 192, 192, 194, 194, 196, 196, 198, 198, 200, 200, 202, 202, 204, 208, 210, 218, 220, 220, 222, 222, 224, 224, 226, 226, 228, 228, 230, 238, 240, 92, 94, 106, 108, 108, 110, 148, 150, 150, 152, 156, 158, 158, 160, 160, 162, 162, 164, 170, 172, 172, 174, 174, 176, 176, 178, 164, 166, 166, 168, 178, 180, 180, 182, 152, 154, 154, 156, 214, 216, 216, 218, 210, 212, 212, 214, 204, 206, 206, 208, 548, 550, 230, 232, 232, 234, 234, 236, 236, 238, 110, 112, 112, 114, 94, 96, 96, 98, 62, 64, 64, 66 ],
					"width": 1028,
					"height": 1200
				}
			},
			"Bird 1": {
				"Bird 1": {
					"type": "mesh",
					"uvs": [ 1, 1, 0, 1, 0, 0, 1, 0 ],
					"triangles": [ 1, 2, 3, 1, 3, 0 ],
					"vertices": [ 1476, -3518, 1288, -3518, 1288, -3284, 1476, -3284 ],
					"hull": 4,
					"edges": [ 0, 2, 2, 4, 4, 6, 0, 6 ],
					"width": 188,
					"height": 234
				}
			},
			"Bird 1b": {
				"Bird 1b": {
					"type": "mesh",
					"uvs": [ 1, 1, 0, 1, 0, 0, 1, 0 ],
					"triangles": [ 1, 2, 3, 1, 3, 0 ],
					"vertices": [ 1203, -2173, 1015, -2173, 1015, -1939, 1203, -1939 ],
					"hull": 4,
					"edges": [ 0, 2, 2, 4, 4, 6, 0, 6 ],
					"width": 188,
					"height": 234
				}
			},
			"Bird 1c": {
				"Bird 1c": {
					"type": "mesh",
					"uvs": [ 1, 1, 0, 1, 0, 0, 1, 0 ],
					"triangles": [ 1, 2, 3, 1, 3, 0 ],
					"vertices": [ 1963, -2838, 1775, -2838, 1775, -2604, 1963, -2604 ],
					"hull": 4,
					"edges": [ 0, 2, 2, 4, 4, 6, 0, 6 ],
					"width": 188,
					"height": 234
				}
			},
			"Bird 2": {
				"Bird 2": {
					"type": "mesh",
					"uvs": [ 1, 1, 0, 1, 0, 0, 1, 0 ],
					"triangles": [ 1, 2, 3, 1, 3, 0 ],
					"vertices": [ 1470, -3492, 1277, -3492, 1277, -3315, 1470, -3315 ],
					"hull": 4,
					"edges": [ 0, 2, 2, 4, 4, 6, 0, 6 ],
					"width": 193,
					"height": 177
				}
			},
			"Bird 2b": {
				"Bird 2b": {
					"type": "mesh",
					"uvs": [ 1, 1, 0, 1, 0, 0, 1, 0 ],
					"triangles": [ 1, 2, 3, 1, 3, 0 ],
					"vertices": [ 1197, -2147, 1004, -2147, 1004, -1970, 1197, -1970 ],
					"hull": 4,
					"edges": [ 0, 2, 2, 4, 4, 6, 0, 6 ],
					"width": 193,
					"height": 177
				}
			},
			"Bird 2c": {
				"Bird 2c": {
					"type": "mesh",
					"uvs": [ 1, 1, 0, 1, 0, 0, 1, 0 ],
					"triangles": [ 1, 2, 3, 1, 3, 0 ],
					"vertices": [ 1957, -2812, 1764, -2812, 1764, -2635, 1957, -2635 ],
					"hull": 4,
					"edges": [ 0, 2, 2, 4, 4, 6, 0, 6 ],
					"width": 193,
					"height": 177
				}
			},
			"Bird 3": {
				"Bird 3": {
					"type": "mesh",
					"uvs": [ 1, 1, 0, 1, 0, 0, 1, 0 ],
					"triangles": [ 1, 2, 3, 1, 3, 0 ],
					"vertices": [ 1474, -3494, 1268, -3494, 1268, -3305, 1474, -3305 ],
					"hull": 4,
					"edges": [ 0, 2, 2, 4, 4, 6, 0, 6 ],
					"width": 206,
					"height": 189
				}
			},
			"Bird 3b": {
				"Bird 3b": {
					"type": "mesh",
					"uvs": [ 1, 1, 0, 1, 0, 0, 1, 0 ],
					"triangles": [ 1, 2, 3, 1, 3, 0 ],
					"vertices": [ 1201, -2149, 995, -2149, 995, -1960, 1201, -1960 ],
					"hull": 4,
					"edges": [ 0, 2, 2, 4, 4, 6, 0, 6 ],
					"width": 206,
					"height": 189
				}
			},
			"Bird 3c": {
				"Bird 3c": {
					"type": "mesh",
					"uvs": [ 1, 1, 0, 1, 0, 0, 1, 0 ],
					"triangles": [ 1, 2, 3, 1, 3, 0 ],
					"vertices": [ 1961, -2814, 1755, -2814, 1755, -2625, 1961, -2625 ],
					"hull": 4,
					"edges": [ 0, 2, 2, 4, 4, 6, 0, 6 ],
					"width": 206,
					"height": 189
				}
			},
			"Bird 4": {
				"Bird 4": {
					"type": "mesh",
					"uvs": [ 1, 1, 0, 1, 0, 0, 1, 0 ],
					"triangles": [ 1, 2, 3, 1, 3, 0 ],
					"vertices": [ 1475, -3521, 1276, -3521, 1276, -3315, 1475, -3315 ],
					"hull": 4,
					"edges": [ 0, 2, 2, 4, 4, 6, 0, 6 ],
					"width": 199,
					"height": 206
				}
			},
			"Bird 4b": {
				"Bird 4b": {
					"type": "mesh",
					"uvs": [ 1, 1, 0, 1, 0, 0, 1, 0 ],
					"triangles": [ 1, 2, 3, 1, 3, 0 ],
					"vertices": [ 1202, -2176, 1003, -2176, 1003, -1970, 1202, -1970 ],
					"hull": 4,
					"edges": [ 0, 2, 2, 4, 4, 6, 0, 6 ],
					"width": 199,
					"height": 206
				}
			},
			"Bird 4c": {
				"Bird 4c": {
					"type": "mesh",
					"uvs": [ 1, 1, 0, 1, 0, 0, 1, 0 ],
					"triangles": [ 1, 2, 3, 1, 3, 0 ],
					"vertices": [ 1962, -2841, 1763, -2841, 1763, -2635, 1962, -2635 ],
					"hull": 4,
					"edges": [ 0, 2, 2, 4, 4, 6, 0, 6 ],
					"width": 199,
					"height": 206
				}
			},
			"Bird 5": {
				"Bird 5": {
					"type": "mesh",
					"uvs": [ 1, 1, 0, 1, 0, 0, 1, 0 ],
					"triangles": [ 1, 2, 3, 1, 3, 0 ],
					"vertices": [ 1477, -3519, 1273, -3519, 1273, -3330, 1477, -3330 ],
					"hull": 4,
					"edges": [ 0, 2, 2, 4, 4, 6, 0, 6 ],
					"width": 204,
					"height": 189
				}
			},
			"Bird 5b": {
				"Bird 5b": {
					"type": "mesh",
					"uvs": [ 1, 1, 0, 1, 0, 0, 1, 0 ],
					"triangles": [ 1, 2, 3, 1, 3, 0 ],
					"vertices": [ 1204, -2174, 1000, -2174, 1000, -1985, 1204, -1985 ],
					"hull": 4,
					"edges": [ 0, 2, 2, 4, 4, 6, 0, 6 ],
					"width": 204,
					"height": 189
				}
			},
			"Bird 5c": {
				"Bird 5c": {
					"type": "mesh",
					"uvs": [ 1, 1, 0, 1, 0, 0, 1, 0 ],
					"triangles": [ 1, 2, 3, 1, 3, 0 ],
					"vertices": [ 1964, -2839, 1760, -2839, 1760, -2650, 1964, -2650 ],
					"hull": 4,
					"edges": [ 0, 2, 2, 4, 4, 6, 0, 6 ],
					"width": 204,
					"height": 189
				}
			},
			"Bird 6": {
				"Bird 6": {
					"type": "mesh",
					"uvs": [ 1, 1, 0, 1, 0, 0, 1, 0 ],
					"triangles": [ 1, 2, 3, 1, 3, 0 ],
					"vertices": [ 1475, -3536, 1264, -3536, 1264, -3330, 1475, -3330 ],
					"hull": 4,
					"edges": [ 0, 2, 2, 4, 4, 6, 0, 6 ],
					"width": 211,
					"height": 206
				}
			},
			"Bird 6b": {
				"Bird 6b": {
					"type": "mesh",
					"uvs": [ 1, 1, 0, 1, 0, 0, 1, 0 ],
					"triangles": [ 1, 2, 3, 1, 3, 0 ],
					"vertices": [ 1202, -2191, 991, -2191, 991, -1985, 1202, -1985 ],
					"hull": 4,
					"edges": [ 0, 2, 2, 4, 4, 6, 0, 6 ],
					"width": 211,
					"height": 206
				}
			},
			"Bird 6c": {
				"Bird 6c": {
					"type": "mesh",
					"uvs": [ 1, 1, 0, 1, 0, 0, 1, 0 ],
					"triangles": [ 1, 2, 3, 1, 3, 0 ],
					"vertices": [ 1962, -2856, 1751, -2856, 1751, -2650, 1962, -2650 ],
					"hull": 4,
					"edges": [ 0, 2, 2, 4, 4, 6, 0, 6 ],
					"width": 211,
					"height": 206
				}
			},
			"Nitrome Logo": {
				"Nitrome Logo": {
					"type": "mesh",
					"uvs": [ 1, 1, 0, 1, 0, 0, 1, 0 ],
					"triangles": [ 1, 2, 3, 1, 3, 0 ],
					"vertices": [ 2228, -2534, 1362, -2534, 1362, -1885, 2228, -1885 ],
					"hull": 4,
					"edges": [ 0, 2, 2, 4, 4, 6, 0, 6 ],
					"width": 866,
					"height": 649
				}
			},
			"Shape 2": {
				"Shape 2": {
					"type": "mesh",
					"uvs": [ 1, 1, 0, 1, 0, 0, 1, 0 ],
					"triangles": [ 1, 2, 3, 1, 3, 0 ],
					"vertices": [ 3545, -4333, 7, -4333, 7, -11, 3545, -11 ],
					"hull": 4,
					"edges": [ 0, 2, 2, 4, 4, 6, 0, 6 ],
					"width": 3538,
					"height": 4322
				}
			},
			"Ship shadow": {
				"Ship shadow": {
					"type": "mesh",
					"uvs": [ 1, 1, 0, 1, 0, 0, 1, 0 ],
					"triangles": [ 1, 2, 3, 1, 3, 0 ],
					"vertices": [ 2350, -3083, 1364, -3083, 1364, -2566, 2350, -2566 ],
					"hull": 4,
					"edges": [ 0, 2, 2, 4, 4, 6, 0, 6 ],
					"width": 986,
					"height": 517
				}
			},
			"back cloud 1": {
				"back cloud 1": {
					"type": "mesh",
					"uvs": [ 1, 1, 0, 1, 0, 0, 1, 0 ],
					"triangles": [ 1, 2, 3, 1, 3, 0 ],
					"vertices": [ 1175, -2434, 416, -2434, 416, -1998, 1175, -1998 ],
					"hull": 4,
					"edges": [ 0, 2, 2, 4, 4, 6, 0, 6 ],
					"width": 759,
					"height": 436
				}
			},
			"back cloud 2": {
				"back cloud 2": {
					"type": "mesh",
					"uvs": [ 1, 1, 0, 1, 0, 0, 1, 0 ],
					"triangles": [ 1, 2, 3, 1, 3, 0 ],
					"vertices": [ 750, -2673, 400, -2673, 400, -2469, 750, -2469 ],
					"hull": 4,
					"edges": [ 0, 2, 2, 4, 4, 6, 0, 6 ],
					"width": 350,
					"height": 204
				}
			},
			"back cloud 3": {
				"back cloud 3": {
					"type": "mesh",
					"uvs": [ 1, 1, 0, 1, 0, 0, 1, 0 ],
					"triangles": [ 1, 2, 3, 1, 3, 0 ],
					"vertices": [ 2022, -1499, 1474, -1499, 1474, -1173, 2022, -1173 ],
					"hull": 4,
					"edges": [ 0, 2, 2, 4, 4, 6, 0, 6 ],
					"width": 548,
					"height": 326
				}
			},
			"blue background": {
				"blue background": {
					"type": "mesh",
					"uvs": [ 1, 1, 0, 1, 0, 0, 1, 0 ],
					"triangles": [ 1, 2, 3, 1, 3, 0 ],
					"vertices": [ 1017, -1426, 771, -1426, 771, -1179, 1017, -1179 ],
					"hull": 4,
					"edges": [ 0, 2, 2, 4, 4, 6, 0, 6 ],
					"width": 246,
					"height": 247
				}
			},
			"boat back": {
				"boat back": {
					"type": "mesh",
					"uvs": [ 1, 1, 0, 1, 0, 0, 1, 0 ],
					"triangles": [ 1, 2, 3, 1, 3, 0 ],
					"vertices": [ 2420, -2803, 1085, -2803, 1085, -1874, 2420, -1874 ],
					"hull": 4,
					"edges": [ 0, 2, 2, 4, 4, 6, 0, 6 ],
					"width": 1335,
					"height": 929
				}
			},
			"boat front": {
				"boat front": {
					"type": "mesh",
					"uvs": [ 1, 1, 0, 1, 0, 0, 1, 0 ],
					"triangles": [ 1, 2, 3, 1, 3, 0 ],
					"vertices": [ 2420, -2803, 1085, -2803, 1085, -1874, 2420, -1874 ],
					"hull": 4,
					"edges": [ 0, 2, 2, 4, 4, 6, 0, 6 ],
					"width": 1335,
					"height": 929
				}
			},
			"cuboy face": {
				"cuboy face": {
					"type": "mesh",
					"uvs": [ 0.80976, 0.01126, 0.82599, 0.02664, 0.8427, 0.05739, 0.84488, 0.50708, 0.84304, 0.5795, 0.84241, 0.6214, 0.91567, 0.62182, 0.94303, 0.63203, 0.97228, 0.67056, 0.98173, 0.69543, 0.98159, 0.80494, 0.97264, 0.82914, 0.94425, 0.86691, 0.92648, 0.87849, 0.83763, 0.87856, 0.80359, 0.84737, 0.77317, 0.76288, 0.70558, 0.75758, 0.70384, 0.85282, 0.70631, 0.9337, 0.68772, 0.97247, 0.68598, 0.97551, 0.66682, 0.98793, 0.321, 0.98677, 0.30175, 0.97007, 0.28395, 0.93197, 0.2868, 0.75713, 0.21434, 0.75588, 0.2108, 0.80458, 0.16155, 0.87829, 0.06427, 0.87818, 0.04545, 0.86549, 0.04483, 0.86423, 0.01815, 0.82904, 0.00914, 0.80654, 0.0097, 0.69205, 0.06265, 0.62185, 0.14844, 0.62091, 0.18446, 0.57568, 0.161, 0.55098, 0.14803, 0.51713, 0.14797, 0.04865, 0.16096, 0.02735, 0.18072, 0.01198, 0.25925, 0.01193, 0.27723, 0.02329, 0.28677, 0.04782, 0.28735, 0.04586, 0.28715, 0.08569, 0.28724, 0.48769, 0.28509, 0.53188, 0.26635, 0.55681, 0.2482, 0.58095, 0.19153, 0.57785, 0.15301, 0.61814, 0.19125, 0.66661, 0.2158, 0.75541, 0.74932, 0.75594, 0.77762, 0.74551, 0.79905, 0.66529, 0.84124, 0.6104, 0.84374, 0.53259, 0.83293, 0.55713, 0.81246, 0.56903, 0.73902, 0.57077, 0.7125, 0.55191, 0.70121, 0.51702, 0.70293, 0.06251, 0.71713, 0.03083, 0.73883, 0.0101 ],
					"triangles": [ 48, 46, 47, 68, 69, 67, 0, 2, 69, 1, 2, 0, 2, 67, 69, 67, 2, 3, 66, 67, 3, 43, 40, 41, 49, 39, 48, 46, 44, 45, 46, 48, 44, 65, 66, 64, 42, 43, 41, 40, 48, 39, 48, 43, 44, 43, 48, 40, 39, 49, 53, 3, 64, 66, 50, 51, 49, 3, 61, 63, 61, 62, 63, 3, 63, 64, 53, 38, 39, 49, 51, 53, 4, 61, 3, 52, 53, 51, 61, 4, 60, 54, 38, 53, 38, 54, 37, 5, 60, 4, 59, 60, 5, 27, 55, 56, 26, 56, 57, 27, 56, 26, 17, 26, 57, 16, 57, 58, 17, 57, 16, 55, 27, 32, 9, 7, 8, 34, 55, 32, 32, 33, 34, 7, 9, 10, 59, 6, 58, 58, 10, 15, 16, 58, 15, 5, 6, 59, 6, 10, 58, 18, 26, 17, 55, 34, 35, 37, 54, 55, 36, 37, 55, 55, 35, 36, 27, 31, 32, 27, 30, 31, 6, 7, 10, 11, 12, 10, 15, 10, 14, 27, 29, 30, 28, 29, 27, 12, 13, 10, 13, 14, 10, 24, 25, 26, 18, 24, 26, 23, 24, 18, 18, 19, 22, 22, 19, 20, 18, 22, 23, 20, 21, 22 ],
					"vertices": [ 2372.45, -1793.92, 2374.21, -1795.18, 2376.01, -1797.71, 2376.25, -1834.58, 2376.05, -1840.52, 2375.98, -1843.95, 2383.89, -1843.99, 2386.85, -1844.83, 2390.01, -1847.99, 2391.03, -1850.03, 2391.01, -1859, 2390.05, -1860.99, 2386.98, -1864.09, 2385.06, -1865.04, 2375.46, -1865.04, 2371.79, -1862.48, 2368.5, -1855.56, 2361.2, -1855.12, 2361.02, -1862.93, 2361.28, -1869.56, 2359.27, -1872.74, 2359.09, -1872.99, 2357.02, -1874.01, 2319.67, -1873.92, 2317.59, -1872.55, 2315.67, -1869.42, 2315.97, -1855.08, 2308.15, -1854.98, 2307.77, -1858.98, 2302.45, -1865.02, 2291.94, -1865.01, 2289.91, -1863.97, 2289.84, -1863.87, 2286.96, -1860.98, 2285.99, -1859.14, 2286.05, -1849.75, 2291.77, -1843.99, 2301.03, -1843.91, 2304.92, -1840.21, 2302.39, -1838.18, 2300.99, -1835.4, 2300.98, -1796.99, 2302.38, -1795.24, 2304.52, -1793.98, 2313, -1793.98, 2314.94, -1794.91, 2315.97, -1796.92, 2316.03, -1796.76, 2316.01, -1800.03, 2316.02, -1832.99, 2315.79, -1836.61, 2313.77, -1838.66, 2311.81, -1840.64, 2305.69, -1840.38, 2301.53, -1843.69, 2305.66, -1847.66, 2308.31, -1854.94, 2365.93, -1854.99, 2368.98, -1854.13, 2371.3, -1847.55, 2375.85, -1843.05, 2376.12, -1836.67, 2374.96, -1838.68, 2372.75, -1839.66, 2364.81, -1839.8, 2361.95, -1838.26, 2360.73, -1835.4, 2360.92, -1798.13, 2362.45, -1795.53, 2364.79, -1793.83 ],
					"hull": 70,
					"edges": [ 8, 10, 10, 12, 14, 16, 16, 18, 24, 26, 26, 28, 34, 36, 36, 38, 38, 40, 40, 42, 42, 44, 44, 46, 50, 52, 56, 58, 58, 60, 60, 62, 62, 64, 64, 66, 72, 74, 80, 82, 82, 84, 84, 86, 86, 88, 92, 94, 94, 96, 96, 98, 98, 100, 112, 114, 104, 106, 74, 76, 106, 108, 108, 110, 110, 112, 70, 72, 68, 70, 66, 68, 12, 14, 18, 20, 20, 22, 22, 24, 28, 30, 30, 32, 32, 34, 114, 116, 116, 118, 118, 120, 120, 122, 48, 50, 46, 48, 52, 54, 54, 56, 76, 78, 78, 80, 100, 102, 102, 104, 128, 130, 130, 132, 4, 6, 6, 8, 122, 124, 124, 126, 136, 138, 0, 2, 2, 4, 88, 90, 90, 92, 134, 136, 138, 0, 132, 134, 126, 128 ],
					"width": 108,
					"height": 82
				}
			},
			"cuboy pink box": {
				"cuboy pink box": {
					"type": "mesh",
					"uvs": [ 0.91052, 0.00649, 0.94948, 0.02454, 0.97863, 0.05059, 0.99331, 0.0797, 0.99912, 0.91778, 0.96279, 0.97108, 0.93224, 0.98647, 0.87521, 0.99328, 0.12473, 0.99327, 0.06845, 0.98678, 0.03221, 0.96854, 0.00672, 0.92201, 0.0067, 0.0737, 0.03288, 0.03418, 0.06664, 0.0122, 0.10031, 0.0067, 0.07701, 0.12505, 0.07701, 0.85731, 0.09012, 0.89225, 0.12797, 0.92136, 0.88497, 0.9199, 0.90826, 0.89661, 0.92719, 0.85731, 0.92428, 0.13087, 0.90535, 0.09448, 0.87187, 0.0741, 0.12942, 0.0741, 0.09303, 0.09448, 0.15126, 0.28664, 0.16582, 0.25752, 0.18911, 0.24006, 0.07701, 0.25461, 0.07702, 0.63457, 0.92719, 0.24587, 0.9301, 0.68844, 0.3245, 0.91699, 0.66369, 0.92136, 0.30557, 0.0741, 0.68116, 0.07555, 0.25899, 0.24297, 0.73503, 0.24005, 0.79763, 0.24442, 0.83984, 0.26044, 0.85731, 0.29683, 0.8544, 0.81363, 0.82092, 0.84857, 0.21677, 0.85003, 0.16145, 0.83401, 0.14981, 0.79471, 0.14835, 0.54723, 0.85586, 0.55014, 0.18911, 0.10758, 0.16145, 0.12505, 0.14981, 0.15562, 0.16436, 0.19202, 0.18911, 0.20366, 0.79471, 0.20657, 0.84275, 0.19201, 0.26044, 0.21385, 0.72484, 0.21385, 0.85586, 0.15416, 0.8413, 0.12214, 0.80782, 0.10758, 0.69136, 0.10612, 0.30121, 0.10904, 0.31722, 0.85294, 0.68698, 0.84712 ],
					"triangles": [ 15, 38, 37, 15, 0, 38, 51, 26, 15, 0, 62, 38, 24, 25, 0, 24, 0, 1, 24, 1, 2, 24, 2, 3, 27, 14, 15, 27, 15, 26, 13, 14, 27, 12, 13, 27, 62, 63, 38, 37, 51, 15, 0, 25, 62, 64, 51, 37, 61, 62, 25, 16, 12, 27, 52, 26, 51, 23, 24, 3, 24, 60, 61, 24, 61, 25, 60, 24, 23, 52, 27, 26, 53, 27, 52, 16, 27, 53, 61, 60, 62, 52, 55, 53, 54, 53, 55, 58, 55, 51, 55, 52, 51, 62, 59, 63, 60, 56, 62, 57, 56, 60, 64, 58, 51, 56, 59, 62, 40, 59, 56, 30, 54, 55, 30, 55, 58, 39, 30, 58, 41, 56, 57, 40, 56, 41, 33, 23, 3, 60, 23, 33, 57, 60, 33, 31, 16, 53, 31, 53, 54, 29, 31, 54, 30, 29, 54, 42, 41, 57, 42, 57, 33, 28, 31, 29, 43, 42, 33, 49, 31, 28, 28, 29, 30, 39, 28, 30, 49, 28, 39, 43, 41, 42, 32, 31, 49, 34, 33, 3, 4, 34, 3, 50, 43, 33, 34, 50, 33, 48, 46, 47, 32, 49, 48, 50, 41, 43, 44, 50, 34, 65, 46, 48, 64, 37, 38, 64, 38, 63, 64, 63, 59, 39, 58, 64, 59, 39, 64, 40, 39, 59, 40, 49, 39, 49, 50, 66, 49, 40, 50, 41, 50, 40, 44, 66, 50, 45, 66, 44, 65, 48, 49, 66, 65, 49, 22, 44, 34, 31, 12, 16, 32, 12, 31, 17, 32, 48, 17, 48, 47, 12, 32, 11, 18, 17, 47, 21, 44, 22, 45, 44, 21, 36, 35, 65, 22, 34, 4, 21, 22, 4, 20, 45, 21, 66, 36, 65, 19, 18, 47, 17, 11, 32, 11, 17, 18, 10, 11, 18, 9, 10, 18, 5, 21, 4, 20, 21, 5, 6, 20, 5, 19, 9, 18, 8, 9, 19, 7, 45, 20, 7, 20, 6, 36, 66, 45, 7, 36, 45, 8, 35, 36, 46, 65, 35, 19, 47, 46, 35, 19, 46, 8, 19, 35, 7, 8, 36 ],
					"vertices": [ 2398.85, -1754.95, 2404.57, -1757.61, 2408.86, -1761.44, 2411.02, -1765.72, 2411.87, -1888.91, 2406.53, -1896.75, 2402.04, -1899.01, 2393.66, -1900.01, 2283.33, -1900.01, 2275.06, -1899.06, 2269.74, -1896.38, 2265.99, -1889.54, 2265.98, -1764.83, 2269.83, -1759.03, 2274.8, -1755.79, 2279.75, -1754.98, 2276.32, -1772.38, 2276.32, -1880.02, 2278.25, -1885.16, 2283.81, -1889.44, 2395.09, -1889.23, 2398.51, -1885.8, 2401.3, -1880.02, 2400.87, -1773.24, 2398.09, -1767.89, 2393.16, -1764.89, 2284.03, -1764.89, 2278.68, -1767.89, 2287.23, -1796.14, 2289.38, -1791.86, 2292.8, -1789.29, 2276.32, -1791.43, 2276.32, -1847.28, 2401.3, -1790.14, 2401.72, -1855.2, 2312.7, -1888.8, 2362.56, -1889.44, 2309.92, -1764.89, 2365.13, -1765.11, 2303.07, -1789.72, 2373.05, -1789.29, 2382.25, -1789.93, 2388.46, -1792.28, 2391.02, -1797.63, 2390.6, -1873.6, 2385.67, -1878.74, 2296.86, -1878.95, 2288.73, -1876.6, 2287.02, -1870.82, 2286.81, -1834.44, 2390.81, -1834.87, 2292.8, -1769.81, 2288.73, -1772.38, 2287.02, -1776.88, 2289.16, -1782.23, 2292.8, -1783.94, 2381.82, -1784.37, 2388.88, -1782.23, 2303.28, -1785.44, 2371.55, -1785.44, 2390.81, -1776.66, 2388.67, -1771.95, 2383.75, -1769.81, 2366.63, -1769.6, 2309.28, -1770.03, 2311.63, -1879.38, 2365.99, -1878.53 ],
					"hull": 16,
					"edges": [ 0, 30, 0, 2, 6, 8, 8, 10, 10, 12, 14, 16, 18, 20, 20, 22, 22, 24, 24, 26, 26, 28, 28, 30, 16, 18, 12, 14, 2, 4, 4, 6 ],
					"width": 147,
					"height": 147
				}
			},
			"cuboy tick": {
				"cuboy tick": {
					"type": "mesh",
					"uvs": [ 0.84761, 0.01952, 0.84842, 0.15957, 0.98679, 0.15975, 0.98629, 0.56229, 0.97564, 0.63151, 0.93135, 0.75921, 0.83352, 0.90014, 0.77361, 0.94326, 0.69748, 0.98019, 0.12508, 0.98037, 0.06931, 0.96019, 0.02797, 0.90105, 0.01357, 0.86004, 0.01369, 0.75979, 0.04202, 0.69884, 0.1254, 0.61888, 0.19406, 0.50013, 0.23593, 0.32, 0.23583, 0.15898, 0.40246, 0.15911, 0.40252, 0.01947, 0.40827, 0.35002, 0.38727, 0.49366, 0.34265, 0.62974, 0.2429, 0.7507, 0.39514, 0.76582, 0.53164, 0.76204, 0.66027, 0.74314, 0.76789, 0.65998, 0.82039, 0.55792, 0.84665, 0.39916, 0.85189, 0.2971 ],
					"triangles": [ 31, 1, 2, 17, 18, 19, 19, 0, 1, 0, 19, 20, 31, 19, 1, 31, 21, 19, 17, 19, 21, 30, 21, 31, 22, 17, 21, 16, 17, 22, 29, 21, 30, 21, 27, 22, 3, 31, 2, 30, 31, 3, 29, 30, 3, 23, 16, 22, 4, 29, 3, 29, 28, 21, 28, 27, 21, 22, 25, 23, 24, 16, 23, 15, 16, 24, 5, 29, 4, 28, 29, 5, 27, 26, 22, 26, 25, 22, 24, 23, 25, 6, 28, 5, 7, 27, 28, 14, 12, 13, 11, 12, 14, 6, 7, 28, 11, 14, 9, 24, 14, 15, 10, 11, 9, 8, 27, 7, 24, 9, 14, 9, 24, 25, 8, 9, 25, 26, 8, 25, 8, 26, 27 ],
					"vertices": [ 2328.03, -1911.98, 2328.09, -1918.98, 2338.05, -1918.99, 2338.01, -1939.11, 2337.25, -1942.58, 2334.06, -1948.96, 2327.01, -1956.01, 2322.7, -1958.16, 2317.22, -1960.01, 2276.01, -1960.02, 2271.99, -1959.01, 2269.01, -1956.05, 2267.98, -1954, 2267.99, -1948.99, 2270.03, -1945.94, 2276.03, -1941.94, 2280.97, -1936.01, 2283.99, -1927, 2283.98, -1918.95, 2295.98, -1918.96, 2295.98, -1911.97, 2296.4, -1928.5, 2294.88, -1935.68, 2291.67, -1942.49, 2284.49, -1948.54, 2295.45, -1949.29, 2305.28, -1949.1, 2314.54, -1948.16, 2322.29, -1944, 2326.07, -1938.9, 2327.96, -1930.96, 2328.34, -1925.86 ],
					"hull": 21,
					"edges": [ 0, 40, 0, 2, 2, 4, 4, 6, 6, 8, 8, 10, 10, 12, 12, 14, 14, 16, 16, 18, 18, 20, 20, 22, 22, 24, 24, 26, 26, 28, 28, 30, 30, 32, 32, 34, 34, 36, 36, 38, 38, 40 ],
					"width": 72,
					"height": 50
				}
			},
			"cuboy white box": {
				"cuboy white box": {
					"type": "mesh",
					"uvs": [ 0.0781, 0.0047, 0.92285, 0.00478, 0.95117, 0.02337, 0.97816, 0.04814, 0.99525, 0.08218, 0.99519, 0.91344, 0.98581, 0.93814, 0.94451, 0.97843, 0.90656, 0.99527, 0.10514, 0.99523, 0.0618, 0.98411, 0.01133, 0.93514, 0.00473, 0.90983, 0.00478, 0.08814, 0.02152, 0.04962, 0.04838, 0.02376, 0.06688, 0.90098, 0.0893, 0.9233, 0.12455, 0.94243, 0.86464, 0.94084, 0.92231, 0.91852, 0.94634, 0.87866, 0.94794, 0.1246, 0.92552, 0.08156, 0.87425, 0.05287, 0.12935, 0.05287, 0.0845, 0.07838, 0.05566, 0.1262, 0.05406, 0.8691 ],
					"triangles": [ 25, 0, 1, 24, 25, 1, 26, 0, 25, 15, 0, 26, 14, 15, 26, 23, 1, 2, 23, 2, 3, 24, 1, 23, 23, 3, 4, 13, 14, 26, 22, 23, 4, 27, 13, 26, 28, 13, 27, 23, 22, 24, 27, 25, 28, 25, 16, 28, 28, 12, 13, 12, 28, 16, 5, 22, 4, 21, 22, 5, 25, 24, 22, 21, 20, 22, 20, 21, 5, 27, 26, 25, 17, 16, 25, 22, 17, 25, 17, 22, 18, 11, 12, 16, 6, 20, 5, 20, 19, 22, 19, 18, 22, 7, 20, 6, 8, 19, 20, 17, 10, 11, 17, 11, 16, 9, 10, 17, 18, 9, 17, 7, 8, 20, 9, 18, 19, 8, 9, 19 ],
					"vertices": [ 2251.09, -1724.97, 2425.11, -1724.99, 2430.94, -1728.84, 2436.5, -1733.97, 2440.02, -1741.01, 2440.01, -1913.08, 2438.08, -1918.2, 2429.57, -1926.53, 2421.75, -1930.02, 2256.66, -1930.01, 2247.73, -1927.71, 2237.33, -1917.57, 2235.97, -1912.34, 2235.99, -1742.25, 2239.43, -1734.27, 2244.97, -1728.92, 2248.78, -1910.5, 2253.4, -1915.12, 2260.66, -1919.08, 2413.12, -1918.75, 2425, -1914.13, 2429.95, -1905.88, 2430.28, -1749.79, 2425.66, -1740.88, 2415.1, -1734.94, 2261.65, -1734.94, 2252.41, -1740.22, 2246.47, -1750.12, 2246.14, -1903.9 ],
					"hull": 16,
					"edges": [ 0, 30, 0, 2, 2, 4, 4, 6, 6, 8, 8, 10, 10, 12, 12, 14, 14, 16, 16, 18, 18, 20, 20, 22, 22, 24, 24, 26, 26, 28, 28, 30 ],
					"width": 206,
					"height": 207
				}
			},
			"front cloud 1": {
				"front cloud 1": {
					"type": "mesh",
					"uvs": [ 1, 1, 0, 1, 0, 0, 1, 0 ],
					"triangles": [ 1, 2, 3, 1, 3, 0 ],
					"vertices": [ 3481, -2533, 2661, -2533, 2661, -1952, 3481, -1952 ],
					"hull": 4,
					"edges": [ 0, 2, 2, 4, 4, 6, 0, 6 ],
					"width": 820,
					"height": 581
				}
			},
			"front cloud 2": {
				"front cloud 2": {
					"type": "mesh",
					"uvs": [ 1, 1, 0, 1, 0, 0, 1, 0 ],
					"triangles": [ 1, 2, 3, 1, 3, 0 ],
					"vertices": [ 3047, -2997, 2464, -2997, 2464, -2638, 3047, -2638 ],
					"hull": 4,
					"edges": [ 0, 2, 2, 4, 4, 6, 0, 6 ],
					"width": 583,
					"height": 359
				}
			},
			"shine 1": {
				"shine 1": {
					"type": "mesh",
					"uvs": [ 1, 1, 0, 1, 0, 0, 1, 0 ],
					"triangles": [ 1, 2, 3, 1, 3, 0 ],
					"vertices": [ 1512, -2510, 1415, -2510, 1415, -2271, 1512, -2271 ],
					"hull": 4,
					"edges": [ 0, 2, 2, 4, 4, 6, 0, 6 ],
					"width": 97,
					"height": 239
				}
			},
			"shine 2": {
				"shine 2": {
					"type": "mesh",
					"uvs": [ 1, 1, 0, 1, 0, 0, 1, 0 ],
					"triangles": [ 1, 2, 3, 1, 3, 0 ],
					"vertices": [ 1593, -2523, 1416, -2523, 1416, -2232, 1593, -2232 ],
					"hull": 4,
					"edges": [ 0, 2, 2, 4, 4, 6, 0, 6 ],
					"width": 177,
					"height": 291
				}
			},
			"shine 3": {
				"shine 3": {
					"type": "mesh",
					"uvs": [ 1, 1, 0, 1, 0, 0, 1, 0 ],
					"triangles": [ 1, 2, 3, 1, 3, 0 ],
					"vertices": [ 1648, -2522, 1415, -2522, 1415, -2217, 1648, -2217 ],
					"hull": 4,
					"edges": [ 0, 2, 2, 4, 4, 6, 0, 6 ],
					"width": 233,
					"height": 305
				}
			},
			"shine 4": {
				"shine 4": {
					"type": "mesh",
					"uvs": [ 1, 1, 0, 1, 0, 0, 1, 0 ],
					"triangles": [ 1, 2, 3, 1, 3, 0 ],
					"vertices": [ 1741, -2505, 1452, -2505, 1452, -2156, 1741, -2156 ],
					"hull": 4,
					"edges": [ 0, 2, 2, 4, 4, 6, 0, 6 ],
					"width": 289,
					"height": 349
				}
			},
			"shine 5": {
				"shine 5": {
					"type": "mesh",
					"uvs": [ 1, 1, 0, 1, 0, 0, 1, 0 ],
					"triangles": [ 1, 2, 3, 1, 3, 0 ],
					"vertices": [ 1817, -2466, 1528, -2466, 1528, -2118, 1817, -2118 ],
					"hull": 4,
					"edges": [ 0, 2, 2, 4, 4, 6, 0, 6 ],
					"width": 289,
					"height": 348
				}
			},
			"shine 6": {
				"shine 6": {
					"type": "mesh",
					"uvs": [ 1, 1, 0, 1, 0, 0, 1, 0 ],
					"triangles": [ 1, 2, 3, 1, 3, 0 ],
					"vertices": [ 1912, -2426, 1607, -2426, 1607, -2070, 1912, -2070 ],
					"hull": 4,
					"edges": [ 0, 2, 2, 4, 4, 6, 0, 6 ],
					"width": 305,
					"height": 356
				}
			},
			"shine 7": {
				"shine 7": {
					"type": "mesh",
					"uvs": [ 1, 1, 0, 1, 0, 0, 1, 0 ],
					"triangles": [ 1, 2, 3, 1, 3, 0 ],
					"vertices": [ 1992, -2383, 1691, -2383, 1691, -2030, 1992, -2030 ],
					"hull": 4,
					"edges": [ 0, 2, 2, 4, 4, 6, 0, 6 ],
					"width": 301,
					"height": 353
				}
			},
			"shine 8": {
				"shine 8": {
					"type": "mesh",
					"uvs": [ 1, 1, 0, 1, 0, 0, 1, 0 ],
					"triangles": [ 1, 2, 3, 1, 3, 0 ],
					"vertices": [ 2072, -2327, 1801, -2327, 1801, -1990, 2072, -1990 ],
					"hull": 4,
					"edges": [ 0, 2, 2, 4, 4, 6, 0, 6 ],
					"width": 271,
					"height": 337
				}
			},
			"shine 9": {
				"shine 9": {
					"type": "mesh",
					"uvs": [ 1, 1, 0, 1, 0, 0, 1, 0 ],
					"triangles": [ 1, 2, 3, 1, 3, 0 ],
					"vertices": [ 2152, -2304, 1847, -2304, 1847, -1950, 2152, -1950 ],
					"hull": 4,
					"edges": [ 0, 2, 2, 4, 4, 6, 0, 6 ],
					"width": 305,
					"height": 354
				}
			},
			"shine 10": {
				"shine 10": {
					"type": "mesh",
					"uvs": [ 1, 1, 0, 1, 0, 0, 1, 0 ],
					"triangles": [ 1, 2, 3, 1, 3, 0 ],
					"vertices": [ 2217, -2265, 1927, -2265, 1927, -1919, 2217, -1919 ],
					"hull": 4,
					"edges": [ 0, 2, 2, 4, 4, 6, 0, 6 ],
					"width": 290,
					"height": 346
				}
			},
			"shine 11": {
				"shine 11": {
					"type": "mesh",
					"uvs": [ 1, 1, 0, 1, 0, 0, 1, 0 ],
					"triangles": [ 1, 2, 3, 1, 3, 0 ],
					"vertices": [ 2217, -2224, 2007, -2224, 2007, -1919, 2217, -1919 ],
					"hull": 4,
					"edges": [ 0, 2, 2, 4, 4, 6, 0, 6 ],
					"width": 210,
					"height": 305
				}
			},
			"shine 12": {
				"shine 12": {
					"type": "mesh",
					"uvs": [ 1, 1, 0, 1, 0, 0, 1, 0 ],
					"triangles": [ 1, 2, 3, 1, 3, 0 ],
					"vertices": [ 2217, -2185, 2087, -2185, 2087, -1919, 2217, -1919 ],
					"hull": 4,
					"edges": [ 0, 2, 2, 4, 4, 6, 0, 6 ],
					"width": 130,
					"height": 266
				}
			},
			"water lines 1": {
				"water lines 1": {
					"type": "mesh",
					"uvs": [ 1, 1, 0, 1, 0, 0, 1, 0 ],
					"triangles": [ 1, 2, 3, 1, 3, 0 ],
					"vertices": [ 1919, -2985, 1337, -2985, 1337, -2656, 1919, -2656 ],
					"hull": 4,
					"edges": [ 0, 2, 2, 4, 4, 6, 0, 6 ],
					"width": 582,
					"height": 329
				}
			},
			"water lines 2": {
				"water lines 2": {
					"type": "mesh",
					"uvs": [ 1, 1, 0, 1, 0, 0, 1, 0 ],
					"triangles": [ 1, 2, 3, 1, 3, 0 ],
					"vertices": [ 2272, -2874, 1647, -2874, 1647, -2515, 2272, -2515 ],
					"hull": 4,
					"edges": [ 0, 2, 2, 4, 4, 6, 0, 6 ],
					"width": 625,
					"height": 359
				}
			},
			"water lines 3": {
				"water lines 3": {
					"type": "mesh",
					"uvs": [ 1, 1, 0, 1, 0, 0, 1, 0 ],
					"triangles": [ 1, 2, 3, 1, 3, 0 ],
					"vertices": [ 1799, -3047, 1444, -3047, 1444, -2724, 1799, -2724 ],
					"hull": 4,
					"edges": [ 0, 2, 2, 4, 4, 6, 0, 6 ],
					"width": 355,
					"height": 323
				}
			},
			"water lines 4": {
				"water lines 4": {
					"type": "mesh",
					"uvs": [ 1, 1, 0, 1, 0, 0, 1, 0 ],
					"triangles": [ 1, 2, 3, 1, 3, 0 ],
					"vertices": [ 2437, -2833, 2046, -2833, 2046, -2685, 2437, -2685 ],
					"hull": 4,
					"edges": [ 0, 2, 2, 4, 4, 6, 0, 6 ],
					"width": 391,
					"height": 148
				}
			},
			"water lines 5": {
				"water lines 5": {
					"type": "mesh",
					"uvs": [ 1, 1, 0, 1, 0, 0, 1, 0 ],
					"triangles": [ 1, 2, 3, 1, 3, 0 ],
					"vertices": [ 2078, -2862, 1687, -2862, 1687, -2678, 2078, -2678 ],
					"hull": 4,
					"edges": [ 0, 2, 2, 4, 4, 6, 0, 6 ],
					"width": 391,
					"height": 184
				}
			},
			"water lines 6": {
				"water lines 6": {
					"type": "mesh",
					"uvs": [ 1, 1, 0, 1, 0, 0, 1, 0 ],
					"triangles": [ 1, 2, 3, 1, 3, 0 ],
					"vertices": [ 2124, -2781, 1733, -2781, 1733, -2633, 2124, -2633 ],
					"hull": 4,
					"edges": [ 0, 2, 2, 4, 4, 6, 0, 6 ],
					"width": 391,
					"height": 148
				}
			}
		}
	}
],
"animations": {
	"animation": {
		"slots": {
			"Bird 1": {
				"color": [
					{ "time": 0.0333, "color": "ffffffff" },
					{ "time": 0.0667, "color": "ffffff00", "curve": "stepped" },
					{ "time": 0.3667, "color": "ffffff00" },
					{ "time": 0.4, "color": "ffffffff", "curve": "stepped" },
					{ "time": 0.4333, "color": "ffffffff" },
					{ "time": 0.4667, "color": "ffffff00", "curve": "stepped" },
					{ "time": 0.7667, "color": "ffffff00" },
					{ "time": 0.8, "color": "ffffffff", "curve": "stepped" },
					{ "time": 0.8333, "color": "ffffffff" },
					{ "time": 0.8667, "color": "ffffff00", "curve": "stepped" },
					{ "time": 1.1667, "color": "ffffff00" },
					{ "time": 1.2, "color": "ffffffff", "curve": "stepped" },
					{ "time": 1.2333, "color": "ffffffff" },
					{ "time": 1.2667, "color": "ffffff00" }
				]
			},
			"Bird 1b": {
				"color": [
					{ "time": 0.0333, "color": "ffffffff" },
					{ "time": 0.0667, "color": "ffffff00", "curve": "stepped" },
					{ "time": 0.3333, "color": "ffffff00" },
					{ "time": 0.3667, "color": "ffffffff", "curve": "stepped" },
					{ "time": 0.4, "color": "ffffffff" },
					{ "time": 0.4333, "color": "ffffff00" }
				]
			},
			"Bird 1c": {
				"color": [
					{ "time": 0.0333, "color": "ffffffff" },
					{ "time": 0.0667, "color": "ffffff00", "curve": "stepped" },
					{ "time": 0.3, "color": "ffffff00" },
					{ "time": 0.3333, "color": "ffffffff", "curve": "stepped" },
					{ "time": 0.3667, "color": "ffffffff" },
					{ "time": 0.4, "color": "ffffff00", "curve": "stepped" },
					{ "time": 0.7, "color": "ffffff00" },
					{ "time": 0.7333, "color": "ffffffff", "curve": "stepped" },
					{ "time": 0.7667, "color": "ffffffff" },
					{ "time": 0.8, "color": "ffffff00", "curve": "stepped" },
					{ "time": 1.1, "color": "ffffff00" },
					{ "time": 1.1333, "color": "ffffffff", "curve": "stepped" },
					{ "time": 1.1667, "color": "ffffffff" },
					{ "time": 1.2, "color": "ffffff00" }
				]
			},
			"Bird 2": {
				"color": [
					{ "color": "ffffff00", "curve": "stepped" },
					{ "time": 0.0333, "color": "ffffff00" },
					{ "time": 0.0667, "color": "ffffffff", "curve": "stepped" },
					{ "time": 0.1, "color": "ffffffff" },
					{ "time": 0.1333, "color": "ffffff00", "curve": "stepped" },
					{ "time": 0.4333, "color": "ffffff00" },
					{ "time": 0.4667, "color": "ffffffff", "curve": "stepped" },
					{ "time": 0.5, "color": "ffffffff" },
					{ "time": 0.5333, "color": "ffffff00", "curve": "stepped" },
					{ "time": 0.8333, "color": "ffffff00" },
					{ "time": 0.8667, "color": "ffffffff", "curve": "stepped" },
					{ "time": 0.9, "color": "ffffffff" },
					{ "time": 0.9333, "color": "ffffff00", "curve": "stepped" },
					{ "time": 1.2333, "color": "ffffff00" },
					{ "time": 1.2667, "color": "ffffffff", "curve": "stepped" },
					{ "time": 1.3, "color": "ffffffff" },
					{ "time": 1.3333, "color": "ffffff00" }
				]
			},
			"Bird 2b": {
				"color": [
					{ "color": "ffffff00", "curve": "stepped" },
					{ "time": 0.0333, "color": "ffffff00" },
					{ "time": 0.0667, "color": "ffffffff" },
					{ "time": 0.1, "color": "ffffff00", "curve": "stepped" },
					{ "time": 0.4, "color": "ffffff00" },
					{ "time": 0.4333, "color": "ffffffff" },
					{ "time": 0.4667, "color": "ffffff00" }
				]
			},
			"Bird 2c": {
				"color": [
					{ "color": "ffffff00", "curve": "stepped" },
					{ "time": 0.0333, "color": "ffffff00" },
					{ "time": 0.0667, "color": "ffffffff", "curve": "stepped" },
					{ "time": 0.1, "color": "ffffffff" },
					{ "time": 0.1333, "color": "ffffff00", "curve": "stepped" },
					{ "time": 0.3667, "color": "ffffff00" },
					{ "time": 0.4, "color": "ffffffff", "curve": "stepped" },
					{ "time": 0.4333, "color": "ffffffff" },
					{ "time": 0.4667, "color": "ffffff00", "curve": "stepped" },
					{ "time": 0.7667, "color": "ffffff00" },
					{ "time": 0.8, "color": "ffffffff", "curve": "stepped" },
					{ "time": 0.8333, "color": "ffffffff" },
					{ "time": 0.8667, "color": "ffffff00" }
				]
			},
			"Bird 3": {
				"color": [
					{ "color": "ffffff00", "curve": "stepped" },
					{ "time": 0.1, "color": "ffffff00" },
					{ "time": 0.1333, "color": "ffffffff", "curve": "stepped" },
					{ "time": 0.1667, "color": "ffffffff" },
					{ "time": 0.2, "color": "ffffff00", "curve": "stepped" },
					{ "time": 0.5, "color": "ffffff00" },
					{ "time": 0.5333, "color": "ffffffff", "curve": "stepped" },
					{ "time": 0.5667, "color": "ffffffff" },
					{ "time": 0.6, "color": "ffffff00", "curve": "stepped" },
					{ "time": 0.9, "color": "ffffff00" },
					{ "time": 0.9333, "color": "ffffffff", "curve": "stepped" },
					{ "time": 0.9667, "color": "ffffffff" },
					{ "time": 1, "color": "ffffff00", "curve": "stepped" },
					{ "time": 1.3, "color": "ffffff00" },
					{ "time": 1.3333, "color": "ffffffff" }
				]
			},
			"Bird 3b": {
				"color": [
					{ "color": "ffffff00", "curve": "stepped" },
					{ "time": 0.0667, "color": "ffffff00" },
					{ "time": 0.1, "color": "ffffffff", "curve": "stepped" },
					{ "time": 0.1333, "color": "ffffffff" },
					{ "time": 0.1667, "color": "ffffff00", "curve": "stepped" },
					{ "time": 0.4333, "color": "ffffff00" },
					{ "time": 0.4667, "color": "ffffffff", "curve": "stepped" },
					{ "time": 0.5, "color": "ffffffff" },
					{ "time": 0.5333, "color": "ffffff00" }
				]
			},
			"Bird 3c": {
				"color": [
					{ "color": "ffffff00", "curve": "stepped" },
					{ "time": 0.1, "color": "ffffff00" },
					{ "time": 0.1333, "color": "ffffffff", "curve": "stepped" },
					{ "time": 0.1667, "color": "ffffffff" },
					{ "time": 0.2, "color": "ffffff00", "curve": "stepped" },
					{ "time": 0.4333, "color": "ffffff00" },
					{ "time": 0.4667, "color": "ffffffff", "curve": "stepped" },
					{ "time": 0.5, "color": "ffffffff" },
					{ "time": 0.5333, "color": "ffffff00", "curve": "stepped" },
					{ "time": 0.8333, "color": "ffffff00" },
					{ "time": 0.8667, "color": "ffffffff", "curve": "stepped" },
					{ "time": 0.9, "color": "ffffffff" },
					{ "time": 0.9333, "color": "ffffff00", "curve": "stepped" },
					{ "time": 1.1667, "color": "ffffff00" },
					{ "time": 1.2, "color": "ffffffff", "curve": "stepped" },
					{ "time": 1.2333, "color": "ffffffff" },
					{ "time": 1.2667, "color": "ffffff00" }
				]
			},
			"Bird 4": {
				"color": [
					{ "color": "ffffff00", "curve": "stepped" },
					{ "time": 0.1667, "color": "ffffff00" },
					{ "time": 0.2, "color": "ffffffff", "curve": "stepped" },
					{ "time": 0.2333, "color": "ffffffff" },
					{ "time": 0.2667, "color": "ffffff00", "curve": "stepped" },
					{ "time": 0.5667, "color": "ffffff00" },
					{ "time": 0.6, "color": "ffffffff", "curve": "stepped" },
					{ "time": 0.6333, "color": "ffffffff" },
					{ "time": 0.6667, "color": "ffffff00", "curve": "stepped" },
					{ "time": 0.9667, "color": "ffffff00" },
					{ "time": 1, "color": "ffffffff", "curve": "stepped" },
					{ "time": 1.0333, "color": "ffffffff" },
					{ "time": 1.0667, "color": "ffffff00" }
				]
			},
			"Bird 4b": {
				"color": [
					{ "color": "ffffff00", "curve": "stepped" },
					{ "time": 0.1333, "color": "ffffff00" },
					{ "time": 0.1667, "color": "ffffffff", "curve": "stepped" },
					{ "time": 0.2, "color": "ffffffff" },
					{ "time": 0.2333, "color": "ffffff00" },
					{ "time": 0.5, "color": "ffffff00" },
					{ "time": 0.5333, "color": "ffffffff", "curve": "stepped" },
					{ "time": 0.5667, "color": "ffffffff" },
					{ "time": 0.6, "color": "ffffff00" }
				]
			},
			"Bird 4c": {
				"color": [
					{ "color": "ffffff00" },
					{ "time": 0.2333, "color": "ffffff00", "curve": "stepped" },
					{ "time": 0.5, "color": "ffffff00" },
					{ "time": 0.5333, "color": "ffffffff", "curve": "stepped" },
					{ "time": 0.5667, "color": "ffffffff" },
					{ "time": 0.6, "color": "ffffff00", "curve": "stepped" },
					{ "time": 0.9, "color": "ffffff00" },
					{ "time": 0.9333, "color": "ffffffff", "curve": "stepped" },
					{ "time": 0.9667, "color": "ffffffff" },
					{ "time": 1, "color": "ffffff00", "curve": "stepped" },
					{ "time": 1.2333, "color": "ffffff00" },
					{ "time": 1.2667, "color": "ffffffff", "curve": "stepped" },
					{ "time": 1.3, "color": "ffffffff" },
					{ "time": 1.3333, "color": "ffffff00" }
				]
			},
			"Bird 5": {
				"color": [
					{ "color": "ffffff00", "curve": "stepped" },
					{ "time": 0.2333, "color": "ffffff00" },
					{ "time": 0.2667, "color": "ffffffff", "curve": "stepped" },
					{ "time": 0.3, "color": "ffffffff" },
					{ "time": 0.3333, "color": "ffffff00", "curve": "stepped" },
					{ "time": 0.6333, "color": "ffffff00" },
					{ "time": 0.6667, "color": "ffffffff", "curve": "stepped" },
					{ "time": 0.7, "color": "ffffffff" },
					{ "time": 0.7333, "color": "ffffff00", "curve": "stepped" },
					{ "time": 1.0333, "color": "ffffff00" },
					{ "time": 1.0667, "color": "ffffffff", "curve": "stepped" },
					{ "time": 1.1, "color": "ffffffff" },
					{ "time": 1.1333, "color": "ffffff00" }
				]
			},
			"Bird 5b": {
				"color": [
					{ "color": "ffffff00", "curve": "stepped" },
					{ "time": 0.2, "color": "ffffff00" },
					{ "time": 0.2333, "color": "ffffffff", "curve": "stepped" },
					{ "time": 0.2667, "color": "ffffffff" },
					{ "time": 0.3, "color": "ffffff00", "curve": "stepped" },
					{ "time": 0.5667, "color": "ffffff00" },
					{ "time": 0.6, "color": "ffffffff", "curve": "stepped" },
					{ "time": 0.6333, "color": "ffffffff" },
					{ "time": 0.6667, "color": "ffffff00" }
				]
			},
			"Bird 5c": {
				"color": [
					{ "color": "ffffff00", "curve": "stepped" },
					{ "time": 0.1667, "color": "ffffff00" },
					{ "time": 0.2, "color": "ffffffff", "curve": "stepped" },
					{ "time": 0.2333, "color": "ffffffff" },
					{ "time": 0.2667, "color": "ffffff00" },
					{ "time": 0.5667, "color": "ffffff00" },
					{ "time": 0.6, "color": "ffffffff", "curve": "stepped" },
					{ "time": 0.6333, "color": "ffffffff" },
					{ "time": 0.6667, "color": "ffffff00", "curve": "stepped" },
					{ "time": 0.9667, "color": "ffffff00" },
					{ "time": 1, "color": "ffffffff", "curve": "stepped" },
					{ "time": 1.0333, "color": "ffffffff" },
					{ "time": 1.0667, "color": "ffffff00" },
					{ "time": 1.3, "color": "ffffff00" },
					{ "time": 1.3333, "color": "ffffffff" }
				]
			},
			"Bird 6": {
				"color": [
					{ "color": "ffffff00", "curve": "stepped" },
					{ "time": 0.3, "color": "ffffff00" },
					{ "time": 0.3333, "color": "ffffffff", "curve": "stepped" },
					{ "time": 0.3667, "color": "ffffffff" },
					{ "time": 0.4, "color": "ffffff00", "curve": "stepped" },
					{ "time": 0.7, "color": "ffffff00" },
					{ "time": 0.7333, "color": "ffffffff", "curve": "stepped" },
					{ "time": 0.7667, "color": "ffffffff" },
					{ "time": 0.8, "color": "ffffff00", "curve": "stepped" },
					{ "time": 1.1, "color": "ffffff00" },
					{ "time": 1.1333, "color": "ffffffff", "curve": "stepped" },
					{ "time": 1.1667, "color": "ffffffff" },
					{ "time": 1.2, "color": "ffffff00" }
				]
			},
			"Bird 6b": {
				"color": [
					{ "color": "ffffff00", "curve": "stepped" },
					{ "time": 0.2667, "color": "ffffff00" },
					{ "time": 0.3, "color": "ffffffff", "curve": "stepped" },
					{ "time": 0.3333, "color": "ffffffff" },
					{ "time": 0.3667, "color": "ffffff00" },
					{ "time": 0.6333, "color": "ffffff00" },
					{ "time": 0.6667, "color": "ffffffff", "curve": "stepped" },
					{ "time": 0.7, "color": "ffffffff" },
					{ "time": 0.7333, "color": "ffffff00" }
				]
			},
			"Bird 6c": {
				"color": [
					{ "color": "ffffff00", "curve": "stepped" },
					{ "time": 0.2333, "color": "ffffff00" },
					{ "time": 0.2667, "color": "ffffffff", "curve": "stepped" },
					{ "time": 0.3, "color": "ffffffff" },
					{ "time": 0.3333, "color": "ffffff00" },
					{ "time": 0.6333, "color": "ffffff00" },
					{ "time": 0.6667, "color": "ffffffff", "curve": "stepped" },
					{ "time": 0.7, "color": "ffffffff" },
					{ "time": 0.7333, "color": "ffffff00", "curve": "stepped" },
					{ "time": 1.0333, "color": "ffffff00" },
					{ "time": 1.0667, "color": "ffffffff", "curve": "stepped" },
					{ "time": 1.1, "color": "ffffffff" },
					{ "time": 1.1333, "color": "ffffff00" }
				]
			},
			"cuboy face": {
				"color": [
					{ "color": "ffffff00", "curve": "stepped" },
					{ "time": 0.8667, "color": "ffffff00" },
					{ "time": 0.9, "color": "ffffff62" },
					{ "time": 0.9667, "color": "ffffffff" }
				]
			},
			"cuboy pink box": {
				"color": [
					{ "color": "ffffff00", "curve": "stepped" },
					{ "time": 0.8, "color": "ffffff00" },
					{ "time": 0.8333, "color": "ffffffff" }
				]
			},
			"cuboy tick": {
				"color": [
					{ "color": "ffffff00", "curve": "stepped" },
					{ "time": 0.8, "color": "ffffff00" },
					{ "time": 0.8333, "color": "ffffffff" }
				]
			},
			"cuboy white box": {
				"color": [
					{ "color": "ffffff00", "curve": "stepped" },
					{ "time": 0.6333, "color": "ffffff00" },
					{ "time": 0.6667, "color": "ffffffff" }
				]
			},
			"shine 1": {
				"color": [
					{ "color": "ffffff00", "curve": "stepped" },
					{ "time": 0.1333, "color": "ffffff00" },
					{ "time": 0.1667, "color": "ffffffff" },
					{ "time": 0.2, "color": "ffffff00" }
				]
			},
			"shine 2": {
				"color": [
					{ "color": "ffffff00", "curve": "stepped" },
					{ "time": 0.1667, "color": "ffffff00" },
					{ "time": 0.2, "color": "ffffffff" },
					{ "time": 0.2333, "color": "ffffff00" }
				]
			},
			"shine 3": {
				"color": [
					{ "color": "ffffff00" },
					{ "time": 0.2, "color": "ffffff00" },
					{ "time": 0.2333, "color": "ffffffff" },
					{ "time": 0.2667, "color": "ffffff00" }
				]
			},
			"shine 4": {
				"color": [
					{ "color": "ffffff00", "curve": "stepped" },
					{ "time": 0.2333, "color": "ffffff00" },
					{ "time": 0.2667, "color": "ffffffff" },
					{ "time": 0.3, "color": "ffffff00" }
				]
			},
			"shine 5": {
				"color": [
					{ "color": "ffffff00", "curve": "stepped" },
					{ "time": 0.2667, "color": "ffffff00" },
					{ "time": 0.3, "color": "ffffffff" },
					{ "time": 0.3333, "color": "ffffff00" }
				]
			},
			"shine 6": {
				"color": [
					{ "color": "ffffff00", "curve": "stepped" },
					{ "time": 0.3, "color": "ffffff00" },
					{ "time": 0.3333, "color": "ffffffff" },
					{ "time": 0.3667, "color": "ffffff00" }
				]
			},
			"shine 7": {
				"color": [
					{ "color": "ffffff00", "curve": "stepped" },
					{ "time": 0.3333, "color": "ffffff00" },
					{ "time": 0.3667, "color": "ffffffff" },
					{ "time": 0.4, "color": "ffffff00" }
				]
			},
			"shine 8": {
				"color": [
					{ "color": "ffffff00", "curve": "stepped" },
					{ "time": 0.3667, "color": "ffffff00" },
					{ "time": 0.4, "color": "ffffffff" },
					{ "time": 0.4333, "color": "ffffff00" }
				]
			},
			"shine 9": {
				"color": [
					{ "color": "ffffff00", "curve": "stepped" },
					{ "time": 0.4, "color": "ffffff00" },
					{ "time": 0.4333, "color": "ffffffff" },
					{ "time": 0.4667, "color": "ffffff00" }
				]
			},
			"shine 10": {
				"color": [
					{ "color": "ffffff00", "curve": "stepped" },
					{ "time": 0.4333, "color": "ffffff00" },
					{ "time": 0.4667, "color": "ffffffff" },
					{ "time": 0.5, "color": "ffffff00" }
				]
			},
			"shine 11": {
				"color": [
					{ "color": "ffffff00", "curve": "stepped" },
					{ "time": 0.4667, "color": "ffffff00" },
					{ "time": 0.5, "color": "ffffffff" },
					{ "time": 0.5333, "color": "ffffff00" }
				]
			},
			"shine 12": {
				"color": [
					{ "color": "ffffff00", "curve": "stepped" },
					{ "time": 0.5, "color": "ffffff00" },
					{ "time": 0.5333, "color": "ffffffff" },
					{ "time": 0.5667, "color": "ffffff00" }
				]
			},
			"water lines 1": {
				"color": [
					{ "color": "ffffff00", "curve": "stepped" },
					{ "time": 0.0667, "color": "ffffff00" },
					{ "time": 0.5667, "color": "ffffffff" }
				]
			},
			"water lines 3": {
				"color": [
					{ "color": "ffffff83" },
					{ "time": 0.1333, "color": "ffffffff" },
					{ "time": 0.2, "color": "d8fff3ff" }
				]
			},
			"water lines 4": {
				"color": [
					{ "time": 0.7333, "color": "ffffffff" },
					{ "time": 1.3333, "color": "ffffff00" }
				]
			},
			"water lines 5": {
				"color": [
					{ "time": 0.1, "color": "ffffffff" },
					{ "time": 0.5, "color": "ffffff00" }
				]
			}
		},
		"deform": {
			"default": {
				"Balloon": {
					"Balloon": [
						{ "curve": 0.25, "c3": 0.75 },
						{
							"time": 0.6667,
							"offset": 1,
							"vertices": [ -51.80383, 6.43799, -46.43884, 6.43799, -46.43884, 3.021, -20.24194, -11.48279, -25.07458, -7.07349, -23.91077, -3.71179, -24.24329, -0.41602, -25.13062, 2.78882, -26.54663, 4.61841, -28.22717, -6.74634, -33.09729, -8.65332, -22.89197, -14.60595, -27.1178, -13.42309, -27.58789, -11.08667, -25.2179, -7.18481, -25.08301, -4.18164, -26.5885, -8.16137, -22.52527, -6.61572, -35.09155, -6.87109, -48.75659, -12.46948, -53.25452, -16.46093, -54.85205, 8.97473, -45.78223, 9.09424, -46.27405, 7.79517, -49.93103, 9.12488, -53.27063, 6.76013, -47.32703, 6.76013, -47.32703, 6.76013, -47.32703, 6.76013, -47.32703, 6.76013, -47.32703, 7.97204, -50.51306, -5.67089, -24.87048, -5.31372, -17.21899, -3.70776, -14.60278, -0.40601, -10.69385, 0, -10, 0, -10, 0, -10, 0, -10, 0, -10, 0, -10, 0, -10, 0, -10, 0, -10, -2.94605, -13.26221, -10.38794, -18.10791, -9.57885, -17.80566, -2.97461, -31.06348, 3.11865, -55.68591, 2.53503, -52.39697, 2.53503, -52.39697, 2.53503, -52.39697, 2.53503, -52.39697, -5.06995, -49.86194, 3.68408, -49.77698, 0, -34.35376, 0, -20, 0, -20, 0, -20, 0, -20, 0, -20, 0, -20, 0, -20, 0, -20, 0, -20, 0, -20, 0, -20, 0, -20, 0, -20, 0, -20, 0, -20, 0, -20, 0.39002, -36.42383, 4.64502, -48.92798, 11.72302, -47.33728, 14.12915, -48.92371, 22.92993, -43.02686, 16.27661, -48.88062, 15.42456, -51.70178, 16.39148, -55.2052, 15.48047, -59.33044, 12.92993, -61.90149, 10.22009, -63.16492, 7.80505, -63.45203, 4.37646, -62.62244, 2.25976, -60.95862, 1.05664, -59.20764, 0.32934, -56.40833, 1.75525, -52.38245, 9.89294, -35.8739, 15.28052, -36.37219, 11.93799, -48.27234, 8.65015, -47.76453, 5.95032, -46.55518, 4.51294, -45.48645, 2.33704, -43.20984, 1.80652, -43.20288, 0.71546, -42.4939, 0.30164, -41.6814, 0.3147, -32.35132, 1.01587, -28.83948, 3.39661, -24.16968, 0, -35.91895, 0, -40.95886, 0, -40.95886, 0, -40.95886, 0, -40.95886, 0, -35.91895, 0, -35.91895, 0, -35.91895, 0, -35.91895, 0, -51.80383, -3.21899, -48.58484, -3.21899, -48.58484, -3.21899, -48.58484, -3.21899, -48.58484, 0, -51.80383, 0, -45.80493, 0, -45.15894, 0, -45.1582, 10.94605, -42.02502, 9.37097, -44.63599, 22.41687, -39.99268, 22.1084, -38.19299, 21.49134, -30.7522, 20.20594, -28.38684, 18.92041, -26.74146, 17.68628, -26.02161, 5.67139, -25.35315, 0, -35.91895, 3.02246, -42.92554, 3.66773, -42.65381, 4.24512, -42.34814, 4.72058, -43.19714, 5.67139, -43.84253, 6.58838, -44.01233, 7.53931, -43.87646, 8.38831, -43.36707, 8.9657, -43.9104, 9.6449, -44.25, 10.86756, -44.4198, 11.92041, -44.21606, 12.93921, -43.60474, 13.68641, -43.9104, 14.943, -44.0802, 16.1316, -43.80847, 16.84485, -43.36707, 17.21839, -42.85754, 4.63879, -46.32507, 4.10193, -50.04102, 11.27417, -46.13477, 14.16748, -44.42322, 9.81543, -45.61438, 8.29211, -41.82471, 9.34412, -43.57678, 1.17541, -50.13611, 0.75403, -50.8114, 6.974, -50.51599, 5.69812, -56.66602, 6.02905, -55.67297, 4.7998, -53.36707, 8.29797, -45.177, 8, -50.16699, 10.40002, -51.76697, 10.74707, -47.995, 11.89111, -47.6604, 11.77832, -50.98767, 10.53747, -51.83362, 8.78894, -52.1156, 6.70203, -52.00281, 5.1792, -50.64929, 3.37427, -57.474, 4.84082, -59.39172, 6.98413, -60.23767, 9.7478, -60.01208, 12.22949, -59.10974, 14.03442, -57.81238, 10.16187, -47.27698, 6.54004, -46.0531, 9.59998, -36.56702, 11.58594, -49.4469, 0, -35.91895, -6.91199, -40.52686, -8.99268, -47.52271, -5.61829, -48.45776, -2.65039, -49.02698, 1.7406, -49.14893, 6.21277, -48.45776, 14.27637, -43.90405, 16.45813, -39.14709, 0, -35.91895, 4.63757, -25.03455, 0, -35.91895, 0, -35.91895, 0, -35.91895, 0, -35.91895, 0, -35.91895, 0, -35.91895, 0, -35.91895, 0, -35.91895, 0, -35.91895, 0, -35.91895, 1.89013, -41.58887, 1.89013, -41.58887, 0, -35.91895, 0, -35.91895, 0, -35.91895, -5.04077, -39.88855, -6.50244, -39.88855, -7.82715, -40.61938, -8.7406, -41.76135, -8.83203, -43.40564, -8.14685, -44.95874, -6.77661, -45.96362, -4.85815, -46.28333, -3.39648, -45.96362, -2.11743, -44.63892, 0, -35.91895, 0, -35.91895, 0, -35.91895, -4.21863, -40.11694, -7.23328, -43.54272, -5.31494, -44.13647, -3.76184, -43.81677, 0, -35.91895, 0, -35.91895, 2.63293, -43.17725, 3.50085, -44.54761, 4.91675, -45.14136, 6.56116, -45.23279, 8.15979, -44.59326, 7.12781, -41.67896, 4.41003, -35.91895, 4.41003, -35.91895, 0, -35.91895, 0, -35.91895, 0, -35.91895, 0, -35.91895, 4.41003, -35.91895, 0, -35.91895, 0, -35.91895, 4.41003, -35.91895, 4.41003, -35.91895, 1.89013, -41.58887, 1.89013, -41.58887, 1.89013, -41.58887, 1.89013, -41.58887, 0, -35.91895, 0, -35.91895, 0, -35.91895, 0, -35.91895, 0, -35.91895, 0, -51.80383, 6.43799, -46.43884, 9.85498, -30.4928, 6.43799, -46.43884, -3.10791, -46.76514, 0.59924, -46.72302, 4.1377, -45.96472, 5.40149, -44.82739, 5.82275, -42.63684, 5.27515, -41.07825, 4.55896, -39.22461, 3.54797, -38.42432, 2.11572, -37.96094, 0.30432, -37.70813, -1.21228, -37.70813, -2.51807, -37.83447, -4.37158, -39.01404, -5.46692, -40.61487, -5.67749, -42.2998, -4.45593, -45.375, -4.41382, -37.83447, 0, -51.80383, 0, -51.80383, 0, -51.80383, -5.50903, -45.54358, -4.32947, -46.30176, 5.78064, -45.79626, 0, -51.80383, 3.71655, -37.58179, 0, -51.80383, -3.04443, -49.50525, -0.90613, -49.0874, 0.39648, -48.76782, 2.06775, -48.07971, 4.08325, -47.21948, 5.82825, -45.9906, 6.83594, -44.83533, 7.67163, -43.95056, 8.31055, -42.2793, -0.73975, -47.85376, -16.32519, -47.0575, -12.94091, -45.56445, -8.8103, -42.92676, -6.96875, -40.68726, -5.47583, -37.85046, -4.53027, -34.36682, -5.5675, -29.80396, -0.68482, -26.49792, 2.57031, -28.27808, 3.71472, -29.34619, 5.21521, -31.48242, 2.901, -34.50867, 0.94275, -36.08545, 0.07812, -36.05994, -1.82923, -34.1781, -4.474, -31.73669, -5.61841, -30.59229, 7.93201, -35.82117, 7.43213, -33.7218, 6.93237, -32.35571, 6.23254, -30.35632, 5.19958, -29.25671 ],
							"curve": 0.25,
							"c3": 0.75
						},
						{ "time": 1.3333 }
					]
				},
				"Bird 1": {
					"Bird 1": [
						{},
						{
							"time": 1.3333,
							"vertices": [ 546.08374, 322.79614, 546.08374, 322.79614, 546.08374, 322.79614, 546.08374, 322.79614 ]
						}
					]
				},
				"Bird 1b": {
					"Bird 1b": [
						{},
						{
							"time": 1.3333,
							"vertices": [ 546.08374, 322.79614, 546.08374, 322.79614, 546.08374, 322.79614, 546.08374, 322.79614 ]
						}
					]
				},
				"Bird 1c": {
					"Bird 1c": [
						{},
						{
							"time": 1.3333,
							"vertices": [ 546.08374, 322.79614, 546.08374, 322.79614, 546.08374, 322.79614, 546.08374, 322.79614 ]
						}
					]
				},
				"Bird 2": {
					"Bird 2": [
						{},
						{
							"time": 1.3333,
							"vertices": [ 546.08374, 322.79614, 546.08374, 322.79614, 546.08374, 322.79614, 546.08374, 322.79614 ]
						}
					]
				},
				"Bird 2b": {
					"Bird 2b": [
						{},
						{
							"time": 1.3333,
							"vertices": [ 546.08374, 322.79614, 546.08374, 322.79614, 546.08374, 322.79614, 546.08374, 322.79614 ]
						}
					]
				},
				"Bird 2c": {
					"Bird 2c": [
						{},
						{
							"time": 1.3333,
							"vertices": [ 546.08374, 322.79614, 546.08374, 322.79614, 546.08374, 322.79614, 546.08374, 322.79614 ]
						}
					]
				},
				"Bird 3": {
					"Bird 3": [
						{},
						{
							"time": 1.3333,
							"vertices": [ 546.08374, 322.79614, 546.08374, 322.79614, 546.08374, 322.79614, 546.08374, 322.79614 ]
						}
					]
				},
				"Bird 3b": {
					"Bird 3b": [
						{},
						{
							"time": 1.3333,
							"vertices": [ 546.08374, 322.79614, 546.08374, 322.79614, 546.08374, 322.79614, 546.08374, 322.79614 ]
						}
					]
				},
				"Bird 3c": {
					"Bird 3c": [
						{},
						{
							"time": 1.3333,
							"vertices": [ 546.08374, 322.79614, 546.08374, 322.79614, 546.08374, 322.79614, 546.08374, 322.79614 ]
						}
					]
				},
				"Bird 4": {
					"Bird 4": [
						{},
						{
							"time": 1.3333,
							"vertices": [ 546.08374, 322.79614, 546.08374, 322.79614, 546.08374, 322.79614, 546.08374, 322.79614 ]
						}
					]
				},
				"Bird 4b": {
					"Bird 4b": [
						{},
						{
							"time": 1.3333,
							"vertices": [ 546.08374, 322.79614, 546.08374, 322.79614, 546.08374, 322.79614, 546.08374, 322.79614 ]
						}
					]
				},
				"Bird 4c": {
					"Bird 4c": [
						{},
						{
							"time": 1.3333,
							"vertices": [ 546.08374, 322.79614, 546.08374, 322.79614, 546.08374, 322.79614, 546.08374, 322.79614 ]
						}
					]
				},
				"Bird 5": {
					"Bird 5": [
						{},
						{
							"time": 1.3333,
							"vertices": [ 546.08374, 322.79614, 546.08374, 322.79614, 546.08374, 322.79614, 546.08374, 322.79614 ]
						}
					]
				},
				"Bird 5b": {
					"Bird 5b": [
						{},
						{
							"time": 1.3333,
							"vertices": [ 546.08374, 322.79614, 546.08374, 322.79614, 546.08374, 322.79614, 546.08374, 322.79614 ]
						}
					]
				},
				"Bird 5c": {
					"Bird 5c": [
						{},
						{
							"time": 1.3333,
							"vertices": [ 546.08374, 322.79614, 546.08374, 322.79614, 546.08374, 322.79614, 546.08374, 322.79614 ]
						}
					]
				},
				"Bird 6": {
					"Bird 6": [
						{},
						{
							"time": 1.3333,
							"vertices": [ 546.08374, 322.79614, 546.08374, 322.79614, 546.08374, 322.79614, 546.08374, 322.79614 ]
						}
					]
				},
				"Bird 6b": {
					"Bird 6b": [
						{},
						{
							"time": 1.3333,
							"vertices": [ 546.08374, 322.79614, 546.08374, 322.79614, 546.08374, 322.79614, 546.08374, 322.79614 ]
						}
					]
				},
				"Bird 6c": {
					"Bird 6c": [
						{},
						{
							"time": 1.3333,
							"vertices": [ 546.08374, 322.79614, 546.08374, 322.79614, 546.08374, 322.79614, 546.08374, 322.79614 ]
						}
					]
				},
				"Nitrome Logo": {
					"Nitrome Logo": [
						{ "curve": 0.25, "c3": 0.75 },
						{
							"time": 0.6667,
							"offset": 1,
							"vertices": [ -20, 0, -20, 0, -20, 0, -20 ],
							"curve": 0.25,
							"c3": 0.75
						},
						{ "time": 1.3333 }
					]
				},
				"Ship shadow": {
					"Ship shadow": [
						{
							"vertices": [ -1.77734, 0.93091, 1.77722, 0.93091, 1.77722, -0.93286, -1.77734, -0.93286 ]
						},
						{
							"time": 0.6667,
							"vertices": [ -41.83496, 21.93579, 41.83496, 21.93579, 41.83496, -21.93579, -41.83496, -21.93579 ]
						},
						{
							"time": 1.3333,
							"vertices": [ -14.7655, 7.74121, 14.76477, 7.74121, 14.76477, -7.74268, -14.7655, -7.74268 ]
						}
					]
				},
				"back cloud 1": {
					"back cloud 1": [
						{},
						{
							"time": 1.3333,
							"vertices": [ 400, 200, 400, 200, 400, 200, 400, 200 ]
						}
					]
				},
				"back cloud 2": {
					"back cloud 2": [
						{},
						{
							"time": 1.3333,
							"vertices": [ 400, 200, 400, 200, 400, 200, 400, 200 ]
						}
					]
				},
				"back cloud 3": {
					"back cloud 3": [
						{},
						{
							"time": 1.3333,
							"vertices": [ 400, 200, 400, 200, 400, 200, 400, 200 ]
						}
					]
				},
				"blue background": {
					"blue background": [
						{
							"vertices": [ 2547.8643, -2920.0076, -789.0779, -2920.0076, -789.0779, 1184.958, 2547.8643, 1184.958 ],
							"curve": 0.25,
							"c3": 0.625,
							"c4": 0.5
						},
						{
							"time": 1.3333,
							"vertices": [ 2547.8643, -2920.0076, -789.0779, -2920.0076, -789.0779, 1184.958, 2547.8643, 1179.3298 ]
						}
					]
				},
				"boat back": {
					"boat back": [
						{ "curve": 0.25, "c3": 0.75 },
						{
							"time": 0.6667,
							"offset": 1,
							"vertices": [ -20, 0, -20, 0, -20, 0, -20 ],
							"curve": 0.25,
							"c3": 0.75
						},
						{ "time": 1.3333 }
					]
				},
				"boat front": {
					"boat front": [
						{ "curve": 0.25, "c3": 0.75 },
						{
							"time": 0.6667,
							"offset": 1,
							"vertices": [ -20, 0, -20, 0, -20, 0, -20 ],
							"curve": 0.25,
							"c3": 0.75
						},
						{ "time": 1.3333 }
					]
				},
				"cuboy face": {
					"cuboy face": [
						{ "curve": 0.25, "c3": 0.75 },
						{
							"time": 0.6667,
							"offset": 1,
							"vertices": [ -20, 0, -20, 0, -20, 0, -20, 0, -20, 0, -20, 0, -20, 0, -20, 0, -20, 0, -20, 0, -20, 0, -20, 0, -20, 0, -20, 0, -20, 0, -20, 0, -20, 0, -20, 0, -20, 0, -20, 0, -20, 0, -20, 0, -20, 0, -20, 0, -20, 0, -20, 0, -20, 0, -20, 0, -20, 0, -20, 0, -20, 0, -20, 0, -20, 0, -20, 0, -20, 0, -20, 0, -20, 0, -20, 0, -20, 0, -20, 0, -20, 0, -20, 0, -20, 0, -20, 0, -20, 0, -20, 0, -20, 0, -20, 0, -20, 0, -20, 0, -20, 0, -20, 0, -20, 0, -20, 0, -20, 0, -20, 0, -20, 0, -20, 0, -20, 0, -20, 0, -20, 0, -20, 0, -20, 0, -20, 0, -20, 0, -20, 0, -20, 0, -20, 0, -20, 0, -20 ],
							"curve": 0.263,
							"c3": 0.618,
							"c4": 0.43
						},
						{
							"time": 0.9,
							"vertices": [ 9.7915, -2.22584, 10.29541, -2.58839, 10.81421, -3.31325, 10.88208, -13.91408, 10.82471, -15.62123, 10.80518, -16.60902, 13.07959, -16.61891, 13.9292, -16.85951, 14.8374, -17.76784, 15.13086, -18.35426, 15.12646, -20.93556, 14.84863, -21.50612, 13.96704, -22.39662, 13.41553, -22.66945, 10.65698, -22.67104, 9.6001, -21.93593, 8.65552, -19.94423, 6.55688, -19.81923, 6.50293, -22.06447, 6.57959, -23.97096, 6.00244, -24.8849, 5.94849, -24.95668, 5.35352, -25.2494, -5.38379, -25.22206, -5.9812, -24.82826, -6.53369, -23.93031, -6.44556, -19.80861, -8.69531, -19.77907, -8.80518, -20.92714, -10.33423, -22.66481, -13.35474, -22.66212, -13.93896, -22.36293, -13.95825, -22.33339, -14.78662, -21.5038, -15.06616, -20.97328, -15.04883, -18.27443, -13.40479, -16.61952, -10.74121, -16.59743, -9.6228, -15.53114, -10.35132, -14.94899, -10.75415, -14.15102, -10.75586, -3.10719, -10.35229, -2.60499, -9.73901, -2.24269, -7.30078, -2.24159, -6.74243, -2.50929, -6.44629, -3.08766, -6.42847, -3.04152, -6.43457, -3.98024, -6.43164, -13.45692, -6.49829, -14.49867, -7.08032, -15.08644, -7.6438, -15.65541, -9.40332, -15.58241, -10.59937, -16.53224, -9.41211, -17.6747, -8.6499, -19.76796, 7.91504, -19.78053, 8.79346, -19.53481, 9.45898, -17.64357, 10.76904, -16.34962, 10.84668, -14.51527, 10.51099, -15.09389, 9.87524, -15.37428, 7.59497, -15.41554, 6.77197, -14.97096, 6.42139, -14.14833, 6.47461, -3.43385, 6.91553, -2.68715, 7.58936, -2.19838 ],
							"curve": 0.328,
							"c2": 0.32,
							"c3": 0.663,
							"c4": 0.66
						},
						{
							"time": 0.9667,
							"offset": 1,
							"vertices": [ -11.32143, 0, -11.32143, 0, -11.32143, 0, -11.32143, 0, -11.32143, 0, -11.32143, 0, -11.32143, 0, -11.32143, 0, -11.32143, 0, -11.32143, 0, -11.32143, 0, -11.32143, 0, -11.32143, 0, -11.32143, 0, -11.32143, 0, -11.32143, 0, -11.32143, 0, -11.32143, 0, -11.32143, 0, -11.32143, 0, -11.32143, 0, -11.32143, 0, -11.32143, 0, -11.32143, 0, -11.32143, 0, -11.32143, 0, -11.32143, 0, -11.32143, 0, -11.32143, 0, -11.32143, 0, -11.32143, 0, -11.32143, 0, -11.32143, 0, -11.32143, 0, -11.32143, 0, -11.32143, 0, -11.32143, 0, -11.32143, 0, -11.32143, 0, -11.32143, 0, -11.32143, 0, -11.32143, 0, -11.32143, 0, -11.32143, 0, -11.32143, 0, -11.32143, 0, -11.32143, 0, -11.32143, 0, -11.32143, 0, -11.32143, 0, -11.32143, 0, -11.32143, 0, -11.32143, 0, -11.32143, 0, -11.32143, 0, -11.32143, 0, -11.32143, 0, -11.32143, 0, -11.32143, 0, -11.32143, 0, -11.32143, 0, -11.32143, 0, -11.32143, 0, -11.32143, 0, -11.32143, 0, -11.32143, 0, -11.32143, 0, -11.32143, 0, -11.32143, 0, -11.32143 ],
							"curve": 0.37,
							"c2": 0.47,
							"c3": 0.753
						},
						{ "time": 1.3333 }
					]
				},
				"cuboy pink box": {
					"cuboy pink box": [
						{ "curve": 0.25, "c3": 0.75 },
						{
							"time": 0.8333,
							"vertices": [ -41.08008, -69.42676, -44.99048, -67.6145, -47.91675, -64.99976, -49.39014, -62.07874, -49.9729, 22.03723, -46.32642, 27.3866, -43.26074, 28.93054, -37.53662, 29.61426, 37.80566, 29.68701, 43.43579, 28.96191, 47.07227, 27.13184, 49.6311, 22.4613, 49.6333, -62.68079, 47.00562, -66.64673, 43.6167, -68.85327, 40.23779, -69.40576, 39.47119, -54.80603, 39.47119, 13.34204, 38.25195, 16.59351, 34.729, 19.30359, -35.72192, 19.16797, -37.88989, 17.00024, -39.65112, 13.34216, -39.38013, -54.26392, -37.6189, -57.651, -34.50269, -59.54785, 34.59375, -59.54785, 37.98096, -57.65112, 32.56152, -39.76721, 31.20654, -42.47693, 29.03882, -44.10266, 39.47119, -42.74792, 39.47144, -7.38684, -39.65112, -43.56116, -39.92187, -2.3739, 16.42065, 18.55859, -15.12866, 19.30347, 18.20044, -59.54785, -16.75415, -59.41235, 22.53564, -43.83179, -21.76709, -44.10266, -27.59302, -43.69617, -31.52197, -42.20581, -33.14795, -38.81885, -32.87695, 6.16565, -29.58789, 8.89844, 25.08179, 9.55273, 31.44043, 9.09949, 32.69702, 7.51624, 32.83252, -15.51587, -33.01245, -15.24487, 29.21191, -54.52991, 31.44043, -53.76855, 32.69702, -51.96082, 31.34229, -48.57373, 29.03882, -47.48975, -27.32202, -47.21887, -31.79297, -48.57361, 22.40039, -46.02271, -20.81885, -46.54138, -33.01245, -52.09619, -31.65747, -53.69385, -28.54126, -54.53003, -18.56714, -54.66541, 18.43408, -54.39465, 17.65356, 9.39307, -18.67944, 8.41736 ],
							"curve": 0.297,
							"c3": 0.634,
							"c4": 0.37
						},
						{
							"time": 0.9,
							"vertices": [ 9.64331, -6.97382, 10.56128, -7.39924, 11.24805, -8.01313, 11.59399, -8.6988, 11.73071, -28.44514, 10.87475, -29.70099, 10.15527, -30.06342, 8.81128, -30.22394, -8.87109, -30.2237, -10.19702, -30.07075, -11.05078, -29.64118, -11.65137, -28.54474, -11.65186, -8.55744, -11.03491, -7.62641, -10.2395, -7.10847, -9.44629, -6.97883, -16.52856, -4.04157, -16.52856, -32.54169, -16.01855, -33.90144, -14.54541, -35.03486, 14.91772, -34.97797, 15.82446, -34.07148, 16.56104, -32.54169, 16.44775, -4.26826, 15.71094, -2.85175, 14.40796, -2.05854, -14.48877, -2.05854, -15.90527, -2.85175, -13.63892, -10.331, -13.07227, -9.1977, -12.16553, -8.51777, -16.52856, -9.0843, -16.52856, -23.87263, 16.56104, -8.74433, 16.67432, -25.96918, -6.89624, -34.86481, 6.30542, -35.03461, -7.63306, -2.05854, 6.98535, -2.11518, -9.44605, -8.63105, 9.08203, -8.51777, 11.51831, -8.68769, 13.16138, -9.31098, 13.84131, -10.72761, 13.72803, -30.84199, 12.4248, -40.63374, -11.08911, -38.58234, -13.24243, -31.63508, -13.69556, -30.10517, -13.7522, -20.47297, 13.78442, -20.58637, -12.69238, 0.32745, -13.24243, -4.04157, -13.69556, -5.23151, -13.12915, -6.64802, -12.16553, -7.10126, 11.40503, -7.21467, 13.27466, -6.64802, -9.38941, -7.49787, 8.6853, -7.49787, 13.78442, -5.17475, 13.21802, -3.92817, 11.91479, -0.19965, 7.38208, -0.66999, -8.33008, -0.25629, -7.70679, -38.69563, 7.73901, -39.52314 ],
							"curve": 0.3,
							"c2": 0.21,
							"c3": 0.756
						},
						{
							"time": 0.9667,
							"offset": 1,
							"vertices": [ -18.60993, 0, -18.60993, 0, -18.60993, 0, -18.60993, 0, -18.60993, 0, -18.60993, 0, -18.60993, 0, -18.60993, 0, -18.60993, 0, -18.60993, 0, -18.60993, 0, -18.60993, 0, -18.60993, 0, -18.60993, 0, -18.60993, 0, -18.60993, 0, -18.60993, 0, -18.60993, 0, -18.60993, 0, -18.60993, 0, -18.60993, 0, -18.60993, 0, -18.60993, 0, -18.60993, 0, -18.60993, 0, -18.60993, 0, -18.60993, 0, -18.60993, 0, -18.60993, 0, -18.60993, 0, -18.60993, 0, -18.60993, 0, -18.60993, 0, -18.60993, 0, -18.60993, 0, -18.60993, 0, -18.60993, 0, -18.60993, 0, -18.60993, 0, -18.60993, 0, -18.60993, 0, -18.60993, 0, -18.60993, 0, -18.60993, 0, -18.60993, 0, -18.60993, 0, -18.60993, 0, -18.60993, 0, -18.60993, 0, -18.60993, 0, -18.60993, 0, -18.60993, 0, -18.60993, 0, -18.60993, 0, -18.60993, 0, -18.60993, 0, -18.60993, 0, -18.60993, 0, -18.60993, 0, -18.60993, 0, -18.60993, 0, -18.60993, 0, -18.60993, 0, -18.60993, 0, -18.60993, 0, -18.60993, 0, -18.60993 ],
							"curve": 0.3,
							"c2": 0.21,
							"c3": 0.756
						},
						{ "time": 1.3333 }
					]
				},
				"cuboy tick": {
					"cuboy tick": [
						{ "curve": 0.25, "c3": 0.75 },
						{
							"time": 0.8333,
							"vertices": [ 9.25781, -41.65997, 9.28442, -35.61309, -0.63941, -36.41204, -0.53101, -18.34698, -0.29736, -17.97344, -0.26563, -17.90948, -0.19507, -17.83917, -0.15186, -17.81756, -0.09717, -17.79901, 0.18188, -16.33599, 2.74927, -16.346, 6.50293, -17.17364, 8.77441, -18.12506, 9.11206, -21.10125, 7.75391, -22.75176, 3.94165, -23.31964, -4.9E-4, -20.74298, -2.57886, -29.05108, -3.10474, -37.74859, -14.46314, -37.34856, -15.12012, -42.76434, -15.29102, -28.26068, -13.54736, -30.42022, -12.83496, -28.60113, -7.97754, -25.03277, -19.14233, -25.38763, 9.2019, -26.10064, 8.96338, -25.27838, 10.16406, -21.55694, 9.78003, -18.00726, 9.80615, -24.85272, 9.39648, -30.17791 ],
							"curve": 0.354,
							"c2": 0.41,
							"c3": 0.756
						},
						{
							"time": 0.9,
							"vertices": [ -0.20532, -18.27935, -0.20581, -18.20941, -0.30542, -18.20916, -0.30518, -18.00799, -0.29736, -17.97344, -0.26563, -17.90948, -0.19507, -17.83917, -0.15186, -17.81756, -0.09717, -17.79901, 0.31494, -17.79901, 0.35522, -17.80902, 0.38501, -17.83856, 0.39551, -17.85906, 0.39526, -17.90924, 0.37475, -17.93975, 0.31494, -17.97967, 0.26538, -18.039, 0.23511, -18.12908, 0.23535, -18.20965, 0.11523, -18.20953, 0.11523, -18.27935, 0.11133, -18.11407, 0.12622, -18.04229, 0.15845, -17.97418, 0.23022, -17.91375, 0.1206, -17.90631, 0.02222, -17.90801, -0.07031, -17.91754, -0.14771, -17.95916, -0.18555, -18.01019, -0.20459, -18.08953, -0.20825, -18.14056 ],
							"curve": 0.354,
							"c2": 0.41,
							"c3": 0.756
						},
						{ "time": 1.3333 }
					]
				},
				"cuboy white box": {
					"cuboy white box": [
						{ "curve": 0.25, "c3": 0.75 },
						{
							"time": 0.6667,
							"vertices": [ 79.02294, -106.61011, -72.34498, -106.61011, -72.34498, -106.61011, -72.34498, -106.61011, -72.34498, -106.61011, -72.34497, 57.37585, -72.34497, 57.37585, -72.34497, 57.37585, -72.34497, 57.37585, 79.02295, 57.37585, 79.02295, 57.37585, 79.02295, 57.37585, 79.02295, 57.37585, 79.02294, -106.61011, 79.02294, -106.61011, 79.02294, -106.61011, 69.40918, 48.396, 69.90601, 47.89929, 70.68652, 47.47351, -64.29053, 47.50903, -63.01343, 48.00574, -62.4812, 48.8927, -62.4458, -98.31213, -62.94238, -97.35425, -64.07764, -96.71558, 70.79297, -96.71558, 69.79956, -97.28333, 69.16089, -98.34753, 69.12549, 49.10559 ],
							"curve": 0.294,
							"c3": 0.631,
							"c4": 0.37
						},
						{
							"time": 0.7333,
							"vertices": [ -40.06812, -104.38403, 46.74584, -104.38403, 46.74584, -104.38403, 46.74584, -104.38403, 46.74584, -104.38403, 46.74585, 59.60193, 46.74585, 59.60193, 46.74585, 59.60193, 46.74585, 59.60193, -40.06812, 59.60193, -40.06812, 59.60193, -40.06812, 59.60193, -40.06812, 59.60193, -40.06812, -104.38403, -40.06812, -104.38403, -40.06812, -104.38403, -49.68188, 50.62207, -49.18506, 50.12537, -48.40454, 49.69958, 54.80029, 49.73511, 56.07739, 50.23181, 56.60962, 51.11877, 56.64502, -96.08606, 56.14844, -95.12817, 55.01318, -94.4895, -48.2981, -94.4895, -49.2915, -95.05725, -49.93018, -96.12146, -49.96558, 51.33167 ],
							"curve": 0.294,
							"c3": 0.631,
							"c4": 0.37
						},
						{
							"time": 0.7667,
							"vertices": [ -15.58228, -104.38403, 22.25976, -104.38403, 22.25976, -104.38403, 22.25976, -104.38403, 22.25976, -104.38403, 22.25977, 59.60193, 22.25977, 59.60193, 22.25977, 59.60193, 22.25977, 59.60193, -15.58228, 59.60193, -15.58228, 59.60193, -15.58228, 59.60193, -15.58228, 59.60193, -15.58228, -104.38403, -15.58228, -104.38403, -15.58228, -104.38403, -25.19604, 50.62207, -24.69922, 50.12537, -23.9187, 49.69958, 30.31421, 49.73511, 31.59131, 50.23181, 32.12354, 51.11877, 32.15894, -96.08606, 31.66235, -95.12817, 30.5271, -94.4895, -23.81226, -94.4895, -24.80566, -95.05725, -25.44434, -96.12146, -25.47974, 51.33167 ],
							"curve": 0.294,
							"c3": 0.631,
							"c4": 0.37
						},
						{
							"time": 0.8333,
							"vertices": [ -10.25415, -6.25303, 10.27588, -6.2551, 10.96411, -6.70908, 11.61987, -7.31406, 12.03516, -8.14524, 12.03393, -28.44553, 11.80591, -29.04868, 10.80225, -30.03244, 9.87988, -30.4437, -9.59692, -30.44297, -10.65015, -30.17124, -11.87671, -28.97532, -12.03735, -28.3574, -12.03589, -8.29087, -11.62915, -7.35019, -10.97656, -6.7186, -19.35181, -36.38169, -18.35083, -37.38254, -16.77783, -38.24045, 16.25171, -38.16892, 18.8252, -37.16794, 19.89771, -35.38083, 19.96924, -1.56467, 18.96826, 0.36538, 16.68042, 1.65237, -16.56348, 1.65237, -18.56543, 0.50833, -19.85205, -1.63608, -19.92358, -34.95176 ],
							"curve": 0.306,
							"c2": 0.23,
							"c3": 0.756
						},
						{
							"time": 0.9,
							"offset": 1,
							"vertices": [ -18.34043, 0, -18.34043, 0, -18.34043, 0, -18.34043, 0, -18.34043, 0, -18.34043, 0, -18.34043, 0, -18.34043, 0, -18.34043, 0, -18.34043, 0, -18.34043, 0, -18.34043, 0, -18.34043, 0, -18.34043, 0, -18.34043, 0, -18.34043, 0, -18.34043, 0, -18.34043, 0, -18.34043, 0, -18.34043, 0, -18.34043, 0, -18.34043, 0, -18.34043, 0, -18.34043, 0, -18.34043, 0, -18.34043, 0, -18.34043, 0, -18.34043, 0, -18.34043 ],
							"curve": 0.306,
							"c2": 0.23,
							"c3": 0.756
						},
						{ "time": 1.3333 }
					]
				},
				"front cloud 1": {
					"front cloud 1": [
						{
							"vertices": [ -771.0359, -365.81982, -771.0359, -365.81982, -771.0359, -365.81982, -771.0359, -365.81982 ]
						},
						{
							"time": 1.3333,
							"vertices": [ -371.0359, -165.81982, -371.0359, -165.81982, -371.0359, -165.81982, -371.0359, -165.81982 ]
						}
					]
				},
				"front cloud 2": {
					"front cloud 2": [
						{
							"vertices": [ -771.0359, -365.81982, -771.0359, -365.81982, -771.0359, -365.81982, -771.0359, -365.81982 ]
						},
						{
							"time": 1.3333,
							"vertices": [ -371.0359, -165.81982, -371.0359, -165.81982, -371.0359, -165.81982, -371.0359, -165.81982 ]
						}
					]
				},
				"shine 1": {
					"shine 1": [
						{ "curve": 0.25, "c3": 0.75 },
						{
							"time": 0.6667,
							"offset": 1,
							"vertices": [ -20, 0, -20, 0, -20, 0, -20 ],
							"curve": 0.25,
							"c3": 0.75
						},
						{ "time": 1.3333 }
					]
				},
				"shine 2": {
					"shine 2": [
						{ "curve": 0.25, "c3": 0.75 },
						{
							"time": 0.6667,
							"offset": 1,
							"vertices": [ -20, 0, -20, 0, -20, 0, -20 ],
							"curve": 0.25,
							"c3": 0.75
						},
						{ "time": 1.3333 }
					]
				},
				"shine 3": {
					"shine 3": [
						{ "curve": 0.25, "c3": 0.75 },
						{
							"time": 0.6667,
							"offset": 1,
							"vertices": [ -20, 0, -20, 0, -20, 0, -20 ],
							"curve": 0.25,
							"c3": 0.75
						},
						{ "time": 1.3333 }
					]
				},
				"shine 4": {
					"shine 4": [
						{ "curve": 0.25, "c3": 0.75 },
						{
							"time": 0.6667,
							"offset": 1,
							"vertices": [ -20, 0, -20, 0, -20, 0, -20 ],
							"curve": 0.25,
							"c3": 0.75
						},
						{ "time": 1.3333 }
					]
				},
				"shine 5": {
					"shine 5": [
						{ "curve": 0.25, "c3": 0.75 },
						{
							"time": 0.6667,
							"offset": 1,
							"vertices": [ -20, 0, -20, 0, -20, 0, -20 ],
							"curve": 0.25,
							"c3": 0.75
						},
						{ "time": 1.3333 }
					]
				},
				"shine 6": {
					"shine 6": [
						{ "curve": 0.25, "c3": 0.75 },
						{
							"time": 0.6667,
							"offset": 1,
							"vertices": [ -20, 0, -20, 0, -20, 0, -20 ],
							"curve": 0.25,
							"c3": 0.75
						},
						{ "time": 1.3333 }
					]
				},
				"shine 7": {
					"shine 7": [
						{ "curve": 0.25, "c3": 0.75 },
						{
							"time": 0.6667,
							"offset": 1,
							"vertices": [ -20, 0, -20, 0, -20, 0, -20 ],
							"curve": 0.25,
							"c3": 0.75
						},
						{ "time": 1.3333 }
					]
				},
				"shine 8": {
					"shine 8": [
						{ "curve": 0.25, "c3": 0.75 },
						{
							"time": 0.6667,
							"offset": 1,
							"vertices": [ -20, 0, -20, 0, -20, 0, -20 ],
							"curve": 0.25,
							"c3": 0.75
						},
						{ "time": 1.3333 }
					]
				},
				"shine 9": {
					"shine 9": [
						{ "curve": 0.25, "c3": 0.75 },
						{
							"time": 0.6667,
							"offset": 1,
							"vertices": [ -20, 0, -20, 0, -20, 0, -20 ],
							"curve": 0.25,
							"c3": 0.75
						},
						{ "time": 1.3333 }
					]
				},
				"shine 10": {
					"shine 10": [
						{ "curve": 0.25, "c3": 0.75 },
						{
							"time": 0.6667,
							"offset": 1,
							"vertices": [ -20, 0, -20, 0, -20, 0, -20 ],
							"curve": 0.25,
							"c3": 0.75
						},
						{ "time": 1.3333 }
					]
				},
				"shine 11": {
					"shine 11": [
						{ "curve": 0.25, "c3": 0.75 },
						{
							"time": 0.6667,
							"offset": 1,
							"vertices": [ -20, 0, -20, 0, -20, 0, -20 ],
							"curve": 0.25,
							"c3": 0.75
						},
						{ "time": 1.3333 }
					]
				},
				"shine 12": {
					"shine 12": [
						{ "curve": 0.25, "c3": 0.75 },
						{
							"time": 0.6667,
							"offset": 1,
							"vertices": [ -20, 0, -20, 0, -20, 0, -20 ],
							"curve": 0.25,
							"c3": 0.75
						},
						{ "time": 1.3333 }
					]
				},
				"water lines 1": {
					"water lines 1": [
						{
							"vertices": [ -731.08435, -395.64795, -731.08435, -395.64795, -731.08435, -395.64795, -731.08435, -395.64795 ]
						},
						{
							"time": 1.3333,
							"vertices": [ -331.08435, -195.64795, -331.08435, -195.64795, -331.08435, -195.64795, -331.08435, -195.64795 ]
						}
					]
				},
				"water lines 2": {
					"water lines 2": [
						{
							"vertices": [ -484.87695, -178.21606, -484.87695, -178.21606, -484.87695, -178.21606, -484.87695, -178.21606 ]
						},
						{
							"time": 1.3333,
							"vertices": [ -84.87695, 21.78394, -84.87695, 21.78394, -84.87695, 21.78394, -84.87695, 21.78394 ]
						}
					]
				},
				"water lines 3": {
					"water lines 3": [
						{
							"vertices": [ -192.19983, -309.92017, -192.19983, -309.92017, -192.19983, -309.92017, -192.19983, -309.92017 ]
						},
						{
							"time": 1.3333,
							"vertices": [ 207.80017, -109.92017, 207.80017, -109.92017, 207.80017, -109.92017, 207.80017, -109.92017 ]
						}
					]
				},
				"water lines 4": {
					"water lines 4": [
						{
							"vertices": [ 44.9679, 78.6084, 44.9679, 78.6084, 44.9679, 78.6084, 44.9679, 78.6084 ]
						},
						{
							"time": 1.3333,
							"vertices": [ 444.9679, 278.6084, 444.9679, 278.6084, 444.9679, 278.6084, 444.9679, 278.6084 ]
						}
					]
				},
				"water lines 5": {
					"water lines 5": [
						{
							"vertices": [ 597.84436, 326.2998, 597.84436, 326.2998, 597.84436, 326.2998, 597.84436, 326.2998 ]
						},
						{
							"time": 1.3333,
							"vertices": [ 997.84436, 526.2998, 997.84436, 526.2998, 997.84436, 526.2998, 997.84436, 526.2998 ]
						}
					]
				},
				"water lines 6": {
					"water lines 6": [
						{
							"vertices": [ 134.77563, -249.73169, 134.77563, -249.73169, 134.77563, -249.73169, 134.77563, -249.73169 ]
						},
						{
							"time": 1.3333,
							"vertices": [ 534.77563, -49.73169, 534.77563, -49.73169, 534.77563, -49.73169, 534.77563, -49.73169 ]
						}
					]
				}
			}
		}
	}
}
}