{
"skeleton": {
	"hash": "jy/RMlpjNPsZJ65QAyUogXx5cwY",
	"spine": "3.8.99",
	"x": 0.95,
	"y": -67.04,
	"width": 96.07,
	"height": 67.11,
	"images": "./images/",
	"audio": "C:/Users/mat/OneDrive/Desktop/Spine Hippos/Hippo set 7"
},
"bones": [
	{ "name": "root" }
],
"slots": [
	{ "name": "Layer 1", "bone": "root", "attachment": "Layer 1" },
	{ "name": "Layer 2", "bone": "root", "attachment": "Layer 2" }
],
"skins": [
	{
		"name": "default",
		"attachments": {
			"Layer 1": {
				"Layer 1": {
					"type": "mesh",
					"uvs": [ 0.64885, 0.0156, 0.77132, 0.09413, 0.87956, 0.25013, 0.91472, 0.38453, 0.9151, 0.55444, 0.96994, 0.62181, 0.98091, 0.72453, 0.97628, 0.77901, 0.96289, 0.93638, 0.71364, 0.98645, 0.14862, 0.98403, 0.06774, 0.9404, 0.02648, 0.91814, 0.01174, 0.78248, 0.01204, 0.59839, 0.05987, 0.29806, 0.17506, 0.13838, 0.28196, 0.06382, 0.41141, 0.0143, 0.15289, 0.79541, 0.25081, 0.8555, 0.35666, 0.86218, 0.44663, 0.83213, 0.56043, 0.7687, 0.68216, 0.8121, 0.76949, 0.84549, 0.87269, 0.85884, 0.92562, 0.82879, 0.86211, 0.59176, 0.77478, 0.56505, 0.69539, 0.53167, 0.56307, 0.52499, 0.45722, 0.54169, 0.36195, 0.58509, 0.26668, 0.63182, 0.17406, 0.71862, 0.07086, 0.61847, 0.09996, 0.38478, 0.07615, 0.78205, 0.20582, 0.2045, 0.29844, 0.12438, 0.42811, 0.0743, 0.62923, 0.09433, 0.75626, 0.15109, 0.84359, 0.31467, 0.86476, 0.44153, 0.57631, 0.40147, 0.54455, 0.24122, 0.47839, 0.12772, 0.75626, 0.42484, 0.71656, 0.23121, 0.65305, 0.15442, 0.35137, 0.48159, 0.3302, 0.2913, 0.3302, 0.18113 ],
					"triangles": [ 48, 41, 18, 18, 0, 48, 42, 0, 1, 40, 17, 18, 40, 18, 41, 42, 48, 0, 16, 17, 40, 1, 51, 42, 43, 51, 1, 54, 40, 41, 39, 16, 40, 50, 51, 43, 47, 48, 42, 47, 42, 51, 43, 1, 2, 44, 50, 43, 48, 53, 54, 39, 40, 54, 48, 54, 41, 53, 48, 47, 53, 39, 54, 15, 16, 39, 2, 44, 43, 44, 2, 3, 37, 15, 39, 50, 46, 47, 50, 47, 51, 49, 50, 44, 46, 50, 49, 45, 44, 3, 49, 44, 45, 46, 52, 53, 46, 53, 47, 46, 32, 52, 30, 46, 49, 31, 46, 30, 31, 32, 46, 45, 3, 4, 29, 49, 45, 28, 29, 45, 30, 49, 29, 33, 52, 32, 4, 28, 45, 14, 15, 37, 36, 14, 37, 37, 39, 53, 52, 34, 37, 52, 37, 53, 34, 52, 33, 36, 37, 34, 35, 36, 34, 23, 32, 31, 23, 31, 30, 4, 5, 28, 38, 36, 35, 13, 14, 36, 13, 36, 38, 19, 38, 35, 24, 23, 30, 24, 30, 29, 28, 5, 6, 7, 27, 6, 27, 28, 6, 22, 33, 32, 22, 32, 23, 25, 24, 29, 25, 29, 28, 26, 25, 28, 20, 35, 34, 19, 35, 20, 21, 34, 33, 27, 26, 28, 22, 21, 33, 20, 34, 21, 12, 13, 38, 8, 27, 7, 26, 27, 8, 11, 12, 38, 11, 38, 19, 10, 11, 19, 10, 19, 20, 9, 24, 25, 9, 25, 26, 9, 26, 8, 23, 24, 9, 22, 23, 9, 21, 22, 9, 10, 20, 21, 9, 10, 21 ],
					"vertices": [ 62.21, -0.01, 72.25, -5.12, 81.12, -15.26, 84.01, -23.99, 84.04, -35.04, 88.54, -39.42, 89.43, -46.09, 89.05, -49.64, 87.96, -59.86, 67.52, -63.12, 21.19, -62.96, 14.55, -60.13, 11.17, -58.68, 9.96, -49.86, 9.99, -37.9, 13.91, -18.37, 23.35, -7.99, 32.12, -3.15, 42.74, 0.07, 21.54, -50.7, 29.57, -54.61, 38.25, -55.04, 45.62, -53.09, 54.96, -48.97, 64.94, -51.79, 72.1, -53.96, 80.56, -54.82, 84.9, -52.87, 79.69, -37.46, 72.53, -35.73, 66.02, -33.56, 55.17, -33.12, 46.49, -34.21, 38.68, -37.03, 30.87, -40.07, 23.27, -45.71, 14.81, -39.2, 17.2, -24.01, 15.24, -49.83, 25.88, -12.29, 33.47, -7.08, 44.11, -3.83, 60.6, -5.13, 71.01, -8.82, 78.17, -19.45, 79.91, -27.7, 56.26, -25.1, 53.65, -14.68, 48.23, -7.3, 71.01, -26.61, 67.76, -14.03, 62.55, -9.04, 37.81, -30.3, 36.08, -17.93, 36.08, -10.77 ],
					"hull": 19,
					"edges": [ 0, 36, 0, 2, 2, 4, 4, 6, 6, 8, 8, 10, 10, 12, 16, 18, 18, 20, 24, 26, 26, 28, 28, 30, 30, 32, 32, 34, 34, 36, 12, 14, 14, 16, 20, 22, 22, 24 ],
					"width": 82,
					"height": 65
				}
			},
			"Layer 2": {
				"Layer 2": {
					"type": "mesh",
					"uvs": [ 0.11164, 0.35256, 0.24291, 0.54057, 0.48137, 0.62614, 0.80237, 0.5774, 0.88929, 0.45562, 0.89879, 0.17392, 0.97484, 0.1757, 0.9901, 0.34669, 0.99004, 0.53023, 0.96309, 0.68744, 0.8821, 0.80447, 0.74518, 0.8847, 0.39813, 0.88291, 0.16131, 0.82462, 0.04227, 0.65047, 0.01965, 0.53749, 0.02009, 0.29044, 0.05035, 0.11636, 0.11135, 0.11627 ],
					"triangles": [ 5, 6, 4, 0, 14, 16, 15, 16, 14, 4, 6, 7, 8, 9, 7, 9, 4, 7, 10, 3, 4, 10, 4, 9, 13, 0, 1, 17, 18, 0, 0, 16, 17, 14, 0, 13, 12, 1, 2, 13, 1, 12, 11, 2, 3, 11, 3, 10, 12, 2, 11 ],
					"vertices": [ 10.05, -57.99, 23.05, -61.19, 46.66, -62.64, 78.43, -61.82, 87.04, -59.75, 87.98, -54.96, 95.51, -54.99, 97.02, -57.89, 97.01, -61.01, 94.35, -63.69, 86.33, -65.68, 72.77, -67.04, 38.42, -67.01, 14.97, -66.02, 3.18, -63.06, 0.95, -61.14, 0.99, -56.94, 3.98, -53.98, 10.02, -53.98 ],
					"hull": 19,
					"edges": [ 0, 36, 0, 2, 2, 4, 4, 6, 6, 8, 8, 10, 10, 12, 12, 14, 14, 16, 16, 18, 18, 20, 20, 22, 22, 24, 24, 26, 26, 28, 28, 30, 30, 32, 32, 34, 34, 36 ],
					"width": 99,
					"height": 17
				}
			}
		}
	}
],
"animations": {
	"animation": {
		"slots": {
			"Layer 2": {
				"attachment": [
					{ "time": 2.0333, "name": null }
				]
			}
		},
		"deform": {
			"default": {
				"Layer 1": {
					"Layer 1": [
						{
							"offset": 28,
							"vertices": [ 0.43399 ]
						},
						{
							"time": 1.3333,
							"vertices": [ 0.21699, -3.03799, 0.21699, -3.03799, 0.21699, -3.03799, 0.21699, -3.03799, 0.21699, -3.03799, 1.085, -1.30199, 1.51899, -0.651, 1.085, -2.387, 0, 0, 4.12297, 0, 0, 0, 0, 0, 0, 0, 0.21699, -3.03799, 0.65098, -3.03799, 0.21699, -3.03799, 0.21699, -3.03799, 0.21699, -3.03799, 0.21699, -3.03799, 4.77398, -3.47199, 4.77398, -3.47199, 8.44797, -3.13799, 10.45197, -3.13799, 8.78197, -3.806, 4.77398, -3.47199, 2.16999, -3.25499, 3.47198, -2.60399, 2.16999, -1.95299, 0.21699, -3.03799, 2.82097, -3.03799, 4.77398, -3.47199, 4.77398, -3.47199, 4.77398, -3.47199, 4.77398, -3.47199, 4.77398, -3.47199, 4.77398, -3.47199, 0.21699, -3.03799, 0.21699, -3.03799, 0.21699, -3.03799, 0.21699, -3.03799, 0.21699, -3.03799, 0.21699, -3.03799, 1.08499, -3.03799, 0.21699, -3.03799, 0.21699, -3.03799, 0.21699, -3.03799, 4.77398, -3.47199, 4.77398, -3.47199, 2.16999, -2.82099, 3.472, -2.60399, 2.38699, -3.68899, 1.30199, -3.47199, 5.64198, -4.12299, 6.07598, -3.255, 2.821, -2.387 ]
						},
						{
							"time": 2.6667,
							"offset": 28,
							"vertices": [ 0.43399 ]
						}
					]
				},
				"Layer 2": {
					"Layer 2": [
						{
							"offset": 26,
							"vertices": [ 0.217, 0.434 ]
						},
						{
							"time": 2,
							"vertices": [ -14.54196, -1.89369, -16.63462, -3.58825, -4.187, -3.98392, 12.95339, -3.01416, 15.74636, 0.71211, 11.30492, -0.00167, 5.71964, 0.64561, 5.90524, 0.28857, 5.90443, -0.09467, 5.57677, -0.42294, 4.59195, -0.66731, 2.92699, -0.83485, -1.78045, -0.3438, -3.92928, -0.22208, -5.62043, -0.34575, -5.89549, -0.10984, -5.8902, 0.40602, -5.52222, 0.76954, -10.42241, 1.42071 ]
						}
					]
				}
			}
		}
	}
}
}