%YAML 1.1
%TAG !u! tag:unity3d.com,2011:
--- !u!1001 &8108400855819949440
PrefabInstance:
  m_ObjectHideFlags: 0
  serializedVersion: 2
  m_Modification:
    m_TransformParent: {fileID: 0}
    m_Modifications:
    - target: {fileID: 122998713847992876, guid: d3236569c99b74d4d9a5477a98c6ec84,
        type: 3}
      propertyPath: m_Sprite
      value: 
      objectReference: {fileID: 21300000, guid: 4ef941bfcf8d684438418882281075ca,
        type: 3}
    - target: {fileID: 1265280358115420724, guid: d3236569c99b74d4d9a5477a98c6ec84,
        type: 3}
      propertyPath: m_Name
      value: TransitionThemedLandscape_HotNColdSprings
      objectReference: {fileID: 0}
    - target: {fileID: 1265280358115420729, guid: d3236569c99b74d4d9a5477a98c6ec84,
        type: 3}
      propertyPath: m_Pivot.x
      value: 0
      objectReference: {fileID: 0}
    - target: {fileID: 1265280358115420729, guid: d3236569c99b74d4d9a5477a98c6ec84,
        type: 3}
      propertyPath: m_Pivot.y
      value: 0
      objectReference: {fileID: 0}
    - target: {fileID: 1265280358115420729, guid: d3236569c99b74d4d9a5477a98c6ec84,
        type: 3}
      propertyPath: m_RootOrder
      value: 0
      objectReference: {fileID: 0}
    - target: {fileID: 1265280358115420729, guid: d3236569c99b74d4d9a5477a98c6ec84,
        type: 3}
      propertyPath: m_AnchorMax.x
      value: 0
      objectReference: {fileID: 0}
    - target: {fileID: 1265280358115420729, guid: d3236569c99b74d4d9a5477a98c6ec84,
        type: 3}
      propertyPath: m_AnchorMax.y
      value: 0
      objectReference: {fileID: 0}
    - target: {fileID: 1265280358115420729, guid: d3236569c99b74d4d9a5477a98c6ec84,
        type: 3}
      propertyPath: m_AnchorMin.x
      value: 0
      objectReference: {fileID: 0}
    - target: {fileID: 1265280358115420729, guid: d3236569c99b74d4d9a5477a98c6ec84,
        type: 3}
      propertyPath: m_AnchorMin.y
      value: 0
      objectReference: {fileID: 0}
    - target: {fileID: 1265280358115420729, guid: d3236569c99b74d4d9a5477a98c6ec84,
        type: 3}
      propertyPath: m_SizeDelta.x
      value: 0
      objectReference: {fileID: 0}
    - target: {fileID: 1265280358115420729, guid: d3236569c99b74d4d9a5477a98c6ec84,
        type: 3}
      propertyPath: m_SizeDelta.y
      value: 0
      objectReference: {fileID: 0}
    - target: {fileID: 1265280358115420729, guid: d3236569c99b74d4d9a5477a98c6ec84,
        type: 3}
      propertyPath: m_LocalPosition.x
      value: 0
      objectReference: {fileID: 0}
    - target: {fileID: 1265280358115420729, guid: d3236569c99b74d4d9a5477a98c6ec84,
        type: 3}
      propertyPath: m_LocalPosition.y
      value: 0
      objectReference: {fileID: 0}
    - target: {fileID: 1265280358115420729, guid: d3236569c99b74d4d9a5477a98c6ec84,
        type: 3}
      propertyPath: m_LocalPosition.z
      value: 0
      objectReference: {fileID: 0}
    - target: {fileID: 1265280358115420729, guid: d3236569c99b74d4d9a5477a98c6ec84,
        type: 3}
      propertyPath: m_LocalRotation.w
      value: 1
      objectReference: {fileID: 0}
    - target: {fileID: 1265280358115420729, guid: d3236569c99b74d4d9a5477a98c6ec84,
        type: 3}
      propertyPath: m_LocalRotation.x
      value: 0
      objectReference: {fileID: 0}
    - target: {fileID: 1265280358115420729, guid: d3236569c99b74d4d9a5477a98c6ec84,
        type: 3}
      propertyPath: m_LocalRotation.y
      value: 0
      objectReference: {fileID: 0}
    - target: {fileID: 1265280358115420729, guid: d3236569c99b74d4d9a5477a98c6ec84,
        type: 3}
      propertyPath: m_LocalRotation.z
      value: 0
      objectReference: {fileID: 0}
    - target: {fileID: 1265280358115420729, guid: d3236569c99b74d4d9a5477a98c6ec84,
        type: 3}
      propertyPath: m_AnchoredPosition.x
      value: 0
      objectReference: {fileID: 0}
    - target: {fileID: 1265280358115420729, guid: d3236569c99b74d4d9a5477a98c6ec84,
        type: 3}
      propertyPath: m_AnchoredPosition.y
      value: 0
      objectReference: {fileID: 0}
    - target: {fileID: 1265280358115420729, guid: d3236569c99b74d4d9a5477a98c6ec84,
        type: 3}
      propertyPath: m_LocalEulerAnglesHint.x
      value: 0
      objectReference: {fileID: 0}
    - target: {fileID: 1265280358115420729, guid: d3236569c99b74d4d9a5477a98c6ec84,
        type: 3}
      propertyPath: m_LocalEulerAnglesHint.y
      value: 0
      objectReference: {fileID: 0}
    - target: {fileID: 1265280358115420729, guid: d3236569c99b74d4d9a5477a98c6ec84,
        type: 3}
      propertyPath: m_LocalEulerAnglesHint.z
      value: 0
      objectReference: {fileID: 0}
    - target: {fileID: 1911634467965905279, guid: d3236569c99b74d4d9a5477a98c6ec84,
        type: 3}
      propertyPath: m_Sprite
      value: 
      objectReference: {fileID: 21300000, guid: 384cf99bb6dee6248a7a53f3e04da324,
        type: 3}
    - target: {fileID: 2462452496849061514, guid: d3236569c99b74d4d9a5477a98c6ec84,
        type: 3}
      propertyPath: m_Sprite
      value: 
      objectReference: {fileID: 21300000, guid: 81d9fd954a4e22d4cb3b5e98e5e0a11f,
        type: 3}
    - target: {fileID: 2634130048106695806, guid: d3236569c99b74d4d9a5477a98c6ec84,
        type: 3}
      propertyPath: m_Sprite
      value: 
      objectReference: {fileID: 21300000, guid: 3771f4c82b679444795869e40a21fee4,
        type: 3}
    - target: {fileID: 3613597549606240833, guid: d3236569c99b74d4d9a5477a98c6ec84,
        type: 3}
      propertyPath: m_Sprite
      value: 
      objectReference: {fileID: 21300000, guid: 9023bd134cf67484380acb9a671feda3,
        type: 3}
    - target: {fileID: 7242611622967130919, guid: d3236569c99b74d4d9a5477a98c6ec84,
        type: 3}
      propertyPath: m_Sprite
      value: 
      objectReference: {fileID: 21300000, guid: 167b1f5ab0e6c5247a97e431cc34f22e,
        type: 3}
    - target: {fileID: 7802180066867229078, guid: d3236569c99b74d4d9a5477a98c6ec84,
        type: 3}
      propertyPath: m_Sprite
      value: 
      objectReference: {fileID: 21300000, guid: 7979ebcd5b0aba34b9ea8956c23f5abd,
        type: 3}
    - target: {fileID: 8416472829347458210, guid: d3236569c99b74d4d9a5477a98c6ec84,
        type: 3}
      propertyPath: m_Sprite
      value: 
      objectReference: {fileID: 21300000, guid: 8b7195ad6481cb04dab7c00517c86271,
        type: 3}
    - target: {fileID: 9053263148241357334, guid: d3236569c99b74d4d9a5477a98c6ec84,
        type: 3}
      propertyPath: m_Sprite
      value: 
      objectReference: {fileID: 21300000, guid: 2dff89601ca10634ab96a2a6c0d097a9,
        type: 3}
    m_RemovedComponents: []
  m_SourcePrefab: {fileID: 100100000, guid: d3236569c99b74d4d9a5477a98c6ec84, type: 3}
