%YAML 1.1
%TAG !u! tag:unity3d.com,2011:
--- !u!1001 &3813152323058606353
PrefabInstance:
  m_ObjectHideFlags: 0
  serializedVersion: 2
  m_Modification:
    m_TransformParent: {fileID: 0}
    m_Modifications:
    - target: {fileID: 1938506573514603472, guid: 4028b89ed39d22c41ac3e022b975a41f,
        type: 3}
      propertyPath: m_Sprite
      value: 
      objectReference: {fileID: 21300000, guid: eb334e688809a744e87d3b55d7dffcec,
        type: 3}
    - target: {fileID: 1947618100720917881, guid: 4028b89ed39d22c41ac3e022b975a41f,
        type: 3}
      propertyPath: m_Name
      value: TransitionThemedPortrait_OpeningTutorial
      objectReference: {fileID: 0}
    - target: {fileID: 1947618100720917885, guid: 4028b89ed39d22c41ac3e022b975a41f,
        type: 3}
      propertyPath: m_Pivot.x
      value: 0
      objectReference: {fileID: 0}
    - target: {fileID: 1947618100720917885, guid: 4028b89ed39d22c41ac3e022b975a41f,
        type: 3}
      propertyPath: m_Pivot.y
      value: 0
      objectReference: {fileID: 0}
    - target: {fileID: 1947618100720917885, guid: 4028b89ed39d22c41ac3e022b975a41f,
        type: 3}
      propertyPath: m_RootOrder
      value: 0
      objectReference: {fileID: 0}
    - target: {fileID: 1947618100720917885, guid: 4028b89ed39d22c41ac3e022b975a41f,
        type: 3}
      propertyPath: m_AnchorMax.x
      value: 0
      objectReference: {fileID: 0}
    - target: {fileID: 1947618100720917885, guid: 4028b89ed39d22c41ac3e022b975a41f,
        type: 3}
      propertyPath: m_AnchorMax.y
      value: 0
      objectReference: {fileID: 0}
    - target: {fileID: 1947618100720917885, guid: 4028b89ed39d22c41ac3e022b975a41f,
        type: 3}
      propertyPath: m_AnchorMin.x
      value: 0
      objectReference: {fileID: 0}
    - target: {fileID: 1947618100720917885, guid: 4028b89ed39d22c41ac3e022b975a41f,
        type: 3}
      propertyPath: m_AnchorMin.y
      value: 0
      objectReference: {fileID: 0}
    - target: {fileID: 1947618100720917885, guid: 4028b89ed39d22c41ac3e022b975a41f,
        type: 3}
      propertyPath: m_SizeDelta.x
      value: 0
      objectReference: {fileID: 0}
    - target: {fileID: 1947618100720917885, guid: 4028b89ed39d22c41ac3e022b975a41f,
        type: 3}
      propertyPath: m_SizeDelta.y
      value: 0
      objectReference: {fileID: 0}
    - target: {fileID: 1947618100720917885, guid: 4028b89ed39d22c41ac3e022b975a41f,
        type: 3}
      propertyPath: m_LocalPosition.x
      value: 0
      objectReference: {fileID: 0}
    - target: {fileID: 1947618100720917885, guid: 4028b89ed39d22c41ac3e022b975a41f,
        type: 3}
      propertyPath: m_LocalPosition.y
      value: 0
      objectReference: {fileID: 0}
    - target: {fileID: 1947618100720917885, guid: 4028b89ed39d22c41ac3e022b975a41f,
        type: 3}
      propertyPath: m_LocalPosition.z
      value: 0
      objectReference: {fileID: 0}
    - target: {fileID: 1947618100720917885, guid: 4028b89ed39d22c41ac3e022b975a41f,
        type: 3}
      propertyPath: m_LocalRotation.w
      value: 1
      objectReference: {fileID: 0}
    - target: {fileID: 1947618100720917885, guid: 4028b89ed39d22c41ac3e022b975a41f,
        type: 3}
      propertyPath: m_LocalRotation.x
      value: 0
      objectReference: {fileID: 0}
    - target: {fileID: 1947618100720917885, guid: 4028b89ed39d22c41ac3e022b975a41f,
        type: 3}
      propertyPath: m_LocalRotation.y
      value: 0
      objectReference: {fileID: 0}
    - target: {fileID: 1947618100720917885, guid: 4028b89ed39d22c41ac3e022b975a41f,
        type: 3}
      propertyPath: m_LocalRotation.z
      value: 0
      objectReference: {fileID: 0}
    - target: {fileID: 1947618100720917885, guid: 4028b89ed39d22c41ac3e022b975a41f,
        type: 3}
      propertyPath: m_AnchoredPosition.x
      value: 0
      objectReference: {fileID: 0}
    - target: {fileID: 1947618100720917885, guid: 4028b89ed39d22c41ac3e022b975a41f,
        type: 3}
      propertyPath: m_AnchoredPosition.y
      value: 0
      objectReference: {fileID: 0}
    - target: {fileID: 1947618100720917885, guid: 4028b89ed39d22c41ac3e022b975a41f,
        type: 3}
      propertyPath: m_LocalEulerAnglesHint.x
      value: 0
      objectReference: {fileID: 0}
    - target: {fileID: 1947618100720917885, guid: 4028b89ed39d22c41ac3e022b975a41f,
        type: 3}
      propertyPath: m_LocalEulerAnglesHint.y
      value: 0
      objectReference: {fileID: 0}
    - target: {fileID: 1947618100720917885, guid: 4028b89ed39d22c41ac3e022b975a41f,
        type: 3}
      propertyPath: m_LocalEulerAnglesHint.z
      value: 0
      objectReference: {fileID: 0}
    - target: {fileID: 1955826429232284981, guid: 4028b89ed39d22c41ac3e022b975a41f,
        type: 3}
      propertyPath: m_Sprite
      value: 
      objectReference: {fileID: 21300000, guid: 0c86934d35e29f347a468b556c2d4b4d,
        type: 3}
    - target: {fileID: 2737393674067191803, guid: 4028b89ed39d22c41ac3e022b975a41f,
        type: 3}
      propertyPath: m_Sprite
      value: 
      objectReference: {fileID: 21300000, guid: 225ba5252020f7e49ae7897506f3b031,
        type: 3}
    - target: {fileID: 3289918249055627222, guid: 4028b89ed39d22c41ac3e022b975a41f,
        type: 3}
      propertyPath: m_Sprite
      value: 
      objectReference: {fileID: 21300000, guid: 4644b7ad0242d3e428bfcea0d09f2a04,
        type: 3}
    - target: {fileID: 5005840789186820873, guid: 4028b89ed39d22c41ac3e022b975a41f,
        type: 3}
      propertyPath: m_Sprite
      value: 
      objectReference: {fileID: 21300000, guid: 3cdfe7892f9cbdb4f8cc0df020bbbfa7,
        type: 3}
    - target: {fileID: 5208263701225233231, guid: 4028b89ed39d22c41ac3e022b975a41f,
        type: 3}
      propertyPath: m_Sprite
      value: 
      objectReference: {fileID: 21300000, guid: d927766099349ce458e52c74b5959447,
        type: 3}
    - target: {fileID: 5924370189723683835, guid: 4028b89ed39d22c41ac3e022b975a41f,
        type: 3}
      propertyPath: m_Sprite
      value: 
      objectReference: {fileID: 21300000, guid: 786f9128f8208d34bb26e72d3d0b9a6f,
        type: 3}
    - target: {fileID: 6304999807031127107, guid: 4028b89ed39d22c41ac3e022b975a41f,
        type: 3}
      propertyPath: m_Sprite
      value: 
      objectReference: {fileID: 21300000, guid: d74f4e33bfdd1644097ffd13f7264806,
        type: 3}
    - target: {fileID: 6357417723946143954, guid: 4028b89ed39d22c41ac3e022b975a41f,
        type: 3}
      propertyPath: m_Sprite
      value: 
      objectReference: {fileID: 21300000, guid: b7c81e3b59be86d4e9aca932d5fab111,
        type: 3}
    m_RemovedComponents: []
  m_SourcePrefab: {fileID: 100100000, guid: 4028b89ed39d22c41ac3e022b975a41f, type: 3}
