%YAML 1.1
%TAG !u! tag:unity3d.com,2011:
--- !u!114 &11400000
MonoBehaviour:
  m_ObjectHideFlags: 0
  m_CorrespondingSourceObject: {fileID: 0}
  m_PrefabInstance: {fileID: 0}
  m_PrefabAsset: {fileID: 0}
  m_GameObject: {fileID: 0}
  m_Enabled: 1
  m_EditorHideFlags: 0
  m_Script: {fileID: 11500000, guid: f1b3b4b945939a54ea0b23d3396115fb, type: 3}
  m_Name: Spine Cactus_SkeletonData
  m_EditorClassIdentifier: 
  atlasAssets:
  - {fileID: 11400000, guid: d89dd1f3c1fdce14ca48bf6cb4987ecd, type: 2}
  scale: 0.01
  skeletonJSON: {fileID: 4900000, guid: e0aa0c13236b9d34296612ef59c40749, type: 3}
  isUpgradingBlendModeMaterials: 0
  blendModeMaterials:
    requiresBlendModeMaterials: 0
    applyAdditiveMaterial: 0
    additiveMaterials: []
    multiplyMaterials: []
    screenMaterials: []
  skeletonDataModifiers: []
  fromAnimation: []
  toAnimation: []
  duration: []
  defaultMix: 0.2
  controller: {fileID: 0}
