%YAML 1.1
%TAG !u! tag:unity3d.com,2011:
--- !u!687078895 &4343727234628468602
SpriteAtlas:
  m_ObjectHideFlags: 0
  m_CorrespondingSourceObject: {fileID: 0}
  m_PrefabInstance: {fileID: 0}
  m_PrefabAsset: {fileID: 0}
  m_Name: Background - Sunken Island
  m_EditorData:
    serializedVersion: 2
    textureSettings:
      serializedVersion: 2
      anisoLevel: 1
      compressionQuality: 50
      maxTextureSize: 2048
      textureCompression: 0
      filterMode: 1
      generateMipMaps: 0
      readable: 0
      crunchedCompression: 0
      sRGB: 1
    platformSettings:
    - serializedVersion: 3
      m_BuildTarget: DefaultTexturePlatform
      m_MaxTextureSize: 4096
      m_ResizeAlgorithm: 0
      m_TextureFormat: -1
      m_TextureCompression: 1
      m_CompressionQuality: 50
      m_CrunchedCompression: 0
      m_AllowsAlphaSplitting: 0
      m_Overridden: 0
      m_IgnorePlatformSupport: 0
      m_AndroidETC2FallbackOverride: 0
      m_ForceMaximumCompressionQuality_BC6H_BC7: 0
    packingSettings:
      serializedVersion: 2
      padding: 4
      blockOffset: 1
      allowAlphaSplitting: 0
      enableRotation: 0
      enableTightPacking: 1
      enableAlphaDilation: 0
    secondaryTextureSettings: {}
    variantMultiplier: 1
    packables:
    - {fileID: 2800000, guid: bb720ed90feaa8d4a94af6cf0535fdfd, type: 3}
    - {fileID: 2800000, guid: 46b0001c2228cd64a88e04c0b07b5899, type: 3}
    - {fileID: 2800000, guid: d83ee74807d0b1e4ea900d77fc449ef6, type: 3}
    - {fileID: 2800000, guid: 28aea86cc702dbe458d75a2d0247fc58, type: 3}
    - {fileID: 2800000, guid: b7b2e14778a829248a56a34b046a37bc, type: 3}
    - {fileID: 2800000, guid: fe02eb40a647cc04494c06281e04c84b, type: 3}
    - {fileID: 2800000, guid: 3ae6c0b14a22a3244b448a6a3da209dc, type: 3}
    - {fileID: 2800000, guid: f97c4ea2fd0a32f4e96278598838de05, type: 3}
    - {fileID: 2800000, guid: 618f091cbf0e66242ad6074d191fe136, type: 3}
    - {fileID: 2800000, guid: 0c853006f6c2aa246bb86efa53b53d19, type: 3}
    - {fileID: 2800000, guid: 32c011b5479ea5042b11e98006c6ca9e, type: 3}
    - {fileID: 2800000, guid: a189dc5e7cc8e2b489cd377eea836200, type: 3}
    - {fileID: 2800000, guid: 6243ed8922d23a343a5947d5654419eb, type: 3}
    - {fileID: 2800000, guid: 71171a0423afe8e43b2eabca6f17b572, type: 3}
    - {fileID: 2800000, guid: 1e7a2b0f87f65e84088e271c46cb31d3, type: 3}
    - {fileID: 2800000, guid: 2dd2925b154116149bff3fd356a81707, type: 3}
    - {fileID: 2800000, guid: ccc2b061d23d9f040924c65f73304866, type: 3}
    - {fileID: 2800000, guid: 4512cb582d6a7ad4ba73947e37334cbe, type: 3}
    - {fileID: 2800000, guid: c619f74c9ebed904d89b52ff3e54fbf0, type: 3}
    - {fileID: 2800000, guid: b01a394178302644ab0a40c4c597a09b, type: 3}
    - {fileID: 2800000, guid: 7b08432b440f29f4da5c541dc44a4d9f, type: 3}
    - {fileID: 2800000, guid: f8db7326945d92241ad901b865031e83, type: 3}
    - {fileID: 2800000, guid: 0bb7cc230e9fef24fa542b02d69db2f1, type: 3}
    - {fileID: 2800000, guid: bfb9c24c47f71584caacd1175a4f3aa7, type: 3}
    - {fileID: 2800000, guid: 4f0c06817b152d4498f449f64302a367, type: 3}
    - {fileID: 2800000, guid: c1f3f331706a22c49a2e4e80d321de11, type: 3}
    - {fileID: 2800000, guid: bb35cb8b7ce5cc74698a7033c67aab42, type: 3}
    - {fileID: 2800000, guid: 334cf292823690c429188b196ab28991, type: 3}
    - {fileID: 2800000, guid: 7ba7cc5c25c50414aba865b66271801f, type: 3}
    - {fileID: 2800000, guid: db6acae1e85ae2d4fa89ae13b457f3e4, type: 3}
    - {fileID: 2800000, guid: 96ad8675fdaa7bb438a5c0df21d989e8, type: 3}
    bindAsDefault: 1
    isAtlasV2: 0
    cachedData: {fileID: 0}
    packedSpriteRenderDataKeys:
    - fe02eb40a647cc04494c06281e04c84b: 21300000
    - c1f3f331706a22c49a2e4e80d321de11: 21300000
    - b01a394178302644ab0a40c4c597a09b: 21300000
    - ccc2b061d23d9f040924c65f73304866: 21300000
    - 4f0c06817b152d4498f449f64302a367: 21300000
    - 3ae6c0b14a22a3244b448a6a3da209dc: 21300000
    - db6acae1e85ae2d4fa89ae13b457f3e4: 21300000
    - 334cf292823690c429188b196ab28991: 21300000
    - f97c4ea2fd0a32f4e96278598838de05: 21300000
    - 0bb7cc230e9fef24fa542b02d69db2f1: 21300000
    - 71171a0423afe8e43b2eabca6f17b572: 21300000
    - 96ad8675fdaa7bb438a5c0df21d989e8: 21300000
    - 32c011b5479ea5042b11e98006c6ca9e: 21300000
    - 0c853006f6c2aa246bb86efa53b53d19: 21300000
    - f8db7326945d92241ad901b865031e83: 21300000
    - b7b2e14778a829248a56a34b046a37bc: 21300000
    - d83ee74807d0b1e4ea900d77fc449ef6: 21300000
    - 4512cb582d6a7ad4ba73947e37334cbe: 21300000
    - 6243ed8922d23a343a5947d5654419eb: 21300000
    - bb720ed90feaa8d4a94af6cf0535fdfd: 21300000
    - 7b08432b440f29f4da5c541dc44a4d9f: 21300000
    - 2dd2925b154116149bff3fd356a81707: 21300000
    - bb35cb8b7ce5cc74698a7033c67aab42: 21300000
    - 46b0001c2228cd64a88e04c0b07b5899: 21300000
    - 618f091cbf0e66242ad6074d191fe136: 21300000
    - bfb9c24c47f71584caacd1175a4f3aa7: 21300000
    - c619f74c9ebed904d89b52ff3e54fbf0: 21300000
    - 7ba7cc5c25c50414aba865b66271801f: 21300000
    - 28aea86cc702dbe458d75a2d0247fc58: 21300000
    - a189dc5e7cc8e2b489cd377eea836200: 21300000
    - 1e7a2b0f87f65e84088e271c46cb31d3: 21300000
  m_MasterAtlas: {fileID: 0}
  m_PackedSprites:
  - {fileID: 21300000, guid: fe02eb40a647cc04494c06281e04c84b, type: 3}
  - {fileID: 21300000, guid: c1f3f331706a22c49a2e4e80d321de11, type: 3}
  - {fileID: 21300000, guid: b01a394178302644ab0a40c4c597a09b, type: 3}
  - {fileID: 21300000, guid: ccc2b061d23d9f040924c65f73304866, type: 3}
  - {fileID: 21300000, guid: 4f0c06817b152d4498f449f64302a367, type: 3}
  - {fileID: 21300000, guid: 3ae6c0b14a22a3244b448a6a3da209dc, type: 3}
  - {fileID: 21300000, guid: db6acae1e85ae2d4fa89ae13b457f3e4, type: 3}
  - {fileID: 21300000, guid: 334cf292823690c429188b196ab28991, type: 3}
  - {fileID: 21300000, guid: f97c4ea2fd0a32f4e96278598838de05, type: 3}
  - {fileID: 21300000, guid: 0bb7cc230e9fef24fa542b02d69db2f1, type: 3}
  - {fileID: 21300000, guid: 71171a0423afe8e43b2eabca6f17b572, type: 3}
  - {fileID: 21300000, guid: 96ad8675fdaa7bb438a5c0df21d989e8, type: 3}
  - {fileID: 21300000, guid: 32c011b5479ea5042b11e98006c6ca9e, type: 3}
  - {fileID: 21300000, guid: 0c853006f6c2aa246bb86efa53b53d19, type: 3}
  - {fileID: 21300000, guid: f8db7326945d92241ad901b865031e83, type: 3}
  - {fileID: 21300000, guid: b7b2e14778a829248a56a34b046a37bc, type: 3}
  - {fileID: 21300000, guid: d83ee74807d0b1e4ea900d77fc449ef6, type: 3}
  - {fileID: 21300000, guid: 4512cb582d6a7ad4ba73947e37334cbe, type: 3}
  - {fileID: 21300000, guid: 6243ed8922d23a343a5947d5654419eb, type: 3}
  - {fileID: 21300000, guid: bb720ed90feaa8d4a94af6cf0535fdfd, type: 3}
  - {fileID: 21300000, guid: 7b08432b440f29f4da5c541dc44a4d9f, type: 3}
  - {fileID: 21300000, guid: 2dd2925b154116149bff3fd356a81707, type: 3}
  - {fileID: 21300000, guid: bb35cb8b7ce5cc74698a7033c67aab42, type: 3}
  - {fileID: 21300000, guid: 46b0001c2228cd64a88e04c0b07b5899, type: 3}
  - {fileID: 21300000, guid: 618f091cbf0e66242ad6074d191fe136, type: 3}
  - {fileID: 21300000, guid: bfb9c24c47f71584caacd1175a4f3aa7, type: 3}
  - {fileID: 21300000, guid: c619f74c9ebed904d89b52ff3e54fbf0, type: 3}
  - {fileID: 21300000, guid: 7ba7cc5c25c50414aba865b66271801f, type: 3}
  - {fileID: 21300000, guid: 28aea86cc702dbe458d75a2d0247fc58, type: 3}
  - {fileID: 21300000, guid: a189dc5e7cc8e2b489cd377eea836200, type: 3}
  - {fileID: 21300000, guid: 1e7a2b0f87f65e84088e271c46cb31d3, type: 3}
  m_PackedSpriteNamesToIndex:
  - bubbles
  - WATER_BG_3
  - SHIP
  - PALMTREE_2_underwater
  - WATER_BG_2
  - CLOUD_small1
  - WATER_BG_UNDER_2
  - water_bg_colour_2
  - CLOUD_small2
  - UNDERWATER
  - FURTHER_skullmountain_underwater
  - WATER_BG_UNDER_3
  - FURTHER_mountain2
  - FURTHER_mountain1
  - SKY
  - BRIDGE_underwater
  - BIG_cloud_bg
  - PALMTREE_underwater
  - FURTHER_skullmountain
  - BG_ship_wip3
  - SHIP_underwater
  - PALMTREE_2
  - water_bg_colour_1
  - bg_sunkenisland
  - CLOUD_small3
  - WATER_BG
  - PILLARS
  - WATER_BG_UNDER
  - BRIDGE
  - FURTHER_mountain3
  - PALMTREE
  m_RenderDataMap: {}
  m_Tag: Background - Sunken Island
  m_IsVariant: 0
