%YAML 1.1
%TAG !u! tag:unity3d.com,2011:
--- !u!687078895 &4343727234628468602
SpriteAtlas:
  m_ObjectHideFlags: 0
  m_CorrespondingSourceObject: {fileID: 0}
  m_PrefabInstance: {fileID: 0}
  m_PrefabAsset: {fileID: 0}
  m_Name: Items - Rainy Ruins
  m_EditorData:
    serializedVersion: 2
    textureSettings:
      serializedVersion: 2
      anisoLevel: 1
      compressionQuality: 50
      maxTextureSize: 2048
      textureCompression: 0
      filterMode: 1
      generateMipMaps: 0
      readable: 0
      crunchedCompression: 0
      sRGB: 1
    platformSettings: []
    packingSettings:
      serializedVersion: 2
      padding: 4
      blockOffset: 1
      allowAlphaSplitting: 0
      enableRotation: 1
      enableTightPacking: 1
      enableAlphaDilation: 0
    secondaryTextureSettings: {}
    variantMultiplier: 1
    packables:
    - {fileID: 102900000, guid: 0597ccad2fce5416a8ce5d442cae5277, type: 3}
    - {fileID: 102900000, guid: c0d96405ae5d24032ab50f127b81469f, type: 3}
    - {fileID: 102900000, guid: 1e27ddb13e6ad42339411bf728e57530, type: 3}
    - {fileID: 102900000, guid: 7c51de68dcac4ae49846d08a7b68e0cb, type: 3}
    - {fileID: 102900000, guid: 5d53a7472cfce34488d50609e9e9a185, type: 3}
    - {fileID: 102900000, guid: f6ce6e19949e4c0479a202da7e9b4bb2, type: 3}
    bindAsDefault: 1
    isAtlasV2: 0
    cachedData: {fileID: 0}
    packedSpriteRenderDataKeys:
    - 93efbb1060c0cba4a83e98eb08df0604: 21300000
    - d73ddc10a1105c7418825c7b0618cfe0: 21300000
    - 68f54330689c1e743929c7ff91fa5ed9: 21300000
    - c4e116607cfe162468ca6813750b9de1: 21300000
    - f8769e70904e14249a571118ecd0ce75: 21300000
    - 63985f80f7b7f0a4984879ac39179e0e: 21300000
    - a8f640f03bda3f840a534a7e111d18d7: 21300000
    - 6bbbfb31a8a4f944ba30455731854b15: 21300000
    - 7d8865713ce46a245aab86f362dd48d4: 21300000
    - eb580ba1a876c594f898a3b91d182368: 21300000
    - 638be6d142c78524bb7781d668643a1a: 21300000
    - 0b872ad12ac42df4b9a3f910c677b5ce: 21300000
    - 11cb3342be45c01459f8a7b8065dea9a: 21300000
    - cee120927979fc246b9fc3d1c2d5c4ad: 21300000
    - 653f3d335d582fc4fb0e38d4a577899b: 21300000
    - ab54e853dd87bf64fab7171c59176f79: 21300000
    - 61a92c536627796419610ddadc79a334: 21300000
    - 4baf0f53d6f57c441ba935c8c34ea999: 21300000
    - 88b84a63a3c3f9849b754a63a97d8586: 21300000
    - ef879593d64cc4e42bd7852391e1cd66: 21300000
    - 95d324b31c19b1e4883799335470ef8a: 21300000
    - 0c3aee042c5adc848964e75aa4d87df6: 21300000
    - 995b1b54caef9884c82b8109244d65a7: 21300000
    - b8942ac41ac934c4f946d70052a790eb: 21300000
    - 1c4d3925c7e6fc647bbc711184fc1d49: 21300000
    - 370ffa550e7b7294bb1438d4f798944a: 21300000
    - 7adaa7c5b26ea734582f70ccb13a2882: 21300000
    - 8c720cd549f80a4428217e4a95659207: 21300000
    - 8ed853e523f70e84d9a4e0a67974c538: 21300000
    - eee966e54bdd9064682feaca6ef2c86f: 21300000
    - 7a4f1ae5c1ea7974f9a95cc0fcc68241: 21300000
    - 5feadae50f179544ea23dd84e933227e: 21300000
    - fe45dce562604704ba45b2135ee139fb: 21300000
    - 4428c0469c926d8439fe6d1e8f07fb4b: 21300000
    - cd9b71567f5442a408098e08a18f9307: 21300000
    - ad3d1c56a1b9c8f41acdd7725b49124b: 21300000
    - a80d40667d7a715429e6299a65f4bef1: 21300000
    - 9d27c0667ca724c49b178556f1995d3e: 21300000
    - 361e97e6c2e388b4fa0882146d8add5a: 21300000
    - 64706f07e06eef54ab1a7695a7b39500: 21300000
    - abd7d5277d47019489714c271e45885f: 21300000
    - 00ab67271d61ce74d950f128b8eb3921: 21300000
    - f2d869470b3cc0c448d2d97e26120fcf: 21300000
    - ce3a05776916f88449283c20b218d394: 21300000
    - 7359ef77f6348344ea3497393235843b: 21300000
    - 059476d70e9c71e4daeb64d01723a7c2: 21300000
    - 17ccdae765aa7a44cbd9eb20d6ddae47: 21300000
    - 6f2d7c289d23c20469feaa15dd92f44b: 21300000
    - 238cc048aa00b494ea54ac7933c218a3: 21300000
    - 024f68685adb31547ac4a23e3a56dcf3: 21300000
    - 6d0ded6845c7bb242896e012ebabf183: 21300000
    - 50d2b078fc0b36d478330e73087a5c42: 21300000
    - 3adc7a8802b35c14ab03004d55e2cc95: 21300000
    - 44d180e88eb2db943ac3686dee2a79e2: 21300000
    - 5b44aef8309d4b54b878664c95f0b41a: 21300000
    - 73baa919034d48044902939aef2cf23a: 21300000
    - c748db7987fa7df4e848e091c03e3222: 21300000
    - b2880eb96e6beea4eb8e001bdf4c2e89: 21300000
    - ab6b04e9facbfda408697e0327796c23: 21300000
    - 312cc7e9959ad77479d4df4852af251d: 21300000
    - 7939150a619b2ab4b942a6a7ed6540cc: 21300000
    - 95afdd4ab5d16bc499e566d4d5166d12: 21300000
    - 7155f08a4e10a5e408236592dda214ff: 21300000
    - 85d0e7aaf198b4841908dec8bccf1de1: 21300000
    - 9db597da5069d1d48a047a73db5b3937: 21300000
    - 8e709fda89de68344a1d4ca17f6dfa5e: 21300000
    - b58395ea972528e4a9de117a7c27d3ed: 21300000
    - 9ff1b41be697f3e499d3dfb0c9d40536: 21300000
    - 478cc51badc01c34da80bd6c651a1776: 21300000
    - e0cd561b7b89aaa4cac9cd8a6ed6097f: 21300000
    - 56830d6b1c846a243b967c1a4c288307: 21300000
    - 78d6401c2ac807f4f84b237ec8ce1b14: 21300000
    - 514b954c9dd403b42bbefde8be7a327d: 21300000
    - 5cd20a6c12006734cb966235b19a2d41: 21300000
    - 4b8392bc944b6e141acc7dd3e5524328: 21300000
    - c4a0f9bc846b5d04c826175a2f00d646: 21300000
    - 5ad923cca5eb2944696d3511c63abd6f: 21300000
    - 7818e6fc8075d124ca155e115c4fc66b: 21300000
    - 52fc722d9e4c3034983f50f7497f12a4: 21300000
    - 770db82d4a5815e4a9f42def56a3fd00: 21300000
    - b4e90e8d4bd747c42a1fb9663ac05ec5: 21300000
    - 993ec6bd1dd5ed94a8b3dc77c95b0c64: 21300000
    - ddb6730ed4b04014c8e2927870a2ded0: 21300000
    - 1350bb2e91f26404597530fc17b2fccb: 21300000
    - a5d7d94e8f9aaa24da0c8d705b76fea4: 21300000
    - 47b70d5eee0e3924d93eaef5123feebd: 21300000
    - 466cc16e3ee226148b2db93f6843198d: 21300000
    - acf0a08ec033ed74e9d7600a584bb615: 21300000
    - 3b8ba9be54bced54783e7806f31d50f4: 21300000
    - 951174ceae72b6e4e89967f42c793757: 21300000
    - 2681000fe5188ab44975f151dfe59d61: 21300000
    - d7d6711fcc4e159478f46a6c480cf559: 21300000
    - 03dbe61ff8da97f4c96ec7127143c285: 21300000
    - 534c153fe0afc1b4baca3a8961710138: 21300000
    - efc9687fe818df847b0f875a9ccc39d3: 21300000
    - 32e7128f4ba3bbf49adb7732a06b9641: 21300000
    - ef39468ff8672f24da9c0b73bb1c53c6: 21300000
    - 20b2519f6070d7c42970b7027f4e8d05: 21300000
    - b1fab3dfbaffa8f47a4f3e2578c1666c: 21300000
  m_MasterAtlas: {fileID: 0}
  m_PackedSprites:
  - {fileID: 21300000, guid: 93efbb1060c0cba4a83e98eb08df0604, type: 3}
  - {fileID: 21300000, guid: d73ddc10a1105c7418825c7b0618cfe0, type: 3}
  - {fileID: 21300000, guid: 68f54330689c1e743929c7ff91fa5ed9, type: 3}
  - {fileID: 21300000, guid: c4e116607cfe162468ca6813750b9de1, type: 3}
  - {fileID: 21300000, guid: f8769e70904e14249a571118ecd0ce75, type: 3}
  - {fileID: 21300000, guid: 63985f80f7b7f0a4984879ac39179e0e, type: 3}
  - {fileID: 21300000, guid: a8f640f03bda3f840a534a7e111d18d7, type: 3}
  - {fileID: 21300000, guid: 6bbbfb31a8a4f944ba30455731854b15, type: 3}
  - {fileID: 21300000, guid: 7d8865713ce46a245aab86f362dd48d4, type: 3}
  - {fileID: 21300000, guid: eb580ba1a876c594f898a3b91d182368, type: 3}
  - {fileID: 21300000, guid: 638be6d142c78524bb7781d668643a1a, type: 3}
  - {fileID: 21300000, guid: 0b872ad12ac42df4b9a3f910c677b5ce, type: 3}
  - {fileID: 21300000, guid: 11cb3342be45c01459f8a7b8065dea9a, type: 3}
  - {fileID: 21300000, guid: cee120927979fc246b9fc3d1c2d5c4ad, type: 3}
  - {fileID: 21300000, guid: 653f3d335d582fc4fb0e38d4a577899b, type: 3}
  - {fileID: 21300000, guid: ab54e853dd87bf64fab7171c59176f79, type: 3}
  - {fileID: 21300000, guid: 61a92c536627796419610ddadc79a334, type: 3}
  - {fileID: 21300000, guid: 4baf0f53d6f57c441ba935c8c34ea999, type: 3}
  - {fileID: 21300000, guid: 88b84a63a3c3f9849b754a63a97d8586, type: 3}
  - {fileID: 21300000, guid: ef879593d64cc4e42bd7852391e1cd66, type: 3}
  - {fileID: 21300000, guid: 95d324b31c19b1e4883799335470ef8a, type: 3}
  - {fileID: 21300000, guid: 0c3aee042c5adc848964e75aa4d87df6, type: 3}
  - {fileID: 21300000, guid: 995b1b54caef9884c82b8109244d65a7, type: 3}
  - {fileID: 21300000, guid: b8942ac41ac934c4f946d70052a790eb, type: 3}
  - {fileID: 21300000, guid: 1c4d3925c7e6fc647bbc711184fc1d49, type: 3}
  - {fileID: 21300000, guid: 370ffa550e7b7294bb1438d4f798944a, type: 3}
  - {fileID: 21300000, guid: 7adaa7c5b26ea734582f70ccb13a2882, type: 3}
  - {fileID: 21300000, guid: 8c720cd549f80a4428217e4a95659207, type: 3}
  - {fileID: 21300000, guid: 8ed853e523f70e84d9a4e0a67974c538, type: 3}
  - {fileID: 21300000, guid: eee966e54bdd9064682feaca6ef2c86f, type: 3}
  - {fileID: 21300000, guid: 7a4f1ae5c1ea7974f9a95cc0fcc68241, type: 3}
  - {fileID: 21300000, guid: 5feadae50f179544ea23dd84e933227e, type: 3}
  - {fileID: 21300000, guid: fe45dce562604704ba45b2135ee139fb, type: 3}
  - {fileID: 21300000, guid: 4428c0469c926d8439fe6d1e8f07fb4b, type: 3}
  - {fileID: 21300000, guid: cd9b71567f5442a408098e08a18f9307, type: 3}
  - {fileID: 21300000, guid: ad3d1c56a1b9c8f41acdd7725b49124b, type: 3}
  - {fileID: 21300000, guid: a80d40667d7a715429e6299a65f4bef1, type: 3}
  - {fileID: 21300000, guid: 9d27c0667ca724c49b178556f1995d3e, type: 3}
  - {fileID: 21300000, guid: 361e97e6c2e388b4fa0882146d8add5a, type: 3}
  - {fileID: 21300000, guid: 64706f07e06eef54ab1a7695a7b39500, type: 3}
  - {fileID: 21300000, guid: abd7d5277d47019489714c271e45885f, type: 3}
  - {fileID: 21300000, guid: 00ab67271d61ce74d950f128b8eb3921, type: 3}
  - {fileID: 21300000, guid: f2d869470b3cc0c448d2d97e26120fcf, type: 3}
  - {fileID: 21300000, guid: ce3a05776916f88449283c20b218d394, type: 3}
  - {fileID: 21300000, guid: 7359ef77f6348344ea3497393235843b, type: 3}
  - {fileID: 21300000, guid: 059476d70e9c71e4daeb64d01723a7c2, type: 3}
  - {fileID: 21300000, guid: 17ccdae765aa7a44cbd9eb20d6ddae47, type: 3}
  - {fileID: 21300000, guid: 6f2d7c289d23c20469feaa15dd92f44b, type: 3}
  - {fileID: 21300000, guid: 238cc048aa00b494ea54ac7933c218a3, type: 3}
  - {fileID: 21300000, guid: 024f68685adb31547ac4a23e3a56dcf3, type: 3}
  - {fileID: 21300000, guid: 6d0ded6845c7bb242896e012ebabf183, type: 3}
  - {fileID: 21300000, guid: 50d2b078fc0b36d478330e73087a5c42, type: 3}
  - {fileID: 21300000, guid: 3adc7a8802b35c14ab03004d55e2cc95, type: 3}
  - {fileID: 21300000, guid: 44d180e88eb2db943ac3686dee2a79e2, type: 3}
  - {fileID: 21300000, guid: 5b44aef8309d4b54b878664c95f0b41a, type: 3}
  - {fileID: 21300000, guid: 73baa919034d48044902939aef2cf23a, type: 3}
  - {fileID: 21300000, guid: c748db7987fa7df4e848e091c03e3222, type: 3}
  - {fileID: 21300000, guid: b2880eb96e6beea4eb8e001bdf4c2e89, type: 3}
  - {fileID: 21300000, guid: ab6b04e9facbfda408697e0327796c23, type: 3}
  - {fileID: 21300000, guid: 312cc7e9959ad77479d4df4852af251d, type: 3}
  - {fileID: 21300000, guid: 7939150a619b2ab4b942a6a7ed6540cc, type: 3}
  - {fileID: 21300000, guid: 95afdd4ab5d16bc499e566d4d5166d12, type: 3}
  - {fileID: 21300000, guid: 7155f08a4e10a5e408236592dda214ff, type: 3}
  - {fileID: 21300000, guid: 85d0e7aaf198b4841908dec8bccf1de1, type: 3}
  - {fileID: 21300000, guid: 9db597da5069d1d48a047a73db5b3937, type: 3}
  - {fileID: 21300000, guid: 8e709fda89de68344a1d4ca17f6dfa5e, type: 3}
  - {fileID: 21300000, guid: b58395ea972528e4a9de117a7c27d3ed, type: 3}
  - {fileID: 21300000, guid: 9ff1b41be697f3e499d3dfb0c9d40536, type: 3}
  - {fileID: 21300000, guid: 478cc51badc01c34da80bd6c651a1776, type: 3}
  - {fileID: 21300000, guid: e0cd561b7b89aaa4cac9cd8a6ed6097f, type: 3}
  - {fileID: 21300000, guid: 56830d6b1c846a243b967c1a4c288307, type: 3}
  - {fileID: 21300000, guid: 78d6401c2ac807f4f84b237ec8ce1b14, type: 3}
  - {fileID: 21300000, guid: 514b954c9dd403b42bbefde8be7a327d, type: 3}
  - {fileID: 21300000, guid: 5cd20a6c12006734cb966235b19a2d41, type: 3}
  - {fileID: 21300000, guid: 4b8392bc944b6e141acc7dd3e5524328, type: 3}
  - {fileID: 21300000, guid: c4a0f9bc846b5d04c826175a2f00d646, type: 3}
  - {fileID: 21300000, guid: 5ad923cca5eb2944696d3511c63abd6f, type: 3}
  - {fileID: 21300000, guid: 7818e6fc8075d124ca155e115c4fc66b, type: 3}
  - {fileID: 21300000, guid: 52fc722d9e4c3034983f50f7497f12a4, type: 3}
  - {fileID: 21300000, guid: 770db82d4a5815e4a9f42def56a3fd00, type: 3}
  - {fileID: 21300000, guid: b4e90e8d4bd747c42a1fb9663ac05ec5, type: 3}
  - {fileID: 21300000, guid: 993ec6bd1dd5ed94a8b3dc77c95b0c64, type: 3}
  - {fileID: 21300000, guid: ddb6730ed4b04014c8e2927870a2ded0, type: 3}
  - {fileID: 21300000, guid: 1350bb2e91f26404597530fc17b2fccb, type: 3}
  - {fileID: 21300000, guid: a5d7d94e8f9aaa24da0c8d705b76fea4, type: 3}
  - {fileID: 21300000, guid: 47b70d5eee0e3924d93eaef5123feebd, type: 3}
  - {fileID: 21300000, guid: 466cc16e3ee226148b2db93f6843198d, type: 3}
  - {fileID: 21300000, guid: acf0a08ec033ed74e9d7600a584bb615, type: 3}
  - {fileID: 21300000, guid: 3b8ba9be54bced54783e7806f31d50f4, type: 3}
  - {fileID: 21300000, guid: 951174ceae72b6e4e89967f42c793757, type: 3}
  - {fileID: 21300000, guid: 2681000fe5188ab44975f151dfe59d61, type: 3}
  - {fileID: 21300000, guid: d7d6711fcc4e159478f46a6c480cf559, type: 3}
  - {fileID: 21300000, guid: 03dbe61ff8da97f4c96ec7127143c285, type: 3}
  - {fileID: 21300000, guid: 534c153fe0afc1b4baca3a8961710138, type: 3}
  - {fileID: 21300000, guid: efc9687fe818df847b0f875a9ccc39d3, type: 3}
  - {fileID: 21300000, guid: 32e7128f4ba3bbf49adb7732a06b9641, type: 3}
  - {fileID: 21300000, guid: ef39468ff8672f24da9c0b73bb1c53c6, type: 3}
  - {fileID: 21300000, guid: 20b2519f6070d7c42970b7027f4e8d05, type: 3}
  - {fileID: 21300000, guid: b1fab3dfbaffa8f47a4f3e2578c1666c, type: 3}
  m_PackedSpriteNamesToIndex:
  - bamboo leaf 1
  - spear_spitter_11
  - bamboo_leaf2.012
  - rope knot
  - bamboo_leaf2.013
  - bamboo leaf 2
  - spear_spitter_07
  - boulder entrance left 2
  - spear_spitter_04
  - bamboo_10
  - bamboo_leaf.003
  - bamboo_leaf2.014
  - bamboo_leaf2.008
  - editor_boulder_entrance_left_2
  - spear_spitter_15
  - bamboo_leaf2.004
  - bamboo_12
  - rope pin
  - axe_ring
  - bamboo_leaf.006
  - bamboo_leaf.012
  - rope
  - bamboo_leaf.010
  - bamboo_06
  - bamboo_leaf.001
  - bamboo_leaf2.017
  - boulder entrance left
  - swinging_axe3
  - bamboo_leaf.014
  - spear_spitter_01
  - rope_fixed
  - bamboo_leaf.017
  - spear_flash_02
  - axe_anchor
  - bamboo_leaf.004
  - boulder entrance
  - rope end
  - bamboo_leaf.011
  - spear_spitter_03
  - bamboo_leaf2.002
  - bamboo_09
  - boulder entrance right 2
  - spear_spitter_14
  - boulder entrance middle
  - bamboo_leaf2.003
  - bamboo_leaf2.006
  - boulder entrance right
  - boulder entrance left 2
  - bamboo_leaf.015
  - swinging_axe6
  - spear_spitter_red_flash
  - spear
  - bamboo_leaf2.005
  - bamboo_leaf.009
  - bamboo_leaf2.009
  - bamboo_leaf.008
  - bamboo_leaf2.016
  - swinging_axe9
  - bamboo_leaf.007
  - spear_spitter_08
  - spear_spitter_06
  - spear_spitter_12
  - swinging_axe5
  - bamboo_leaf2.018
  - spear_spitter_05
  - boulder entrance middle
  - swinging_axe7
  - boulder entrance top
  - bamboo leaf 3
  - swinging_axe10
  - bamboo_11
  - bamboo_leaf2.011
  - bamboo_03
  - spear_spitter_10
  - bamboo_07
  - swinging_axe4
  - rope attach top
  - swinging_axe2
  - bamboo_05
  - bamboo_leaf.016
  - rope_free
  - bamboo_08
  - bamboo_leaf.013
  - swinging_axe8
  - bamboo_leaf.018
  - bamboo_leaf2.010
  - spear_spitter_09
  - swinging_axe1
  - bamboo_leaf2.007
  - editor_boulder_entrance_right_2
  - bamboo_leaf.002
  - bamboo_leaf2.015
  - boulder entrance
  - boulder entrance right 2
  - bamboo_leaf.005
  - editor_boulder_entrance_middle_2
  - spear_spitter_13
  - spear_spitter_02
  - rope attach right
  m_RenderDataMap: {}
  m_Tag: Items - Rainy Ruins
  m_IsVariant: 0
