%YAML 1.1
%TAG !u! tag:unity3d.com,2011:
--- !u!687078895 &4343727234628468602
SpriteAtlas:
  m_ObjectHideFlags: 0
  m_CorrespondingSourceObject: {fileID: 0}
  m_PrefabInstance: {fileID: 0}
  m_PrefabAsset: {fileID: 0}
  m_Name: Items - Checkpoint
  m_EditorData:
    serializedVersion: 2
    textureSettings:
      serializedVersion: 2
      anisoLevel: 1
      compressionQuality: 50
      maxTextureSize: 2048
      textureCompression: 0
      filterMode: 1
      generateMipMaps: 0
      readable: 0
      crunchedCompression: 0
      sRGB: 1
    platformSettings:
    - serializedVersion: 3
      m_BuildTarget: DefaultTexturePlatform
      m_MaxTextureSize: 2048
      m_ResizeAlgorithm: 0
      m_TextureFormat: -1
      m_TextureCompression: 1
      m_CompressionQuality: 50
      m_CrunchedCompression: 0
      m_AllowsAlphaSplitting: 0
      m_Overridden: 0
      m_IgnorePlatformSupport: 0
      m_AndroidETC2FallbackOverride: 0
      m_ForceMaximumCompressionQuality_BC6H_BC7: 0
    packingSettings:
      serializedVersion: 2
      padding: 4
      blockOffset: 1
      allowAlphaSplitting: 0
      enableRotation: 1
      enableTightPacking: 1
      enableAlphaDilation: 0
    secondaryTextureSettings: {}
    variantMultiplier: 1
    packables:
    - {fileID: 102900000, guid: b8b7286c51f6b44e99800bee8465818b, type: 3}
    - {fileID: 102900000, guid: 7e52d683a623f7640869de327c89068f, type: 3}
    - {fileID: 102900000, guid: b66011c6e3f78954fa8a0893233cdbbf, type: 3}
    - {fileID: 102900000, guid: d6d5eb35c1f0da74eb1c82615830c3a5, type: 3}
    - {fileID: 102900000, guid: 41d38d6458b66464c83a0ab941e13287, type: 3}
    - {fileID: 102900000, guid: 72fd798366f588548a56fb57f5b2ba98, type: 3}
    bindAsDefault: 1
    isAtlasV2: 0
    cachedData: {fileID: 0}
    packedSpriteRenderDataKeys:
    - 3c6c5500f6ca22543ac2dd74d0a7032d: 21300000
    - 07b265005fbbb99419387f91013b56d4: 21300000
    - 67b7421017cd62d49899ae53a5ea73be: 21300000
    - 5e431d10d536fc64fbb53bef06bef571: 21300000
    - 75723e10eeb7151439843487a3095c3e: 21300000
    - a7690440f198af94db89e1b79e8ae6bc: 21300000
    - 9a833f70cba03474d914bdb39c121198: 21300000
    - e432d480d581e464094da8903600a24d: 21300000
    - 0b3abf90536d5f54892fcfa13dec7201: 21300000
    - c7a685a03290d8546b6024b7441b1945: 21300000
    - f28cc9b0b04b3544788da6ed47ad7912: 21300000
    - 18a74eb0bbc450641a41c99960f2b67d: 21300000
    - 859a46c087cd39a4bb148523755a6044: 21300000
    - d4e893f0eb97812488d3911e4224c47f: 21300000
    - d097e9f041599874c863d59aac011569: 21300000
    - 98f54b010b423b646848f52683267ca3: 21300000
    - 685ebe11c49d67d48a2fcd93a654bd29: 21300000
    - 5e07c9317458d2d40bc8fbfe68dcec6d: 21300000
    - 292c2a3110db46341b9838839876f874: 21300000
    - 3184468138f906145a9859fd2fd14783: 21300000
    - b958c8b124bc7d24bb6d2d732c218145: 21300000
    - 7878c7e15e596794a92598e5147e90b1: 21300000
    - 531769e16ec37094683205c41f9d5b46: 21300000
    - 05c3dcf156a213040af9348ca4fc7796: 21300000
    - be819942384b0424d98784c536a37fb1: 21300000
    - 30d0b7628b4742b409da3d3b1de5f656: 21300000
    - ac3dbf62ae5fe1945ae16393027613d6: 21300000
    - 9f0d9503d5a46f544b7446e4e9a640fd: 21300000
    - 35303053f5d5e6e48b9eb3d5932e18fb: 21300000
    - 4dd17c73aad9fd74a82ba37a10c77e6a: 21300000
    - bafba583983eb7344bddc6e05dc70be3: 21300000
    - 3bf40d834adb4c84285245116f88cff7: 21300000
    - b7a51e83bd36b7446bc68409300b23a4: 21300000
    - e70d6ca36bd7074438828cd4b498cea1: 21300000
    - 7d7ebdd38e25c6548b44e48026edff8a: 21300000
    - c11569f3d9632c24a8666494baa599d8: 21300000
    - 3dc09104bfdb20944a27d79c5ab5a02d: 21300000
    - 782796147f54cc8429146860187e9715: 21300000
    - 125b6434f5c73ba42aaeb9c3adfed0a1: 21300000
    - 244e42c4ea7b59649a0f0bdb127f023d: 21300000
    - 29498dc43debf464d851de60ccb78ea5: 21300000
    - b85e52e4f26d93a46a304601764dc59c: 21300000
    - e78c07e413d92194da151e421de22e23: 21300000
    - 539137e4f42ae2942a94d58721e2b3f9: 21300000
    - 44fd3df4d019a3e448f29d5b3d8dd0fe: 21300000
    - 73eaa71508f91604caf890fe872374bd: 21300000
    - 5ec15f1503c929e46a3a6a739da0a36f: 21300000
    - 9567ff35496f20f4daaf4fe88ede336f: 21300000
    - 8c7513451ac82b544ae85bdd7686b8f2: 21300000
    - 10e36a4556d31bd49913598bad57c862: 21300000
    - 16931155dcbbee44388d4e5f4fe56798: 21300000
    - 090e52655d9cd7f4991bb1a07cabb27c: 21300000
    - 27ae4f85dab94ef42891edc949001289: 21300000
    - e5eaedd5b5d545547ba60d8a6c3c753f: 21300000
    - f51bf3f592e873b4db980aa90d3f0baa: 21300000
    - 936ebc56dd1d8e343aa9e7ba75179f56: 21300000
    - 4021bba612fd9464cb2dd07bbac2f61f: 21300000
    - 34bc14d640b63d14ab8742fcc2df9a7b: 21300000
    - 468b84d68d07bc348987426606857cf2: 21300000
    - 4d7e47d61d1d6d94a934e81c191985b3: 21300000
    - 74f019d67dd31ea4294a5b1c12c14c21: 21300000
    - 692e4ef6302d5e443aa7023d0368205b: 21300000
    - c58abc07cd151b140882fbbb9f88d84d: 21300000
    - 33077d071b63d6a4a85648acf785fe04: 21300000
    - d72282172b722d749b7fdac855201e2a: 21300000
    - c0e7a657386d8d3428a0275f2084e399: 21300000
    - e3f65e57420d92d4e81b0a049f3f1459: 21300000
    - 2898d867a7d94fd47b05793681d66576: 21300000
    - 7c2faaa785eb4ad4fa495ff6bd9b66ce: 21300000
    - 505acda7b50663b4ca312d03cecb7d60: 21300000
    - 4c9a72b7a8a84a84a866711fb0782db4: 21300000
    - 72418e2813598e149987118a50b4f91b: 21300000
    - 9cd7e3381679af541a3a23cd74160fed: 21300000
    - 7ea01638b6fffb3419c52eb5952cd7f9: 21300000
    - fdc8126891fda9843a15220c1b4acdc8: 21300000
    - 8168bf98d5d52524a8570f8ae2570ef0: 21300000
    - bc5f34090a7e9c64b957b66edd605c5b: 21300000
    - ff9f69193c45db84fa5e16c3efea2dd5: 21300000
    - bc751829556cea94880306b3049da55d: 21300000
    - 35b31539447aeaa47ae6677803abeae8: 21300000
    - 3d14cd39baf4c044c94cb63ca855f315: 21300000
    - 97fe5549e74130c48b3d987fcd74c1c0: 21300000
    - 91901579d3711744e8bd9e88a7871896: 21300000
    - 4e10e18986b93784c8a009fdf6f3c9e3: 21300000
    - e9370ca97d81bba48b698ea3ea2a5fff: 21300000
    - a55fc6b94ca1daf42838979bc21486aa: 21300000
    - d52fc9c960777e44d97e6936b1dddc39: 21300000
    - a8598a0af5245964e836a7d1cdfd2ebd: 21300000
    - 7546166a51b207042a5226be0f4a6500: 21300000
    - 065cfa7a032d48d47854a6c3078a72a3: 21300000
    - 166375aa053bc1b4aa39aad38ceb89b4: 21300000
    - 3716830b8362fb84cbdf8124c2099f27: 21300000
    - ceb8b50b3041e8f439f93dc162342487: 21300000
    - 8bfb5a2bda7a27f4080d99b3a1909ccd: 21300000
    - 5357563b78f0646b8bdf45187a85777d: 21300000
    - 769e2b3ba96af9143ae2bbba52d087e3: 21300000
    - b9e1d15b25ee5c744899b097b51cae49: 21300000
    - 7dc8306b7480f6045965901562bdce59: 21300000
    - 3f7cc16bbda10174eb06a99896f824e6: 21300000
    - 714d847b380975d48836c09ac9e885cc: 21300000
    - 9acfbb9b0e60c5a4da484364bc91b916: 21300000
    - 8572e3bb35c6b46a597798ab94e6661c: 21300000
    - 337becbbc5ce26e4a8251ef3bd5f46d3: 21300000
    - 930e57fb197bdf044b289d3094fb62e8: 21300000
    - bc082ffb626596f459beb6cad7afbda5: 21300000
    - 6d0f742c8e797124bb888c63f2c00eac: 21300000
    - 7b75ff4ce8c88544b8f6dd4b1d102d42: 21300000
    - 7032b15cf5fab8f439e5cbf576e48891: 21300000
    - f494986c6191f644caf9df6ffee957d5: 21300000
    - ad29d97c21466694ea4c279f060558d6: 21300000
    - 064d1e9c60a222c498fc54d40c1cbd25: 21300000
    - 98c9a5ac296ad7644a8d9e0578168341: 21300000
    - f1bd37ccf2647a64e9fa5dfde2c13b60: 21300000
    - b55ed9cc0d51021469e573d009c5e0ae: 21300000
    - 3e7f0bdcfb57e7c4dbc74c7da400beb0: 21300000
    - 6f0c75fc7fd68de49aa9bed22794cbb2: 21300000
    - 70d6c21dd8df01c4da5e0267fdbb1b19: 21300000
    - bef6851da6800214abf4d42b14c9c926: 21300000
    - 6cb88a3d001426f43bb79bfe8af72004: 21300000
    - 9d84559d914bbf743860703c74cc20cb: 21300000
    - 9c44c4cdcfaef1942a3cad0ef3a23258: 21300000
    - 3ac505cdcd9c34942bfd8ccfd764a28b: 21300000
    - d7ce14ddb1c49cd428a1d30bcfb37372: 21300000
    - c32014fdd632a354c906de17d896709b: 21300000
    - b7cf458ea0e6ad745a6f608c0dd93450: 21300000
    - cec7a88e7f2fd1849b8278a43371ba73: 21300000
    - 194edb8eca04e2c49bb07c9028bc0f1b: 21300000
    - 1625f4ae6cd4aae449828863cdc090a8: 21300000
    - 162aa6becf1c7c84c88d08a0d6c62006: 21300000
    - c0be54de85e51dd46a5617f5a629035d: 21300000
    - 09e8f7dea39fc6940b62418d626ceec0: 21300000
    - 88a4d3ee0d767e647b10328eb677928a: 21300000
    - e07cd2fedfab22744a9ef996b4e60af4: 21300000
    - 8bacb3fe4344c264f9fb52d1adccd141: 21300000
    - fac7c70f538c1df49a9b4ed87622b508: 21300000
    - f5c5171fab36fcb43b202613e887ea5b: 21300000
    - b1cb0d1f8cb0e99469909f60bc6b7e3e: 21300000
    - df8d7f1f8cde64049aad6aa61aa46bb7: 21300000
    - 1304c53fcb557024a89cab404531077f: 21300000
    - d21a864f83e760b4691d9b7852c62d07: 21300000
    - 47c2fa4f1f0427e479efae83baaba605: 21300000
    - 8fd6105f63fe86e4aa1a73b3556f3ac7: 21300000
    - d46daf5fa543c9d419ba39193c91fdd9: 21300000
    - b96e518f14dd37941a2ad119a254b4e0: 21300000
    - d611f2bf79c7b0245a4693876d81e860: 21300000
    - 6c2e0bbfea85b934a931144c3ec0964f: 21300000
    - 4af3eccfc632f67429ab3d3350d3222c: 21300000
    - 9b3175df956d8c049a684dd1ce62882a: 21300000
    - b6f3f6efcdd32c8409374e288188637e: 21300000
  m_MasterAtlas: {fileID: 0}
  m_PackedSprites:
  - {fileID: 21300000, guid: 3c6c5500f6ca22543ac2dd74d0a7032d, type: 3}
  - {fileID: 21300000, guid: 07b265005fbbb99419387f91013b56d4, type: 3}
  - {fileID: 21300000, guid: 67b7421017cd62d49899ae53a5ea73be, type: 3}
  - {fileID: 21300000, guid: 5e431d10d536fc64fbb53bef06bef571, type: 3}
  - {fileID: 21300000, guid: 75723e10eeb7151439843487a3095c3e, type: 3}
  - {fileID: 21300000, guid: a7690440f198af94db89e1b79e8ae6bc, type: 3}
  - {fileID: 21300000, guid: 9a833f70cba03474d914bdb39c121198, type: 3}
  - {fileID: 21300000, guid: e432d480d581e464094da8903600a24d, type: 3}
  - {fileID: 21300000, guid: 0b3abf90536d5f54892fcfa13dec7201, type: 3}
  - {fileID: 21300000, guid: c7a685a03290d8546b6024b7441b1945, type: 3}
  - {fileID: 21300000, guid: f28cc9b0b04b3544788da6ed47ad7912, type: 3}
  - {fileID: 21300000, guid: 18a74eb0bbc450641a41c99960f2b67d, type: 3}
  - {fileID: 21300000, guid: 859a46c087cd39a4bb148523755a6044, type: 3}
  - {fileID: 21300000, guid: d4e893f0eb97812488d3911e4224c47f, type: 3}
  - {fileID: 21300000, guid: d097e9f041599874c863d59aac011569, type: 3}
  - {fileID: 21300000, guid: 98f54b010b423b646848f52683267ca3, type: 3}
  - {fileID: 21300000, guid: 685ebe11c49d67d48a2fcd93a654bd29, type: 3}
  - {fileID: 21300000, guid: 5e07c9317458d2d40bc8fbfe68dcec6d, type: 3}
  - {fileID: 21300000, guid: 292c2a3110db46341b9838839876f874, type: 3}
  - {fileID: 21300000, guid: 3184468138f906145a9859fd2fd14783, type: 3}
  - {fileID: 21300000, guid: b958c8b124bc7d24bb6d2d732c218145, type: 3}
  - {fileID: 21300000, guid: 7878c7e15e596794a92598e5147e90b1, type: 3}
  - {fileID: 21300000, guid: 531769e16ec37094683205c41f9d5b46, type: 3}
  - {fileID: 21300000, guid: 05c3dcf156a213040af9348ca4fc7796, type: 3}
  - {fileID: 21300000, guid: be819942384b0424d98784c536a37fb1, type: 3}
  - {fileID: 21300000, guid: 30d0b7628b4742b409da3d3b1de5f656, type: 3}
  - {fileID: 21300000, guid: ac3dbf62ae5fe1945ae16393027613d6, type: 3}
  - {fileID: 21300000, guid: 9f0d9503d5a46f544b7446e4e9a640fd, type: 3}
  - {fileID: 21300000, guid: 35303053f5d5e6e48b9eb3d5932e18fb, type: 3}
  - {fileID: 21300000, guid: 4dd17c73aad9fd74a82ba37a10c77e6a, type: 3}
  - {fileID: 21300000, guid: bafba583983eb7344bddc6e05dc70be3, type: 3}
  - {fileID: 21300000, guid: 3bf40d834adb4c84285245116f88cff7, type: 3}
  - {fileID: 21300000, guid: b7a51e83bd36b7446bc68409300b23a4, type: 3}
  - {fileID: 21300000, guid: e70d6ca36bd7074438828cd4b498cea1, type: 3}
  - {fileID: 21300000, guid: 7d7ebdd38e25c6548b44e48026edff8a, type: 3}
  - {fileID: 21300000, guid: c11569f3d9632c24a8666494baa599d8, type: 3}
  - {fileID: 21300000, guid: 3dc09104bfdb20944a27d79c5ab5a02d, type: 3}
  - {fileID: 21300000, guid: 782796147f54cc8429146860187e9715, type: 3}
  - {fileID: 21300000, guid: 125b6434f5c73ba42aaeb9c3adfed0a1, type: 3}
  - {fileID: 21300000, guid: 244e42c4ea7b59649a0f0bdb127f023d, type: 3}
  - {fileID: 21300000, guid: 29498dc43debf464d851de60ccb78ea5, type: 3}
  - {fileID: 21300000, guid: b85e52e4f26d93a46a304601764dc59c, type: 3}
  - {fileID: 21300000, guid: e78c07e413d92194da151e421de22e23, type: 3}
  - {fileID: 21300000, guid: 539137e4f42ae2942a94d58721e2b3f9, type: 3}
  - {fileID: 21300000, guid: 44fd3df4d019a3e448f29d5b3d8dd0fe, type: 3}
  - {fileID: 21300000, guid: 73eaa71508f91604caf890fe872374bd, type: 3}
  - {fileID: 21300000, guid: 5ec15f1503c929e46a3a6a739da0a36f, type: 3}
  - {fileID: 21300000, guid: 9567ff35496f20f4daaf4fe88ede336f, type: 3}
  - {fileID: 21300000, guid: 8c7513451ac82b544ae85bdd7686b8f2, type: 3}
  - {fileID: 21300000, guid: 10e36a4556d31bd49913598bad57c862, type: 3}
  - {fileID: 21300000, guid: 16931155dcbbee44388d4e5f4fe56798, type: 3}
  - {fileID: 21300000, guid: 090e52655d9cd7f4991bb1a07cabb27c, type: 3}
  - {fileID: 21300000, guid: 27ae4f85dab94ef42891edc949001289, type: 3}
  - {fileID: 21300000, guid: e5eaedd5b5d545547ba60d8a6c3c753f, type: 3}
  - {fileID: 21300000, guid: f51bf3f592e873b4db980aa90d3f0baa, type: 3}
  - {fileID: 21300000, guid: 936ebc56dd1d8e343aa9e7ba75179f56, type: 3}
  - {fileID: 21300000, guid: 4021bba612fd9464cb2dd07bbac2f61f, type: 3}
  - {fileID: 21300000, guid: 34bc14d640b63d14ab8742fcc2df9a7b, type: 3}
  - {fileID: 21300000, guid: 468b84d68d07bc348987426606857cf2, type: 3}
  - {fileID: 21300000, guid: 4d7e47d61d1d6d94a934e81c191985b3, type: 3}
  - {fileID: 21300000, guid: 74f019d67dd31ea4294a5b1c12c14c21, type: 3}
  - {fileID: 21300000, guid: 692e4ef6302d5e443aa7023d0368205b, type: 3}
  - {fileID: 21300000, guid: c58abc07cd151b140882fbbb9f88d84d, type: 3}
  - {fileID: 21300000, guid: 33077d071b63d6a4a85648acf785fe04, type: 3}
  - {fileID: 21300000, guid: d72282172b722d749b7fdac855201e2a, type: 3}
  - {fileID: 21300000, guid: c0e7a657386d8d3428a0275f2084e399, type: 3}
  - {fileID: 21300000, guid: e3f65e57420d92d4e81b0a049f3f1459, type: 3}
  - {fileID: 21300000, guid: 2898d867a7d94fd47b05793681d66576, type: 3}
  - {fileID: 21300000, guid: 7c2faaa785eb4ad4fa495ff6bd9b66ce, type: 3}
  - {fileID: 21300000, guid: 505acda7b50663b4ca312d03cecb7d60, type: 3}
  - {fileID: 21300000, guid: 4c9a72b7a8a84a84a866711fb0782db4, type: 3}
  - {fileID: 21300000, guid: 72418e2813598e149987118a50b4f91b, type: 3}
  - {fileID: 21300000, guid: 9cd7e3381679af541a3a23cd74160fed, type: 3}
  - {fileID: 21300000, guid: 7ea01638b6fffb3419c52eb5952cd7f9, type: 3}
  - {fileID: 21300000, guid: fdc8126891fda9843a15220c1b4acdc8, type: 3}
  - {fileID: 21300000, guid: 8168bf98d5d52524a8570f8ae2570ef0, type: 3}
  - {fileID: 21300000, guid: bc5f34090a7e9c64b957b66edd605c5b, type: 3}
  - {fileID: 21300000, guid: ff9f69193c45db84fa5e16c3efea2dd5, type: 3}
  - {fileID: 21300000, guid: bc751829556cea94880306b3049da55d, type: 3}
  - {fileID: 21300000, guid: 35b31539447aeaa47ae6677803abeae8, type: 3}
  - {fileID: 21300000, guid: 3d14cd39baf4c044c94cb63ca855f315, type: 3}
  - {fileID: 21300000, guid: 97fe5549e74130c48b3d987fcd74c1c0, type: 3}
  - {fileID: 21300000, guid: 91901579d3711744e8bd9e88a7871896, type: 3}
  - {fileID: 21300000, guid: 4e10e18986b93784c8a009fdf6f3c9e3, type: 3}
  - {fileID: 21300000, guid: e9370ca97d81bba48b698ea3ea2a5fff, type: 3}
  - {fileID: 21300000, guid: a55fc6b94ca1daf42838979bc21486aa, type: 3}
  - {fileID: 21300000, guid: d52fc9c960777e44d97e6936b1dddc39, type: 3}
  - {fileID: 21300000, guid: a8598a0af5245964e836a7d1cdfd2ebd, type: 3}
  - {fileID: 21300000, guid: 7546166a51b207042a5226be0f4a6500, type: 3}
  - {fileID: 21300000, guid: 065cfa7a032d48d47854a6c3078a72a3, type: 3}
  - {fileID: 21300000, guid: 166375aa053bc1b4aa39aad38ceb89b4, type: 3}
  - {fileID: 21300000, guid: 3716830b8362fb84cbdf8124c2099f27, type: 3}
  - {fileID: 21300000, guid: ceb8b50b3041e8f439f93dc162342487, type: 3}
  - {fileID: 21300000, guid: 8bfb5a2bda7a27f4080d99b3a1909ccd, type: 3}
  - {fileID: 21300000, guid: 5357563b78f0646b8bdf45187a85777d, type: 3}
  - {fileID: 21300000, guid: 769e2b3ba96af9143ae2bbba52d087e3, type: 3}
  - {fileID: 21300000, guid: b9e1d15b25ee5c744899b097b51cae49, type: 3}
  - {fileID: 21300000, guid: 7dc8306b7480f6045965901562bdce59, type: 3}
  - {fileID: 21300000, guid: 3f7cc16bbda10174eb06a99896f824e6, type: 3}
  - {fileID: 21300000, guid: 714d847b380975d48836c09ac9e885cc, type: 3}
  - {fileID: 21300000, guid: 9acfbb9b0e60c5a4da484364bc91b916, type: 3}
  - {fileID: 21300000, guid: 8572e3bb35c6b46a597798ab94e6661c, type: 3}
  - {fileID: 21300000, guid: 337becbbc5ce26e4a8251ef3bd5f46d3, type: 3}
  - {fileID: 21300000, guid: 930e57fb197bdf044b289d3094fb62e8, type: 3}
  - {fileID: 21300000, guid: bc082ffb626596f459beb6cad7afbda5, type: 3}
  - {fileID: 21300000, guid: 6d0f742c8e797124bb888c63f2c00eac, type: 3}
  - {fileID: 21300000, guid: 7b75ff4ce8c88544b8f6dd4b1d102d42, type: 3}
  - {fileID: 21300000, guid: 7032b15cf5fab8f439e5cbf576e48891, type: 3}
  - {fileID: 21300000, guid: f494986c6191f644caf9df6ffee957d5, type: 3}
  - {fileID: 21300000, guid: ad29d97c21466694ea4c279f060558d6, type: 3}
  - {fileID: 21300000, guid: 064d1e9c60a222c498fc54d40c1cbd25, type: 3}
  - {fileID: 21300000, guid: 98c9a5ac296ad7644a8d9e0578168341, type: 3}
  - {fileID: 21300000, guid: f1bd37ccf2647a64e9fa5dfde2c13b60, type: 3}
  - {fileID: 21300000, guid: b55ed9cc0d51021469e573d009c5e0ae, type: 3}
  - {fileID: 21300000, guid: 3e7f0bdcfb57e7c4dbc74c7da400beb0, type: 3}
  - {fileID: 21300000, guid: 6f0c75fc7fd68de49aa9bed22794cbb2, type: 3}
  - {fileID: 21300000, guid: 70d6c21dd8df01c4da5e0267fdbb1b19, type: 3}
  - {fileID: 21300000, guid: bef6851da6800214abf4d42b14c9c926, type: 3}
  - {fileID: 21300000, guid: 6cb88a3d001426f43bb79bfe8af72004, type: 3}
  - {fileID: 21300000, guid: 9d84559d914bbf743860703c74cc20cb, type: 3}
  - {fileID: 21300000, guid: 9c44c4cdcfaef1942a3cad0ef3a23258, type: 3}
  - {fileID: 21300000, guid: 3ac505cdcd9c34942bfd8ccfd764a28b, type: 3}
  - {fileID: 21300000, guid: d7ce14ddb1c49cd428a1d30bcfb37372, type: 3}
  - {fileID: 21300000, guid: c32014fdd632a354c906de17d896709b, type: 3}
  - {fileID: 21300000, guid: b7cf458ea0e6ad745a6f608c0dd93450, type: 3}
  - {fileID: 21300000, guid: cec7a88e7f2fd1849b8278a43371ba73, type: 3}
  - {fileID: 21300000, guid: 194edb8eca04e2c49bb07c9028bc0f1b, type: 3}
  - {fileID: 21300000, guid: 1625f4ae6cd4aae449828863cdc090a8, type: 3}
  - {fileID: 21300000, guid: 162aa6becf1c7c84c88d08a0d6c62006, type: 3}
  - {fileID: 21300000, guid: c0be54de85e51dd46a5617f5a629035d, type: 3}
  - {fileID: 21300000, guid: 09e8f7dea39fc6940b62418d626ceec0, type: 3}
  - {fileID: 21300000, guid: 88a4d3ee0d767e647b10328eb677928a, type: 3}
  - {fileID: 21300000, guid: e07cd2fedfab22744a9ef996b4e60af4, type: 3}
  - {fileID: 21300000, guid: 8bacb3fe4344c264f9fb52d1adccd141, type: 3}
  - {fileID: 21300000, guid: fac7c70f538c1df49a9b4ed87622b508, type: 3}
  - {fileID: 21300000, guid: f5c5171fab36fcb43b202613e887ea5b, type: 3}
  - {fileID: 21300000, guid: b1cb0d1f8cb0e99469909f60bc6b7e3e, type: 3}
  - {fileID: 21300000, guid: df8d7f1f8cde64049aad6aa61aa46bb7, type: 3}
  - {fileID: 21300000, guid: 1304c53fcb557024a89cab404531077f, type: 3}
  - {fileID: 21300000, guid: d21a864f83e760b4691d9b7852c62d07, type: 3}
  - {fileID: 21300000, guid: 47c2fa4f1f0427e479efae83baaba605, type: 3}
  - {fileID: 21300000, guid: 8fd6105f63fe86e4aa1a73b3556f3ac7, type: 3}
  - {fileID: 21300000, guid: d46daf5fa543c9d419ba39193c91fdd9, type: 3}
  - {fileID: 21300000, guid: b96e518f14dd37941a2ad119a254b4e0, type: 3}
  - {fileID: 21300000, guid: d611f2bf79c7b0245a4693876d81e860, type: 3}
  - {fileID: 21300000, guid: 6c2e0bbfea85b934a931144c3ec0964f, type: 3}
  - {fileID: 21300000, guid: 4af3eccfc632f67429ab3d3350d3222c, type: 3}
  - {fileID: 21300000, guid: 9b3175df956d8c049a684dd1ce62882a, type: 3}
  - {fileID: 21300000, guid: b6f3f6efcdd32c8409374e288188637e, type: 3}
  m_PackedSpriteNamesToIndex:
  - standard rosette
  - evolve_04_white
  - bulb_glow_08
  - checkpoint-smack_4
  - bulb_glow_05
  - green_stopwatch_02
  - juice_rise.002
  - evolve_01_white
  - coin_sparkle_05
  - coin_sparkle_05
  - juice_rise.001
  - blade_spin_04
  - pole_base
  - blade_spin_03
  - flag_idle_10
  - evolve_01
  - pole-shine_10
  - arrow_hang
  - checkpoint-smack_3
  - pole
  - banner_standard end
  - coin_sparkle_02
  - trophy_sparkle_05
  - juice_rise.003
  - checkpoint-smack_6
  - checkpoint-smack_1
  - blade_spin_07
  - checkpoint_small light
  - green_stopwatch_01
  - juice_blend2.004
  - flag_idle_13
  - juice_steady.001
  - blender_base
  - flag_unfold_02
  - blade_spin_08
  - bulb_glow_09
  - pole-shine_1
  - coin_sparkle_04
  - juice_blend.005
  - pole-shine_3
  - pole-shine_11
  - ray_spears.006
  - blender_pole
  - bulb_glow_03
  - flag_idle_02
  - trophy_sparkle_02
  - evolve_05_white
  - banner_bronze middle
  - blade_spin_01
  - flag_idle_11
  - pole-shine_5
  - juice_blend2.005
  - checkpoint_lightbeam large
  - evolve_05
  - ray_spears.003
  - trophy_sparkle_04
  - checkpoint_light beam small
  - flag_idle_09
  - juice_steady.003
  - pole-shine_2
  - pole-shine_4
  - evolve_04
  - banner_standard middle
  - bronze rosette
  - trophy_sparkle_01
  - evolve_02
  - evolve_03_white
  - checkpoint-smack_5
  - evolve_03
  - ray_spears.004
  - coin_sparkle_04
  - flag_idle_08
  - flag_unfold_01
  - ray_spears.002
  - checkpoint-smack_2
  - juice_steady.005
  - pole-shine_8
  - checkpoint_big light
  - coin_sparkle_01
  - blade_spin_05
  - flag_unfold_03
  - bulb_glow_01
  - coin_sparkle_01
  - checkpoint-smack_6
  - banner_standard shadow
  - checkpoint-smack_2
  - blade_spin_06
  - banner_gold shadow
  - banner_silver shadow
  - blender_bulb
  - pole-shine_9
  - juice_steady.004
  - ray_spears.005
  - checkpoint-smack_3
  - checkpoint
  - trophy_sparkle_03
  - pole-shine_7
  - flag_unfold_06
  - flag_idle_12
  - evolve_02_white
  - trophy_sparkle_06
  - star
  - checkpoint-smack_4
  - flag_unfold_05
  - flag_idle_01
  - juice_blend2.002
  - juice_rise.004
  - juice_blend.004
  - juice_steady.002
  - bulb_glow_10
  - juice_blend.006
  - juice_blend2.001
  - juice_steady.006
  - bulb_glow_06
  - flag_idle_03
  - blender_single
  - pole-shine_6
  - juice_rise.005
  - banner_gold middle
  - coin_sparkle_03
  - bulb_glow_07
  - flag_idle_14
  - checkpoint-smack_1
  - bulb_glow_02
  - bulb_glow_04
  - ray_spears.001
  - blade_spin_02
  - juice_blend.007
  - flag_idle_07
  - coin_sparkle_03
  - flag_idle_06
  - flag_idle_05
  - banner_silver middle
  - trophy_sparkle_07
  - checkpoint-smack_5
  - flag_idle_04
  - green_stopwatch_03
  - juice_blend.003
  - juice_blend2.003
  - Ray_1
  - banner_gold end
  - banner_bronze shadow
  - banner_silver end
  - coin_sparkle_02
  - silver rosette
  - banner_bronze end
  - gold rosette
  - flag_unfold_04
  - checkpoint arrow
  m_RenderDataMap: {}
  m_Tag: Items - Checkpoint
  m_IsVariant: 0
