%YAML 1.1
%TAG !u! tag:unity3d.com,2011:
--- !u!687078895 &4343727234628468602
SpriteAtlas:
  m_ObjectHideFlags: 0
  m_CorrespondingSourceObject: {fileID: 0}
  m_PrefabInstance: {fileID: 0}
  m_PrefabAsset: {fileID: 0}
  m_Name: Items - Referee
  m_EditorData:
    serializedVersion: 2
    textureSettings:
      serializedVersion: 2
      anisoLevel: 1
      compressionQuality: 50
      maxTextureSize: 2048
      textureCompression: 0
      filterMode: 1
      generateMipMaps: 0
      readable: 0
      crunchedCompression: 0
      sRGB: 1
    platformSettings: []
    packingSettings:
      serializedVersion: 2
      padding: 4
      blockOffset: 1
      allowAlphaSplitting: 0
      enableRotation: 1
      enableTightPacking: 1
      enableAlphaDilation: 0
    secondaryTextureSettings: {}
    variantMultiplier: 1
    packables:
    - {fileID: 102900000, guid: 2e7dc0b4fd984b34c8e2371df9761b0a, type: 3}
    bindAsDefault: 1
    isAtlasV2: 0
    cachedData: {fileID: 0}
    packedSpriteRenderDataKeys:
    - 2576f23067e06d94a869e715e0993405: 21300000
    - 16d92d30b18504e4aa58b2645dee6cff: 21300000
    - 502c485009886324b969b4b05f92798f: 21300000
    - 4c20a2b08dc0e1342842d17f20eea737: 21300000
    - 997e8101e5d623e468782d0377ffcb96: 21300000
    - f05b97317452a8f4099f57f4213dff51: 21300000
    - 59285991da5173c40a778194a83aab05: 21300000
    - ca158272af08bcc4fb572a0776072e0f: 21300000
    - 0f20d3a2b9faf0746b82d7e49f859200: 21300000
    - de25aac29713ab74581f25b3cf770c62: 21300000
    - a5baf7d2fd1a472478c3faf51325c7bd: 21300000
    - 9533ebe26ecce824ea7ee3f3c0b949a9: 21300000
    - e3184df2bf22d8b46ab28094b2c6d1b5: 21300000
    - 06fb9f23814666f49a323f2cdf32b0b4: 21300000
    - 82c318439d153fd41bddac43b9e677d5: 21300000
    - b4985293c50677549bd86ae02df4bfe7: 21300000
    - 9f83c1c3d22406e41ac9cba3460c6eda: 21300000
    - 68569bd38464869469fb8af3ae1e14a4: 21300000
    - 6cf949e3b42784640906c71458222a03: 21300000
    - 31400ee30cc84534782a28af9299ed28: 21300000
    - 6b46e2a4ab3c3414fa9463c2fbb58d4b: 21300000
    - c8bc54b4c4b38fe46a437ad748c1f593: 21300000
    - 5cc537f45fd5c074888d0898a50ecfe6: 21300000
    - a6b987f4ff1473c42ae82dad39056c38: 21300000
    - 5bd5fb151d9d5654782390f36ec25046: 21300000
    - 8b2a346541d15684babd2b1cdf8fe38c: 21300000
    - b92649b5502329d46acfe494f2a07a6c: 21300000
    - 170f1ce5d34544d4392d36061b46c85c: 21300000
    - c5c0a426aa1951849b3b2ad702d92153: 21300000
    - 8c4d0fe6a9de3a44a941929556209a67: 21300000
    - 9298abf6d6813d84ab812df83717b27e: 21300000
    - 58aaf70798c1f60418d1f4b5ce9d7303: 21300000
    - 58dca547ee20b674a94c3a455e4b37f9: 21300000
    - 594a707709f9161409eb1f460a44b20e: 21300000
    - 0e891ea7bf740ec4dbc3a1f1a4862852: 21300000
    - effe24c793635864898e8e644fc057f5: 21300000
    - 1ac883d73205c174cbd48ac96b780b4d: 21300000
    - 52d177e787ef9b147b464cce8fb3503f: 21300000
    - 3a09a5f77d644934a9f904bd1b524c6a: 21300000
    - 5c44d008a2bd8d4428a1d9cd84ca5c20: 21300000
    - 61bf7708d97756849932c9cf5ac7ae3c: 21300000
    - 4b8d0478963b20d4f9335644bf04424c: 21300000
    - 2c345de822bae3c4cbba6e196aa75f59: 21300000
    - 67ab115970cdc9e4fb9a54376b07cb78: 21300000
    - 353de979fcdd49e46a887ae0b9f7a978: 21300000
    - 89ef3889184247f49a4a9fa152844eea: 21300000
    - 0a8ddc89d79528e49b888964a1fa80d9: 21300000
    - b2ac8df9f77215c4ba4aeb223229ad11: 21300000
    - 409eedf97cb26e54ab80e9ebd242a742: 21300000
    - e6a2440a4ecf4194b9a85aec34f201a0: 21300000
    - be85935afa1bfe84ea02f15948244e72: 21300000
    - f12a679a4ad6bdd4f966466aaf896ec6: 21300000
    - 2e71cd9adb8c3a949b4de039a60e05e5: 21300000
    - 72febfaa1cfb83c498ce0622eda79555: 21300000
    - 0e3fa1cae8b270749ab887592da76a34: 21300000
    - 2fc1ef8b277391348bdd242807e4dd75: 21300000
    - 9d0b4a9b6df701f4da0c8fe1b7da83df: 21300000
    - 6901fe1c040fabf468b3b48f733b46e3: 21300000
    - 516f8f6cd396e6d43be896b85c80a930: 21300000
    - 6d3aa39cdd99d474fb0428a7beacfa59: 21300000
    - f69b089c570b29c44834a31773da7b97: 21300000
    - c91d2dbc4eba6b74cb1edd5ebf8c88f1: 21300000
    - edccb1cc4201bc5428f503a8d41f07a3: 21300000
    - 132bee1dad56ebd44a24977d2ae40e66: 21300000
    - f1d0d43dbd121444fbb193c9ab33293e: 21300000
    - 417a4c7d3f4f8be40bab86bcc2f6ce68: 21300000
    - 80686a8d079643747bd74177a874d73d: 21300000
    - bee422bdbdad0ca47ad7fe5b1cfb2139: 21300000
    - a65357ddf2ef87743955addc38860bf8: 21300000
    - 4736c5fdeafb37f4d9109c9736e67045: 21300000
    - ad553c0e6cc915648b766306f52e1f92: 21300000
    - e96e8d2e26d37a045bfebd0709d7d97c: 21300000
    - c9ec6e2ed916c364399e55627abce664: 21300000
    - 33f7bc7e15987ae45b9e583477593981: 21300000
    - 443a238eb5d1c164eb4519f7db5a03cd: 21300000
    - 42a3a89ee589dca4a838d786ca841e75: 21300000
    - 2c45d3cef4b52424b8a7ca2dff917d2d: 21300000
    - 05bef01fa78a64143b2e9a13b6cfc86e: 21300000
    - 0fc9292f36086b34b91edefd79520f34: 21300000
    - 553e4d3fdd281eb4eb6e2d746de70c78: 21300000
    - 938c225f7e1d6fa4cad5e26c8f1a171f: 21300000
    - ddf9ad6fc78b91e4dbaaf78135ad33ac: 21300000
    - 55460e6ff5fcba149a5fec2142ffcfa4: 21300000
    - 3dd8877fe637a2c4ab2b1232d8a34f29: 21300000
    - 5334498f7053278439bc954c7b04720a: 21300000
    - cd1a998f08a01a342a6044f9b5d42d25: 21300000
    - eca046bf8c7a1f5418590b6ca873e2b1: 21300000
    - 69ffb2cf3c5059545b74b9747807157a: 21300000
    - 85a0a1ef223079f49b6cfb31c779769c: 21300000
  m_MasterAtlas: {fileID: 0}
  m_PackedSprites:
  - {fileID: 21300000, guid: 2576f23067e06d94a869e715e0993405, type: 3}
  - {fileID: 21300000, guid: 16d92d30b18504e4aa58b2645dee6cff, type: 3}
  - {fileID: 21300000, guid: 502c485009886324b969b4b05f92798f, type: 3}
  - {fileID: 21300000, guid: 4c20a2b08dc0e1342842d17f20eea737, type: 3}
  - {fileID: 21300000, guid: 997e8101e5d623e468782d0377ffcb96, type: 3}
  - {fileID: 21300000, guid: f05b97317452a8f4099f57f4213dff51, type: 3}
  - {fileID: 21300000, guid: 59285991da5173c40a778194a83aab05, type: 3}
  - {fileID: 21300000, guid: ca158272af08bcc4fb572a0776072e0f, type: 3}
  - {fileID: 21300000, guid: 0f20d3a2b9faf0746b82d7e49f859200, type: 3}
  - {fileID: 21300000, guid: de25aac29713ab74581f25b3cf770c62, type: 3}
  - {fileID: 21300000, guid: a5baf7d2fd1a472478c3faf51325c7bd, type: 3}
  - {fileID: 21300000, guid: 9533ebe26ecce824ea7ee3f3c0b949a9, type: 3}
  - {fileID: 21300000, guid: e3184df2bf22d8b46ab28094b2c6d1b5, type: 3}
  - {fileID: 21300000, guid: 06fb9f23814666f49a323f2cdf32b0b4, type: 3}
  - {fileID: 21300000, guid: 82c318439d153fd41bddac43b9e677d5, type: 3}
  - {fileID: 21300000, guid: b4985293c50677549bd86ae02df4bfe7, type: 3}
  - {fileID: 21300000, guid: 9f83c1c3d22406e41ac9cba3460c6eda, type: 3}
  - {fileID: 21300000, guid: 68569bd38464869469fb8af3ae1e14a4, type: 3}
  - {fileID: 21300000, guid: 6cf949e3b42784640906c71458222a03, type: 3}
  - {fileID: 21300000, guid: 31400ee30cc84534782a28af9299ed28, type: 3}
  - {fileID: 21300000, guid: 6b46e2a4ab3c3414fa9463c2fbb58d4b, type: 3}
  - {fileID: 21300000, guid: c8bc54b4c4b38fe46a437ad748c1f593, type: 3}
  - {fileID: 21300000, guid: 5cc537f45fd5c074888d0898a50ecfe6, type: 3}
  - {fileID: 21300000, guid: a6b987f4ff1473c42ae82dad39056c38, type: 3}
  - {fileID: 21300000, guid: 5bd5fb151d9d5654782390f36ec25046, type: 3}
  - {fileID: 21300000, guid: 8b2a346541d15684babd2b1cdf8fe38c, type: 3}
  - {fileID: 21300000, guid: b92649b5502329d46acfe494f2a07a6c, type: 3}
  - {fileID: 21300000, guid: 170f1ce5d34544d4392d36061b46c85c, type: 3}
  - {fileID: 21300000, guid: c5c0a426aa1951849b3b2ad702d92153, type: 3}
  - {fileID: 21300000, guid: 8c4d0fe6a9de3a44a941929556209a67, type: 3}
  - {fileID: 21300000, guid: 9298abf6d6813d84ab812df83717b27e, type: 3}
  - {fileID: 21300000, guid: 58aaf70798c1f60418d1f4b5ce9d7303, type: 3}
  - {fileID: 21300000, guid: 58dca547ee20b674a94c3a455e4b37f9, type: 3}
  - {fileID: 21300000, guid: 594a707709f9161409eb1f460a44b20e, type: 3}
  - {fileID: 21300000, guid: 0e891ea7bf740ec4dbc3a1f1a4862852, type: 3}
  - {fileID: 21300000, guid: effe24c793635864898e8e644fc057f5, type: 3}
  - {fileID: 21300000, guid: 1ac883d73205c174cbd48ac96b780b4d, type: 3}
  - {fileID: 21300000, guid: 52d177e787ef9b147b464cce8fb3503f, type: 3}
  - {fileID: 21300000, guid: 3a09a5f77d644934a9f904bd1b524c6a, type: 3}
  - {fileID: 21300000, guid: 5c44d008a2bd8d4428a1d9cd84ca5c20, type: 3}
  - {fileID: 21300000, guid: 61bf7708d97756849932c9cf5ac7ae3c, type: 3}
  - {fileID: 21300000, guid: 4b8d0478963b20d4f9335644bf04424c, type: 3}
  - {fileID: 21300000, guid: 2c345de822bae3c4cbba6e196aa75f59, type: 3}
  - {fileID: 21300000, guid: 67ab115970cdc9e4fb9a54376b07cb78, type: 3}
  - {fileID: 21300000, guid: 353de979fcdd49e46a887ae0b9f7a978, type: 3}
  - {fileID: 21300000, guid: 89ef3889184247f49a4a9fa152844eea, type: 3}
  - {fileID: 21300000, guid: 0a8ddc89d79528e49b888964a1fa80d9, type: 3}
  - {fileID: 21300000, guid: b2ac8df9f77215c4ba4aeb223229ad11, type: 3}
  - {fileID: 21300000, guid: 409eedf97cb26e54ab80e9ebd242a742, type: 3}
  - {fileID: 21300000, guid: e6a2440a4ecf4194b9a85aec34f201a0, type: 3}
  - {fileID: 21300000, guid: be85935afa1bfe84ea02f15948244e72, type: 3}
  - {fileID: 21300000, guid: f12a679a4ad6bdd4f966466aaf896ec6, type: 3}
  - {fileID: 21300000, guid: 2e71cd9adb8c3a949b4de039a60e05e5, type: 3}
  - {fileID: 21300000, guid: 72febfaa1cfb83c498ce0622eda79555, type: 3}
  - {fileID: 21300000, guid: 0e3fa1cae8b270749ab887592da76a34, type: 3}
  - {fileID: 21300000, guid: 2fc1ef8b277391348bdd242807e4dd75, type: 3}
  - {fileID: 21300000, guid: 9d0b4a9b6df701f4da0c8fe1b7da83df, type: 3}
  - {fileID: 21300000, guid: 6901fe1c040fabf468b3b48f733b46e3, type: 3}
  - {fileID: 21300000, guid: 516f8f6cd396e6d43be896b85c80a930, type: 3}
  - {fileID: 21300000, guid: 6d3aa39cdd99d474fb0428a7beacfa59, type: 3}
  - {fileID: 21300000, guid: f69b089c570b29c44834a31773da7b97, type: 3}
  - {fileID: 21300000, guid: c91d2dbc4eba6b74cb1edd5ebf8c88f1, type: 3}
  - {fileID: 21300000, guid: edccb1cc4201bc5428f503a8d41f07a3, type: 3}
  - {fileID: 21300000, guid: 132bee1dad56ebd44a24977d2ae40e66, type: 3}
  - {fileID: 21300000, guid: f1d0d43dbd121444fbb193c9ab33293e, type: 3}
  - {fileID: 21300000, guid: 417a4c7d3f4f8be40bab86bcc2f6ce68, type: 3}
  - {fileID: 21300000, guid: 80686a8d079643747bd74177a874d73d, type: 3}
  - {fileID: 21300000, guid: bee422bdbdad0ca47ad7fe5b1cfb2139, type: 3}
  - {fileID: 21300000, guid: a65357ddf2ef87743955addc38860bf8, type: 3}
  - {fileID: 21300000, guid: 4736c5fdeafb37f4d9109c9736e67045, type: 3}
  - {fileID: 21300000, guid: ad553c0e6cc915648b766306f52e1f92, type: 3}
  - {fileID: 21300000, guid: e96e8d2e26d37a045bfebd0709d7d97c, type: 3}
  - {fileID: 21300000, guid: c9ec6e2ed916c364399e55627abce664, type: 3}
  - {fileID: 21300000, guid: 33f7bc7e15987ae45b9e583477593981, type: 3}
  - {fileID: 21300000, guid: 443a238eb5d1c164eb4519f7db5a03cd, type: 3}
  - {fileID: 21300000, guid: 42a3a89ee589dca4a838d786ca841e75, type: 3}
  - {fileID: 21300000, guid: 2c45d3cef4b52424b8a7ca2dff917d2d, type: 3}
  - {fileID: 21300000, guid: 05bef01fa78a64143b2e9a13b6cfc86e, type: 3}
  - {fileID: 21300000, guid: 0fc9292f36086b34b91edefd79520f34, type: 3}
  - {fileID: 21300000, guid: 553e4d3fdd281eb4eb6e2d746de70c78, type: 3}
  - {fileID: 21300000, guid: 938c225f7e1d6fa4cad5e26c8f1a171f, type: 3}
  - {fileID: 21300000, guid: ddf9ad6fc78b91e4dbaaf78135ad33ac, type: 3}
  - {fileID: 21300000, guid: 55460e6ff5fcba149a5fec2142ffcfa4, type: 3}
  - {fileID: 21300000, guid: 3dd8877fe637a2c4ab2b1232d8a34f29, type: 3}
  - {fileID: 21300000, guid: 5334498f7053278439bc954c7b04720a, type: 3}
  - {fileID: 21300000, guid: cd1a998f08a01a342a6044f9b5d42d25, type: 3}
  - {fileID: 21300000, guid: eca046bf8c7a1f5418590b6ca873e2b1, type: 3}
  - {fileID: 21300000, guid: 69ffb2cf3c5059545b74b9747807157a, type: 3}
  - {fileID: 21300000, guid: 85a0a1ef223079f49b6cfb31c779769c, type: 3}
  m_PackedSpriteNamesToIndex:
  - ref_idle_fin.003
  - ref_blow_whistle.001
  - ref_blow_whistle.007
  - ref_blow_whistle.010
  - ref_idle_fin.001
  - bubble_wobble.002
  - ref_flag_wave_fin.003
  - ref_with_bubble.007
  - ref_blow_whistle.016
  - ref_blow_whistle.008
  - bubble_wobble.004
  - ref_flag_wave_fin.011
  - ref_fly.003
  - ref_chat.007
  - ref_blow_whistle.012
  - ref_flag_wave_fin.016
  - ref_flag_wave_fin.012
  - ref_flag_wave_fin.002
  - ref_blow_whistle.017
  - ref_blow_whistle.006
  - ref_with_bubble.005
  - ref_chat.003
  - ref_blow_whistle.005
  - bubble_wobble.005
  - ref_flag_wave_fin.004
  - ref_with_bubble.006
  - ref_blow_whistle.018
  - ref_fly.002
  - ref_with_bubble.001
  - ref_chat.005
  - ref_idle_fin.007
  - ref_turn_02
  - ref_up_arrow.004
  - ref_up_arrow.001
  - bubble_pop.001
  - ref_blow_whistle.015
  - ref_turn_04
  - bubble_wobble.001
  - ref_flag_wave_fin.006
  - ref_turn_03
  - ref_idle_fin.004
  - ref_flag_wave_fin.009
  - ref_up_arrow.006
  - bubble_pop.004
  - ref_turn_01
  - ref_idle_fin.006
  - bubble_pop.007
  - bubble_pop.003
  - star
  - ref_blow_whistle.009
  - bubble_pop.006
  - ref_flag_wave_fin.005
  - ref_fly.001
  - ref_chat.006
  - bubble_pop.002
  - ref_flag_wave_fin.010
  - ref_up_arrow.005
  - ref_up_arrow.003
  - bubble_wobble.007
  - ref_idle_fin.005
  - ref_flag_wave_fin.013
  - ref_idle_fin.002
  - ref_flag_wave_fin.008
  - bubble_pop.005
  - ref_blow_whistle.011
  - ref_chat.002
  - ref_blow_whistle.004
  - ref_fly.004
  - ref_flag_wave_fin.015
  - ref_flag_wave_fin.014
  - ref_blow_whistle.020
  - ref_blow_whistle.013
  - ref_with_bubble.004
  - ref_with_bubble.003
  - bubble_pop.009
  - ref_flag_wave_fin.007
  - ref_blow_whistle.019
  - ref_up_arrow.002
  - bubble_wobble.003
  - ref_chat.004
  - ref_with_bubble.002
  - ref_up_arrow.007
  - ref_blow_whistle.014
  - bubble_wobble.006
  - ref_blow_whistle.003
  - ref_blow_whistle.002
  - bubble_pop.008
  - ref_chat.001
  - ref_flag_wave_fin.001
  m_RenderDataMap: {}
  m_Tag: Items - Referee
  m_IsVariant: 0
