%YAML 1.1
%TAG !u! tag:unity3d.com,2011:
--- !u!687078895 &4343727234628468602
SpriteAtlas:
  m_ObjectHideFlags: 0
  m_CorrespondingSourceObject: {fileID: 0}
  m_PrefabInstance: {fileID: 0}
  m_PrefabAsset: {fileID: 0}
  m_Name: Items - Start
  m_EditorData:
    serializedVersion: 2
    textureSettings:
      serializedVersion: 2
      anisoLevel: 1
      compressionQuality: 50
      maxTextureSize: 2048
      textureCompression: 0
      filterMode: 1
      generateMipMaps: 0
      readable: 0
      crunchedCompression: 0
      sRGB: 1
    platformSettings:
    - serializedVersion: 3
      m_BuildTarget: DefaultTexturePlatform
      m_MaxTextureSize: 4096
      m_ResizeAlgorithm: 0
      m_TextureFormat: -1
      m_TextureCompression: 1
      m_CompressionQuality: 50
      m_CrunchedCompression: 0
      m_AllowsAlphaSplitting: 0
      m_Overridden: 0
      m_IgnorePlatformSupport: 0
      m_AndroidETC2FallbackOverride: 0
      m_ForceMaximumCompressionQuality_BC6H_BC7: 0
    packingSettings:
      serializedVersion: 2
      padding: 4
      blockOffset: 1
      allowAlphaSplitting: 0
      enableRotation: 1
      enableTightPacking: 1
      enableAlphaDilation: 0
    secondaryTextureSettings: {}
    variantMultiplier: 1
    packables:
    - {fileID: 102900000, guid: 68fdc39d7a195984ab1116d27d0b4a91, type: 3}
    - {fileID: 102900000, guid: fd78064f82fbe324a9778ab49c2fd77c, type: 3}
    bindAsDefault: 1
    isAtlasV2: 0
    cachedData: {fileID: 0}
    packedSpriteRenderDataKeys:
    - b8547600b1819fa4aaf989284b63dda6: 21300000
    - 6d8c7600bdac54c40b5fcc88308d723e: 21300000
    - 7841d700988ca4c489cc447874b942e3: 21300000
    - 4e883e00f658c5b44942b66b433d125b: 21300000
    - 3e02f410d9c6dab48872bb63cc1d5d07: 21300000
    - 2fd6bb20a2568244797bbb2dfc47b13d: 21300000
    - 2e3dbb205b1fefa4790ef5485b6a5eb1: 21300000
    - 25f9903022b9c9a4ab02f5e4b519fd15: 21300000
    - 99e73130928fb9c4f953637ce85024f9: 21300000
    - 74bb043095f557343affeee4769cf694: 21300000
    - 233233508ebf29447bedb22f50053dd6: 21300000
    - 67ba5650f1c154c4aa64fa3f8c80c8ab: 21300000
    - 57b366502f5512e4685dbfcf22f1aebd: 21300000
    - a4192c5031e3f9247983094e1aabca3f: 21300000
    - c9064d5090c3b784ab1ceb3c812d7a05: 21300000
    - 1468a760cc9139245bca01e566f1c3a0: 21300000
    - 249a896047535e9408d88c82e8f78de3: 21300000
    - fec3be806a161f947af2c6d476b7e843: 21300000
    - b731579088fc3fa4cbe1503507e20c91: 21300000
    - d11dfa9034549ef418581c4323761485: 21300000
    - d79721b02dfa56a4bb6b619eda99e828: 21300000
    - 02a313b02bb3d26438ceaff9e5cd307b: 21300000
    - ab42fdb0615c797499dbf560eeac47dd: 21300000
    - 41cd0ac00a0438545b28d464d06d8065: 21300000
    - 01b576d0ab88cf541812b2ea469d5895: 21300000
    - 11b96bf07babe1c4dab5fa1b32846b68: 21300000
    - 2170020189f7bdb46ad4cf3c7035c296: 21300000
    - 6935c2011bc5ba64583cd9dbd12d5cdb: 21300000
    - d385dc0152a77c144ab5fef8b32eaf82: 21300000
    - 9c22dd015984edf409eac8008305a705: 21300000
    - 5230ca1112e559c44b09846e3e318b0a: 21300000
    - 042f8b11978dbf14c97fa2d20f036442: 21300000
    - aa8e952171164714c8ed2b08cd182209: 21300000
    - 7b755821a949f7c40883c3e6c50633c6: 21300000
    - c04f4c413e670e043aae801bb3636937: 21300000
    - ca5d2351e3a8e314b895be988ca1e2c3: 21300000
    - f40fad511c8a22d4595e146e1174ad50: 21300000
    - 96d836614f5a45740ad04d4be0a6d625: 21300000
    - 7de46861e3c5ff54f9b7254954e9c716: 21300000
    - d8e48d61565fa1b458e2a0014bfa2082: 21300000
    - 206b1371573175d419ca0c55db55d915: 21300000
    - 2246ab81a83ca664a8ce242b3c58ba80: 21300000
    - 771b4e8108868ae4a8ed8a25041de248: 21300000
    - 76c2ac914026b424fb6af35307d7bc42: 21300000
    - 915a74a14b008f24c9a78938865617f0: 21300000
    - 9d3907a1e8867d740a5a2bfafb4acf0c: 21300000
    - 55aa87a17cf579f449eca7508c46194f: 21300000
    - d9c33ba1df4918a4f9317dc608667c34: 21300000
    - 5a763ea141bbbfb4abcd249bcfe1c968: 21300000
    - 6ebe62b15076e5547be20196bfe59b6b: 21300000
    - d4ac89b18eb04f84d9428185987d85eb: 21300000
    - c5367bb12c9a38945b697da94da94f50: 21300000
    - 1ac476c1e81b4d848b9880e7467ae06b: 21300000
    - e5d477c1a7f4c9c48807a5d6af516520: 21300000
    - 06e2a9c18bd0cd743991ecb29c0cd931: 21300000
    - 2d2eecc1e0ca0254fb7273ce33b2619f: 21300000
    - a6e53bd1bd0e00c409badbcc14425c57: 21300000
    - 393a65e114f851f47b2a69a29efff3c8: 21300000
    - c329dbe199a5a9e479b1aa7f529ea9f2: 21300000
    - 5f0279f1f31cb48488f4512afb29b8f0: 21300000
    - bf61720240a511f40a91711442439bf8: 21300000
    - 89ccd2024a646df40809c9d913828dfb: 21300000
    - 87e06032e3f25e44b9d0d275ca94725b: 21300000
    - 1dc49152c3fba49429e44239f43efcf5: 21300000
    - fbd7c252defb68b418997c7cc1e1c154: 21300000
    - 4c996652ea477a34d8ef14ea64bc3d9f: 21300000
    - eaa59c52547492d4781b8c30af593d7e: 21300000
    - e91cad529dc87f14eb02f74b51f6fbc2: 21300000
    - 1224be52bd893f5449a9c05f28b4fd0f: 21300000
    - baf020621f3fc694c94d867ecd7799fd: 21300000
    - 8fbb5472fa6b341478ee02d97803b62b: 21300000
    - ab112b722d69639439533771c29b8499: 21300000
    - 7cf56c72f3028d741b2e2b6b6be51c5e: 21300000
    - e4ba9192c7f1f3e47bb2e2d51ac055c2: 21300000
    - c087d0b21a28f5c409a13574697ff073: 21300000
    - 1b4886b264f8eea45915d6aedf2b2e7e: 21300000
    - 34aaceb295f9ed74b8a2a39fa3415b6e: 21300000
    - 5a10a3e28109cfa43a1a16967eaacbd2: 21300000
    - b59efce269b7bfb4d9bf41cfd35c8d22: 21300000
    - a4f642f28be06d34eacaf37223d48939: 21300000
    - 3c99b303dff98264aa3c150740193dd3: 21300000
    - 8d86a703fce198a40a6d3514d04ad967: 21300000
    - 37acdb03022eb33449237789cc1a4e73: 21300000
    - 54d9ae136a1141e4fa011ee100951ce2: 21300000
    - 1a428123f39f41f4ca955d84fe90a1f5: 21300000
    - 15b79323a47f95f47b5cf76328d4f463: 21300000
    - 31dc1e43043da38418ed998c20a8bbf2: 21300000
    - 89f4685318a91544cb17e2c6c5c8813f: 21300000
    - 9b04e8530a830bb49a466e3e8fdf9d42: 21300000
    - 8415cc63580fcf24cacea8bf297b51cf: 21300000
    - 40578773ef3413e4e9128ecf86c4b68a: 21300000
    - 258b09833a368a249b1b53a14534ba97: 21300000
    - 26a8de8318721a94dba4a8fc2f7eaae1: 21300000
    - df991e937a2e1144da6e0ddc7d0311d2: 21300000
    - dff9f3a3207d90e42a3fd3855679849b: 21300000
    - 6deddaa3fc95bd7488baf95f2407420f: 21300000
    - a79532b3ef86aa146a148ea88e53737d: 21300000
    - c72807b3cec03194f9487a925157a497: 21300000
    - 3b364db3bd8767641a6745deb2a4f4ca: 21300000
    - 041f1fb35ed2105448b200aae76b4079: 21300000
    - 9445a3c3290863a40a51438cb0da67b4: 21300000
    - 1b4996c38a88aa54fa0b717344f94d69: 21300000
    - c63460d3b2e32234db7c7c79ec3954e6: 21300000
    - e992e8d3d74712e44a9253a7b55557cb: 21300000
    - 770084e300d39a64791809494a9c3919: 21300000
    - 7eec5de3b50fb334297579271f662d1d: 21300000
    - a376c6f3f9ab7894d983bf925c18ba87: 21300000
    - bc26ddf37393c6b4099156e9ead7d159: 21300000
    - 21528ff314995434c82956c0048cb31a: 21300000
    - 6f516504c3fc17f478fdd62e9de6bae7: 21300000
    - cc2e0c1465cb7fd43adee1fd0df9bb86: 21300000
    - 7c901924c0ded634892afb01b156879a: 21300000
    - ba494c244e8c3eb46bc8c15ee5048cd6: 21300000
    - 7cbb5f24eceb9934e89d17a47ed7d37c: 21300000
    - 53f9f034b0eda954d8559181c874fc1c: 21300000
    - 87ef42340c9fb8c479e41bd5199700a4: 21300000
    - b690fb3430501f949a7748ca14b495e7: 21300000
    - 8856cc3412f6c0844872f2b1e596910e: 21300000
    - ae1bce3454c1195478ce0d7c5e8af3b1: 21300000
    - 444df344e8d461f458d6db8296e1df97: 21300000
    - 62abe7540a0b09d41a455165d34b741e: 21300000
    - 675f64647378bf640add68eccb492d59: 21300000
    - 68f31b6409fa14a4c8ab79a2acda88ba: 21300000
    - 7e572774dec164a48b440956d7ff8973: 21300000
    - 3b064d74c46d6fc4eb2daec310a31476: 21300000
    - d544b484f76065d4c92632148f376ab5: 21300000
    - 3c0dd29474e7e864c9e8425d1ee835de: 21300000
    - aa834ea4d7ba69d408f682478a18f726: 21300000
    - 77d182b4e040df24d8b4963dc2692100: 21300000
    - b5702ec42fa5e7b41bb58691742ee6eb: 21300000
    - 060fb5d4f2674224692601a3e2bbad17: 21300000
    - 6751e8d4068d9854a8ebc4dc8da7a862: 21300000
    - 27e519d444bdbdf498ccf92afadb8cb7: 21300000
    - 70001cd485a7f4c47ac8a928605ae47e: 21300000
    - c993bfd469de0aa448d477aace6cd463: 21300000
    - ae1f93e4ff4ea184b8854b35dc45cf80: 21300000
    - 299387f41eaa9e24f9a31d056b8c381c: 21300000
    - 91fa78f46b5205745bc8c421ba68b342: 21300000
    - 6623ebf414341224d91bd8ed2188ea9d: 21300000
    - a642560520f0bdd4e8f2160e86043636: 21300000
    - d6abc01545ad8bf449686178593f06f3: 21300000
    - 4d77b615b6a825d4c8c4d6fc2dd0d76a: 21300000
    - e086e445e101a1c499e007a88f74f3dc: 21300000
    - 8a88f755ebf68a440922756d6b4fe65d: 21300000
    - 62d3b175feec3e24db4308fdc486ac58: 21300000
    - e4ade1753a94d054cbde5d35dc082a77: 21300000
    - 6374dc7503d08c3499e0fefdb7b92d15: 21300000
    - 321e2e8566c641d448651f9d799d8117: 21300000
    - 5cd623a5a0ee18348baaa02ba59c9dd4: 21300000
    - 835ddbc527d31de4daba61149fc8711b: 21300000
    - 38ebf5d547fe43d43933654b38b90cd6: 21300000
    - 52e6ffd57fe668440840fadf68a86823: 21300000
    - 5ffc99e53a684da499b15ce634b6acea: 21300000
    - da0848f539e3ecf45bc994a970958bc0: 21300000
    - 8f9c5316b0077eb419723b9cacf6c8c8: 21300000
    - 0eefa51658f0a9540a6f0ba04837b9de: 21300000
    - f8e24026556b3614aa6fe74e2df1e0fa: 21300000
    - 2a25d32637c12c64993399e330583e24: 21300000
    - 12c32b26a7450fe4c8e0aa487bd73b7b: 21300000
    - ea386f36c0adea34a81e79106aa3b4b8: 21300000
    - 22a10e46a91f3644b9339cd968d450c2: 21300000
    - 20384f46d871aa843809f9776e291039: 21300000
    - f18e2256cd7771943922046af30be611: 21300000
    - 6023895607a66a04ba07786c25ee6770: 21300000
    - e263ad5636409c44d886ea18ee1db25c: 21300000
    - 9121f366e46c185489670900bfcf4b45: 21300000
    - d66bd376ed4437e40907aef5fc7175c2: 21300000
    - 25f07576d87366a44b0e9f8c0726662e: 21300000
    - 8d37a586b2e1ca148aa6f06e007cb186: 21300000
    - fb371796e975ffc4e8a363ade7230d45: 21300000
    - a8de1cc6f6cc33c4a8702f33035aedd5: 21300000
    - 92e8e7d6dcc027a46a0939eca1c40f30: 21300000
    - d78056f6f70fc284092e8fcd4b168f60: 21300000
    - cb3f9af6277173e4fa1155a5502f0438: 21300000
    - 2c975bf6ef4b0cf44a89b18f6bde5366: 21300000
    - 17ed46078316b6c4186addf8c91e489c: 21300000
    - 3208d707fedfc3f448de38d86b7c10aa: 21300000
    - a33c1d07e670d174082d3c5d302e13ca: 21300000
    - 8ae280171ee5d3d4a96776bc13f56f46: 21300000
    - 58ca0d176a13c0d4a890c45d0744beae: 21300000
    - f64450271ab6c17409d7c59f9c92a366: 21300000
    - b1ef51272e0d4de46a90848867a18735: 21300000
    - 03bbb8270324cc34da7651c118ce3a18: 21300000
    - f0d26c27605eff64f849193070eefa65: 21300000
    - 4637d737820347b4681b805561c5489f: 21300000
    - b37a0c57635d6a649a56e51608d3a1b3: 21300000
    - bf0451873a881164dbb903762857f08a: 21300000
    - a4f2e687dc24ce94d864e1ecb4d391f0: 21300000
    - fd1f6f87cfc26e04baff7e73abea1276: 21300000
    - ee67499749f791c46a9e811d05db4765: 21300000
    - 731b0ba75dfcbd045a4bab48bf3a8b19: 21300000
    - abe9b2b71de517d4fa1df82e01ede3c8: 21300000
    - 785f9eb71029e2e489fcf5b12883d12d: 21300000
    - 5a1e11c7e3cc97c46915248b3c35a07c: 21300000
    - 935896c7af810d4479be02a42980ba0a: 21300000
    - 95c6e8c7d4453464bbb484cbd98f9a58: 21300000
    - 16e481d7b9161484a8bf8db5c9c8cf6e: 21300000
    - 3b82e8e7ba3fc624c921702d48965cc2: 21300000
    - 0ff5f1088a13c4e41a9417906c18a700: 21300000
    - 807239083112ec94e90b6073b802b5d9: 21300000
    - 21e450186e6425a4ab33843615b8adb0: 21300000
    - 71fd2518f705c104591d4f5ddebd81f4: 21300000
    - 77f7212853594dc4bb52a333ec9a5f39: 21300000
    - 0afaed28233e0f44987538c084ea4568: 21300000
    - 3f8fb1383ae16a043a22c9ea971446ed: 21300000
    - 86d31a38dd860334e8cab23a50ce78fb: 21300000
    - deacfc489ace89048b5ec03012390973: 21300000
    - 1bfc3058aa0f3094d9942305813037bb: 21300000
    - b99659681d651d342953a395b8622ae2: 21300000
    - 96adbd68e2b85754eb82ff3f23e8d18c: 21300000
    - 1203818851421e946bfe3861b5c53bde: 21300000
    - b6287d88f419ed04180489a4acc70ded: 21300000
    - bf4770989796cf74fa45be0079447b66: 21300000
    - b39ee2b8bc8d97c43b7a81e2074a7ca6: 21300000
    - b1ed53d8046dea34a85e34aa0173143f: 21300000
    - 3bb6d3d862d82314387e59e005ed58c2: 21300000
    - 7ca1d4d8f0471894da3bf84887aae09a: 21300000
    - ebe50cd8040be8d4f9a4b378744545ff: 21300000
    - 4f7d94e8c8a4b0841b9923933623dbe9: 21300000
    - 96e11ce8bfe5a334fa3440f98c0bb583: 21300000
    - d750e1f8bf90c4671bfa1cccd7ae12c1: 21300000
    - fdd2fa09596e2ef4fb44b6a43854a143: 21300000
    - daf4592971faf2a43a3e233a5be20b8d: 21300000
    - 02b58929160cb1341996adc8cde74e91: 21300000
    - f99cdd29d672c144d9ac8ffaa2d25e2e: 21300000
    - a7bcdb39fbf149141a375c55668eb3c7: 21300000
    - e5fe8d3923e2c014aaf515a74ed2b487: 21300000
    - de814f39f6ef45a49a54b3d940b3a1f9: 21300000
    - c9a84849ae75af24d9e31ee27ba07ff6: 21300000
    - b7820a4994a0dd54f99ff2efbbf8f304: 21300000
    - 5bb3dc49b8da08944a5ea4155ef30e3c: 21300000
    - 1e4bfc49f49c3ff42b009373b13e4108: 21300000
    - 429b42595b26e7d468b764093d2daf4d: 21300000
    - 74607459eada30143aaeae88dc8cbb9c: 21300000
    - ef656369c9ed88449a42b81e4a4749d5: 21300000
    - f2fb437979678124196c9aea316fa2ba: 21300000
    - 6aad1e79721e9054d8e38e8fa54b215a: 21300000
    - 76941489adfee8c48b17e6dbfc9587d6: 21300000
    - e959e489dfddffc4eb64d3b9b5098fcd: 21300000
    - 4ac9ad894af36614fbdc89cf7e4ac438: 21300000
    - 89fd0e895b26199498e05b80dfb97b29: 21300000
    - 9eeabe895e2e01e40b9ff53ef3f3f07f: 21300000
    - 4596729990197994fad37f3a6810847c: 21300000
    - 263840a9cda57cc4895f0ba1c89053d3: 21300000
    - 1de10ba9d6655c842bf063aab19f772c: 21300000
    - 6840c2b94a5faf14ca5fbe6fcff3188a: 21300000
    - a76de0c96a1a5df43a460e806252a5ff: 21300000
    - 1a1a54d90ea56744e936266705bf6dfa: 21300000
    - bf54e8d957da22a44b2e9db6a81114be: 21300000
    - a4e569d9373358144ae2d7b5c3bc315f: 21300000
    - 9216c2e939fb96f4e9b40d144ba9105c: 21300000
    - 89aee5e91e55d944d9fd9247b53656f5: 21300000
    - 6096f9e92c631e743b4004fb7ee5b0b0: 21300000
    - 045d3ae9a1ae4034bb600bc9ca6168b9: 21300000
    - e88554f9070ecff489499ebfbd49f404: 21300000
    - 902c5b1a6a4c8f14b8aa8c460604e869: 21300000
    - 65a3f42a80dcb9647a2d15acf3d3755e: 21300000
    - 44130d2adc54340a984ccd57d4bedc41: 21300000
    - 5aa5313a251e02340a378b4314b5818b: 21300000
    - a247813a165af0746825dcfc97379512: 21300000
    - 1db2394a1cb36b14bb092542af48aec9: 21300000
    - b4fd715a0a1d1b84e93404a2a9c3e564: 21300000
    - 2ba2c85a3171b3d418585f8806669561: 21300000
    - d14a1b6afaa572a4f83dc1de436ae91b: 21300000
    - 9e7f617a68ac6674894f2e405ff90a7e: 21300000
    - 89722f7a2bd6ec74cae5277e118889bb: 21300000
    - 6b69668aae270714eab9c013f7e26843: 21300000
    - 79004caa91ef29d41b66fe840fb7fba5: 21300000
    - f61f52cabc7fda34c8462a11ce35dd8e: 21300000
    - 44f083ca7c167404b8c22694dc7868b4: 21300000
    - edfb18ca5fe8e834e989ef05785a5ed9: 21300000
    - ccbf01da70c398a4b8d8b233c4b3a2c5: 21300000
    - 9e859b1b7cfbedb4798c27879de8131f: 21300000
    - ea81ac1bad1763d4ead5e8776f68bd0e: 21300000
    - 1a231d2bf2aa9c94a9ccafbea86858e6: 21300000
    - 54b3ff2b3d8b1f44da156d4f01465f7a: 21300000
    - 46a3aa3befee35249bdda2cdd9aebc38: 21300000
    - 187c194b8487e8a4b93cdf331dd8f366: 21300000
    - 1d85c65bb9d3372409166e8a5f4cf561: 21300000
    - 4111a95bfb460864f9b4c05db96de01a: 21300000
    - 8ba3706ba37b54d4b8f1ecd453fad3b2: 21300000
    - 8af6616bf5215374f978f404e9531b33: 21300000
    - c42d0d6bea382c0459a019067c856f7d: 21300000
    - 4a137a7b6c0bde548924ffb1fdbc3d80: 21300000
    - 0d80939baf2298a4ca74e3a897483f4e: 21300000
    - 6024a39b2b05447458555e430318ca1b: 21300000
    - d533499ba16295546b3927e26b21add1: 21300000
    - c081c7ab21e3c144999df9fa39ce21e6: 21300000
    - d96c69ab2c74fa746a809c65c3a81f76: 21300000
    - 45fd89ab6bea50748922fb52684deea3: 21300000
    - df391aab46c43c44bb801451b1094cc8: 21300000
    - b0b24aab4ca5ba8418741b08fa2f9762: 21300000
    - 23841eabc1b6382478b653f10a98b7c6: 21300000
    - d8f457bb0e116d84bbd7f555ccad50cf: 21300000
    - 7f65f8bbc2fa4884a8414d43ebc2ab6e: 21300000
    - 7c432abb1ce08324cbf79cb2cc52f564: 21300000
    - e661b0cb0b1e54349970debe59716f67: 21300000
    - c7547adb5eaf7464d8c6a249a8b8b796: 21300000
    - bf3b52eb4472000479fffe919602d088: 21300000
    - e24e18eb160cec548a6ddbd76a5e5ff9: 21300000
    - a3e71aeb84771f143b092d1515e5d055: 21300000
    - 361abceb5dac0244bad93da47041b289: 21300000
    - f2c1edeb0a8c4964ca6ee3bed03627e0: 21300000
    - e79365fb2910bc04b896309d8b14b92c: 21300000
    - 97dd85fb12af08443b897b93bba379d6: 21300000
    - 4ec91afb53678924bb8f297b0c2e88c5: 21300000
    - 60cc5e0ccb9149849aa9537f62244421: 21300000
    - 1a84661cc8df6af468fab94c611b184d: 21300000
    - ea639d1cf7a4f494bbd46e750e817537: 21300000
    - 3920612c7fd61c846a2ec1892c20a672: 21300000
    - d5abcc2cb67c8b94688f70336130f572: 21300000
    - d9549d2c0b41fea49817663a57a4857c: 21300000
    - c5aebe2c365c50c458d16c97948a49d9: 21300000
    - 1605983c21850e74384ce33f231cce31: 21300000
    - 76d5124cbd2c6aa40b82708551f79c8d: 21300000
    - e0a0d94c6fd7fc0469b6d741f7667078: 21300000
    - cef25c4c6aeb54a4cbaf52f95e9c6119: 21300000
    - 7313185c975c34e4fbdcc64212145115: 21300000
    - 978dbd6cf131cca468b714387a46a5e0: 21300000
    - 4e54238c9bffa8644849f6f6cfd49283: 21300000
    - e41fd78c34a83ef4c966606e0c0e9074: 21300000
    - 361f0a8cc191ceb4a9083364214c5b4a: 21300000
    - 4fa6ac8cbd5669a4c82e4bc3c5f0e2cf: 21300000
    - cb1fa9ac4c7283147b00660060f06ae0: 21300000
    - 2a9770bc7c9b077468250773e8673a18: 21300000
    - 2dee78bc2a330c84daabd23943f9fbbb: 21300000
    - dc2cdcbc64433cb4d9691d87ff5bb6a8: 21300000
    - 160a4dbc8caced340a142a70be5775fb: 21300000
    - 5581bfbc655656b4bb96287895789dcf: 21300000
    - 3cd4ebec9f78d1244909a9a7fcc17946: 21300000
    - 6d8e3c0d25af254449c6a59ad52ef755: 21300000
    - 56e43f0dad0c680468cbd905ac722b8f: 21300000
    - 1272701d6d6309445bfaf844323b4393: 21300000
    - 9b52311db237d5140833a20e028cabf1: 21300000
    - 845a891dab95ebc46bd8230d3173b90f: 21300000
    - f2fa991d372ab4c478b7a8eea4f92b42: 21300000
    - 7d14472d467fde84480c01d888fed24c: 21300000
    - 03b01b2d8dca4e74aa05a983f75bf622: 21300000
    - cebe9f3df7700684b9644bd13b9e49b4: 21300000
    - aedba14d464dd8541ac48cda38fdbde3: 21300000
    - 0ddfd15d8422a66478e7a99ec5692d0c: 21300000
    - 5813ba5da1700234290f6f4f24f14099: 21300000
    - ac750f6daef1d7a44b56f37848c001df: 21300000
    - 2230b77d5bcb4c546a7ae83617ac8ffa: 21300000
    - 926f648d311f5a949854af833a173455: 21300000
    - 2e6b158daf9569f40b6c51b7b230ee16: 21300000
    - 0a87988dc39a44a4596335e1394ebad2: 21300000
    - 31b0779d26b4e9742b70c95112f0d47f: 21300000
    - ce360b9d4e3e2c94d8b08253a16fb2e5: 21300000
    - 485ead9dc3aef3a45acd1f2777bdd8fa: 21300000
    - f84e4cad0a8efa14996201ac31361bd6: 21300000
    - cb07bcad3db376e4e8114f34312fa381: 21300000
    - b86a06dde804fa9469c80150e072a9aa: 21300000
    - d54d2bddc62c6364a89590eae900c9e7: 21300000
    - 20a457fdd52e6a04a8f7d21c59d02cea: 21300000
    - 75e7820e84ba3e24e85ed09ef5a825d5: 21300000
    - 574f630e2f9cb314a84f56fac5c342fe: 21300000
    - df2b930e9490adb48ba84d688751588f: 21300000
    - df12291e75d497549ad6e8a91ea3c7da: 21300000
    - 27ccbc1ed9fb29d4ab27a8ff86b47438: 21300000
    - f9a17d1e51fed0541883fa53aaf1411a: 21300000
    - 430b962e1abf70d4d906850c0b482414: 21300000
    - 98261d2e04c97754b8258ac7767f1421: 21300000
    - 3568d33e357ad554b9817bcd974b5ce4: 21300000
    - 1084543e06a718d4cbcdbf8e72349b55: 21300000
    - 6ce54c4ee80a6de48b89b464ca491f33: 21300000
    - 2aef0a5e70109044dada666b2da322fe: 21300000
    - 9f19e66e3407ced4aa37543b3a679700: 21300000
    - b85cd86ebac3e7b4cba1a562c5792044: 21300000
    - 2998c08e5bcd8b849ac1e57d4a0cd0d3: 21300000
    - a75f178ebdd1f6e4784112759bedc4ac: 21300000
    - 1d314b9e2c9d25f4e89a378d3ae2b6bb: 21300000
    - 86ec01ae467dd604e9f0ed73a342f872: 21300000
    - 529eb5ae14f11184eb508b78032b3d16: 21300000
    - 7705babe62b325544b8300d4d38e1ccc: 21300000
    - 4ce23bbe7171daa449538829f94d22f2: 21300000
    - 198bbfbed73a0b14598a3dd706a5411d: 21300000
    - 9ed290ce44258a44bbec6072f32a8228: 21300000
    - a5c3b60f5c21a7444866c99bc9fb01f8: 21300000
    - 87c6a70f748d15c499ea9eba53507866: 21300000
    - 1226203ff0f767e41b0fbbe95f18063c: 21300000
    - 7a34a03f5bddadb4286e64e824359315: 21300000
    - ea911d3f7491e79439ffb6ad8c0c5b48: 21300000
    - b6aeed3f15567b646baf94e5bc062547: 21300000
    - b983904f523e4e042954ef4387f828b6: 21300000
    - d8b50c7f0cacd244d8708382854aa4ff: 21300000
    - f827738fdab3ef848b31e2717a342368: 21300000
    - 131c298fe6e911c439f2a53007c1f5de: 21300000
    - bd56849ff721e0d4abd94ea79c2eb080: 21300000
    - cbb003afc62abb54e84f64040a8977c8: 21300000
    - 641c43af7efe901428119fef27823275: 21300000
    - 50ef81bf2fa830a42833e7a7ce261194: 21300000
    - df7ee1bfc7d67ec4b902bd40c8e69020: 21300000
    - 8c3fd5bf7100298419da0e5aeae322e4: 21300000
    - a082a5cf6758a254ba613922edb4a56d: 21300000
    - 0005d1df2ca9d1e4382cd4db7ca799f5: 21300000
    - 07786fdf0b29c894f9be89d623eaad95: 21300000
    - 6991b0ef8d2ac7e46afd458facc3f7bc: 21300000
    - cb9195ef52f87b6428f4d15351a68568: 21300000
    - cb09c9ff1a2761f418c17f9f9adcd0ac: 21300000
  m_MasterAtlas: {fileID: 0}
  m_PackedSprites:
  - {fileID: 21300000, guid: b8547600b1819fa4aaf989284b63dda6, type: 3}
  - {fileID: 21300000, guid: 6d8c7600bdac54c40b5fcc88308d723e, type: 3}
  - {fileID: 21300000, guid: 7841d700988ca4c489cc447874b942e3, type: 3}
  - {fileID: 21300000, guid: 4e883e00f658c5b44942b66b433d125b, type: 3}
  - {fileID: 21300000, guid: 3e02f410d9c6dab48872bb63cc1d5d07, type: 3}
  - {fileID: 21300000, guid: 2fd6bb20a2568244797bbb2dfc47b13d, type: 3}
  - {fileID: 21300000, guid: 2e3dbb205b1fefa4790ef5485b6a5eb1, type: 3}
  - {fileID: 21300000, guid: 25f9903022b9c9a4ab02f5e4b519fd15, type: 3}
  - {fileID: 21300000, guid: 99e73130928fb9c4f953637ce85024f9, type: 3}
  - {fileID: 21300000, guid: 74bb043095f557343affeee4769cf694, type: 3}
  - {fileID: 21300000, guid: 233233508ebf29447bedb22f50053dd6, type: 3}
  - {fileID: 21300000, guid: 67ba5650f1c154c4aa64fa3f8c80c8ab, type: 3}
  - {fileID: 21300000, guid: 57b366502f5512e4685dbfcf22f1aebd, type: 3}
  - {fileID: 21300000, guid: a4192c5031e3f9247983094e1aabca3f, type: 3}
  - {fileID: 21300000, guid: c9064d5090c3b784ab1ceb3c812d7a05, type: 3}
  - {fileID: 21300000, guid: 1468a760cc9139245bca01e566f1c3a0, type: 3}
  - {fileID: 21300000, guid: 249a896047535e9408d88c82e8f78de3, type: 3}
  - {fileID: 21300000, guid: fec3be806a161f947af2c6d476b7e843, type: 3}
  - {fileID: 21300000, guid: b731579088fc3fa4cbe1503507e20c91, type: 3}
  - {fileID: 21300000, guid: d11dfa9034549ef418581c4323761485, type: 3}
  - {fileID: 21300000, guid: d79721b02dfa56a4bb6b619eda99e828, type: 3}
  - {fileID: 21300000, guid: 02a313b02bb3d26438ceaff9e5cd307b, type: 3}
  - {fileID: 21300000, guid: ab42fdb0615c797499dbf560eeac47dd, type: 3}
  - {fileID: 21300000, guid: 41cd0ac00a0438545b28d464d06d8065, type: 3}
  - {fileID: 21300000, guid: 01b576d0ab88cf541812b2ea469d5895, type: 3}
  - {fileID: 21300000, guid: 11b96bf07babe1c4dab5fa1b32846b68, type: 3}
  - {fileID: 21300000, guid: 2170020189f7bdb46ad4cf3c7035c296, type: 3}
  - {fileID: 21300000, guid: 6935c2011bc5ba64583cd9dbd12d5cdb, type: 3}
  - {fileID: 21300000, guid: d385dc0152a77c144ab5fef8b32eaf82, type: 3}
  - {fileID: 21300000, guid: 9c22dd015984edf409eac8008305a705, type: 3}
  - {fileID: 21300000, guid: 5230ca1112e559c44b09846e3e318b0a, type: 3}
  - {fileID: 21300000, guid: 042f8b11978dbf14c97fa2d20f036442, type: 3}
  - {fileID: 21300000, guid: aa8e952171164714c8ed2b08cd182209, type: 3}
  - {fileID: 21300000, guid: 7b755821a949f7c40883c3e6c50633c6, type: 3}
  - {fileID: 21300000, guid: c04f4c413e670e043aae801bb3636937, type: 3}
  - {fileID: 21300000, guid: ca5d2351e3a8e314b895be988ca1e2c3, type: 3}
  - {fileID: 21300000, guid: f40fad511c8a22d4595e146e1174ad50, type: 3}
  - {fileID: 21300000, guid: 96d836614f5a45740ad04d4be0a6d625, type: 3}
  - {fileID: 21300000, guid: 7de46861e3c5ff54f9b7254954e9c716, type: 3}
  - {fileID: 21300000, guid: d8e48d61565fa1b458e2a0014bfa2082, type: 3}
  - {fileID: 21300000, guid: 206b1371573175d419ca0c55db55d915, type: 3}
  - {fileID: 21300000, guid: 2246ab81a83ca664a8ce242b3c58ba80, type: 3}
  - {fileID: 21300000, guid: 771b4e8108868ae4a8ed8a25041de248, type: 3}
  - {fileID: 21300000, guid: 76c2ac914026b424fb6af35307d7bc42, type: 3}
  - {fileID: 21300000, guid: 915a74a14b008f24c9a78938865617f0, type: 3}
  - {fileID: 21300000, guid: 9d3907a1e8867d740a5a2bfafb4acf0c, type: 3}
  - {fileID: 21300000, guid: 55aa87a17cf579f449eca7508c46194f, type: 3}
  - {fileID: 21300000, guid: d9c33ba1df4918a4f9317dc608667c34, type: 3}
  - {fileID: 21300000, guid: 5a763ea141bbbfb4abcd249bcfe1c968, type: 3}
  - {fileID: 21300000, guid: 6ebe62b15076e5547be20196bfe59b6b, type: 3}
  - {fileID: 21300000, guid: d4ac89b18eb04f84d9428185987d85eb, type: 3}
  - {fileID: 21300000, guid: c5367bb12c9a38945b697da94da94f50, type: 3}
  - {fileID: 21300000, guid: 1ac476c1e81b4d848b9880e7467ae06b, type: 3}
  - {fileID: 21300000, guid: e5d477c1a7f4c9c48807a5d6af516520, type: 3}
  - {fileID: 21300000, guid: 06e2a9c18bd0cd743991ecb29c0cd931, type: 3}
  - {fileID: 21300000, guid: 2d2eecc1e0ca0254fb7273ce33b2619f, type: 3}
  - {fileID: 21300000, guid: a6e53bd1bd0e00c409badbcc14425c57, type: 3}
  - {fileID: 21300000, guid: 393a65e114f851f47b2a69a29efff3c8, type: 3}
  - {fileID: 21300000, guid: c329dbe199a5a9e479b1aa7f529ea9f2, type: 3}
  - {fileID: 21300000, guid: 5f0279f1f31cb48488f4512afb29b8f0, type: 3}
  - {fileID: 21300000, guid: bf61720240a511f40a91711442439bf8, type: 3}
  - {fileID: 21300000, guid: 89ccd2024a646df40809c9d913828dfb, type: 3}
  - {fileID: 21300000, guid: 87e06032e3f25e44b9d0d275ca94725b, type: 3}
  - {fileID: 21300000, guid: 1dc49152c3fba49429e44239f43efcf5, type: 3}
  - {fileID: 21300000, guid: fbd7c252defb68b418997c7cc1e1c154, type: 3}
  - {fileID: 21300000, guid: 4c996652ea477a34d8ef14ea64bc3d9f, type: 3}
  - {fileID: 21300000, guid: eaa59c52547492d4781b8c30af593d7e, type: 3}
  - {fileID: 21300000, guid: e91cad529dc87f14eb02f74b51f6fbc2, type: 3}
  - {fileID: 21300000, guid: 1224be52bd893f5449a9c05f28b4fd0f, type: 3}
  - {fileID: 21300000, guid: baf020621f3fc694c94d867ecd7799fd, type: 3}
  - {fileID: 21300000, guid: 8fbb5472fa6b341478ee02d97803b62b, type: 3}
  - {fileID: 21300000, guid: ab112b722d69639439533771c29b8499, type: 3}
  - {fileID: 21300000, guid: 7cf56c72f3028d741b2e2b6b6be51c5e, type: 3}
  - {fileID: 21300000, guid: e4ba9192c7f1f3e47bb2e2d51ac055c2, type: 3}
  - {fileID: 21300000, guid: c087d0b21a28f5c409a13574697ff073, type: 3}
  - {fileID: 21300000, guid: 1b4886b264f8eea45915d6aedf2b2e7e, type: 3}
  - {fileID: 21300000, guid: 34aaceb295f9ed74b8a2a39fa3415b6e, type: 3}
  - {fileID: 21300000, guid: 5a10a3e28109cfa43a1a16967eaacbd2, type: 3}
  - {fileID: 21300000, guid: b59efce269b7bfb4d9bf41cfd35c8d22, type: 3}
  - {fileID: 21300000, guid: a4f642f28be06d34eacaf37223d48939, type: 3}
  - {fileID: 21300000, guid: 3c99b303dff98264aa3c150740193dd3, type: 3}
  - {fileID: 21300000, guid: 8d86a703fce198a40a6d3514d04ad967, type: 3}
  - {fileID: 21300000, guid: 37acdb03022eb33449237789cc1a4e73, type: 3}
  - {fileID: 21300000, guid: 54d9ae136a1141e4fa011ee100951ce2, type: 3}
  - {fileID: 21300000, guid: 1a428123f39f41f4ca955d84fe90a1f5, type: 3}
  - {fileID: 21300000, guid: 15b79323a47f95f47b5cf76328d4f463, type: 3}
  - {fileID: 21300000, guid: 31dc1e43043da38418ed998c20a8bbf2, type: 3}
  - {fileID: 21300000, guid: 89f4685318a91544cb17e2c6c5c8813f, type: 3}
  - {fileID: 21300000, guid: 9b04e8530a830bb49a466e3e8fdf9d42, type: 3}
  - {fileID: 21300000, guid: 8415cc63580fcf24cacea8bf297b51cf, type: 3}
  - {fileID: 21300000, guid: 40578773ef3413e4e9128ecf86c4b68a, type: 3}
  - {fileID: 21300000, guid: 258b09833a368a249b1b53a14534ba97, type: 3}
  - {fileID: 21300000, guid: 26a8de8318721a94dba4a8fc2f7eaae1, type: 3}
  - {fileID: 21300000, guid: df991e937a2e1144da6e0ddc7d0311d2, type: 3}
  - {fileID: 21300000, guid: dff9f3a3207d90e42a3fd3855679849b, type: 3}
  - {fileID: 21300000, guid: 6deddaa3fc95bd7488baf95f2407420f, type: 3}
  - {fileID: 21300000, guid: a79532b3ef86aa146a148ea88e53737d, type: 3}
  - {fileID: 21300000, guid: c72807b3cec03194f9487a925157a497, type: 3}
  - {fileID: 21300000, guid: 3b364db3bd8767641a6745deb2a4f4ca, type: 3}
  - {fileID: 21300000, guid: 041f1fb35ed2105448b200aae76b4079, type: 3}
  - {fileID: 21300000, guid: 9445a3c3290863a40a51438cb0da67b4, type: 3}
  - {fileID: 21300000, guid: 1b4996c38a88aa54fa0b717344f94d69, type: 3}
  - {fileID: 21300000, guid: c63460d3b2e32234db7c7c79ec3954e6, type: 3}
  - {fileID: 21300000, guid: e992e8d3d74712e44a9253a7b55557cb, type: 3}
  - {fileID: 21300000, guid: 770084e300d39a64791809494a9c3919, type: 3}
  - {fileID: 21300000, guid: 7eec5de3b50fb334297579271f662d1d, type: 3}
  - {fileID: 21300000, guid: a376c6f3f9ab7894d983bf925c18ba87, type: 3}
  - {fileID: 21300000, guid: bc26ddf37393c6b4099156e9ead7d159, type: 3}
  - {fileID: 21300000, guid: 21528ff314995434c82956c0048cb31a, type: 3}
  - {fileID: 21300000, guid: 6f516504c3fc17f478fdd62e9de6bae7, type: 3}
  - {fileID: 21300000, guid: cc2e0c1465cb7fd43adee1fd0df9bb86, type: 3}
  - {fileID: 21300000, guid: 7c901924c0ded634892afb01b156879a, type: 3}
  - {fileID: 21300000, guid: ba494c244e8c3eb46bc8c15ee5048cd6, type: 3}
  - {fileID: 21300000, guid: 7cbb5f24eceb9934e89d17a47ed7d37c, type: 3}
  - {fileID: 21300000, guid: 53f9f034b0eda954d8559181c874fc1c, type: 3}
  - {fileID: 21300000, guid: 87ef42340c9fb8c479e41bd5199700a4, type: 3}
  - {fileID: 21300000, guid: b690fb3430501f949a7748ca14b495e7, type: 3}
  - {fileID: 21300000, guid: 8856cc3412f6c0844872f2b1e596910e, type: 3}
  - {fileID: 21300000, guid: ae1bce3454c1195478ce0d7c5e8af3b1, type: 3}
  - {fileID: 21300000, guid: 444df344e8d461f458d6db8296e1df97, type: 3}
  - {fileID: 21300000, guid: 62abe7540a0b09d41a455165d34b741e, type: 3}
  - {fileID: 21300000, guid: 675f64647378bf640add68eccb492d59, type: 3}
  - {fileID: 21300000, guid: 68f31b6409fa14a4c8ab79a2acda88ba, type: 3}
  - {fileID: 21300000, guid: 7e572774dec164a48b440956d7ff8973, type: 3}
  - {fileID: 21300000, guid: 3b064d74c46d6fc4eb2daec310a31476, type: 3}
  - {fileID: 21300000, guid: d544b484f76065d4c92632148f376ab5, type: 3}
  - {fileID: 21300000, guid: 3c0dd29474e7e864c9e8425d1ee835de, type: 3}
  - {fileID: 21300000, guid: aa834ea4d7ba69d408f682478a18f726, type: 3}
  - {fileID: 21300000, guid: 77d182b4e040df24d8b4963dc2692100, type: 3}
  - {fileID: 21300000, guid: b5702ec42fa5e7b41bb58691742ee6eb, type: 3}
  - {fileID: 21300000, guid: 060fb5d4f2674224692601a3e2bbad17, type: 3}
  - {fileID: 21300000, guid: 6751e8d4068d9854a8ebc4dc8da7a862, type: 3}
  - {fileID: 21300000, guid: 27e519d444bdbdf498ccf92afadb8cb7, type: 3}
  - {fileID: 21300000, guid: 70001cd485a7f4c47ac8a928605ae47e, type: 3}
  - {fileID: 21300000, guid: c993bfd469de0aa448d477aace6cd463, type: 3}
  - {fileID: 21300000, guid: ae1f93e4ff4ea184b8854b35dc45cf80, type: 3}
  - {fileID: 21300000, guid: 299387f41eaa9e24f9a31d056b8c381c, type: 3}
  - {fileID: 21300000, guid: 91fa78f46b5205745bc8c421ba68b342, type: 3}
  - {fileID: 21300000, guid: 6623ebf414341224d91bd8ed2188ea9d, type: 3}
  - {fileID: 21300000, guid: a642560520f0bdd4e8f2160e86043636, type: 3}
  - {fileID: 21300000, guid: d6abc01545ad8bf449686178593f06f3, type: 3}
  - {fileID: 21300000, guid: 4d77b615b6a825d4c8c4d6fc2dd0d76a, type: 3}
  - {fileID: 21300000, guid: e086e445e101a1c499e007a88f74f3dc, type: 3}
  - {fileID: 21300000, guid: 8a88f755ebf68a440922756d6b4fe65d, type: 3}
  - {fileID: 21300000, guid: 62d3b175feec3e24db4308fdc486ac58, type: 3}
  - {fileID: 21300000, guid: e4ade1753a94d054cbde5d35dc082a77, type: 3}
  - {fileID: 21300000, guid: 6374dc7503d08c3499e0fefdb7b92d15, type: 3}
  - {fileID: 21300000, guid: 321e2e8566c641d448651f9d799d8117, type: 3}
  - {fileID: 21300000, guid: 5cd623a5a0ee18348baaa02ba59c9dd4, type: 3}
  - {fileID: 21300000, guid: 835ddbc527d31de4daba61149fc8711b, type: 3}
  - {fileID: 21300000, guid: 38ebf5d547fe43d43933654b38b90cd6, type: 3}
  - {fileID: 21300000, guid: 52e6ffd57fe668440840fadf68a86823, type: 3}
  - {fileID: 21300000, guid: 5ffc99e53a684da499b15ce634b6acea, type: 3}
  - {fileID: 21300000, guid: da0848f539e3ecf45bc994a970958bc0, type: 3}
  - {fileID: 21300000, guid: 8f9c5316b0077eb419723b9cacf6c8c8, type: 3}
  - {fileID: 21300000, guid: 0eefa51658f0a9540a6f0ba04837b9de, type: 3}
  - {fileID: 21300000, guid: f8e24026556b3614aa6fe74e2df1e0fa, type: 3}
  - {fileID: 21300000, guid: 2a25d32637c12c64993399e330583e24, type: 3}
  - {fileID: 21300000, guid: 12c32b26a7450fe4c8e0aa487bd73b7b, type: 3}
  - {fileID: 21300000, guid: ea386f36c0adea34a81e79106aa3b4b8, type: 3}
  - {fileID: 21300000, guid: 22a10e46a91f3644b9339cd968d450c2, type: 3}
  - {fileID: 21300000, guid: 20384f46d871aa843809f9776e291039, type: 3}
  - {fileID: 21300000, guid: f18e2256cd7771943922046af30be611, type: 3}
  - {fileID: 21300000, guid: 6023895607a66a04ba07786c25ee6770, type: 3}
  - {fileID: 21300000, guid: e263ad5636409c44d886ea18ee1db25c, type: 3}
  - {fileID: 21300000, guid: 9121f366e46c185489670900bfcf4b45, type: 3}
  - {fileID: 21300000, guid: d66bd376ed4437e40907aef5fc7175c2, type: 3}
  - {fileID: 21300000, guid: 25f07576d87366a44b0e9f8c0726662e, type: 3}
  - {fileID: 21300000, guid: 8d37a586b2e1ca148aa6f06e007cb186, type: 3}
  - {fileID: 21300000, guid: fb371796e975ffc4e8a363ade7230d45, type: 3}
  - {fileID: 21300000, guid: a8de1cc6f6cc33c4a8702f33035aedd5, type: 3}
  - {fileID: 21300000, guid: 92e8e7d6dcc027a46a0939eca1c40f30, type: 3}
  - {fileID: 21300000, guid: d78056f6f70fc284092e8fcd4b168f60, type: 3}
  - {fileID: 21300000, guid: cb3f9af6277173e4fa1155a5502f0438, type: 3}
  - {fileID: 21300000, guid: 2c975bf6ef4b0cf44a89b18f6bde5366, type: 3}
  - {fileID: 21300000, guid: 17ed46078316b6c4186addf8c91e489c, type: 3}
  - {fileID: 21300000, guid: 3208d707fedfc3f448de38d86b7c10aa, type: 3}
  - {fileID: 21300000, guid: a33c1d07e670d174082d3c5d302e13ca, type: 3}
  - {fileID: 21300000, guid: 8ae280171ee5d3d4a96776bc13f56f46, type: 3}
  - {fileID: 21300000, guid: 58ca0d176a13c0d4a890c45d0744beae, type: 3}
  - {fileID: 21300000, guid: f64450271ab6c17409d7c59f9c92a366, type: 3}
  - {fileID: 21300000, guid: b1ef51272e0d4de46a90848867a18735, type: 3}
  - {fileID: 21300000, guid: 03bbb8270324cc34da7651c118ce3a18, type: 3}
  - {fileID: 21300000, guid: f0d26c27605eff64f849193070eefa65, type: 3}
  - {fileID: 21300000, guid: 4637d737820347b4681b805561c5489f, type: 3}
  - {fileID: 21300000, guid: b37a0c57635d6a649a56e51608d3a1b3, type: 3}
  - {fileID: 21300000, guid: bf0451873a881164dbb903762857f08a, type: 3}
  - {fileID: 21300000, guid: a4f2e687dc24ce94d864e1ecb4d391f0, type: 3}
  - {fileID: 21300000, guid: fd1f6f87cfc26e04baff7e73abea1276, type: 3}
  - {fileID: 21300000, guid: ee67499749f791c46a9e811d05db4765, type: 3}
  - {fileID: 21300000, guid: 731b0ba75dfcbd045a4bab48bf3a8b19, type: 3}
  - {fileID: 21300000, guid: abe9b2b71de517d4fa1df82e01ede3c8, type: 3}
  - {fileID: 21300000, guid: 785f9eb71029e2e489fcf5b12883d12d, type: 3}
  - {fileID: 21300000, guid: 5a1e11c7e3cc97c46915248b3c35a07c, type: 3}
  - {fileID: 21300000, guid: 935896c7af810d4479be02a42980ba0a, type: 3}
  - {fileID: 21300000, guid: 95c6e8c7d4453464bbb484cbd98f9a58, type: 3}
  - {fileID: 21300000, guid: 16e481d7b9161484a8bf8db5c9c8cf6e, type: 3}
  - {fileID: 21300000, guid: 3b82e8e7ba3fc624c921702d48965cc2, type: 3}
  - {fileID: 21300000, guid: 0ff5f1088a13c4e41a9417906c18a700, type: 3}
  - {fileID: 21300000, guid: 807239083112ec94e90b6073b802b5d9, type: 3}
  - {fileID: 21300000, guid: 21e450186e6425a4ab33843615b8adb0, type: 3}
  - {fileID: 21300000, guid: 71fd2518f705c104591d4f5ddebd81f4, type: 3}
  - {fileID: 21300000, guid: 77f7212853594dc4bb52a333ec9a5f39, type: 3}
  - {fileID: 21300000, guid: 0afaed28233e0f44987538c084ea4568, type: 3}
  - {fileID: 21300000, guid: 3f8fb1383ae16a043a22c9ea971446ed, type: 3}
  - {fileID: 21300000, guid: 86d31a38dd860334e8cab23a50ce78fb, type: 3}
  - {fileID: 21300000, guid: deacfc489ace89048b5ec03012390973, type: 3}
  - {fileID: 21300000, guid: 1bfc3058aa0f3094d9942305813037bb, type: 3}
  - {fileID: 21300000, guid: b99659681d651d342953a395b8622ae2, type: 3}
  - {fileID: 21300000, guid: 96adbd68e2b85754eb82ff3f23e8d18c, type: 3}
  - {fileID: 21300000, guid: 1203818851421e946bfe3861b5c53bde, type: 3}
  - {fileID: 21300000, guid: b6287d88f419ed04180489a4acc70ded, type: 3}
  - {fileID: 21300000, guid: bf4770989796cf74fa45be0079447b66, type: 3}
  - {fileID: 21300000, guid: b39ee2b8bc8d97c43b7a81e2074a7ca6, type: 3}
  - {fileID: 21300000, guid: b1ed53d8046dea34a85e34aa0173143f, type: 3}
  - {fileID: 21300000, guid: 3bb6d3d862d82314387e59e005ed58c2, type: 3}
  - {fileID: 21300000, guid: 7ca1d4d8f0471894da3bf84887aae09a, type: 3}
  - {fileID: 21300000, guid: ebe50cd8040be8d4f9a4b378744545ff, type: 3}
  - {fileID: 21300000, guid: 4f7d94e8c8a4b0841b9923933623dbe9, type: 3}
  - {fileID: 21300000, guid: 96e11ce8bfe5a334fa3440f98c0bb583, type: 3}
  - {fileID: 21300000, guid: d750e1f8bf90c4671bfa1cccd7ae12c1, type: 3}
  - {fileID: 21300000, guid: fdd2fa09596e2ef4fb44b6a43854a143, type: 3}
  - {fileID: 21300000, guid: daf4592971faf2a43a3e233a5be20b8d, type: 3}
  - {fileID: 21300000, guid: 02b58929160cb1341996adc8cde74e91, type: 3}
  - {fileID: 21300000, guid: f99cdd29d672c144d9ac8ffaa2d25e2e, type: 3}
  - {fileID: 21300000, guid: a7bcdb39fbf149141a375c55668eb3c7, type: 3}
  - {fileID: 21300000, guid: e5fe8d3923e2c014aaf515a74ed2b487, type: 3}
  - {fileID: 21300000, guid: de814f39f6ef45a49a54b3d940b3a1f9, type: 3}
  - {fileID: 21300000, guid: c9a84849ae75af24d9e31ee27ba07ff6, type: 3}
  - {fileID: 21300000, guid: b7820a4994a0dd54f99ff2efbbf8f304, type: 3}
  - {fileID: 21300000, guid: 5bb3dc49b8da08944a5ea4155ef30e3c, type: 3}
  - {fileID: 21300000, guid: 1e4bfc49f49c3ff42b009373b13e4108, type: 3}
  - {fileID: 21300000, guid: 429b42595b26e7d468b764093d2daf4d, type: 3}
  - {fileID: 21300000, guid: 74607459eada30143aaeae88dc8cbb9c, type: 3}
  - {fileID: 21300000, guid: ef656369c9ed88449a42b81e4a4749d5, type: 3}
  - {fileID: 21300000, guid: f2fb437979678124196c9aea316fa2ba, type: 3}
  - {fileID: 21300000, guid: 6aad1e79721e9054d8e38e8fa54b215a, type: 3}
  - {fileID: 21300000, guid: 76941489adfee8c48b17e6dbfc9587d6, type: 3}
  - {fileID: 21300000, guid: e959e489dfddffc4eb64d3b9b5098fcd, type: 3}
  - {fileID: 21300000, guid: 4ac9ad894af36614fbdc89cf7e4ac438, type: 3}
  - {fileID: 21300000, guid: 89fd0e895b26199498e05b80dfb97b29, type: 3}
  - {fileID: 21300000, guid: 9eeabe895e2e01e40b9ff53ef3f3f07f, type: 3}
  - {fileID: 21300000, guid: 4596729990197994fad37f3a6810847c, type: 3}
  - {fileID: 21300000, guid: 263840a9cda57cc4895f0ba1c89053d3, type: 3}
  - {fileID: 21300000, guid: 1de10ba9d6655c842bf063aab19f772c, type: 3}
  - {fileID: 21300000, guid: 6840c2b94a5faf14ca5fbe6fcff3188a, type: 3}
  - {fileID: 21300000, guid: a76de0c96a1a5df43a460e806252a5ff, type: 3}
  - {fileID: 21300000, guid: 1a1a54d90ea56744e936266705bf6dfa, type: 3}
  - {fileID: 21300000, guid: bf54e8d957da22a44b2e9db6a81114be, type: 3}
  - {fileID: 21300000, guid: a4e569d9373358144ae2d7b5c3bc315f, type: 3}
  - {fileID: 21300000, guid: 9216c2e939fb96f4e9b40d144ba9105c, type: 3}
  - {fileID: 21300000, guid: 89aee5e91e55d944d9fd9247b53656f5, type: 3}
  - {fileID: 21300000, guid: 6096f9e92c631e743b4004fb7ee5b0b0, type: 3}
  - {fileID: 21300000, guid: 045d3ae9a1ae4034bb600bc9ca6168b9, type: 3}
  - {fileID: 21300000, guid: e88554f9070ecff489499ebfbd49f404, type: 3}
  - {fileID: 21300000, guid: 902c5b1a6a4c8f14b8aa8c460604e869, type: 3}
  - {fileID: 21300000, guid: 65a3f42a80dcb9647a2d15acf3d3755e, type: 3}
  - {fileID: 21300000, guid: 44130d2adc54340a984ccd57d4bedc41, type: 3}
  - {fileID: 21300000, guid: 5aa5313a251e02340a378b4314b5818b, type: 3}
  - {fileID: 21300000, guid: a247813a165af0746825dcfc97379512, type: 3}
  - {fileID: 21300000, guid: 1db2394a1cb36b14bb092542af48aec9, type: 3}
  - {fileID: 21300000, guid: b4fd715a0a1d1b84e93404a2a9c3e564, type: 3}
  - {fileID: 21300000, guid: 2ba2c85a3171b3d418585f8806669561, type: 3}
  - {fileID: 21300000, guid: d14a1b6afaa572a4f83dc1de436ae91b, type: 3}
  - {fileID: 21300000, guid: 9e7f617a68ac6674894f2e405ff90a7e, type: 3}
  - {fileID: 21300000, guid: 89722f7a2bd6ec74cae5277e118889bb, type: 3}
  - {fileID: 21300000, guid: 6b69668aae270714eab9c013f7e26843, type: 3}
  - {fileID: 21300000, guid: 79004caa91ef29d41b66fe840fb7fba5, type: 3}
  - {fileID: 21300000, guid: f61f52cabc7fda34c8462a11ce35dd8e, type: 3}
  - {fileID: 21300000, guid: 44f083ca7c167404b8c22694dc7868b4, type: 3}
  - {fileID: 21300000, guid: edfb18ca5fe8e834e989ef05785a5ed9, type: 3}
  - {fileID: 21300000, guid: ccbf01da70c398a4b8d8b233c4b3a2c5, type: 3}
  - {fileID: 21300000, guid: 9e859b1b7cfbedb4798c27879de8131f, type: 3}
  - {fileID: 21300000, guid: ea81ac1bad1763d4ead5e8776f68bd0e, type: 3}
  - {fileID: 21300000, guid: 1a231d2bf2aa9c94a9ccafbea86858e6, type: 3}
  - {fileID: 21300000, guid: 54b3ff2b3d8b1f44da156d4f01465f7a, type: 3}
  - {fileID: 21300000, guid: 46a3aa3befee35249bdda2cdd9aebc38, type: 3}
  - {fileID: 21300000, guid: 187c194b8487e8a4b93cdf331dd8f366, type: 3}
  - {fileID: 21300000, guid: 1d85c65bb9d3372409166e8a5f4cf561, type: 3}
  - {fileID: 21300000, guid: 4111a95bfb460864f9b4c05db96de01a, type: 3}
  - {fileID: 21300000, guid: 8ba3706ba37b54d4b8f1ecd453fad3b2, type: 3}
  - {fileID: 21300000, guid: 8af6616bf5215374f978f404e9531b33, type: 3}
  - {fileID: 21300000, guid: c42d0d6bea382c0459a019067c856f7d, type: 3}
  - {fileID: 21300000, guid: 4a137a7b6c0bde548924ffb1fdbc3d80, type: 3}
  - {fileID: 21300000, guid: 0d80939baf2298a4ca74e3a897483f4e, type: 3}
  - {fileID: 21300000, guid: 6024a39b2b05447458555e430318ca1b, type: 3}
  - {fileID: 21300000, guid: d533499ba16295546b3927e26b21add1, type: 3}
  - {fileID: 21300000, guid: c081c7ab21e3c144999df9fa39ce21e6, type: 3}
  - {fileID: 21300000, guid: d96c69ab2c74fa746a809c65c3a81f76, type: 3}
  - {fileID: 21300000, guid: 45fd89ab6bea50748922fb52684deea3, type: 3}
  - {fileID: 21300000, guid: df391aab46c43c44bb801451b1094cc8, type: 3}
  - {fileID: 21300000, guid: b0b24aab4ca5ba8418741b08fa2f9762, type: 3}
  - {fileID: 21300000, guid: 23841eabc1b6382478b653f10a98b7c6, type: 3}
  - {fileID: 21300000, guid: d8f457bb0e116d84bbd7f555ccad50cf, type: 3}
  - {fileID: 21300000, guid: 7f65f8bbc2fa4884a8414d43ebc2ab6e, type: 3}
  - {fileID: 21300000, guid: 7c432abb1ce08324cbf79cb2cc52f564, type: 3}
  - {fileID: 21300000, guid: e661b0cb0b1e54349970debe59716f67, type: 3}
  - {fileID: 21300000, guid: c7547adb5eaf7464d8c6a249a8b8b796, type: 3}
  - {fileID: 21300000, guid: bf3b52eb4472000479fffe919602d088, type: 3}
  - {fileID: 21300000, guid: e24e18eb160cec548a6ddbd76a5e5ff9, type: 3}
  - {fileID: 21300000, guid: a3e71aeb84771f143b092d1515e5d055, type: 3}
  - {fileID: 21300000, guid: 361abceb5dac0244bad93da47041b289, type: 3}
  - {fileID: 21300000, guid: f2c1edeb0a8c4964ca6ee3bed03627e0, type: 3}
  - {fileID: 21300000, guid: e79365fb2910bc04b896309d8b14b92c, type: 3}
  - {fileID: 21300000, guid: 97dd85fb12af08443b897b93bba379d6, type: 3}
  - {fileID: 21300000, guid: 4ec91afb53678924bb8f297b0c2e88c5, type: 3}
  - {fileID: 21300000, guid: 60cc5e0ccb9149849aa9537f62244421, type: 3}
  - {fileID: 21300000, guid: 1a84661cc8df6af468fab94c611b184d, type: 3}
  - {fileID: 21300000, guid: ea639d1cf7a4f494bbd46e750e817537, type: 3}
  - {fileID: 21300000, guid: 3920612c7fd61c846a2ec1892c20a672, type: 3}
  - {fileID: 21300000, guid: d5abcc2cb67c8b94688f70336130f572, type: 3}
  - {fileID: 21300000, guid: d9549d2c0b41fea49817663a57a4857c, type: 3}
  - {fileID: 21300000, guid: c5aebe2c365c50c458d16c97948a49d9, type: 3}
  - {fileID: 21300000, guid: 1605983c21850e74384ce33f231cce31, type: 3}
  - {fileID: 21300000, guid: 76d5124cbd2c6aa40b82708551f79c8d, type: 3}
  - {fileID: 21300000, guid: e0a0d94c6fd7fc0469b6d741f7667078, type: 3}
  - {fileID: 21300000, guid: cef25c4c6aeb54a4cbaf52f95e9c6119, type: 3}
  - {fileID: 21300000, guid: 7313185c975c34e4fbdcc64212145115, type: 3}
  - {fileID: 21300000, guid: 978dbd6cf131cca468b714387a46a5e0, type: 3}
  - {fileID: 21300000, guid: 4e54238c9bffa8644849f6f6cfd49283, type: 3}
  - {fileID: 21300000, guid: e41fd78c34a83ef4c966606e0c0e9074, type: 3}
  - {fileID: 21300000, guid: 361f0a8cc191ceb4a9083364214c5b4a, type: 3}
  - {fileID: 21300000, guid: 4fa6ac8cbd5669a4c82e4bc3c5f0e2cf, type: 3}
  - {fileID: 21300000, guid: cb1fa9ac4c7283147b00660060f06ae0, type: 3}
  - {fileID: 21300000, guid: 2a9770bc7c9b077468250773e8673a18, type: 3}
  - {fileID: 21300000, guid: 2dee78bc2a330c84daabd23943f9fbbb, type: 3}
  - {fileID: 21300000, guid: dc2cdcbc64433cb4d9691d87ff5bb6a8, type: 3}
  - {fileID: 21300000, guid: 160a4dbc8caced340a142a70be5775fb, type: 3}
  - {fileID: 21300000, guid: 5581bfbc655656b4bb96287895789dcf, type: 3}
  - {fileID: 21300000, guid: 3cd4ebec9f78d1244909a9a7fcc17946, type: 3}
  - {fileID: 21300000, guid: 6d8e3c0d25af254449c6a59ad52ef755, type: 3}
  - {fileID: 21300000, guid: 56e43f0dad0c680468cbd905ac722b8f, type: 3}
  - {fileID: 21300000, guid: 1272701d6d6309445bfaf844323b4393, type: 3}
  - {fileID: 21300000, guid: 9b52311db237d5140833a20e028cabf1, type: 3}
  - {fileID: 21300000, guid: 845a891dab95ebc46bd8230d3173b90f, type: 3}
  - {fileID: 21300000, guid: f2fa991d372ab4c478b7a8eea4f92b42, type: 3}
  - {fileID: 21300000, guid: 7d14472d467fde84480c01d888fed24c, type: 3}
  - {fileID: 21300000, guid: 03b01b2d8dca4e74aa05a983f75bf622, type: 3}
  - {fileID: 21300000, guid: cebe9f3df7700684b9644bd13b9e49b4, type: 3}
  - {fileID: 21300000, guid: aedba14d464dd8541ac48cda38fdbde3, type: 3}
  - {fileID: 21300000, guid: 0ddfd15d8422a66478e7a99ec5692d0c, type: 3}
  - {fileID: 21300000, guid: 5813ba5da1700234290f6f4f24f14099, type: 3}
  - {fileID: 21300000, guid: ac750f6daef1d7a44b56f37848c001df, type: 3}
  - {fileID: 21300000, guid: 2230b77d5bcb4c546a7ae83617ac8ffa, type: 3}
  - {fileID: 21300000, guid: 926f648d311f5a949854af833a173455, type: 3}
  - {fileID: 21300000, guid: 2e6b158daf9569f40b6c51b7b230ee16, type: 3}
  - {fileID: 21300000, guid: 0a87988dc39a44a4596335e1394ebad2, type: 3}
  - {fileID: 21300000, guid: 31b0779d26b4e9742b70c95112f0d47f, type: 3}
  - {fileID: 21300000, guid: ce360b9d4e3e2c94d8b08253a16fb2e5, type: 3}
  - {fileID: 21300000, guid: 485ead9dc3aef3a45acd1f2777bdd8fa, type: 3}
  - {fileID: 21300000, guid: f84e4cad0a8efa14996201ac31361bd6, type: 3}
  - {fileID: 21300000, guid: cb07bcad3db376e4e8114f34312fa381, type: 3}
  - {fileID: 21300000, guid: b86a06dde804fa9469c80150e072a9aa, type: 3}
  - {fileID: 21300000, guid: d54d2bddc62c6364a89590eae900c9e7, type: 3}
  - {fileID: 21300000, guid: 20a457fdd52e6a04a8f7d21c59d02cea, type: 3}
  - {fileID: 21300000, guid: 75e7820e84ba3e24e85ed09ef5a825d5, type: 3}
  - {fileID: 21300000, guid: 574f630e2f9cb314a84f56fac5c342fe, type: 3}
  - {fileID: 21300000, guid: df2b930e9490adb48ba84d688751588f, type: 3}
  - {fileID: 21300000, guid: df12291e75d497549ad6e8a91ea3c7da, type: 3}
  - {fileID: 21300000, guid: 27ccbc1ed9fb29d4ab27a8ff86b47438, type: 3}
  - {fileID: 21300000, guid: f9a17d1e51fed0541883fa53aaf1411a, type: 3}
  - {fileID: 21300000, guid: 430b962e1abf70d4d906850c0b482414, type: 3}
  - {fileID: 21300000, guid: 98261d2e04c97754b8258ac7767f1421, type: 3}
  - {fileID: 21300000, guid: 3568d33e357ad554b9817bcd974b5ce4, type: 3}
  - {fileID: 21300000, guid: 1084543e06a718d4cbcdbf8e72349b55, type: 3}
  - {fileID: 21300000, guid: 6ce54c4ee80a6de48b89b464ca491f33, type: 3}
  - {fileID: 21300000, guid: 2aef0a5e70109044dada666b2da322fe, type: 3}
  - {fileID: 21300000, guid: 9f19e66e3407ced4aa37543b3a679700, type: 3}
  - {fileID: 21300000, guid: b85cd86ebac3e7b4cba1a562c5792044, type: 3}
  - {fileID: 21300000, guid: 2998c08e5bcd8b849ac1e57d4a0cd0d3, type: 3}
  - {fileID: 21300000, guid: a75f178ebdd1f6e4784112759bedc4ac, type: 3}
  - {fileID: 21300000, guid: 1d314b9e2c9d25f4e89a378d3ae2b6bb, type: 3}
  - {fileID: 21300000, guid: 86ec01ae467dd604e9f0ed73a342f872, type: 3}
  - {fileID: 21300000, guid: 529eb5ae14f11184eb508b78032b3d16, type: 3}
  - {fileID: 21300000, guid: 7705babe62b325544b8300d4d38e1ccc, type: 3}
  - {fileID: 21300000, guid: 4ce23bbe7171daa449538829f94d22f2, type: 3}
  - {fileID: 21300000, guid: 198bbfbed73a0b14598a3dd706a5411d, type: 3}
  - {fileID: 21300000, guid: 9ed290ce44258a44bbec6072f32a8228, type: 3}
  - {fileID: 21300000, guid: a5c3b60f5c21a7444866c99bc9fb01f8, type: 3}
  - {fileID: 21300000, guid: 87c6a70f748d15c499ea9eba53507866, type: 3}
  - {fileID: 21300000, guid: 1226203ff0f767e41b0fbbe95f18063c, type: 3}
  - {fileID: 21300000, guid: 7a34a03f5bddadb4286e64e824359315, type: 3}
  - {fileID: 21300000, guid: ea911d3f7491e79439ffb6ad8c0c5b48, type: 3}
  - {fileID: 21300000, guid: b6aeed3f15567b646baf94e5bc062547, type: 3}
  - {fileID: 21300000, guid: b983904f523e4e042954ef4387f828b6, type: 3}
  - {fileID: 21300000, guid: d8b50c7f0cacd244d8708382854aa4ff, type: 3}
  - {fileID: 21300000, guid: f827738fdab3ef848b31e2717a342368, type: 3}
  - {fileID: 21300000, guid: 131c298fe6e911c439f2a53007c1f5de, type: 3}
  - {fileID: 21300000, guid: bd56849ff721e0d4abd94ea79c2eb080, type: 3}
  - {fileID: 21300000, guid: cbb003afc62abb54e84f64040a8977c8, type: 3}
  - {fileID: 21300000, guid: 641c43af7efe901428119fef27823275, type: 3}
  - {fileID: 21300000, guid: 50ef81bf2fa830a42833e7a7ce261194, type: 3}
  - {fileID: 21300000, guid: df7ee1bfc7d67ec4b902bd40c8e69020, type: 3}
  - {fileID: 21300000, guid: 8c3fd5bf7100298419da0e5aeae322e4, type: 3}
  - {fileID: 21300000, guid: a082a5cf6758a254ba613922edb4a56d, type: 3}
  - {fileID: 21300000, guid: 0005d1df2ca9d1e4382cd4db7ca799f5, type: 3}
  - {fileID: 21300000, guid: 07786fdf0b29c894f9be89d623eaad95, type: 3}
  - {fileID: 21300000, guid: 6991b0ef8d2ac7e46afd458facc3f7bc, type: 3}
  - {fileID: 21300000, guid: cb9195ef52f87b6428f4d15351a68568, type: 3}
  - {fileID: 21300000, guid: cb09c9ff1a2761f418c17f9f9adcd0ac, type: 3}
  m_PackedSpriteNamesToIndex:
  - king_chew1_08
  - king_sick_spit_18
  - tree_eat_apple.018
  - tree_pull_pear.008
  - tongue_drop_idle_05
  - king_swallow.006
  - tree_eat_apple.004
  - king_idle_no_tongue_06
  - banana_idle.001
  - bc_01
  - crowd_bg
  - vine_idle.002
  - tree_pear_snatch_05
  - king_eat_apple_11
  - Fishy_lose.028
  - pyramid_idle.004
  - king_turn_back_07
  - fish_eat.006
  - turn_idle_07
  - fishy_idle.004
  - king_swallow2_8
  - tree_eat_apple.001
  - tree_pull_pear.001
  - handy_idle.007
  - tree_eat_apple.009
  - dizzy_banana.007
  - king_swallow.007
  - speaker_02
  - king_idle.005
  - speaker_06
  - speaker_01
  - turn_idle_with_tongue_06
  - BIC cameo-animation_7
  - king_chew1_04
  - Fishy_lose.009
  - king_eat_banana_03
  - ball_chain_idle.002
  - fish_eat.012
  - pyramid_idle.007
  - king_eat_apple_02
  - king_eat_banana_16
  - turn_idle_08
  - tree_pear_snatch_10
  - Fishy_lose.011
  - tree_pull_pear.007
  - king_turn_04
  - tree_pull_pear.002
  - tree_pull_pear.010
  - rocky_idle.006
  - fish_eat.009
  - fish_eat.008
  - lil_skull_idle.007
  - king_eat_apple_03
  - king_sick_spit_01
  - king_eat_banana_14
  - king_chewing2_03
  - tree_eat_apple.017
  - king_eat_banana_07
  - king_turn_03
  - handy_idle.006
  - king_eat_apple_15
  - dizzy_banana.008
  - king_turn_05
  - king_swallow.001
  - king_swallow.008
  - throne
  - lil_skull_idle.001
  - king_eat_pear_10
  - turn_idle_05
  - king_turn_back_03
  - Fishy_lose.003
  - turn_idle_with_tongue_08
  - tree_idle.002
  - tongue_drop_idle_02
  - dizzy_banana.001
  - vine_idle.007
  - pyramid_idle.005
  - king_chewing2_05
  - turn_idle_04
  - tree_pull_pear.011
  - tree_pull_pear.014
  - Fishy_lose.024
  - Fishy_lose.018
  - king_idle_tongue_drop_02
  - tree_pull_pear.016
  - dizzy_banana.006
  - Fishy_lose.004
  - king_sick_spit_07
  - fishy_idle.005
  - Fishy_lose.006
  - tree_pear_snatch_06
  - king_swallow.005
  - tongue_drop_idle_07
  - flamer_idle.002
  - tree_pear_snatch_08
  - king_eat_apple_05
  - king_idle.002
  - king_eat_banana_13
  - king_idle.001
  - turn_idle_with_tongue_04
  - ball_chain_idle.001
  - bc_09
  - king_eat_apple_16
  - handy_idle.005
  - king_turn_07
  - king_sick_spit_03
  - bc_08
  - vine_idle.008
  - trunky_idle.005
  - king_swallow.010
  - king_sick_spit_02
  - pyramid_idle.002
  - BIC cameo-animation_5
  - king_idle.007
  - Fishy_lose.014
  - tree_pear_snatch_04
  - bc_03
  - king_eat_banana_04
  - tree_eat_apple.007
  - king_swallow2_10
  - Fishy_lose.016
  - king_turn_01
  - tree_pear_snatch_09
  - king_swallow2_6
  - king_swallow2_1
  - tree_idle.005
  - speaker_05
  - handy_idle.008
  - tree_pull_pear.012
  - fish_eat.010
  - lil_skull_idle.005
  - king_swallow2_7
  - Fishy_lose.022
  - fish_eat.011
  - king_idle_no_tongue_02
  - tree_eat_apple.015
  - king_idle_no_tongue_03
  - king_sick_spit_13
  - Fishy_lose.025
  - handy_idle.003
  - vine_idle.009
  - Fishy_lose.019
  - fish_eat.015
  - bc_05
  - tree_eat_apple.010
  - fishy_idle.002
  - tongue_drop_idle_03
  - fish_eat.013
  - speaker_07
  - king_eat_pear_09
  - king_turn_back_04
  - rocky_idle.004
  - king_sick_spit_08
  - ball_chain_idle.003
  - lil_skull_idle.002
  - king_eat_apple_14
  - Fishy_lose.013
  - gif mock version
  - king_swallow2_9
  - bc_02
  - ball_chain_idle.007
  - turn_idle_06
  - lil_skull_idle.003
  - tree_eat_apple.016
  - tree_pull_pear.015
  - fishy_idle.008
  - king_eat_apple_04
  - king_eat_pear_03
  - trunky_idle.006
  - king_turn_back_05
  - lil_skull_idle.008
  - rocky_idle.007
  - tongue_drop_idle_04
  - tongue_drop_idle_06
  - king_idle_no_tongue_01
  - vine_idle.005
  - king_eat_banana_09
  - vine_idle.004
  - flamer_idle.001
  - turn_idle_with_tongue_03
  - flamer_idle.006
  - tree_idle.006
  - king_eat_pear_04
  - Fishy_lose.002
  - tree_idle.004
  - tree_eat_apple.019
  - king_idle_no_tongue_05
  - turn_idle_with_tongue_01
  - dizzy_banana.004
  - crowd_editor_image
  - Fishy_lose.023
  - fishy_idle.007
  - speaker_08
  - lil_skull_idle.006
  - fish_eat.020
  - vine_idle.001
  - trunky_idle.001
  - ball_chain_idle.004
  - Fishy_lose.001
  - fish_eat.003
  - king_chewing2_06
  - king_idle.008
  - king_idle.004
  - speaker_03
  - king_eat_pear_14
  - BIC cameo-animation_6
  - tongue_drop_idle_01
  - Fishy_lose.015
  - king_sick_spit_11
  - BIC cameo-animation_0
  - tree_pull_pear.009
  - rocky_idle.001
  - king_idle_tongue_drop_01
  - turn_idle_02
  - king_sick_spit_14
  - dizzy_banana.003
  - Barrier graphic
  - king_eat_pear_08
  - fish_eat.005
  - fish_eat.007
  - small_light_02
  - tree_pull_pear.004
  - banana_idle.006
  - king_eat_apple_10
  - tree_pull_pear.013
  - fish_eat.019
  - flamer_idle.008
  - king_eat_pear_02
  - king_idle_tongue_drop_04
  - Redder Bar
  - tree_idle.001
  - start_barrier_full
  - king_eat_apple_07
  - king_eat_pear_16
  - tree_eat_apple.003
  - fish_eat.014
  - BIC cameo-animation_3
  - tree_idle.003
  - pyramid_idle.003
  - handy_idle.004
  - fish_eat.016
  - vine_idle.006
  - king_sick_spit_15
  - king_swallow2_5
  - king_eat_apple_08
  - trunky_idle.004
  - king_swallow2_3
  - Fishy_lose.021
  - king_idle_no_tongue_08
  - king_swallow.009
  - Fishy_lose.007
  - king_swallow2_2
  - pyramid_idle.006
  - floodlight_01
  - king_eat_banana_15
  - fish_eat.002
  - king_idle_no_tongue_04
  - small_light_01
  - tree_eat_apple.005
  - dizzy_banana.005
  - king_eat_apple_12
  - banana_idle.005
  - tree_eat_apple.008
  - king_sick_spit_16
  - king_eat_banana_05
  - king_eat_pear_05
  - king_swallow.003
  - king_idle_tongue_drop_08
  - king_turn_back_01
  - tree_pear_snatch_07
  - king_eat_pear_11
  - Fishy_lose.008
  - lil_skull_idle.004
  - ball_chain_idle.006
  - trunky_idle.002
  - king_idle_tongue_drop_05
  - turn_idle_with_tongue_05
  - king_idle.003
  - banana_idle.004
  - tree_eat_apple.013
  - king_sick_spit_04
  - king_idle_tongue_drop_07
  - king_chew1_05
  - king_swallow2_4
  - Fishy_lose.027
  - floodlight_02
  - tree_pull_pear.003
  - king_eat_banana_08
  - king_eat_apple_01
  - banana_idle.007
  - king_eat_apple_09
  - handy_idle.001
  - king_sick_spit_17
  - king_idle_no_tongue_07
  - tree_eat_apple.011
  - tree_pull_pear.005
  - tree_idle.008
  - Bluer Bar
  - king_chew1_07
  - king_chew1_02
  - tree_eat_apple.014
  - tree_eat_apple.006
  - king_turn_back_02
  - trunky_idle.003
  - banana_idle.003
  - calendar just rings
  - rocky_idle.005
  - vine_idle.003
  - fishy_idle.003
  - banana_idle.008
  - banana_idle.002
  - king_idle_tongue_drop_03
  - king_chewing2_08
  - Fishy_lose.026
  - king_sick_spit_09
  - pyramid_idle.001
  - king_eat_pear_15
  - king_sick_spit_05
  - king_sick_spit_12
  - tree_pear_snatch_02
  - rocky_idle.008
  - Fishy_lose.012
  - fish_eat.021
  - king_turn_02
  - fishy_idle.006
  - fishy_idle.001
  - fish_eat.017
  - tree_eat_apple.002
  - BIC cameo-animation_4
  - ball_chain_idle.005
  - bc_07
  - king_eat_pear_13
  - tongue_drop_idle_09
  - bc_04
  - trunky_idle.007
  - fish_eat.001
  - tree_pear_snatch_11
  - turn_idle_with_tongue_02
  - pyramid_idle.008
  - king_eat_banana_01
  - logo_bar
  - king_sick_spit_10
  - king_eat_banana_12
  - Fishy_lose.017
  - fish_eat.004
  - king_eat_pear_07
  - king_sick_spit_06
  - king_chewing2_02
  - king_chewing2_04
  - rocky_idle.002
  - Fishy_lose.005
  - king_turn_back_06
  - king_eat_banana_10
  - king_eat_banana_11
  - tree_pear_snatch_03
  - king_eat_banana_02
  - BIC cameo-animation_1
  - tree_pear_snatch_12
  - king_eat_pear_01
  - king_chewing2_07
  - turn_idle_with_tongue_07
  - king_eat_pear_06
  - Fishy_lose.020
  - bc_06
  - rocky_idle.003
  - flamer_idle.003
  - flamer_idle.007
  - trunky_idle.008
  - tree_pull_pear.006
  - tree_eat_apple.012
  - ball_chain_idle.008
  - turn_idle_01
  - calendar
  - tree_idle.007
  - king_eat_apple_06
  - speaker_04
  - handy_idle.002
  - king_eat_banana_06
  - king_chew1_01
  - king_chew1_03
  - tree_pear_snatch_14
  - flamer_idle.004
  - flamer_idle.005
  - king_chewing2_01
  - king_idle.006
  - BIC cameo-animation_2
  - king_swallow.004
  - king_chew1_06
  - turn_idle_03
  - fish_eat.018
  - king_swallow.002
  - Yellower Bar
  - king_turn_06
  - Fishy_lose.010
  - king_eat_apple_13
  - tree_pear_snatch_01
  - tree_pear_snatch_13
  - dizzy_banana.002
  - king_eat_pear_12
  - king_idle_tongue_drop_06
  m_RenderDataMap: {}
  m_Tag: Items - Start
  m_IsVariant: 0
