%YAML 1.1
%TAG !u! tag:unity3d.com,2011:
--- !u!687078895 &4343727234628468602
SpriteAtlas:
  m_ObjectHideFlags: 0
  m_CorrespondingSourceObject: {fileID: 0}
  m_PrefabInstance: {fileID: 0}
  m_PrefabAsset: {fileID: 0}
  m_Name: Items - Enemy Respawner
  m_EditorData:
    serializedVersion: 2
    textureSettings:
      serializedVersion: 2
      anisoLevel: 1
      compressionQuality: 50
      maxTextureSize: 2048
      textureCompression: 0
      filterMode: 1
      generateMipMaps: 0
      readable: 0
      crunchedCompression: 0
      sRGB: 1
    platformSettings: []
    packingSettings:
      serializedVersion: 2
      padding: 4
      blockOffset: 1
      allowAlphaSplitting: 0
      enableRotation: 1
      enableTightPacking: 1
      enableAlphaDilation: 0
    secondaryTextureSettings: {}
    variantMultiplier: 1
    packables:
    - {fileID: 102900000, guid: 87c60b614e13d46da8b4e47f7989f2bb, type: 3}
    bindAsDefault: 1
    isAtlasV2: 0
    cachedData: {fileID: 0}
    packedSpriteRenderDataKeys:
    - 37714d103e0ad476891ed044a14b3cd8: 21300000
    - d9b847501a6c342f780ed5b92b4a97c0: 21300000
    - 63b5a92174a7945599642f883a8bcb85: 21300000
    - 005aeeb1f7d8d424ab0974d82eda4b34: 21300000
    - e5ea464278f544c3e90e7dd65d1ad64b: 21300000
    - 953dc492cb7d0458aa91c8059bb350b8: 21300000
    - d272c6c26e82642e6969c215f95b8743: 21300000
    - fc9de413add464eb2bb1889f55837a98: 21300000
    - f36dcf13684aa45208527f8a5273941e: 21300000
    - a335ff131846f4c13ace219e9b79a89f: 21300000
    - 2a6df0833b11140b585e49774024cb24: 21300000
    - 924b848332dde4217b40b841e0aa96bd: 21300000
    - 610b09b36b2074d689e832da4b71689f: 21300000
    - 7131d2c35e20241438600d11fc0560b4: 21300000
    - 5e7ab7d3706e544d083501c5c8003092: 21300000
    - 6576def30c4e347c29866755480462dc: 21300000
    - d82eee24915c246be900ac471803d917: 21300000
    - efa2477441c3747e99d34d90a8621f4a: 21300000
    - d23e91d47bc904a42a6a06fdd6ba7e62: 21300000
    - 935ddbc566f1e43f58dbe6b6eaa1045a: 21300000
    - d42fbae53215f4e2f9d32e0505474331: 21300000
    - a74857260950349d6bcd4083639f95e8: 21300000
    - 7a35b596862a7442a95d71135e0fa283: 21300000
    - c71bc4d6dd14d4c5cac3557a961acb70: 21300000
    - 705411577ab854b8a9b295674cd5cdd2: 21300000
    - 1dbe4167b8a244798a99aeda65d570c9: 21300000
    - 52857f58c813743efb15a66bfd055676: 21300000
    - fed920e8c008f420081f4918eaa38abc: 21300000
    - 5a0183291420749d793a08698599cbdc: 21300000
    - 55b74ca98056b437ebc50e8101e9cbd5: 21300000
    - e9d649e92afdf4d40aa3f924d57d2521: 21300000
    - f07522f9ce31a48a1b97e0d927beafbe: 21300000
    - f094d8f9227964cb08ec7cbc05b80b2a: 21300000
    - cdebea2a88ce74c1789e195cdb19c504: 21300000
    - b5c26f8afec394e1394f32c469508a3a: 21300000
    - 7c1298aa7f9c74a3883cc8e0057fbe4d: 21300000
    - 440003fad3f114048a649130e887ccda: 21300000
    - 7b549c2c5d66e4d97b9fa9c766c65a67: 21300000
    - e4f2de2cc90924924801f0318cb2f11a: 21300000
    - 95836a7ccaa2541e2b801b051e41289f: 21300000
    - feabfbacfc3de4d04b3e490194692524: 21300000
    - ba21630d2d4184e6fa1a26a75690b192: 21300000
    - 84f7b50d211cc4fdb98e6bee1781608b: 21300000
    - f62f309d0b9634653b8194d291581fa8: 21300000
    - be8e40bd79054476f840ac573df477e8: 21300000
    - 92f1b3cdc825c4121a5dde1bdfc0940f: 21300000
    - d088cd3e306764a639f013c81e608dd6: 21300000
    - f34033cf90020491aad5c859323fa218: 21300000
  m_MasterAtlas: {fileID: 0}
  m_PackedSprites:
  - {fileID: 21300000, guid: 37714d103e0ad476891ed044a14b3cd8, type: 3}
  - {fileID: 21300000, guid: d9b847501a6c342f780ed5b92b4a97c0, type: 3}
  - {fileID: 21300000, guid: 63b5a92174a7945599642f883a8bcb85, type: 3}
  - {fileID: 21300000, guid: 005aeeb1f7d8d424ab0974d82eda4b34, type: 3}
  - {fileID: 21300000, guid: e5ea464278f544c3e90e7dd65d1ad64b, type: 3}
  - {fileID: 21300000, guid: 953dc492cb7d0458aa91c8059bb350b8, type: 3}
  - {fileID: 21300000, guid: d272c6c26e82642e6969c215f95b8743, type: 3}
  - {fileID: 21300000, guid: fc9de413add464eb2bb1889f55837a98, type: 3}
  - {fileID: 21300000, guid: f36dcf13684aa45208527f8a5273941e, type: 3}
  - {fileID: 21300000, guid: a335ff131846f4c13ace219e9b79a89f, type: 3}
  - {fileID: 21300000, guid: 2a6df0833b11140b585e49774024cb24, type: 3}
  - {fileID: 21300000, guid: 924b848332dde4217b40b841e0aa96bd, type: 3}
  - {fileID: 21300000, guid: 610b09b36b2074d689e832da4b71689f, type: 3}
  - {fileID: 21300000, guid: 7131d2c35e20241438600d11fc0560b4, type: 3}
  - {fileID: 21300000, guid: 5e7ab7d3706e544d083501c5c8003092, type: 3}
  - {fileID: 21300000, guid: 6576def30c4e347c29866755480462dc, type: 3}
  - {fileID: 21300000, guid: d82eee24915c246be900ac471803d917, type: 3}
  - {fileID: 21300000, guid: efa2477441c3747e99d34d90a8621f4a, type: 3}
  - {fileID: 21300000, guid: d23e91d47bc904a42a6a06fdd6ba7e62, type: 3}
  - {fileID: 21300000, guid: 935ddbc566f1e43f58dbe6b6eaa1045a, type: 3}
  - {fileID: 21300000, guid: d42fbae53215f4e2f9d32e0505474331, type: 3}
  - {fileID: 21300000, guid: a74857260950349d6bcd4083639f95e8, type: 3}
  - {fileID: 21300000, guid: 7a35b596862a7442a95d71135e0fa283, type: 3}
  - {fileID: 21300000, guid: c71bc4d6dd14d4c5cac3557a961acb70, type: 3}
  - {fileID: 21300000, guid: 705411577ab854b8a9b295674cd5cdd2, type: 3}
  - {fileID: 21300000, guid: 1dbe4167b8a244798a99aeda65d570c9, type: 3}
  - {fileID: 21300000, guid: 52857f58c813743efb15a66bfd055676, type: 3}
  - {fileID: 21300000, guid: fed920e8c008f420081f4918eaa38abc, type: 3}
  - {fileID: 21300000, guid: 5a0183291420749d793a08698599cbdc, type: 3}
  - {fileID: 21300000, guid: 55b74ca98056b437ebc50e8101e9cbd5, type: 3}
  - {fileID: 21300000, guid: e9d649e92afdf4d40aa3f924d57d2521, type: 3}
  - {fileID: 21300000, guid: f07522f9ce31a48a1b97e0d927beafbe, type: 3}
  - {fileID: 21300000, guid: f094d8f9227964cb08ec7cbc05b80b2a, type: 3}
  - {fileID: 21300000, guid: cdebea2a88ce74c1789e195cdb19c504, type: 3}
  - {fileID: 21300000, guid: b5c26f8afec394e1394f32c469508a3a, type: 3}
  - {fileID: 21300000, guid: 7c1298aa7f9c74a3883cc8e0057fbe4d, type: 3}
  - {fileID: 21300000, guid: 440003fad3f114048a649130e887ccda, type: 3}
  - {fileID: 21300000, guid: 7b549c2c5d66e4d97b9fa9c766c65a67, type: 3}
  - {fileID: 21300000, guid: e4f2de2cc90924924801f0318cb2f11a, type: 3}
  - {fileID: 21300000, guid: 95836a7ccaa2541e2b801b051e41289f, type: 3}
  - {fileID: 21300000, guid: feabfbacfc3de4d04b3e490194692524, type: 3}
  - {fileID: 21300000, guid: ba21630d2d4184e6fa1a26a75690b192, type: 3}
  - {fileID: 21300000, guid: 84f7b50d211cc4fdb98e6bee1781608b, type: 3}
  - {fileID: 21300000, guid: f62f309d0b9634653b8194d291581fa8, type: 3}
  - {fileID: 21300000, guid: be8e40bd79054476f840ac573df477e8, type: 3}
  - {fileID: 21300000, guid: 92f1b3cdc825c4121a5dde1bdfc0940f, type: 3}
  - {fileID: 21300000, guid: d088cd3e306764a639f013c81e608dd6, type: 3}
  - {fileID: 21300000, guid: f34033cf90020491aad5c859323fa218, type: 3}
  m_PackedSpriteNamesToIndex:
  - respawn_effect_08
  - orb_charge_05
  - elec_respawn.09
  - bolt1.001
  - orb_charge_01
  - respawn_effect_12
  - elec_respawn.12
  - respawn_effect_09
  - respawn_effect_11
  - enemy_respawner
  - elec_respawn.03
  - orb_charge_01
  - respawn_orb_idle.007
  - elec_respawn.05
  - bolt1.003
  - elec_respawn.07
  - orb_charge_04
  - elec_respawn.02
  - respawn_effect_01
  - respawn_effect_07
  - respawn_orb_idle.005
  - respawn_orb_idle.002
  - orb_charge_04
  - respawn_effect_05
  - orb_charge_03
  - respawn_effect_10
  - orb_charge_02
  - respawn_orb_idle.004
  - bolt1.004
  - respawn_orb_idle.003
  - orb_charge_06
  - bolt1.002
  - respawn_effect_04
  - elec_respawn.04
  - elec_respawn.06
  - respawn_orb_idle.006
  - respawn_orb_idle.001
  - elec_respawn.10
  - orb_charge_06
  - elec_respawn.08
  - respawn_effect_06
  - respawn_effect_03
  - orb_charge_05
  - elec_respawn.11
  - orb_charge_03
  - respawn_effect_02
  - elec_respawn.01
  - orb_charge_02
  m_RenderDataMap: {}
  m_Tag: Items - Enemy Respawner
  m_IsVariant: 0
