%YAML 1.1
%TAG !u! tag:unity3d.com,2011:
--- !u!687078895 &4343727234628468602
SpriteAtlas:
  m_ObjectHideFlags: 0
  m_CorrespondingSourceObject: {fileID: 0}
  m_PrefabInstance: {fileID: 0}
  m_PrefabAsset: {fileID: 0}
  m_Name: Items - Hot N Cold Springs
  m_EditorData:
    serializedVersion: 2
    textureSettings:
      serializedVersion: 2
      anisoLevel: 1
      compressionQuality: 50
      maxTextureSize: 2048
      textureCompression: 0
      filterMode: 1
      generateMipMaps: 0
      readable: 0
      crunchedCompression: 0
      sRGB: 1
    platformSettings:
    - serializedVersion: 3
      m_BuildTarget: DefaultTexturePlatform
      m_MaxTextureSize: 2048
      m_ResizeAlgorithm: 0
      m_TextureFormat: -1
      m_TextureCompression: 1
      m_CompressionQuality: 50
      m_CrunchedCompression: 0
      m_AllowsAlphaSplitting: 0
      m_Overridden: 0
      m_IgnorePlatformSupport: 0
      m_AndroidETC2FallbackOverride: 0
      m_ForceMaximumCompressionQuality_BC6H_BC7: 0
    packingSettings:
      serializedVersion: 2
      padding: 4
      blockOffset: 1
      allowAlphaSplitting: 0
      enableRotation: 1
      enableTightPacking: 1
      enableAlphaDilation: 0
    secondaryTextureSettings: {}
    variantMultiplier: 1
    packables:
    - {fileID: 102900000, guid: e47caef87b94af44082d9caee5c30623, type: 3}
    - {fileID: 102900000, guid: 9959aa129813543488d43d84adbb2229, type: 3}
    - {fileID: 102900000, guid: d6215eac55a3b67488b72b7f8b16d989, type: 3}
    - {fileID: 102900000, guid: 444d27f7dbb584861b0888c5c8883746, type: 3}
    - {fileID: 102900000, guid: debec19ef9ffadc4b9c99fd4b21b6d55, type: 3}
    - {fileID: 102900000, guid: d7ac9423b7505c24e9cadca27ac71407, type: 3}
    - {fileID: 102900000, guid: 389972b1f225b4b9593d9892e2e9e9fe, type: 3}
    bindAsDefault: 1
    isAtlasV2: 0
    cachedData: {fileID: 0}
    packedSpriteRenderDataKeys:
    - 5d13c800823d9594aa5a8cfbb495f167: 21300000
    - 7e33a2106b4c8480196520e63a8a2eaa: 21300000
    - f26d9310550c3e449b854b519256b5a1: 21300000
    - 19b3bc107ad1141dabe7adb9bd65dd8f: 21300000
    - befc6720df6ed4279b6abc9419dec4e6: 21300000
    - 7a1f9920193dc4910b62bd31731490e1: 21300000
    - f6743c20fb6a32f4c92edafd3f5f56bb: 21300000
    - d9000d305eac04a7080ff5e158228751: 21300000
    - 2de9914051f9944269db1c3aeca00592: 21300000
    - 923f5750dceb13e48b915b003374b72e: 21300000
    - 7626bb503840b3b488ca5e9d9946fc8d: 21300000
    - 38bfaa707ae7747ecaee6a2c88611861: 21300000
    - d6ab919039fc6471e8522a3494c94e55: -7924534180093466451
    - d6ab919039fc6471e8522a3494c94e55: -2366145386321246535
    - d6ab919039fc6471e8522a3494c94e55: 6359212104171594907
    - d6ab919039fc6471e8522a3494c94e55: 2762734921385227477
    - d6ab919039fc6471e8522a3494c94e55: 2778257508037431230
    - d6ab919039fc6471e8522a3494c94e55: 9184225848876310037
    - d6ab919039fc6471e8522a3494c94e55: -3790605217897161756
    - d6ab919039fc6471e8522a3494c94e55: 328340082050753144
    - d6ab919039fc6471e8522a3494c94e55: -3292088304006991162
    - d6ab919039fc6471e8522a3494c94e55: -1501826504936036830
    - d6ab919039fc6471e8522a3494c94e55: 2405862273342815360
    - d6ab919039fc6471e8522a3494c94e55: -4906270728748816772
    - d6ab919039fc6471e8522a3494c94e55: -1776899525905285508
    - d6ab919039fc6471e8522a3494c94e55: 8015690389542405387
    - d6ab919039fc6471e8522a3494c94e55: -7186848747539613554
    - d6ab919039fc6471e8522a3494c94e55: 5185039445543679603
    - 3a093b908a6f9da42ba45668633e4eb2: 21300000
    - 361eee904fd2e064e852975b677f08b8: 21300000
    - 6574f7b0c975243a5b8672e142f416f4: -9221409895501486366
    - 6574f7b0c975243a5b8672e142f416f4: 9055307217538360151
    - 6574f7b0c975243a5b8672e142f416f4: 5391846149488760826
    - 6574f7b0c975243a5b8672e142f416f4: 886026201524138264
    - 6574f7b0c975243a5b8672e142f416f4: -3956562699316477787
    - 6574f7b0c975243a5b8672e142f416f4: 6944364831688554042
    - 6574f7b0c975243a5b8672e142f416f4: -4629694617278096115
    - 6574f7b0c975243a5b8672e142f416f4: 3219679979999415392
    - 6574f7b0c975243a5b8672e142f416f4: -5521358013813904665
    - 6574f7b0c975243a5b8672e142f416f4: 6260962151055210617
    - 6574f7b0c975243a5b8672e142f416f4: -3406780801015047802
    - 6574f7b0c975243a5b8672e142f416f4: 1537178565488875386
    - 6574f7b0c975243a5b8672e142f416f4: -3417531336641853836
    - 6574f7b0c975243a5b8672e142f416f4: 7458239403395864056
    - 6574f7b0c975243a5b8672e142f416f4: -6795643659195977510
    - 6574f7b0c975243a5b8672e142f416f4: 8261495563970623203
    - 583e8eb0def554729b15b7e95fb290ed: 21300000
    - d4c403c052ba841b5a06f93b70a98220: 21300000
    - e20173c03e13c4515a38bd5c282fc29a: 21300000
    - 2ec9a9c0e1d52463d874e6ea5351efe8: 21300000
    - adc305e076fef45369a02711622cbfc1: 21300000
    - 1bc327e091f44324caf8f4020613742c: 21300000
    - 7f669ee0a7c0728418f05156eaeccea9: 21300000
    - e56d1811ce5f32245b02dc99a560e210: 21300000
    - 25474931afd74457d944833e7e1925de: 21300000
    - a4623341829584cd5aadbc6c070b139b: 21300000
    - b1b77d515986f460383b64a979ee9018: 21300000
    - 931925819ed1a684fad2f64dbacc6d52: 21300000
    - 0d2bc6818f59f46d1acb192410b205e2: 21300000
    - 1b58ba81f815652489f7007461f75e77: 21300000
    - 68186d814c00c4596b32149ece647249: 21300000
    - e6875e81592be40b58435b47a599e186: 21300000
    - 21306f8153f09421393158baea44cf8c: 21300000
    - 5658eea105b65411e8856de313d9ba31: 21300000
    - f247fdb15b53b4423b34dcbc629c7f28: 21300000
    - d4a72eb16e9b94b778a63b78e5e47b8c: 21300000
    - df5f91d194da64f6cb86a792eeedb913: 21300000
    - 0ec4e0e122cdc48daae830ac58b3c289: 21300000
    - 89eb0912b0fe54f008cbbb16aabae317: 21300000
    - 35dca522e1451b04fae7b8b9c4c12973: 21300000
    - 7ccb7622d2b064080bc693609236cd44: 21300000
    - bb9a8532229e4475eb5ba754ce3a2105: 21300000
    - 3a7ce6327d2c48f4a9d70d7799aca9d4: 21300000
    - a53d4732a8ae6474e991de3692f2d7e4: 21300000
    - 27f6f152389a746458f1fdef53fbe21b: 21300000
    - 8fdb0462de8f7094586f53cde9922dd8: 21300000
    - dd7a13720433f24428158e0149d8f9a6: 21300000
    - 0aba7572b09c943b5a38b566301b1555: 21300000
    - d88735825d738dc43b1c0c3e117db65d: 21300000
    - e1dcd5821f93dbb4daa9d55e8ba88b87: 21300000
    - dfb3a882eea1f4c9cb714283871cf292: 21300000
    - f03c9d82d0c654652976815b822da3d5: 21300000
    - 05e6bfb2b4c284eff8e4a8e37d85b825: 21300000
    - c3c6c2c27507fe9419561698f5518974: 21300000
    - 656bb4d23908f894798c5973eb39d50f: 21300000
    - 8ab0aed29d74c954dba75a04e55e2386: 21300000
    - acb8aed2fd77a42409230751dea7691a: -8742945842693196690
    - acb8aed2fd77a42409230751dea7691a: -1925252421047512872
    - acb8aed2fd77a42409230751dea7691a: -8453617647471226059
    - acb8aed2fd77a42409230751dea7691a: -2179715588125131581
    - acb8aed2fd77a42409230751dea7691a: 1795596213868720570
    - acb8aed2fd77a42409230751dea7691a: 8084197580752241814
    - acb8aed2fd77a42409230751dea7691a: -2334425166542801139
    - acb8aed2fd77a42409230751dea7691a: 1459551260782060380
    - acb8aed2fd77a42409230751dea7691a: 7130023535872906464
    - acb8aed2fd77a42409230751dea7691a: 1715933573496026995
    - acb8aed2fd77a42409230751dea7691a: -8910063260628845509
    - acb8aed2fd77a42409230751dea7691a: 9208151600417428239
    - acb8aed2fd77a42409230751dea7691a: 6637877724735436421
    - acb8aed2fd77a42409230751dea7691a: 7029458342713356479
    - acb8aed2fd77a42409230751dea7691a: 7367503874114706867
    - acb8aed2fd77a42409230751dea7691a: -5210310426830478718
    - 30c56ce20c0484cdd9c1d5586dce4e32: 21300000
    - f5b2bbf2d3c57480bab1fe03fbebfb54: 21300000
    - 03ee2f139957f4c2a884d6d77301ebc8: 21300000
    - 78fa5a23d96990f40844eed2c1a0cbc9: 21300000
    - 5c1c803369b8f4a09a623b57b6d9e0c2: 21300000
    - 19158b437a2276741abd929b2535df8e: 21300000
    - 77f89153260b31b45b326b28f4767582: 21300000
    - b03ba563c85639d48be0fe67271d7abe: 21300000
    - 79260763742f2f34988e7ad1dad6e73f: 21300000
    - 810b0bb3e3ac949aa99f9a9800d23a84: 21300000
    - 8ebf5bd3c16d74fe3a217cbef54c772c: 21300000
    - 16360fd367c975f4e887a2f2edf457e0: 21300000
    - 11c282e3ebd794487946f177106bb969: 21300000
    - 0e8e13e3477e2714188cb6d49c475d88: 21300000
    - 9bbcf104379834484b5f73cb6d8f3c0a: 21300000
    - 2e95bd048f171487f87aa00c81077ea4: 21300000
    - d24be214e441e47e8809e9c95fe83d8f: -3765307815884483097
    - d24be214e441e47e8809e9c95fe83d8f: -8710167230822211806
    - d24be214e441e47e8809e9c95fe83d8f: 2315559395949948593
    - d24be214e441e47e8809e9c95fe83d8f: -5300531901610043213
    - d24be214e441e47e8809e9c95fe83d8f: 5743867330221495199
    - d24be214e441e47e8809e9c95fe83d8f: -1331179060484161257
    - d24be214e441e47e8809e9c95fe83d8f: -3958523551015199414
    - d24be214e441e47e8809e9c95fe83d8f: -1070965916152572818
    - d24be214e441e47e8809e9c95fe83d8f: 5640072116605570181
    - d24be214e441e47e8809e9c95fe83d8f: 6290607093790747456
    - d24be214e441e47e8809e9c95fe83d8f: -7722118240626842707
    - d24be214e441e47e8809e9c95fe83d8f: 7749872556270437858
    - d24be214e441e47e8809e9c95fe83d8f: -8424429946226017781
    - d24be214e441e47e8809e9c95fe83d8f: 3809089524042541981
    - d24be214e441e47e8809e9c95fe83d8f: -9079438165869239049
    - d24be214e441e47e8809e9c95fe83d8f: 7502289194851882246
    - 863e9624c4518cc40b53bda82dfc5e07: 21300000
    - 8bcbc534c30884e49bfa40be61845c71: 21300000
    - 9abad734b7902468290809bd5462445b: 21300000
    - 34ad2a341666c421b8c79450204b1572: 21300000
    - 3c70da4491ae07347bdf7948fb1b6029: 21300000
    - 99e53554bfd944a5f9d97179f392045a: 21300000
    - 74b4e87479bc44db1a0bec836367f15d: 21300000
    - 087433848211f3244b910197173136be: 21300000
    - dc64348456ab04b92a493a95fd4e5069: 21300000
    - 74681e840dce74cc6b4953611d53e907: 21300000
    - ab5f7ba4d70e446bebad3fdcd1ed29c1: 21300000
    - 74f1a3c4fbb1649a092c89d932004293: 21300000
    - 625ee4c444d484d5dbeafdea907dcd03: 21300000
    - d4f766c482833413db3aa2582b6dcc0d: 21300000
    - 6f9831d42d03f41dfb34042b16f5c563: 21300000
    - fe7287d4ba10e7a4199ea67125eba336: 21300000
    - a7b93dd48c5a2fa479edb6299f8c37cd: 21300000
    - 4abd90f444429254f8d397df7a4139af: 21300000
    - fe3b22f477cd34bf6b7c315beccf239f: -790833723658889836
    - fe3b22f477cd34bf6b7c315beccf239f: -160043154858023257
    - fe3b22f477cd34bf6b7c315beccf239f: -6275389703024009446
    - fe3b22f477cd34bf6b7c315beccf239f: -7263687544307428083
    - fe3b22f477cd34bf6b7c315beccf239f: -6230981692557896187
    - fe3b22f477cd34bf6b7c315beccf239f: 4340884665625681434
    - fe3b22f477cd34bf6b7c315beccf239f: 3297622646655938615
    - fe3b22f477cd34bf6b7c315beccf239f: 5715575530262892285
    - fe3b22f477cd34bf6b7c315beccf239f: 8247292426848766877
    - fe3b22f477cd34bf6b7c315beccf239f: -1411390019930123136
    - fe3b22f477cd34bf6b7c315beccf239f: -3374146177113579046
    - fe3b22f477cd34bf6b7c315beccf239f: -1706101054391301042
    - fe3b22f477cd34bf6b7c315beccf239f: -3683434229762725464
    - fe3b22f477cd34bf6b7c315beccf239f: 8000158520163374521
    - fe3b22f477cd34bf6b7c315beccf239f: 4187106893692273551
    - fe3b22f477cd34bf6b7c315beccf239f: 7834937831553533960
    - 0a4e03f4de4fc4941afcae7840fc4e47: 21300000
    - 6eda35f43d3244bbc98565d456df680c: 21300000
    - 4b3048f4848b65a41957074fb58a1613: 21300000
    - 1a1139f4fb6a8424cb15bd2699cb10a4: 21300000
    - 4efc2df470a6341f3ba6de2c6e34ed15: 21300000
    - 08807e351ba8944ce8f9e3a9459b848e: 21300000
    - 5c300d454e5a84f6cb87c6e0769850c8: 21300000
    - 0449a355bcee54b6f9f4ca8d92e18ece: 21300000
    - b0b16465f9596d740a7eb8ff2357da6a: 21300000
    - 3c7f8785afad7468f8f3a9994e812958: 21300000
    - 648750a513e2b43e98d24ad813f8d7de: 21300000
    - bf2701a5a54604ed784d06719bfd4c1e: 21300000
    - 15e574a5d27c34740bd95700fed224e4: 21300000
    - cbfab1b5221cb484bb912843a4b883f5: 21300000
    - bef99ab598b4ab84fb9cffb47cba3d9d: 21300000
    - db27e8c55be114c0f9582fb725e2aa38: 21300000
    - 1712cbc5e65764c18b8210d14a2ab75a: 21300000
    - 31a88dd5650fe45379c29229aa1cef54: 21300000
    - 54f174e57b3fea84aa9e021b6d74aca6: 21300000
    - d5fb3ae5d0bd547098661f9ab9576d0b: 21300000
    - 623b72f5455ae4a4b9048d4bd01f4bb4: 21300000
    - 472f8c0633a2a4146b12ff0c4bf1a661: 21300000
    - 95e02a160577c4217a88f29325563392: 21300000
    - 1efcf326f80553a46ac1c0d78ad4ba6b: 21300000
    - 6a6d94260e15b4ddf9674415c4e5eb4b: 21300000
    - fd38563697767d64498fa6b27931551b: 21300000
    - 12d50e469640942bebe5e9424864743d: 7182115282563593914
    - 12d50e469640942bebe5e9424864743d: -566259746307095996
    - 12d50e469640942bebe5e9424864743d: -7838015055055852716
    - 12d50e469640942bebe5e9424864743d: -6394453578487427884
    - 12d50e469640942bebe5e9424864743d: -166229982439660297
    - 12d50e469640942bebe5e9424864743d: 4884675460603767411
    - 12d50e469640942bebe5e9424864743d: 6335266470121818147
    - 12d50e469640942bebe5e9424864743d: 5120166228863553094
    - 12d50e469640942bebe5e9424864743d: -4162410125079905375
    - 12d50e469640942bebe5e9424864743d: 6352940207641540489
    - 12d50e469640942bebe5e9424864743d: -2854838662957073513
    - 12d50e469640942bebe5e9424864743d: -494439607010346168
    - 12d50e469640942bebe5e9424864743d: 2884186872187816214
    - 12d50e469640942bebe5e9424864743d: 4375328297675417499
    - 12d50e469640942bebe5e9424864743d: 2207706734551576689
    - 12d50e469640942bebe5e9424864743d: -9020656737272645405
    - 159fbe46976d244af877a0148e770166: 2828026146311229383
    - 159fbe46976d244af877a0148e770166: 3933673596296343483
    - 159fbe46976d244af877a0148e770166: -427175378498622672
    - 159fbe46976d244af877a0148e770166: 8785624179986068619
    - 159fbe46976d244af877a0148e770166: -7311743358065315545
    - 159fbe46976d244af877a0148e770166: -2833816775954118348
    - 159fbe46976d244af877a0148e770166: -3952018874738451840
    - 159fbe46976d244af877a0148e770166: 1007202399307312912
    - 159fbe46976d244af877a0148e770166: -2129636033122652232
    - 159fbe46976d244af877a0148e770166: -3455151111077981100
    - 159fbe46976d244af877a0148e770166: 9128212511509647461
    - 159fbe46976d244af877a0148e770166: 7569455707205138859
    - 159fbe46976d244af877a0148e770166: -3710369093748350032
    - 159fbe46976d244af877a0148e770166: -7301939417477911062
    - 159fbe46976d244af877a0148e770166: -5096208735606397493
    - 159fbe46976d244af877a0148e770166: -106957167764509694
    - e4302256bb7464091a2c9d98e58e0460: 21300000
    - bc637b56952924226adafe0a0a01c845: 21300000
    - 2b8b33667b10c4217a4c90c7f4f6a7f0: 21300000
    - 94e87e76ceac84504ab7b261293fa116: 21300000
    - 74926486c82e444ea864febc8b670c97: 21300000
    - 0fdb3d8682f5c4a67bf6f8587ddd2191: 21300000
    - fd0193962da3a4314b011fa337d3e7ae: 21300000
    - 3b29eca69867a8c4bbb97a04ca116fdd: 21300000
    - 9c824fa608c3d4c1ead07520ebbbbf72: -6972604024431775348
    - 9c824fa608c3d4c1ead07520ebbbbf72: 4978447715748575311
    - 9c824fa608c3d4c1ead07520ebbbbf72: -6865168830813781408
    - 9c824fa608c3d4c1ead07520ebbbbf72: 1220874029321223631
    - 9c824fa608c3d4c1ead07520ebbbbf72: -3503599758512683520
    - 9c824fa608c3d4c1ead07520ebbbbf72: 8820048377617171047
    - 9c824fa608c3d4c1ead07520ebbbbf72: -4870383999283011815
    - 9c824fa608c3d4c1ead07520ebbbbf72: -5590205444966847586
    - 9c824fa608c3d4c1ead07520ebbbbf72: -7475130112427036815
    - 9c824fa608c3d4c1ead07520ebbbbf72: -8198726463005301525
    - 9c824fa608c3d4c1ead07520ebbbbf72: -5482500010508311649
    - 9c824fa608c3d4c1ead07520ebbbbf72: -5941521611289699467
    - 9c824fa608c3d4c1ead07520ebbbbf72: -4089108930205908142
    - 9c824fa608c3d4c1ead07520ebbbbf72: -4629726410499273100
    - 9c824fa608c3d4c1ead07520ebbbbf72: 2956910228253702512
    - 9c824fa608c3d4c1ead07520ebbbbf72: -7664165305358616756
    - 9be68fd62d53d4e09baf220cc87f3c29: 21300000
    - 2c21afd62d50a91479c5b71bfe5eb990: 21300000
    - 70f4ace66cbde45438341669f2ae2115: 21300000
    - ee192ef6cfdaf0441ab85cad49264f48: 21300000
    - 9065e30740ce0ad40b9135c32d3f641f: 21300000
    - e8981717bd8c8b949adf27ba023a52d1: 21300000
    - 097b5e478a71b49d68b26f9f0598a747: 21300000
    - e7c761573d271be4eb20b02dc471ddc7: 21300000
    - c5e98857710247e4fae2873f138b7b41: 21300000
    - e1d31c774f98b4352ba9073ee037aeb2: 21300000
    - d4719387c1c9e7340b28b816dea07b10: 21300000
    - 1abb09a7dbdf94eee821f9e3a7a864e1: 21300000
    - d02cf0b7d460c4e379d4b3b0ea995299: 21300000
    - 2ac1deb703d8242d0812b0ad2604f9b7: -5105499053707738481
    - 2ac1deb703d8242d0812b0ad2604f9b7: -6348706426017525262
    - 2ac1deb703d8242d0812b0ad2604f9b7: 4527352354381316447
    - 2ac1deb703d8242d0812b0ad2604f9b7: 955087596843563012
    - 2ac1deb703d8242d0812b0ad2604f9b7: 8908462932599600320
    - 2ac1deb703d8242d0812b0ad2604f9b7: 3671431676122806463
    - 2ac1deb703d8242d0812b0ad2604f9b7: 1618096212860792765
    - 2ac1deb703d8242d0812b0ad2604f9b7: -1514548132086637576
    - 2ac1deb703d8242d0812b0ad2604f9b7: -1417338849179184242
    - 2ac1deb703d8242d0812b0ad2604f9b7: 789547482513056982
    - 2ac1deb703d8242d0812b0ad2604f9b7: -234602934137183551
    - 2ac1deb703d8242d0812b0ad2604f9b7: -8325605435510679712
    - 2ac1deb703d8242d0812b0ad2604f9b7: -6062772482386107967
    - 2ac1deb703d8242d0812b0ad2604f9b7: 159794163793376900
    - 2ac1deb703d8242d0812b0ad2604f9b7: 1290179882168308773
    - 2ac1deb703d8242d0812b0ad2604f9b7: 2833572986342128161
    - a1cb45d79fba78e4785834348744b10e: 21300000
    - 4afba8d7e221f42eaad77034ee263066: 21300000
    - 5dcca9f7a9a48493481849ef45f122c9: 21300000
    - 88c87e085ee2fd94ebd97516e867a045: 21300000
    - bb4bd418b88b74a87bb57e986ac4e811: 21300000
    - 058b1618c4c3cc743a54d36387423948: 21300000
    - b05771289c33d894a835bbfa74092c78: 21300000
    - 690863383e94048c6b6b96acbce64e2f: 21300000
    - 68a89638def6241afb17aa73591798ff: 21300000
    - d758027898d648d4198f9eac6ab5ce46: 21300000
    - 67690188ed65f4877996ae30612fbfc6: 21300000
    - 5a89b7885309c584da36d6240f3290bf: 21300000
    - 84fdf5a8a818c407fa73c0469650abca: 21300000
    - 363c48a8c5856467188928c43adab1e2: 21300000
    - d6ba68a8c684d432a8be59a85453758d: 21300000
    - 0e8e06b8f05254702b26ff128abb555f: 21300000
    - 3e0e7cb8e7e3c0a4fb5e3562ab8a2c35: 21300000
    - c8a99eb85e0a948b5aa1093a47f4994e: 21300000
    - f805edc83beee49a382bf382f1bf1e2c: 21300000
    - d01612d8a051f4243931750f09d72159: 21300000
    - fc8946d80701a45168297bc2249368e2: 21300000
    - c4ef81e8d7c0d46748cfe385c92eef6f: 21300000
    - 56d57009b33a44420bc807999dd38318: 21300000
    - 69fa0709d86fe4b7091b3f43d55c5f38: 21300000
    - fcbe2519eaded4f88b9356368c472f88: 21300000
    - 7b52202961e1eb749a78dd4c17fb28d2: 21300000
    - e0cffa2964f4bc14182ab5ac53adaa07: 21300000
    - f6d1fb29b084de7468079518b5a5e5e7: 21300000
    - 24e098396a93244e8998d89e5ba10fb1: 21300000
    - c8d520497f5461b4b96fc61ab85016ec: 21300000
    - 555759491354c4987aca80c3832ab879: 21300000
    - a7a26159d2a5145fd9e14bd6a4fde319: 21300000
    - e4c91469932d6464986747df3803831a: 21300000
    - 896dba69a005b4315a34c0ecaac30f69: 21300000
    - 28d41e69ed6eb4973a9ce0026624f397: 21300000
    - 5ae33c89f36f8494b9bd199a9b3204bd: 21300000
    - 63d14d891de034349bb38ef8971d2379: 21300000
    - c327fa994c0f9455684a23c853f14833: 21300000
    - 1fefcb994e9c32544877f21f714efaaf: 21300000
    - c9942ea9cc91646afbda44e3922fc7e4: 21300000
    - 574dfdb97ac5d40c686730ab10789439: 21300000
    - a4bb7ec93b81843689a4a5d6a16bdc2e: 21300000
    - 26e429d9dbd504cfeb0aede6e087da32: 21300000
    - 8829bcd9b1e7b9e4ead46a498431f695: 21300000
    - d0856ed93f5c1504f87b49f4c0a816ed: 21300000
    - f917b4f9cb3e8c34fb4ec4c241336254: 21300000
    - fdd6181a8ba5141d697aea53967397ca: 21300000
    - 5999af1a4f92347028ecc9ec0cdb7c07: 21300000
    - 5197112a81b424ac98769ff663680884: 21300000
    - 4e17e82a2bd1d4d3cb203f7a142eb6a4: 21300000
    - 4434093a477b9b64e970616b7141d502: 21300000
    - 54e5374af3c8d074f970ad52729f051d: 21300000
    - e2d34a4a6705d21498aaca40af8643ce: 21300000
    - e568845af146d4dafb73ea331e581fee: 21300000
    - df0dda6ac705b4b8bbc1799f791569d9: 21300000
    - 9131397a25164458198c980b3c5d6161: 21300000
    - 4f89f78aa1ea84bdb979afa8a48aa6ca: 21300000
    - d090249a1cecd9a43ba41e26af0f8c9e: 21300000
    - 2b86969ae5d6e408482197bc913703e0: 21300000
    - b2242b9a289fb4e3eb9a5d5ce9c36707: 21300000
    - 061354aaeacc78a40b1d408a71451edf: 21300000
    - a8dc25babd373475cb08e3c796306da7: 21300000
    - e2548bbad93525348987439a3182abcd: 21300000
    - da9b62da5bc7a4e6b908ba0586573bef: 21300000
    - 788db3da287332548afd34a8b1637660: 21300000
    - 98389ada6936f514b8ac47511d72a782: 21300000
    - f06de5ea4d0752b46b6a0987d6a49a00: 21300000
    - a3d16cea0a6f24d318ca197b54ff094d: 21300000
    - 519b6a0ba3cad9a428dfabcad28e70b2: 21300000
    - ff1e911bc9a7a449aad517ea8dec9775: 21300000
    - 4653e21b517e94b5db8afebbd039e338: 21300000
    - af3b341bdd4704c4d8d99e5d2df4e94b: 21300000
    - 9ff0a02bbc39e13459152c8eaad1a821: 21300000
    - c28f132b578318f4588294a184c2048d: 21300000
    - 51f0642bcae794205a827c6ed5a3924d: 21300000
    - 16f8a72b4926a584f91ad3b7436bb958: 21300000
    - 0a921f2bcb01e4a16b5eeda28d4931f9: 21300000
    - 3a6b9f2bdc6034b46a8e7b9715c2ca3b: 21300000
    - 555ff45b69ab8d94db04d007ff415f80: 21300000
    - c9fe785be56913747b2857d6d9c487fc: 21300000
    - aeed066b8d97049059d93462b5d07ad4: 21300000
    - 256adf9bc27f04467bdf96d30d9c9f1c: 21300000
    - 80b472ab451a147198246782e4c58450: 21300000
    - e58476ab6f5db7b4cb0e1bc3316fa5df: 21300000
    - 3cd2aeabb43684118ad4bbb1f73d0134: 21300000
    - ded432bb89ea84a11a12e9a73e553bba: 21300000
    - 4854aacbcaf4843bd80f14f9e2a82f70: 21300000
    - 6b7090db89c0860408f454eab7bc00a5: 21300000
    - f84ef0eb7d59f4a9db774808c4e94e39: 21300000
    - 6d85c5ebd7e1f4038b5d78c07d1a3833: 21300000
    - 0743abeb50330094b87460ba5503cd71: 21300000
    - a8a2e2fb917a5614eb0493fd4d59b32e: 21300000
    - bdafabfb4450622478d3328709e83afc: 21300000
    - 05d2310ce6a54450daac2a20a5473b3f: 21300000
    - cf4b8e0c8046942bfaa4626b028db6f0: 21300000
    - ce89ab1c2ed07420f87539fcebbac668: 21300000
    - 0fbd432c7fc0ad74aa7334a841a8baae: 21300000
    - 61a8482cc963c83429e2d75c9d79eed0: 21300000
    - 6f64cf2ca62364114ac46c98948ece03: 21300000
    - 3ac7103c09b8821449ac126555ce9475: 21300000
    - f129723c1d80e6c49acf2e726a6d2967: 21300000
    - 8a88693ccbbe3c74b8f4fa57fdec70b1: 21300000
    - d3d2f93c3cff47944b7f700955835887: 21300000
    - 2ba1424c74e3c74428631fc7fc96cfea: 21300000
    - f651085c15b314a51bcbc16c8e0598dd: 21300000
    - dddb448c1c3ba4a948c5a5b077e13067: 21300000
    - 37fcb6ac480b64c969db34d34d39f941: 21300000
    - 4ca713dc69cde4649800f0f5ddc4be5d: 21300000
    - 294763dc4c56e42428f8a66225f3f43f: 21300000
    - b4bca9dcd375e4aa69242b0a7a1398e7: 21300000
    - f4cbfcdc2ab6340b491d53768a7bae29: 21300000
    - 22e67ddc53d884f18aeb6e560647e16d: 21300000
    - 050357ec80bb9fb47a2646c9176b3e2d: 21300000
    - ab00750dec7f44b4c98d83d947968010: 21300000
    - 2a35811d225a64cac8458a567134f904: 21300000
    - d66ad02da4f3648c990f958e2606c3cc: 21300000
    - 7e60312d6bd6e4c84a7d0d590e0739ad: 21300000
    - ed3aa42d73ffe40ce8c0495440656ae4: 21300000
    - 3f2a8b2d2e9d0eb4d8c6ccce07e01701: 21300000
    - a361283d707a196458cb373294f12cef: 21300000
    - ee9cb34dcdf4b0d43889b7e450b2aca8: 21300000
    - 6f0f2d4d0c3944d45a8dd0e50eb7d8bd: 21300000
    - 8e33015d29d5b48249fadc3c3829537b: 21300000
    - d98f095d0b1ef4531b1cedca99e7475d: 21300000
    - 3d41846d82e56454f99bf09529653d6f: 21300000
    - 66167b7d358d34cf799062a8bc7046c1: 21300000
    - 5618d08df3b524503908938686bb3e57: 21300000
    - 5057619d24258d741a65fac983f91d85: 21300000
    - 91314a9d0308e4df28cfb4d96eb5ba09: 21300000
    - e5054dad016bf4d8f82149628b128080: 21300000
    - bd6614cd923704c2dac62c7d8fd3e263: 21300000
    - 81f355cda71d5e742a04206e2608fabf: 21300000
    - f7925ecd6bb68cb49aa34cac22eaf3ac: 21300000
    - a23431edc517d42bab8580977ee7d976: 21300000
    - 676671ed813c4416a81afe8c7d12f0e3: 21300000
    - cdfc72ed8450146f790ed4a51b973669: 21300000
    - 822087edf88a74dd1958eb517d9a9a6e: 21300000
    - f546e20eae0f24b4cb58e28846a63219: 21300000
    - 2a46a01e68d31ab419cd9d93c7d5b961: 21300000
    - c063c01eb3f51324994f20add8c1d523: 21300000
    - 9941a41e44fbc42769d1981f5a3f60dd: 21300000
    - 8db17b1ea0dd64c0dbed8869abd2148c: 21300000
    - fbc31e1ec1a5145cca1609a7cde15021: 21300000
    - 3722742e3652b4c24b67107752051af3: 21300000
    - aaf5a03e30a8240e0b4d02c35dc3d9a2: 4415455414317343967
    - aaf5a03e30a8240e0b4d02c35dc3d9a2: 7644584948918484888
    - aaf5a03e30a8240e0b4d02c35dc3d9a2: -311678345357013943
    - aaf5a03e30a8240e0b4d02c35dc3d9a2: 571606686462941827
    - aaf5a03e30a8240e0b4d02c35dc3d9a2: -3831681763708373266
    - aaf5a03e30a8240e0b4d02c35dc3d9a2: 8378890390284085301
    - aaf5a03e30a8240e0b4d02c35dc3d9a2: 381829511105219009
    - aaf5a03e30a8240e0b4d02c35dc3d9a2: -7536532795835000944
    - aaf5a03e30a8240e0b4d02c35dc3d9a2: 4888055439568857204
    - aaf5a03e30a8240e0b4d02c35dc3d9a2: 8103072417643593125
    - aaf5a03e30a8240e0b4d02c35dc3d9a2: 3378607388539892736
    - aaf5a03e30a8240e0b4d02c35dc3d9a2: 8431958593034151304
    - aaf5a03e30a8240e0b4d02c35dc3d9a2: -24647146882258702
    - aaf5a03e30a8240e0b4d02c35dc3d9a2: -8718638027760450986
    - aaf5a03e30a8240e0b4d02c35dc3d9a2: 1032790878315731457
    - aaf5a03e30a8240e0b4d02c35dc3d9a2: -4657425032853256270
    - 3fe9a73e560d7b04eb28859d9c1235d6: 21300000
    - 1899383e697ea4f0b93e3d33e3b4b632: 21300000
    - 0115bd3e4d70cf047805afe3a7a13bd4: 21300000
    - 8fa4875e9118042d7b37f2455fae7945: 21300000
    - 73b7d57e050264d16bf54148970ec77f: 21300000
    - 125f487e1c4f64880b90eccd72eb0a90: -6665028399921247144
    - 125f487e1c4f64880b90eccd72eb0a90: 280956015257588812
    - 125f487e1c4f64880b90eccd72eb0a90: -5461780744664337300
    - 125f487e1c4f64880b90eccd72eb0a90: 5900414139279101984
    - 125f487e1c4f64880b90eccd72eb0a90: -1447618536216469710
    - 125f487e1c4f64880b90eccd72eb0a90: -580802175678537897
    - 125f487e1c4f64880b90eccd72eb0a90: -8739116718856750308
    - 125f487e1c4f64880b90eccd72eb0a90: 3472011540932023319
    - 125f487e1c4f64880b90eccd72eb0a90: 3817477362005448706
    - 125f487e1c4f64880b90eccd72eb0a90: -4589240779045811349
    - 125f487e1c4f64880b90eccd72eb0a90: -8923613978128755137
    - 125f487e1c4f64880b90eccd72eb0a90: 1706363313086277768
    - 125f487e1c4f64880b90eccd72eb0a90: -5402765604792367867
    - 125f487e1c4f64880b90eccd72eb0a90: -1410581067389375431
    - 125f487e1c4f64880b90eccd72eb0a90: 2522951735069603219
    - 125f487e1c4f64880b90eccd72eb0a90: -9175607089839992800
    - 35fff58e9f8ef4f25ba3b3c87ec2945c: 21300000
    - cbbaf29e147d242789a2c834bdec7156: 21300000
    - 70418d9e565c140e7b9623a8ac86e76d: 21300000
    - cb2510aef37be554e86eacd03073c73c: 21300000
    - 2af255ae116048e4d8e8c6b748c2043c: 21300000
    - 40783faef76074a7fb8b9972132834a1: 21300000
    - ae9354bef931d402d808c17400b16c1f: 21300000
    - c6f121ceee1781b4e9aa9485207f8633: 21300000
    - 33f742ce7d8ab420c85fa1fb549f4b8e: 21300000
    - 222a07de91a12477b9fdb5362b6cdc5f: 21300000
    - 46d9a7dea35cb9a4e9d58011fd4b95a1: 21300000
    - eefafdde82cfc494f8138ed30c1ebd16: 21300000
    - 26f07eeee53f54dfca66fc53ab7a34f0: 21300000
    - 0864c8feac2dc462485c6e534be6c90b: 21300000
    - 949eaafec4f414a06946fda7244ca026: 21300000
    - 59fdf10f5b8afe04e94935f58d5cd6ea: 21300000
    - 59f4d20f6d01540c7b023a28da727c30: 21300000
    - be6a130fce97145e48616c82d8209d66: 21300000
    - b996760f6f0c344e4ab989d77e044fe6: 21300000
    - de74db0fcb2df459088794847516a614: 21300000
    - 2922261f35a0b407e98fe1cb20f754a5: 21300000
    - 8b01fa1f702b94c268e26177107b87a0: 21300000
    - 2fec7f1fecf3d2e4b9197414a407ed16: 21300000
    - 1b91102ffbfac2a408008c222b125f41: 21300000
    - 4b333f3fc69454053b5cb226dc295a80: 21300000
    - 78798e4feba811a4cb24d505743dc99d: 21300000
    - ec4bc05fdf6394d778fd88b3575add38: 21300000
    - e498166fbad0a4de2954896765833629: 21300000
    - a72b957f286913640924e3e91c48c6a7: 21300000
    - 74a21f8f11959ce4dbe9d9f0501e3dd2: 21300000
    - 57834b9f1f70f4c578b03ee018983685: 21300000
    - 402ca2af76057bc4090da59d6a7e11bb: 21300000
    - babb55af311f14a32bdd989e30a89b15: 21300000
    - 83018eaf8edbb495b87a249741550cf3: 21300000
    - 9ccff9bfbb55e4a2c82b5e777a33d322: 21300000
    - ca1a6dbf398ce17468f171d3e4ab0a63: 21300000
    - 5349d4cf932e84cd9a2aacf9098b6a3b: 21300000
    - 79eb6aef55f5e428989194cd9489b2ed: 21300000
  m_MasterAtlas: {fileID: 0}
  m_PackedSprites:
  - {fileID: 21300000, guid: 5d13c800823d9594aa5a8cfbb495f167, type: 3}
  - {fileID: 21300000, guid: 7e33a2106b4c8480196520e63a8a2eaa, type: 3}
  - {fileID: 21300000, guid: f26d9310550c3e449b854b519256b5a1, type: 3}
  - {fileID: 21300000, guid: 19b3bc107ad1141dabe7adb9bd65dd8f, type: 3}
  - {fileID: 21300000, guid: befc6720df6ed4279b6abc9419dec4e6, type: 3}
  - {fileID: 21300000, guid: 7a1f9920193dc4910b62bd31731490e1, type: 3}
  - {fileID: 21300000, guid: f6743c20fb6a32f4c92edafd3f5f56bb, type: 3}
  - {fileID: 21300000, guid: d9000d305eac04a7080ff5e158228751, type: 3}
  - {fileID: 21300000, guid: 2de9914051f9944269db1c3aeca00592, type: 3}
  - {fileID: 21300000, guid: 923f5750dceb13e48b915b003374b72e, type: 3}
  - {fileID: 21300000, guid: 7626bb503840b3b488ca5e9d9946fc8d, type: 3}
  - {fileID: 21300000, guid: 38bfaa707ae7747ecaee6a2c88611861, type: 3}
  - {fileID: -7924534180093466451, guid: d6ab919039fc6471e8522a3494c94e55, type: 3}
  - {fileID: -2366145386321246535, guid: d6ab919039fc6471e8522a3494c94e55, type: 3}
  - {fileID: 6359212104171594907, guid: d6ab919039fc6471e8522a3494c94e55, type: 3}
  - {fileID: 2762734921385227477, guid: d6ab919039fc6471e8522a3494c94e55, type: 3}
  - {fileID: 2778257508037431230, guid: d6ab919039fc6471e8522a3494c94e55, type: 3}
  - {fileID: 9184225848876310037, guid: d6ab919039fc6471e8522a3494c94e55, type: 3}
  - {fileID: -3790605217897161756, guid: d6ab919039fc6471e8522a3494c94e55, type: 3}
  - {fileID: 328340082050753144, guid: d6ab919039fc6471e8522a3494c94e55, type: 3}
  - {fileID: -3292088304006991162, guid: d6ab919039fc6471e8522a3494c94e55, type: 3}
  - {fileID: -1501826504936036830, guid: d6ab919039fc6471e8522a3494c94e55, type: 3}
  - {fileID: 2405862273342815360, guid: d6ab919039fc6471e8522a3494c94e55, type: 3}
  - {fileID: -4906270728748816772, guid: d6ab919039fc6471e8522a3494c94e55, type: 3}
  - {fileID: -1776899525905285508, guid: d6ab919039fc6471e8522a3494c94e55, type: 3}
  - {fileID: 8015690389542405387, guid: d6ab919039fc6471e8522a3494c94e55, type: 3}
  - {fileID: -7186848747539613554, guid: d6ab919039fc6471e8522a3494c94e55, type: 3}
  - {fileID: 5185039445543679603, guid: d6ab919039fc6471e8522a3494c94e55, type: 3}
  - {fileID: 21300000, guid: 3a093b908a6f9da42ba45668633e4eb2, type: 3}
  - {fileID: 21300000, guid: 361eee904fd2e064e852975b677f08b8, type: 3}
  - {fileID: -9221409895501486366, guid: 6574f7b0c975243a5b8672e142f416f4, type: 3}
  - {fileID: 9055307217538360151, guid: 6574f7b0c975243a5b8672e142f416f4, type: 3}
  - {fileID: 5391846149488760826, guid: 6574f7b0c975243a5b8672e142f416f4, type: 3}
  - {fileID: 886026201524138264, guid: 6574f7b0c975243a5b8672e142f416f4, type: 3}
  - {fileID: -3956562699316477787, guid: 6574f7b0c975243a5b8672e142f416f4, type: 3}
  - {fileID: 6944364831688554042, guid: 6574f7b0c975243a5b8672e142f416f4, type: 3}
  - {fileID: -4629694617278096115, guid: 6574f7b0c975243a5b8672e142f416f4, type: 3}
  - {fileID: 3219679979999415392, guid: 6574f7b0c975243a5b8672e142f416f4, type: 3}
  - {fileID: -5521358013813904665, guid: 6574f7b0c975243a5b8672e142f416f4, type: 3}
  - {fileID: 6260962151055210617, guid: 6574f7b0c975243a5b8672e142f416f4, type: 3}
  - {fileID: -3406780801015047802, guid: 6574f7b0c975243a5b8672e142f416f4, type: 3}
  - {fileID: 1537178565488875386, guid: 6574f7b0c975243a5b8672e142f416f4, type: 3}
  - {fileID: -3417531336641853836, guid: 6574f7b0c975243a5b8672e142f416f4, type: 3}
  - {fileID: 7458239403395864056, guid: 6574f7b0c975243a5b8672e142f416f4, type: 3}
  - {fileID: -6795643659195977510, guid: 6574f7b0c975243a5b8672e142f416f4, type: 3}
  - {fileID: 8261495563970623203, guid: 6574f7b0c975243a5b8672e142f416f4, type: 3}
  - {fileID: 21300000, guid: 583e8eb0def554729b15b7e95fb290ed, type: 3}
  - {fileID: 21300000, guid: d4c403c052ba841b5a06f93b70a98220, type: 3}
  - {fileID: 21300000, guid: e20173c03e13c4515a38bd5c282fc29a, type: 3}
  - {fileID: 21300000, guid: 2ec9a9c0e1d52463d874e6ea5351efe8, type: 3}
  - {fileID: 21300000, guid: adc305e076fef45369a02711622cbfc1, type: 3}
  - {fileID: 21300000, guid: 1bc327e091f44324caf8f4020613742c, type: 3}
  - {fileID: 21300000, guid: 7f669ee0a7c0728418f05156eaeccea9, type: 3}
  - {fileID: 21300000, guid: e56d1811ce5f32245b02dc99a560e210, type: 3}
  - {fileID: 21300000, guid: 25474931afd74457d944833e7e1925de, type: 3}
  - {fileID: 21300000, guid: a4623341829584cd5aadbc6c070b139b, type: 3}
  - {fileID: 21300000, guid: b1b77d515986f460383b64a979ee9018, type: 3}
  - {fileID: 21300000, guid: 931925819ed1a684fad2f64dbacc6d52, type: 3}
  - {fileID: 21300000, guid: 0d2bc6818f59f46d1acb192410b205e2, type: 3}
  - {fileID: 21300000, guid: 1b58ba81f815652489f7007461f75e77, type: 3}
  - {fileID: 21300000, guid: 68186d814c00c4596b32149ece647249, type: 3}
  - {fileID: 21300000, guid: e6875e81592be40b58435b47a599e186, type: 3}
  - {fileID: 21300000, guid: 21306f8153f09421393158baea44cf8c, type: 3}
  - {fileID: 21300000, guid: 5658eea105b65411e8856de313d9ba31, type: 3}
  - {fileID: 21300000, guid: f247fdb15b53b4423b34dcbc629c7f28, type: 3}
  - {fileID: 21300000, guid: d4a72eb16e9b94b778a63b78e5e47b8c, type: 3}
  - {fileID: 21300000, guid: df5f91d194da64f6cb86a792eeedb913, type: 3}
  - {fileID: 21300000, guid: 0ec4e0e122cdc48daae830ac58b3c289, type: 3}
  - {fileID: 21300000, guid: 89eb0912b0fe54f008cbbb16aabae317, type: 3}
  - {fileID: 21300000, guid: 35dca522e1451b04fae7b8b9c4c12973, type: 3}
  - {fileID: 21300000, guid: 7ccb7622d2b064080bc693609236cd44, type: 3}
  - {fileID: 21300000, guid: bb9a8532229e4475eb5ba754ce3a2105, type: 3}
  - {fileID: 21300000, guid: 3a7ce6327d2c48f4a9d70d7799aca9d4, type: 3}
  - {fileID: 21300000, guid: a53d4732a8ae6474e991de3692f2d7e4, type: 3}
  - {fileID: 21300000, guid: 27f6f152389a746458f1fdef53fbe21b, type: 3}
  - {fileID: 21300000, guid: 8fdb0462de8f7094586f53cde9922dd8, type: 3}
  - {fileID: 21300000, guid: dd7a13720433f24428158e0149d8f9a6, type: 3}
  - {fileID: 21300000, guid: 0aba7572b09c943b5a38b566301b1555, type: 3}
  - {fileID: 21300000, guid: d88735825d738dc43b1c0c3e117db65d, type: 3}
  - {fileID: 21300000, guid: e1dcd5821f93dbb4daa9d55e8ba88b87, type: 3}
  - {fileID: 21300000, guid: dfb3a882eea1f4c9cb714283871cf292, type: 3}
  - {fileID: 21300000, guid: f03c9d82d0c654652976815b822da3d5, type: 3}
  - {fileID: 21300000, guid: 05e6bfb2b4c284eff8e4a8e37d85b825, type: 3}
  - {fileID: 21300000, guid: c3c6c2c27507fe9419561698f5518974, type: 3}
  - {fileID: 21300000, guid: 656bb4d23908f894798c5973eb39d50f, type: 3}
  - {fileID: 21300000, guid: 8ab0aed29d74c954dba75a04e55e2386, type: 3}
  - {fileID: -8742945842693196690, guid: acb8aed2fd77a42409230751dea7691a, type: 3}
  - {fileID: -1925252421047512872, guid: acb8aed2fd77a42409230751dea7691a, type: 3}
  - {fileID: -8453617647471226059, guid: acb8aed2fd77a42409230751dea7691a, type: 3}
  - {fileID: -2179715588125131581, guid: acb8aed2fd77a42409230751dea7691a, type: 3}
  - {fileID: 1795596213868720570, guid: acb8aed2fd77a42409230751dea7691a, type: 3}
  - {fileID: 8084197580752241814, guid: acb8aed2fd77a42409230751dea7691a, type: 3}
  - {fileID: -2334425166542801139, guid: acb8aed2fd77a42409230751dea7691a, type: 3}
  - {fileID: 1459551260782060380, guid: acb8aed2fd77a42409230751dea7691a, type: 3}
  - {fileID: 7130023535872906464, guid: acb8aed2fd77a42409230751dea7691a, type: 3}
  - {fileID: 1715933573496026995, guid: acb8aed2fd77a42409230751dea7691a, type: 3}
  - {fileID: -8910063260628845509, guid: acb8aed2fd77a42409230751dea7691a, type: 3}
  - {fileID: 9208151600417428239, guid: acb8aed2fd77a42409230751dea7691a, type: 3}
  - {fileID: 6637877724735436421, guid: acb8aed2fd77a42409230751dea7691a, type: 3}
  - {fileID: 7029458342713356479, guid: acb8aed2fd77a42409230751dea7691a, type: 3}
  - {fileID: 7367503874114706867, guid: acb8aed2fd77a42409230751dea7691a, type: 3}
  - {fileID: -5210310426830478718, guid: acb8aed2fd77a42409230751dea7691a, type: 3}
  - {fileID: 21300000, guid: 30c56ce20c0484cdd9c1d5586dce4e32, type: 3}
  - {fileID: 21300000, guid: f5b2bbf2d3c57480bab1fe03fbebfb54, type: 3}
  - {fileID: 21300000, guid: 03ee2f139957f4c2a884d6d77301ebc8, type: 3}
  - {fileID: 21300000, guid: 78fa5a23d96990f40844eed2c1a0cbc9, type: 3}
  - {fileID: 21300000, guid: 5c1c803369b8f4a09a623b57b6d9e0c2, type: 3}
  - {fileID: 21300000, guid: 19158b437a2276741abd929b2535df8e, type: 3}
  - {fileID: 21300000, guid: 77f89153260b31b45b326b28f4767582, type: 3}
  - {fileID: 21300000, guid: b03ba563c85639d48be0fe67271d7abe, type: 3}
  - {fileID: 21300000, guid: 79260763742f2f34988e7ad1dad6e73f, type: 3}
  - {fileID: 21300000, guid: 810b0bb3e3ac949aa99f9a9800d23a84, type: 3}
  - {fileID: 21300000, guid: 8ebf5bd3c16d74fe3a217cbef54c772c, type: 3}
  - {fileID: 21300000, guid: 16360fd367c975f4e887a2f2edf457e0, type: 3}
  - {fileID: 21300000, guid: 11c282e3ebd794487946f177106bb969, type: 3}
  - {fileID: 21300000, guid: 0e8e13e3477e2714188cb6d49c475d88, type: 3}
  - {fileID: 21300000, guid: 9bbcf104379834484b5f73cb6d8f3c0a, type: 3}
  - {fileID: 21300000, guid: 2e95bd048f171487f87aa00c81077ea4, type: 3}
  - {fileID: -3765307815884483097, guid: d24be214e441e47e8809e9c95fe83d8f, type: 3}
  - {fileID: -8710167230822211806, guid: d24be214e441e47e8809e9c95fe83d8f, type: 3}
  - {fileID: 2315559395949948593, guid: d24be214e441e47e8809e9c95fe83d8f, type: 3}
  - {fileID: -5300531901610043213, guid: d24be214e441e47e8809e9c95fe83d8f, type: 3}
  - {fileID: 5743867330221495199, guid: d24be214e441e47e8809e9c95fe83d8f, type: 3}
  - {fileID: -1331179060484161257, guid: d24be214e441e47e8809e9c95fe83d8f, type: 3}
  - {fileID: -3958523551015199414, guid: d24be214e441e47e8809e9c95fe83d8f, type: 3}
  - {fileID: -1070965916152572818, guid: d24be214e441e47e8809e9c95fe83d8f, type: 3}
  - {fileID: 5640072116605570181, guid: d24be214e441e47e8809e9c95fe83d8f, type: 3}
  - {fileID: 6290607093790747456, guid: d24be214e441e47e8809e9c95fe83d8f, type: 3}
  - {fileID: -7722118240626842707, guid: d24be214e441e47e8809e9c95fe83d8f, type: 3}
  - {fileID: 7749872556270437858, guid: d24be214e441e47e8809e9c95fe83d8f, type: 3}
  - {fileID: -8424429946226017781, guid: d24be214e441e47e8809e9c95fe83d8f, type: 3}
  - {fileID: 3809089524042541981, guid: d24be214e441e47e8809e9c95fe83d8f, type: 3}
  - {fileID: -9079438165869239049, guid: d24be214e441e47e8809e9c95fe83d8f, type: 3}
  - {fileID: 7502289194851882246, guid: d24be214e441e47e8809e9c95fe83d8f, type: 3}
  - {fileID: 21300000, guid: 863e9624c4518cc40b53bda82dfc5e07, type: 3}
  - {fileID: 21300000, guid: 8bcbc534c30884e49bfa40be61845c71, type: 3}
  - {fileID: 21300000, guid: 9abad734b7902468290809bd5462445b, type: 3}
  - {fileID: 21300000, guid: 34ad2a341666c421b8c79450204b1572, type: 3}
  - {fileID: 21300000, guid: 3c70da4491ae07347bdf7948fb1b6029, type: 3}
  - {fileID: 21300000, guid: 99e53554bfd944a5f9d97179f392045a, type: 3}
  - {fileID: 21300000, guid: 74b4e87479bc44db1a0bec836367f15d, type: 3}
  - {fileID: 21300000, guid: 087433848211f3244b910197173136be, type: 3}
  - {fileID: 21300000, guid: dc64348456ab04b92a493a95fd4e5069, type: 3}
  - {fileID: 21300000, guid: 74681e840dce74cc6b4953611d53e907, type: 3}
  - {fileID: 21300000, guid: ab5f7ba4d70e446bebad3fdcd1ed29c1, type: 3}
  - {fileID: 21300000, guid: 74f1a3c4fbb1649a092c89d932004293, type: 3}
  - {fileID: 21300000, guid: 625ee4c444d484d5dbeafdea907dcd03, type: 3}
  - {fileID: 21300000, guid: d4f766c482833413db3aa2582b6dcc0d, type: 3}
  - {fileID: 21300000, guid: 6f9831d42d03f41dfb34042b16f5c563, type: 3}
  - {fileID: 21300000, guid: fe7287d4ba10e7a4199ea67125eba336, type: 3}
  - {fileID: 21300000, guid: a7b93dd48c5a2fa479edb6299f8c37cd, type: 3}
  - {fileID: 21300000, guid: 4abd90f444429254f8d397df7a4139af, type: 3}
  - {fileID: -790833723658889836, guid: fe3b22f477cd34bf6b7c315beccf239f, type: 3}
  - {fileID: -160043154858023257, guid: fe3b22f477cd34bf6b7c315beccf239f, type: 3}
  - {fileID: -6275389703024009446, guid: fe3b22f477cd34bf6b7c315beccf239f, type: 3}
  - {fileID: -7263687544307428083, guid: fe3b22f477cd34bf6b7c315beccf239f, type: 3}
  - {fileID: -6230981692557896187, guid: fe3b22f477cd34bf6b7c315beccf239f, type: 3}
  - {fileID: 4340884665625681434, guid: fe3b22f477cd34bf6b7c315beccf239f, type: 3}
  - {fileID: 3297622646655938615, guid: fe3b22f477cd34bf6b7c315beccf239f, type: 3}
  - {fileID: 5715575530262892285, guid: fe3b22f477cd34bf6b7c315beccf239f, type: 3}
  - {fileID: 8247292426848766877, guid: fe3b22f477cd34bf6b7c315beccf239f, type: 3}
  - {fileID: -1411390019930123136, guid: fe3b22f477cd34bf6b7c315beccf239f, type: 3}
  - {fileID: -3374146177113579046, guid: fe3b22f477cd34bf6b7c315beccf239f, type: 3}
  - {fileID: -1706101054391301042, guid: fe3b22f477cd34bf6b7c315beccf239f, type: 3}
  - {fileID: -3683434229762725464, guid: fe3b22f477cd34bf6b7c315beccf239f, type: 3}
  - {fileID: 8000158520163374521, guid: fe3b22f477cd34bf6b7c315beccf239f, type: 3}
  - {fileID: 4187106893692273551, guid: fe3b22f477cd34bf6b7c315beccf239f, type: 3}
  - {fileID: 7834937831553533960, guid: fe3b22f477cd34bf6b7c315beccf239f, type: 3}
  - {fileID: 21300000, guid: 0a4e03f4de4fc4941afcae7840fc4e47, type: 3}
  - {fileID: 21300000, guid: 6eda35f43d3244bbc98565d456df680c, type: 3}
  - {fileID: 21300000, guid: 4b3048f4848b65a41957074fb58a1613, type: 3}
  - {fileID: 21300000, guid: 1a1139f4fb6a8424cb15bd2699cb10a4, type: 3}
  - {fileID: 21300000, guid: 4efc2df470a6341f3ba6de2c6e34ed15, type: 3}
  - {fileID: 21300000, guid: 08807e351ba8944ce8f9e3a9459b848e, type: 3}
  - {fileID: 21300000, guid: 5c300d454e5a84f6cb87c6e0769850c8, type: 3}
  - {fileID: 21300000, guid: 0449a355bcee54b6f9f4ca8d92e18ece, type: 3}
  - {fileID: 21300000, guid: b0b16465f9596d740a7eb8ff2357da6a, type: 3}
  - {fileID: 21300000, guid: 3c7f8785afad7468f8f3a9994e812958, type: 3}
  - {fileID: 21300000, guid: 648750a513e2b43e98d24ad813f8d7de, type: 3}
  - {fileID: 21300000, guid: bf2701a5a54604ed784d06719bfd4c1e, type: 3}
  - {fileID: 21300000, guid: 15e574a5d27c34740bd95700fed224e4, type: 3}
  - {fileID: 21300000, guid: cbfab1b5221cb484bb912843a4b883f5, type: 3}
  - {fileID: 21300000, guid: bef99ab598b4ab84fb9cffb47cba3d9d, type: 3}
  - {fileID: 21300000, guid: db27e8c55be114c0f9582fb725e2aa38, type: 3}
  - {fileID: 21300000, guid: 1712cbc5e65764c18b8210d14a2ab75a, type: 3}
  - {fileID: 21300000, guid: 31a88dd5650fe45379c29229aa1cef54, type: 3}
  - {fileID: 21300000, guid: 54f174e57b3fea84aa9e021b6d74aca6, type: 3}
  - {fileID: 21300000, guid: d5fb3ae5d0bd547098661f9ab9576d0b, type: 3}
  - {fileID: 21300000, guid: 623b72f5455ae4a4b9048d4bd01f4bb4, type: 3}
  - {fileID: 21300000, guid: 472f8c0633a2a4146b12ff0c4bf1a661, type: 3}
  - {fileID: 21300000, guid: 95e02a160577c4217a88f29325563392, type: 3}
  - {fileID: 21300000, guid: 1efcf326f80553a46ac1c0d78ad4ba6b, type: 3}
  - {fileID: 21300000, guid: 6a6d94260e15b4ddf9674415c4e5eb4b, type: 3}
  - {fileID: 21300000, guid: fd38563697767d64498fa6b27931551b, type: 3}
  - {fileID: 7182115282563593914, guid: 12d50e469640942bebe5e9424864743d, type: 3}
  - {fileID: -566259746307095996, guid: 12d50e469640942bebe5e9424864743d, type: 3}
  - {fileID: -7838015055055852716, guid: 12d50e469640942bebe5e9424864743d, type: 3}
  - {fileID: -6394453578487427884, guid: 12d50e469640942bebe5e9424864743d, type: 3}
  - {fileID: -166229982439660297, guid: 12d50e469640942bebe5e9424864743d, type: 3}
  - {fileID: 4884675460603767411, guid: 12d50e469640942bebe5e9424864743d, type: 3}
  - {fileID: 6335266470121818147, guid: 12d50e469640942bebe5e9424864743d, type: 3}
  - {fileID: 5120166228863553094, guid: 12d50e469640942bebe5e9424864743d, type: 3}
  - {fileID: -4162410125079905375, guid: 12d50e469640942bebe5e9424864743d, type: 3}
  - {fileID: 6352940207641540489, guid: 12d50e469640942bebe5e9424864743d, type: 3}
  - {fileID: -2854838662957073513, guid: 12d50e469640942bebe5e9424864743d, type: 3}
  - {fileID: -494439607010346168, guid: 12d50e469640942bebe5e9424864743d, type: 3}
  - {fileID: 2884186872187816214, guid: 12d50e469640942bebe5e9424864743d, type: 3}
  - {fileID: 4375328297675417499, guid: 12d50e469640942bebe5e9424864743d, type: 3}
  - {fileID: 2207706734551576689, guid: 12d50e469640942bebe5e9424864743d, type: 3}
  - {fileID: -9020656737272645405, guid: 12d50e469640942bebe5e9424864743d, type: 3}
  - {fileID: 2828026146311229383, guid: 159fbe46976d244af877a0148e770166, type: 3}
  - {fileID: 3933673596296343483, guid: 159fbe46976d244af877a0148e770166, type: 3}
  - {fileID: -427175378498622672, guid: 159fbe46976d244af877a0148e770166, type: 3}
  - {fileID: 8785624179986068619, guid: 159fbe46976d244af877a0148e770166, type: 3}
  - {fileID: -7311743358065315545, guid: 159fbe46976d244af877a0148e770166, type: 3}
  - {fileID: -2833816775954118348, guid: 159fbe46976d244af877a0148e770166, type: 3}
  - {fileID: -3952018874738451840, guid: 159fbe46976d244af877a0148e770166, type: 3}
  - {fileID: 1007202399307312912, guid: 159fbe46976d244af877a0148e770166, type: 3}
  - {fileID: -2129636033122652232, guid: 159fbe46976d244af877a0148e770166, type: 3}
  - {fileID: -3455151111077981100, guid: 159fbe46976d244af877a0148e770166, type: 3}
  - {fileID: 9128212511509647461, guid: 159fbe46976d244af877a0148e770166, type: 3}
  - {fileID: 7569455707205138859, guid: 159fbe46976d244af877a0148e770166, type: 3}
  - {fileID: -3710369093748350032, guid: 159fbe46976d244af877a0148e770166, type: 3}
  - {fileID: -7301939417477911062, guid: 159fbe46976d244af877a0148e770166, type: 3}
  - {fileID: -5096208735606397493, guid: 159fbe46976d244af877a0148e770166, type: 3}
  - {fileID: -106957167764509694, guid: 159fbe46976d244af877a0148e770166, type: 3}
  - {fileID: 21300000, guid: e4302256bb7464091a2c9d98e58e0460, type: 3}
  - {fileID: 21300000, guid: bc637b56952924226adafe0a0a01c845, type: 3}
  - {fileID: 21300000, guid: 2b8b33667b10c4217a4c90c7f4f6a7f0, type: 3}
  - {fileID: 21300000, guid: 94e87e76ceac84504ab7b261293fa116, type: 3}
  - {fileID: 21300000, guid: 74926486c82e444ea864febc8b670c97, type: 3}
  - {fileID: 21300000, guid: 0fdb3d8682f5c4a67bf6f8587ddd2191, type: 3}
  - {fileID: 21300000, guid: fd0193962da3a4314b011fa337d3e7ae, type: 3}
  - {fileID: 21300000, guid: 3b29eca69867a8c4bbb97a04ca116fdd, type: 3}
  - {fileID: -6972604024431775348, guid: 9c824fa608c3d4c1ead07520ebbbbf72, type: 3}
  - {fileID: 4978447715748575311, guid: 9c824fa608c3d4c1ead07520ebbbbf72, type: 3}
  - {fileID: -6865168830813781408, guid: 9c824fa608c3d4c1ead07520ebbbbf72, type: 3}
  - {fileID: 1220874029321223631, guid: 9c824fa608c3d4c1ead07520ebbbbf72, type: 3}
  - {fileID: -3503599758512683520, guid: 9c824fa608c3d4c1ead07520ebbbbf72, type: 3}
  - {fileID: 8820048377617171047, guid: 9c824fa608c3d4c1ead07520ebbbbf72, type: 3}
  - {fileID: -4870383999283011815, guid: 9c824fa608c3d4c1ead07520ebbbbf72, type: 3}
  - {fileID: -5590205444966847586, guid: 9c824fa608c3d4c1ead07520ebbbbf72, type: 3}
  - {fileID: -7475130112427036815, guid: 9c824fa608c3d4c1ead07520ebbbbf72, type: 3}
  - {fileID: -8198726463005301525, guid: 9c824fa608c3d4c1ead07520ebbbbf72, type: 3}
  - {fileID: -5482500010508311649, guid: 9c824fa608c3d4c1ead07520ebbbbf72, type: 3}
  - {fileID: -5941521611289699467, guid: 9c824fa608c3d4c1ead07520ebbbbf72, type: 3}
  - {fileID: -4089108930205908142, guid: 9c824fa608c3d4c1ead07520ebbbbf72, type: 3}
  - {fileID: -4629726410499273100, guid: 9c824fa608c3d4c1ead07520ebbbbf72, type: 3}
  - {fileID: 2956910228253702512, guid: 9c824fa608c3d4c1ead07520ebbbbf72, type: 3}
  - {fileID: -7664165305358616756, guid: 9c824fa608c3d4c1ead07520ebbbbf72, type: 3}
  - {fileID: 21300000, guid: 9be68fd62d53d4e09baf220cc87f3c29, type: 3}
  - {fileID: 21300000, guid: 2c21afd62d50a91479c5b71bfe5eb990, type: 3}
  - {fileID: 21300000, guid: 70f4ace66cbde45438341669f2ae2115, type: 3}
  - {fileID: 21300000, guid: ee192ef6cfdaf0441ab85cad49264f48, type: 3}
  - {fileID: 21300000, guid: 9065e30740ce0ad40b9135c32d3f641f, type: 3}
  - {fileID: 21300000, guid: e8981717bd8c8b949adf27ba023a52d1, type: 3}
  - {fileID: 21300000, guid: 097b5e478a71b49d68b26f9f0598a747, type: 3}
  - {fileID: 21300000, guid: e7c761573d271be4eb20b02dc471ddc7, type: 3}
  - {fileID: 21300000, guid: c5e98857710247e4fae2873f138b7b41, type: 3}
  - {fileID: 21300000, guid: e1d31c774f98b4352ba9073ee037aeb2, type: 3}
  - {fileID: 21300000, guid: d4719387c1c9e7340b28b816dea07b10, type: 3}
  - {fileID: 21300000, guid: 1abb09a7dbdf94eee821f9e3a7a864e1, type: 3}
  - {fileID: 21300000, guid: d02cf0b7d460c4e379d4b3b0ea995299, type: 3}
  - {fileID: -5105499053707738481, guid: 2ac1deb703d8242d0812b0ad2604f9b7, type: 3}
  - {fileID: -6348706426017525262, guid: 2ac1deb703d8242d0812b0ad2604f9b7, type: 3}
  - {fileID: 4527352354381316447, guid: 2ac1deb703d8242d0812b0ad2604f9b7, type: 3}
  - {fileID: 955087596843563012, guid: 2ac1deb703d8242d0812b0ad2604f9b7, type: 3}
  - {fileID: 8908462932599600320, guid: 2ac1deb703d8242d0812b0ad2604f9b7, type: 3}
  - {fileID: 3671431676122806463, guid: 2ac1deb703d8242d0812b0ad2604f9b7, type: 3}
  - {fileID: 1618096212860792765, guid: 2ac1deb703d8242d0812b0ad2604f9b7, type: 3}
  - {fileID: -1514548132086637576, guid: 2ac1deb703d8242d0812b0ad2604f9b7, type: 3}
  - {fileID: -1417338849179184242, guid: 2ac1deb703d8242d0812b0ad2604f9b7, type: 3}
  - {fileID: 789547482513056982, guid: 2ac1deb703d8242d0812b0ad2604f9b7, type: 3}
  - {fileID: -234602934137183551, guid: 2ac1deb703d8242d0812b0ad2604f9b7, type: 3}
  - {fileID: -8325605435510679712, guid: 2ac1deb703d8242d0812b0ad2604f9b7, type: 3}
  - {fileID: -6062772482386107967, guid: 2ac1deb703d8242d0812b0ad2604f9b7, type: 3}
  - {fileID: 159794163793376900, guid: 2ac1deb703d8242d0812b0ad2604f9b7, type: 3}
  - {fileID: 1290179882168308773, guid: 2ac1deb703d8242d0812b0ad2604f9b7, type: 3}
  - {fileID: 2833572986342128161, guid: 2ac1deb703d8242d0812b0ad2604f9b7, type: 3}
  - {fileID: 21300000, guid: a1cb45d79fba78e4785834348744b10e, type: 3}
  - {fileID: 21300000, guid: 4afba8d7e221f42eaad77034ee263066, type: 3}
  - {fileID: 21300000, guid: 5dcca9f7a9a48493481849ef45f122c9, type: 3}
  - {fileID: 21300000, guid: 88c87e085ee2fd94ebd97516e867a045, type: 3}
  - {fileID: 21300000, guid: bb4bd418b88b74a87bb57e986ac4e811, type: 3}
  - {fileID: 21300000, guid: 058b1618c4c3cc743a54d36387423948, type: 3}
  - {fileID: 21300000, guid: b05771289c33d894a835bbfa74092c78, type: 3}
  - {fileID: 21300000, guid: 690863383e94048c6b6b96acbce64e2f, type: 3}
  - {fileID: 21300000, guid: 68a89638def6241afb17aa73591798ff, type: 3}
  - {fileID: 21300000, guid: d758027898d648d4198f9eac6ab5ce46, type: 3}
  - {fileID: 21300000, guid: 67690188ed65f4877996ae30612fbfc6, type: 3}
  - {fileID: 21300000, guid: 5a89b7885309c584da36d6240f3290bf, type: 3}
  - {fileID: 21300000, guid: 84fdf5a8a818c407fa73c0469650abca, type: 3}
  - {fileID: 21300000, guid: 363c48a8c5856467188928c43adab1e2, type: 3}
  - {fileID: 21300000, guid: d6ba68a8c684d432a8be59a85453758d, type: 3}
  - {fileID: 21300000, guid: 0e8e06b8f05254702b26ff128abb555f, type: 3}
  - {fileID: 21300000, guid: 3e0e7cb8e7e3c0a4fb5e3562ab8a2c35, type: 3}
  - {fileID: 21300000, guid: c8a99eb85e0a948b5aa1093a47f4994e, type: 3}
  - {fileID: 21300000, guid: f805edc83beee49a382bf382f1bf1e2c, type: 3}
  - {fileID: 21300000, guid: d01612d8a051f4243931750f09d72159, type: 3}
  - {fileID: 21300000, guid: fc8946d80701a45168297bc2249368e2, type: 3}
  - {fileID: 21300000, guid: c4ef81e8d7c0d46748cfe385c92eef6f, type: 3}
  - {fileID: 21300000, guid: 56d57009b33a44420bc807999dd38318, type: 3}
  - {fileID: 21300000, guid: 69fa0709d86fe4b7091b3f43d55c5f38, type: 3}
  - {fileID: 21300000, guid: fcbe2519eaded4f88b9356368c472f88, type: 3}
  - {fileID: 21300000, guid: 7b52202961e1eb749a78dd4c17fb28d2, type: 3}
  - {fileID: 21300000, guid: e0cffa2964f4bc14182ab5ac53adaa07, type: 3}
  - {fileID: 21300000, guid: f6d1fb29b084de7468079518b5a5e5e7, type: 3}
  - {fileID: 21300000, guid: 24e098396a93244e8998d89e5ba10fb1, type: 3}
  - {fileID: 21300000, guid: c8d520497f5461b4b96fc61ab85016ec, type: 3}
  - {fileID: 21300000, guid: 555759491354c4987aca80c3832ab879, type: 3}
  - {fileID: 21300000, guid: a7a26159d2a5145fd9e14bd6a4fde319, type: 3}
  - {fileID: 21300000, guid: e4c91469932d6464986747df3803831a, type: 3}
  - {fileID: 21300000, guid: 896dba69a005b4315a34c0ecaac30f69, type: 3}
  - {fileID: 21300000, guid: 28d41e69ed6eb4973a9ce0026624f397, type: 3}
  - {fileID: 21300000, guid: 5ae33c89f36f8494b9bd199a9b3204bd, type: 3}
  - {fileID: 21300000, guid: 63d14d891de034349bb38ef8971d2379, type: 3}
  - {fileID: 21300000, guid: c327fa994c0f9455684a23c853f14833, type: 3}
  - {fileID: 21300000, guid: 1fefcb994e9c32544877f21f714efaaf, type: 3}
  - {fileID: 21300000, guid: c9942ea9cc91646afbda44e3922fc7e4, type: 3}
  - {fileID: 21300000, guid: 574dfdb97ac5d40c686730ab10789439, type: 3}
  - {fileID: 21300000, guid: a4bb7ec93b81843689a4a5d6a16bdc2e, type: 3}
  - {fileID: 21300000, guid: 26e429d9dbd504cfeb0aede6e087da32, type: 3}
  - {fileID: 21300000, guid: 8829bcd9b1e7b9e4ead46a498431f695, type: 3}
  - {fileID: 21300000, guid: d0856ed93f5c1504f87b49f4c0a816ed, type: 3}
  - {fileID: 21300000, guid: f917b4f9cb3e8c34fb4ec4c241336254, type: 3}
  - {fileID: 21300000, guid: fdd6181a8ba5141d697aea53967397ca, type: 3}
  - {fileID: 21300000, guid: 5999af1a4f92347028ecc9ec0cdb7c07, type: 3}
  - {fileID: 21300000, guid: 5197112a81b424ac98769ff663680884, type: 3}
  - {fileID: 21300000, guid: 4e17e82a2bd1d4d3cb203f7a142eb6a4, type: 3}
  - {fileID: 21300000, guid: 4434093a477b9b64e970616b7141d502, type: 3}
  - {fileID: 21300000, guid: 54e5374af3c8d074f970ad52729f051d, type: 3}
  - {fileID: 21300000, guid: e2d34a4a6705d21498aaca40af8643ce, type: 3}
  - {fileID: 21300000, guid: e568845af146d4dafb73ea331e581fee, type: 3}
  - {fileID: 21300000, guid: df0dda6ac705b4b8bbc1799f791569d9, type: 3}
  - {fileID: 21300000, guid: 9131397a25164458198c980b3c5d6161, type: 3}
  - {fileID: 21300000, guid: 4f89f78aa1ea84bdb979afa8a48aa6ca, type: 3}
  - {fileID: 21300000, guid: d090249a1cecd9a43ba41e26af0f8c9e, type: 3}
  - {fileID: 21300000, guid: 2b86969ae5d6e408482197bc913703e0, type: 3}
  - {fileID: 21300000, guid: b2242b9a289fb4e3eb9a5d5ce9c36707, type: 3}
  - {fileID: 21300000, guid: 061354aaeacc78a40b1d408a71451edf, type: 3}
  - {fileID: 21300000, guid: a8dc25babd373475cb08e3c796306da7, type: 3}
  - {fileID: 21300000, guid: e2548bbad93525348987439a3182abcd, type: 3}
  - {fileID: 21300000, guid: da9b62da5bc7a4e6b908ba0586573bef, type: 3}
  - {fileID: 21300000, guid: 788db3da287332548afd34a8b1637660, type: 3}
  - {fileID: 21300000, guid: 98389ada6936f514b8ac47511d72a782, type: 3}
  - {fileID: 21300000, guid: f06de5ea4d0752b46b6a0987d6a49a00, type: 3}
  - {fileID: 21300000, guid: a3d16cea0a6f24d318ca197b54ff094d, type: 3}
  - {fileID: 21300000, guid: 519b6a0ba3cad9a428dfabcad28e70b2, type: 3}
  - {fileID: 21300000, guid: ff1e911bc9a7a449aad517ea8dec9775, type: 3}
  - {fileID: 21300000, guid: 4653e21b517e94b5db8afebbd039e338, type: 3}
  - {fileID: 21300000, guid: af3b341bdd4704c4d8d99e5d2df4e94b, type: 3}
  - {fileID: 21300000, guid: 9ff0a02bbc39e13459152c8eaad1a821, type: 3}
  - {fileID: 21300000, guid: c28f132b578318f4588294a184c2048d, type: 3}
  - {fileID: 21300000, guid: 51f0642bcae794205a827c6ed5a3924d, type: 3}
  - {fileID: 21300000, guid: 16f8a72b4926a584f91ad3b7436bb958, type: 3}
  - {fileID: 21300000, guid: 0a921f2bcb01e4a16b5eeda28d4931f9, type: 3}
  - {fileID: 21300000, guid: 3a6b9f2bdc6034b46a8e7b9715c2ca3b, type: 3}
  - {fileID: 21300000, guid: 555ff45b69ab8d94db04d007ff415f80, type: 3}
  - {fileID: 21300000, guid: c9fe785be56913747b2857d6d9c487fc, type: 3}
  - {fileID: 21300000, guid: aeed066b8d97049059d93462b5d07ad4, type: 3}
  - {fileID: 21300000, guid: 256adf9bc27f04467bdf96d30d9c9f1c, type: 3}
  - {fileID: 21300000, guid: 80b472ab451a147198246782e4c58450, type: 3}
  - {fileID: 21300000, guid: e58476ab6f5db7b4cb0e1bc3316fa5df, type: 3}
  - {fileID: 21300000, guid: 3cd2aeabb43684118ad4bbb1f73d0134, type: 3}
  - {fileID: 21300000, guid: ded432bb89ea84a11a12e9a73e553bba, type: 3}
  - {fileID: 21300000, guid: 4854aacbcaf4843bd80f14f9e2a82f70, type: 3}
  - {fileID: 21300000, guid: 6b7090db89c0860408f454eab7bc00a5, type: 3}
  - {fileID: 21300000, guid: f84ef0eb7d59f4a9db774808c4e94e39, type: 3}
  - {fileID: 21300000, guid: 6d85c5ebd7e1f4038b5d78c07d1a3833, type: 3}
  - {fileID: 21300000, guid: 0743abeb50330094b87460ba5503cd71, type: 3}
  - {fileID: 21300000, guid: a8a2e2fb917a5614eb0493fd4d59b32e, type: 3}
  - {fileID: 21300000, guid: bdafabfb4450622478d3328709e83afc, type: 3}
  - {fileID: 21300000, guid: 05d2310ce6a54450daac2a20a5473b3f, type: 3}
  - {fileID: 21300000, guid: cf4b8e0c8046942bfaa4626b028db6f0, type: 3}
  - {fileID: 21300000, guid: ce89ab1c2ed07420f87539fcebbac668, type: 3}
  - {fileID: 21300000, guid: 0fbd432c7fc0ad74aa7334a841a8baae, type: 3}
  - {fileID: 21300000, guid: 61a8482cc963c83429e2d75c9d79eed0, type: 3}
  - {fileID: 21300000, guid: 6f64cf2ca62364114ac46c98948ece03, type: 3}
  - {fileID: 21300000, guid: 3ac7103c09b8821449ac126555ce9475, type: 3}
  - {fileID: 21300000, guid: f129723c1d80e6c49acf2e726a6d2967, type: 3}
  - {fileID: 21300000, guid: 8a88693ccbbe3c74b8f4fa57fdec70b1, type: 3}
  - {fileID: 21300000, guid: d3d2f93c3cff47944b7f700955835887, type: 3}
  - {fileID: 21300000, guid: 2ba1424c74e3c74428631fc7fc96cfea, type: 3}
  - {fileID: 21300000, guid: f651085c15b314a51bcbc16c8e0598dd, type: 3}
  - {fileID: 21300000, guid: dddb448c1c3ba4a948c5a5b077e13067, type: 3}
  - {fileID: 21300000, guid: 37fcb6ac480b64c969db34d34d39f941, type: 3}
  - {fileID: 21300000, guid: 4ca713dc69cde4649800f0f5ddc4be5d, type: 3}
  - {fileID: 21300000, guid: 294763dc4c56e42428f8a66225f3f43f, type: 3}
  - {fileID: 21300000, guid: b4bca9dcd375e4aa69242b0a7a1398e7, type: 3}
  - {fileID: 21300000, guid: f4cbfcdc2ab6340b491d53768a7bae29, type: 3}
  - {fileID: 21300000, guid: 22e67ddc53d884f18aeb6e560647e16d, type: 3}
  - {fileID: 21300000, guid: 050357ec80bb9fb47a2646c9176b3e2d, type: 3}
  - {fileID: 21300000, guid: ab00750dec7f44b4c98d83d947968010, type: 3}
  - {fileID: 21300000, guid: 2a35811d225a64cac8458a567134f904, type: 3}
  - {fileID: 21300000, guid: d66ad02da4f3648c990f958e2606c3cc, type: 3}
  - {fileID: 21300000, guid: 7e60312d6bd6e4c84a7d0d590e0739ad, type: 3}
  - {fileID: 21300000, guid: ed3aa42d73ffe40ce8c0495440656ae4, type: 3}
  - {fileID: 21300000, guid: 3f2a8b2d2e9d0eb4d8c6ccce07e01701, type: 3}
  - {fileID: 21300000, guid: a361283d707a196458cb373294f12cef, type: 3}
  - {fileID: 21300000, guid: ee9cb34dcdf4b0d43889b7e450b2aca8, type: 3}
  - {fileID: 21300000, guid: 6f0f2d4d0c3944d45a8dd0e50eb7d8bd, type: 3}
  - {fileID: 21300000, guid: 8e33015d29d5b48249fadc3c3829537b, type: 3}
  - {fileID: 21300000, guid: d98f095d0b1ef4531b1cedca99e7475d, type: 3}
  - {fileID: 21300000, guid: 3d41846d82e56454f99bf09529653d6f, type: 3}
  - {fileID: 21300000, guid: 66167b7d358d34cf799062a8bc7046c1, type: 3}
  - {fileID: 21300000, guid: 5618d08df3b524503908938686bb3e57, type: 3}
  - {fileID: 21300000, guid: 5057619d24258d741a65fac983f91d85, type: 3}
  - {fileID: 21300000, guid: 91314a9d0308e4df28cfb4d96eb5ba09, type: 3}
  - {fileID: 21300000, guid: e5054dad016bf4d8f82149628b128080, type: 3}
  - {fileID: 21300000, guid: bd6614cd923704c2dac62c7d8fd3e263, type: 3}
  - {fileID: 21300000, guid: 81f355cda71d5e742a04206e2608fabf, type: 3}
  - {fileID: 21300000, guid: f7925ecd6bb68cb49aa34cac22eaf3ac, type: 3}
  - {fileID: 21300000, guid: a23431edc517d42bab8580977ee7d976, type: 3}
  - {fileID: 21300000, guid: 676671ed813c4416a81afe8c7d12f0e3, type: 3}
  - {fileID: 21300000, guid: cdfc72ed8450146f790ed4a51b973669, type: 3}
  - {fileID: 21300000, guid: 822087edf88a74dd1958eb517d9a9a6e, type: 3}
  - {fileID: 21300000, guid: f546e20eae0f24b4cb58e28846a63219, type: 3}
  - {fileID: 21300000, guid: 2a46a01e68d31ab419cd9d93c7d5b961, type: 3}
  - {fileID: 21300000, guid: c063c01eb3f51324994f20add8c1d523, type: 3}
  - {fileID: 21300000, guid: 9941a41e44fbc42769d1981f5a3f60dd, type: 3}
  - {fileID: 21300000, guid: 8db17b1ea0dd64c0dbed8869abd2148c, type: 3}
  - {fileID: 21300000, guid: fbc31e1ec1a5145cca1609a7cde15021, type: 3}
  - {fileID: 21300000, guid: 3722742e3652b4c24b67107752051af3, type: 3}
  - {fileID: 4415455414317343967, guid: aaf5a03e30a8240e0b4d02c35dc3d9a2, type: 3}
  - {fileID: 7644584948918484888, guid: aaf5a03e30a8240e0b4d02c35dc3d9a2, type: 3}
  - {fileID: -311678345357013943, guid: aaf5a03e30a8240e0b4d02c35dc3d9a2, type: 3}
  - {fileID: 571606686462941827, guid: aaf5a03e30a8240e0b4d02c35dc3d9a2, type: 3}
  - {fileID: -3831681763708373266, guid: aaf5a03e30a8240e0b4d02c35dc3d9a2, type: 3}
  - {fileID: 8378890390284085301, guid: aaf5a03e30a8240e0b4d02c35dc3d9a2, type: 3}
  - {fileID: 381829511105219009, guid: aaf5a03e30a8240e0b4d02c35dc3d9a2, type: 3}
  - {fileID: -7536532795835000944, guid: aaf5a03e30a8240e0b4d02c35dc3d9a2, type: 3}
  - {fileID: 4888055439568857204, guid: aaf5a03e30a8240e0b4d02c35dc3d9a2, type: 3}
  - {fileID: 8103072417643593125, guid: aaf5a03e30a8240e0b4d02c35dc3d9a2, type: 3}
  - {fileID: 3378607388539892736, guid: aaf5a03e30a8240e0b4d02c35dc3d9a2, type: 3}
  - {fileID: 8431958593034151304, guid: aaf5a03e30a8240e0b4d02c35dc3d9a2, type: 3}
  - {fileID: -24647146882258702, guid: aaf5a03e30a8240e0b4d02c35dc3d9a2, type: 3}
  - {fileID: -8718638027760450986, guid: aaf5a03e30a8240e0b4d02c35dc3d9a2, type: 3}
  - {fileID: 1032790878315731457, guid: aaf5a03e30a8240e0b4d02c35dc3d9a2, type: 3}
  - {fileID: -4657425032853256270, guid: aaf5a03e30a8240e0b4d02c35dc3d9a2, type: 3}
  - {fileID: 21300000, guid: 3fe9a73e560d7b04eb28859d9c1235d6, type: 3}
  - {fileID: 21300000, guid: 1899383e697ea4f0b93e3d33e3b4b632, type: 3}
  - {fileID: 21300000, guid: 0115bd3e4d70cf047805afe3a7a13bd4, type: 3}
  - {fileID: 21300000, guid: 8fa4875e9118042d7b37f2455fae7945, type: 3}
  - {fileID: 21300000, guid: 73b7d57e050264d16bf54148970ec77f, type: 3}
  - {fileID: -6665028399921247144, guid: 125f487e1c4f64880b90eccd72eb0a90, type: 3}
  - {fileID: 280956015257588812, guid: 125f487e1c4f64880b90eccd72eb0a90, type: 3}
  - {fileID: -5461780744664337300, guid: 125f487e1c4f64880b90eccd72eb0a90, type: 3}
  - {fileID: 5900414139279101984, guid: 125f487e1c4f64880b90eccd72eb0a90, type: 3}
  - {fileID: -1447618536216469710, guid: 125f487e1c4f64880b90eccd72eb0a90, type: 3}
  - {fileID: -580802175678537897, guid: 125f487e1c4f64880b90eccd72eb0a90, type: 3}
  - {fileID: -8739116718856750308, guid: 125f487e1c4f64880b90eccd72eb0a90, type: 3}
  - {fileID: 3472011540932023319, guid: 125f487e1c4f64880b90eccd72eb0a90, type: 3}
  - {fileID: 3817477362005448706, guid: 125f487e1c4f64880b90eccd72eb0a90, type: 3}
  - {fileID: -4589240779045811349, guid: 125f487e1c4f64880b90eccd72eb0a90, type: 3}
  - {fileID: -8923613978128755137, guid: 125f487e1c4f64880b90eccd72eb0a90, type: 3}
  - {fileID: 1706363313086277768, guid: 125f487e1c4f64880b90eccd72eb0a90, type: 3}
  - {fileID: -5402765604792367867, guid: 125f487e1c4f64880b90eccd72eb0a90, type: 3}
  - {fileID: -1410581067389375431, guid: 125f487e1c4f64880b90eccd72eb0a90, type: 3}
  - {fileID: 2522951735069603219, guid: 125f487e1c4f64880b90eccd72eb0a90, type: 3}
  - {fileID: -9175607089839992800, guid: 125f487e1c4f64880b90eccd72eb0a90, type: 3}
  - {fileID: 21300000, guid: 35fff58e9f8ef4f25ba3b3c87ec2945c, type: 3}
  - {fileID: 21300000, guid: cbbaf29e147d242789a2c834bdec7156, type: 3}
  - {fileID: 21300000, guid: 70418d9e565c140e7b9623a8ac86e76d, type: 3}
  - {fileID: 21300000, guid: cb2510aef37be554e86eacd03073c73c, type: 3}
  - {fileID: 21300000, guid: 2af255ae116048e4d8e8c6b748c2043c, type: 3}
  - {fileID: 21300000, guid: 40783faef76074a7fb8b9972132834a1, type: 3}
  - {fileID: 21300000, guid: ae9354bef931d402d808c17400b16c1f, type: 3}
  - {fileID: 21300000, guid: c6f121ceee1781b4e9aa9485207f8633, type: 3}
  - {fileID: 21300000, guid: 33f742ce7d8ab420c85fa1fb549f4b8e, type: 3}
  - {fileID: 21300000, guid: 222a07de91a12477b9fdb5362b6cdc5f, type: 3}
  - {fileID: 21300000, guid: 46d9a7dea35cb9a4e9d58011fd4b95a1, type: 3}
  - {fileID: 21300000, guid: eefafdde82cfc494f8138ed30c1ebd16, type: 3}
  - {fileID: 21300000, guid: 26f07eeee53f54dfca66fc53ab7a34f0, type: 3}
  - {fileID: 21300000, guid: 0864c8feac2dc462485c6e534be6c90b, type: 3}
  - {fileID: 21300000, guid: 949eaafec4f414a06946fda7244ca026, type: 3}
  - {fileID: 21300000, guid: 59fdf10f5b8afe04e94935f58d5cd6ea, type: 3}
  - {fileID: 21300000, guid: 59f4d20f6d01540c7b023a28da727c30, type: 3}
  - {fileID: 21300000, guid: be6a130fce97145e48616c82d8209d66, type: 3}
  - {fileID: 21300000, guid: b996760f6f0c344e4ab989d77e044fe6, type: 3}
  - {fileID: 21300000, guid: de74db0fcb2df459088794847516a614, type: 3}
  - {fileID: 21300000, guid: 2922261f35a0b407e98fe1cb20f754a5, type: 3}
  - {fileID: 21300000, guid: 8b01fa1f702b94c268e26177107b87a0, type: 3}
  - {fileID: 21300000, guid: 2fec7f1fecf3d2e4b9197414a407ed16, type: 3}
  - {fileID: 21300000, guid: 1b91102ffbfac2a408008c222b125f41, type: 3}
  - {fileID: 21300000, guid: 4b333f3fc69454053b5cb226dc295a80, type: 3}
  - {fileID: 21300000, guid: 78798e4feba811a4cb24d505743dc99d, type: 3}
  - {fileID: 21300000, guid: ec4bc05fdf6394d778fd88b3575add38, type: 3}
  - {fileID: 21300000, guid: e498166fbad0a4de2954896765833629, type: 3}
  - {fileID: 21300000, guid: a72b957f286913640924e3e91c48c6a7, type: 3}
  - {fileID: 21300000, guid: 74a21f8f11959ce4dbe9d9f0501e3dd2, type: 3}
  - {fileID: 21300000, guid: 57834b9f1f70f4c578b03ee018983685, type: 3}
  - {fileID: 21300000, guid: 402ca2af76057bc4090da59d6a7e11bb, type: 3}
  - {fileID: 21300000, guid: babb55af311f14a32bdd989e30a89b15, type: 3}
  - {fileID: 21300000, guid: 83018eaf8edbb495b87a249741550cf3, type: 3}
  - {fileID: 21300000, guid: 9ccff9bfbb55e4a2c82b5e777a33d322, type: 3}
  - {fileID: 21300000, guid: ca1a6dbf398ce17468f171d3e4ab0a63, type: 3}
  - {fileID: 21300000, guid: 5349d4cf932e84cd9a2aacf9098b6a3b, type: 3}
  - {fileID: 21300000, guid: 79eb6aef55f5e428989194cd9489b2ed, type: 3}
  m_PackedSpriteNamesToIndex:
  - steam_completetop.008
  - hot single tile B 9
  - Untitled-4
  - hot single tile A 7
  - hot single tile C 8
  - hot corner 1
  - flame
  - hot vertical C0003
  - hot vertical B0005
  - flame_ball.002
  - steam_fizzle.007
  - hot horizontal E 2
  - cold base texture_11
  - cold base texture_10
  - cold base texture_8
  - cold base texture_9
  - cold base texture_4
  - cold base texture_5
  - cold base texture_6
  - cold base texture_7
  - cold base texture_0
  - cold base texture_1
  - cold base texture_2
  - cold base texture_3
  - cold base texture_15
  - cold base texture_14
  - cold base texture_13
  - cold base texture_12
  - icicle_melting3
  - snow_ball_melting 3
  - hot base texture 1_15
  - hot base texture 1_14
  - hot base texture 1_11
  - hot base texture 1_10
  - hot base texture 1_13
  - hot base texture 1_12
  - hot base texture 1_6
  - hot base texture 1_7
  - hot base texture 1_4
  - hot base texture 1_5
  - hot base texture 1_2
  - hot base texture 1_3
  - hot base texture 1_0
  - hot base texture 1_1
  - hot base texture 1_8
  - hot base texture 1_9
  - hot vertical A0003
  - hot horizontal C 3
  - fire_1
  - hot horizontal A 1
  - hot horizontal A 4
  - steam_top.009
  - ice_1
  - editor_hot_gate_end
  - firetile_2
  - cold right border 4
  - hot inside corner 4
  - steam_top.007
  - hot vertical D0003
  - steam_top.006
  - cold vertical A
  - hot corner 3
  - hot single tile C 6
  - hot vertical C0005
  - hot vertical C0004
  - cold single tile C
  - hot single tile B 5
  - hot vertical C0007
  - cold inside corner 4
  - steam_completetop.002
  - hot vertical B0006
  - cold vertical D
  - icicle_melting1
  - geyser_smoke_texture
  - hot single tile B 1
  - steam_clouds3.002
  - icetile_1
  - hot horizontal A 9
  - cold grab
  - steam_clouds3.008
  - cold left border 3
  - cold right border 2
  - hot single tile A 6
  - Hot-n-cold_0003_Layer-11-copy
  - bar bit long
  - water_half.008
  - hot base texture 5_8
  - hot base texture 5_9
  - hot base texture 5_2
  - hot base texture 5_3
  - hot base texture 5_0
  - hot base texture 5_1
  - hot base texture 5_6
  - hot base texture 5_7
  - hot base texture 5_4
  - hot base texture 5_5
  - hot base texture 5_11
  - hot base texture 5_10
  - hot base texture 5_13
  - hot base texture 5_12
  - hot base texture 5_15
  - hot base texture 5_14
  - cold horizontal D
  - cold inside corner 2
  - hot single tile B 2
  - icetile_0
  - hot single tile B 8
  - steam_top.012
  - steam_completetop.006
  - steam_top.011
  - steam_clouds_highlight3.003
  - hot single tile C 4
  - hot horizontal A 3
  - water_half.007
  - hot vertical E0002
  - steam_fizzle.005
  - cold corner 2
  - cold horizontal E
  - hot base texture 8_7
  - hot base texture 8_6
  - hot base texture 8_5
  - hot base texture 8_4
  - hot base texture 8_3
  - hot base texture 8_2
  - hot base texture 8_1
  - hot base texture 8_0
  - hot base texture 8_9
  - hot base texture 8_8
  - hot base texture 8_12
  - hot base texture 8_13
  - hot base texture 8_10
  - hot base texture 8_11
  - hot base texture 8_14
  - hot base texture 8_15
  - flame_ball.003
  - steam_completetop.007
  - hot vertical B0002
  - hot single tile C 3
  - water_half.010
  - cold vertical C
  - cold horizontal C
  - editor_cold_gate_end
  - hot vertical C0000
  - fire_2
  - hot horizontal E 7
  - cold bottom border 4
  - hot single tile C 2
  - hot horizontal B 5
  - hot horizontal A 5
  - steam_clouds_highlight3.008
  - steam_top.004
  - steam_fizzle.008
  - hot base texture 9_15
  - hot base texture 9_14
  - hot base texture 9_11
  - hot base texture 9_10
  - hot base texture 9_13
  - hot base texture 9_12
  - hot base texture 9_8
  - hot base texture 9_9
  - hot base texture 9_6
  - hot base texture 9_7
  - hot base texture 9_4
  - hot base texture 9_5
  - hot base texture 9_2
  - hot base texture 9_3
  - hot base texture 9_0
  - hot base texture 9_1
  - steam_completetop.009
  - hot horizontal D 3
  - water_half.003
  - hot right border 2
  - hot horizontal A 6
  - hot vertical E0000
  - hot single tile C 1
  - hot horizontal E 1
  - Icicle_0003_Layer-2
  - firetile_1
  - hot top border 4
  - hot vertical A0006
  - cold left border 4
  - steam_top.003
  - Icicle_0004_Layer-1
  - hot single tile B 7
  - hot vertical A0008
  - hot single tile A 0
  - steam_completetop.012
  - cold inside corner 1
  - steam_fizzle.004
  - hot single tile A 8
  - cold horizontal B
  - steam_fizzle.003
  - hot single tile A 5
  - geyzer_hot_front
  - hot base texture 4_3
  - hot base texture 4_2
  - hot base texture 4_1
  - hot base texture 4_0
  - hot base texture 4_7
  - hot base texture 4_6
  - hot base texture 4_5
  - hot base texture 4_4
  - hot base texture 4_9
  - hot base texture 4_8
  - hot base texture 4_14
  - hot base texture 4_15
  - hot base texture 4_12
  - hot base texture 4_13
  - hot base texture 4_10
  - hot base texture 4_11
  - hot base texture 3_6
  - hot base texture 3_7
  - hot base texture 3_13
  - hot base texture 3_12
  - hot base texture 3_11
  - hot base texture 3_10
  - hot base texture 3_15
  - hot base texture 3_14
  - hot base texture 3_8
  - hot base texture 3_9
  - hot base texture 3_0
  - hot base texture 3_1
  - hot base texture 3_2
  - hot base texture 3_3
  - hot base texture 3_4
  - hot base texture 3_5
  - hot horizontal C 4
  - hot vertical B0008
  - hot vertical C0008
  - hot inside corner 2
  - cold bottom border 2
  - hot vertical E0007
  - hot horizontal B 8
  - hotcold_platform_cold
  - hot base texture 2_10
  - hot base texture 2_11
  - hot base texture 2_12
  - hot base texture 2_13
  - hot base texture 2_14
  - hot base texture 2_15
  - hot base texture 2_1
  - hot base texture 2_0
  - hot base texture 2_3
  - hot base texture 2_2
  - hot base texture 2_5
  - hot base texture 2_4
  - hot base texture 2_7
  - hot base texture 2_6
  - hot base texture 2_9
  - hot base texture 2_8
  - hot vertical A0007
  - Icicle_0001_Layer-76-copy
  - steam_clouds3.004
  - water_half.005
  - steam_completetop.011
  - Hot-n-cold_0016_Layer-37-copy-2
  - hot left border 3
  - Hot-n-cold_0006_Layer-89-copy-7
  - steam_clouds3.009
  - hot single tile A 4
  - steam_top.002
  - cold horizontal A
  - hot vertical D0005
  - hot base texture 0_9
  - hot base texture 0_8
  - hot base texture 0_7
  - hot base texture 0_12
  - hot base texture 0_6
  - hot base texture 0_13
  - hot base texture 0_5
  - hot base texture 0_10
  - hot base texture 0_4
  - hot base texture 0_11
  - hot base texture 0_3
  - hot base texture 0_2
  - hot base texture 0_1
  - hot base texture 0_14
  - hot base texture 0_0
  - hot base texture 0_15
  - ball_shade
  - hot vertical A0000
  - hot horizontal B 7
  - icetile_2
  - hot vertical E0003
  - steam_clouds3.001
  - steam_completetop.010
  - hot vertical A0009
  - cold bottom border 1
  - hot switch edge
  - hot horizontal D 5
  - snow_ball_melting 4
  - hot vertical D0002
  - hot vertical B0004
  - hot horizontal C 8
  - hot vertical D0001
  - flame_ball.001
  - cold corner 4
  - hot horizontal D 4
  - steam_clouds3.003
  - hot horizontal C 5
  - hot vertical E0006
  - hot horizontal E 5
  - hot top border 1
  - hot vertical C0001
  - geyser_smoke_texture_front
  - steam_completetop.001
  - Hot-n-cold_0005_Layer-10_hot
  - cold right border 3
  - Hot or Cold not touched
  - hot inside corner 3
  - hot horizontal D 8
  - hot horizontal C 7
  - hot single tile C 0
  - hot horizontal A 2
  - steam_clouds_highlight3.009
  - hot horizontal A 8
  - cold top border 2
  - steam_clouds3.006
  - hot horizontal E 4
  - hot horizontal B 1
  - fire_0
  - hot single tile C 9
  - snow_ball_melting 2
  - geyser_hot_complete
  - steam_clouds_highlight3.002
  - hot vertical B0007
  - hot vertical C0009
  - cold vertical E
  - cold vertical B
  - Icicle_0002_Layer-3
  - Hot-n-cold_0005_Layer-10
  - editor_hot_grab
  - hot horizontal C 9
  - hot horizontal C 2
  - hot vertical C0006
  - hot horizontal D 6
  - flame_ball.004
  - cold bottom border 3
  - hot horizontal D 0
  - steam_fizzle.001
  - hot single tile B 4
  - hot grab
  - hot vertical C0002
  - steam_clouds3.011
  - steam_clouds3.005
  - editor_cold_grab
  - hot single tile A 1
  - steam_completetop.005
  - hot horizontal D 7
  - hot left border 2
  - geyser_frozen
  - steam_top.008
  - editor_hotcold_platform_cog
  - cold right border 1
  - steam_clouds_highlight3.001
  - cold top border 1
  - hot vertical A0004
  - water_half.001
  - steam_clouds_highlight3.005
  - hot vertical B0001
  - hot top border 2
  - hot left border 4
  - steam_clouds_highlight3.007
  - hot horizontal D 2
  - hot inside corner 1
  - hot horizontal A 0
  - ice_2
  - cold left border 1
  - firetile_0
  - Hot-n-cold_0015_Layer-2
  - cold roll over
  - steam_clouds_highlight3.006
  - hot vertical D0000
  - hot bottom border 4
  - hot vertical E0009
  - ice particle
  - icicle_melting2
  - hot vertical D0008
  - steam_clouds_highlight3.011
  - steam_clouds3.010
  - steam_completetop.003
  - steam_top.005
  - water_half.004
  - hot bottom border 2
  - hot horizontal B 6
  - hot single tile A 9
  - hot vertical D0004
  - cold top border 4
  - cold corner 1
  - hot vertical A0002
  - hot single tile C 7
  - ice_0
  - hot vertical D0009
  - hot vertical B0009
  - hot right border 4
  - hot horizontal E 6
  - hot single tile C 5
  - ice particle bigger
  - water_half.006
  - glow_red
  - Hot-n-cold_0004_Layer-11
  - hot horizontal E 9
  - hot horizontal B 9
  - bar bit
  - hot right border 3
  - hot vertical E0001
  - hot roll over
  - hot horizontal B 4
  - hot single tile B 3
  - cold single tile A
  - steam_clouds_highlight3.010
  - steam_clouds_highlight3.012
  - hot horizontal C 6
  - cold corner 3
  - hot top border 3
  - hot vertical B0003
  - cold inside corner 3
  - steam_top.010
  - steam_clouds_highlight3.004
  - hot single tile A 2
  - hot corner 2
  - hot horizontal C 1
  - hot single tile B 6
  - hot base texture 6_5
  - hot base texture 6_4
  - hot base texture 6_7
  - hot base texture 6_6
  - hot base texture 6_1
  - hot base texture 6_0
  - hot base texture 6_3
  - hot base texture 6_2
  - hot base texture 6_9
  - hot base texture 6_8
  - hot base texture 6_14
  - hot base texture 6_15
  - hot base texture 6_10
  - hot base texture 6_11
  - hot base texture 6_12
  - hot base texture 6_13
  - steam_fizzle.006
  - hot right border 1
  - steam_clouds3.007
  - hot bottom border 3
  - hot vertical D0007
  - hot base texture 7_8
  - hot base texture 7_9
  - hot base texture 7_4
  - hot base texture 7_5
  - hot base texture 7_6
  - hot base texture 7_7
  - hot base texture 7_0
  - hot base texture 7_1
  - hot base texture 7_2
  - hot base texture 7_3
  - hot base texture 7_15
  - hot base texture 7_14
  - hot base texture 7_13
  - hot base texture 7_12
  - hot base texture 7_11
  - hot base texture 7_10
  - hot horizontal E 0
  - cold single tile B
  - hot vertical A0005
  - flame_ball.005
  - hotcold_platform_hot
  - hot bottom border 1
  - hot horizontal B 2
  - glow_yellow
  - hot horizontal B 3
  - hot horizontal B 0
  - steam_top.001
  - ice particle biggest
  - hot horizontal E 8
  - hot horizontal C 0
  - hot vertical E0005
  - steam_completetop.004
  - hot vertical E0004
  - hot horizontal E 3
  - hot single tile A 3
  - hot vertical E0008
  - hot vertical D0006
  - hot vertical A0001
  - snow_ball_melting 1
  - steam_clouds3.012
  - hot horizontal A 7
  - water_half.002
  - hot left border 1
  - hot corner 4
  - glow_orange
  - Icicle_0000_Layer-4
  - cold top border 3
  - water_half.009
  - cold left border 2
  - hot horizontal D 9
  - hot horizontal D 1
  - steam_fizzle.002
  - hot vertical B0000
  - hot single tile B 0
  m_RenderDataMap: {}
  m_Tag: Items - Hot N Cold Springs
  m_IsVariant: 0
