%YAML 1.1
%TAG !u! tag:unity3d.com,2011:
--- !u!687078895 &4343727234628468602
SpriteAtlas:
  m_ObjectHideFlags: 0
  m_CorrespondingSourceObject: {fileID: 0}
  m_PrefabInstance: {fileID: 0}
  m_PrefabAsset: {fileID: 0}
  m_Name: Menu - Calendar Screen
  m_EditorData:
    serializedVersion: 2
    textureSettings:
      serializedVersion: 2
      anisoLevel: 1
      compressionQuality: 50
      maxTextureSize: 2048
      textureCompression: 0
      filterMode: 1
      generateMipMaps: 0
      readable: 0
      crunchedCompression: 0
      sRGB: 1
    platformSettings:
    - serializedVersion: 3
      m_BuildTarget: DefaultTexturePlatform
      m_MaxTextureSize: 4096
      m_ResizeAlgorithm: 0
      m_TextureFormat: -1
      m_TextureCompression: 1
      m_CompressionQuality: 50
      m_CrunchedCompression: 0
      m_AllowsAlphaSplitting: 0
      m_Overridden: 0
      m_IgnorePlatformSupport: 0
      m_AndroidETC2FallbackOverride: 0
      m_ForceMaximumCompressionQuality_BC6H_BC7: 0
    packingSettings:
      serializedVersion: 2
      padding: 4
      blockOffset: 1
      allowAlphaSplitting: 0
      enableRotation: 0
      enableTightPacking: 0
      enableAlphaDilation: 0
    secondaryTextureSettings: {}
    variantMultiplier: 1
    packables:
    - {fileID: 102900000, guid: 7ae967bfb23915d44947d218487ce102, type: 3}
    - {fileID: 102900000, guid: bd99fe00831da5948b6945e9f2da58d1, type: 3}
    bindAsDefault: 1
    isAtlasV2: 0
    cachedData: {fileID: 0}
    packedSpriteRenderDataKeys:
    - a9557c30cd6dea441abc38a4f51c6311: 21300000
    - e279d9400cc455246b72c8d72a2610ef: 21300000
    - 5cd228b0ae98c694e8f5b109f941bd63: 21300000
    - 070c47c0d35a68d448a6646ab5236960: 21300000
    - a53392f06da27764089592acd1649692: 21300000
    - b0060bf0cb6949c4893392a39e987179: 21300000
    - 064460019d1447347a472e01583d3285: 21300000
    - 9e4adc11c95ecd54c8154492f3111588: 21300000
    - cd9b022198268e04895f84e6a0a1747a: 21300000
    - 01cf95214ee4ed341a00080296a554ef: 21300000
    - 08c59d2186d394943a7ec6ff3bc85fc6: 21300000
    - 239b7341fb3961e4396227e2aa1a4e2f: 21300000
    - 61bb3471406c3a741880cd98e512f0a6: 21300000
    - 1d135991c0af4864c90b614065b80a6d: 21300000
    - 981406b1400677449991a093cc2c48a9: 21300000
    - 4fe6edc15beab0741a52432bbac04b38: 21300000
    - ea96ffc178784544ab3aadd3d9816e8b: 21300000
    - 41cd44e10dc330f4cbfa462f7ea93c3a: 21300000
    - 1db399e130d825047a800ca573890fe5: 21300000
    - c634cee1a54046f47bd557894929d7ff: 21300000
    - f7e232f1f93cd2d4fab479b15db0b786: 21300000
    - 23f767024a30bd742ac9db532b8c79d9: 21300000
    - 192a71623c4ed544bb77763d040ed543: 21300000
    - addd3382125663f4fa324893a0e526b4: 21300000
    - 4517d2a2fb6acd34fb1e3ba3bd2520fd: 21300000
    - b0d42cb23c049894990c84be07648f5e: 21300000
    - e1770dc2f9c084449a757b232052f50b: 21300000
    - 1d567dd2b77edb64ba098b1200179189: 21300000
    - 593c3303aa627e34f9bba1119c3cff36: 21300000
    - ef0a4c03742c93a4ebfeaa2a8d735734: 21300000
    - ddc5f71302bea7245b1db8fa06df7605: 21300000
    - 9b2025232128b4f0cb11024b56d5609f: 21300000
    - b57f6d43b4b91ba4aa2d1669e9beeef2: 21300000
    - 70204453e9547ab42917194ed93faac2: 21300000
    - fffe9163840a5bc418b6c1fea471be4a: 21300000
    - 166a1073901bda341bf03426ff831b54: 21300000
    - 3c4718830cfc92749a9912ff8f07e043: 21300000
    - 42faf9835f3237249a3536acb47e0923: 21300000
    - 7003ef83b62a2b44494e41d635a1b97c: 21300000
    - 51fbc7b3f6cdd524fbdd74bb51ed49c6: 21300000
    - 6ba9c4e3d8c43704db4047e29fb3de18: 21300000
    - f09db8e34cf4a2b4ab28c02f53a5da23: 21300000
    - b0ea9cf35c17a664fb7524a9612ed712: 21300000
    - a0a3c114e73594f4fb9cc029b5986418: 21300000
    - f9412714d7731aa44abc9262dc6c03d0: 21300000
    - 1371a7145721f654cbcb874fde68c40a: 21300000
    - 825a7e3465dd6614ebe6a145245db4bd: 21300000
    - d21e6b44a1bf91945b34d161312018e7: 21300000
    - 48e98b54d9f599c40b1cb9216fad9999: 21300000
    - 067d68b4896286f48b7aafa0153dbdfe: 21300000
    - e58e9eb48c5d77344aaf7c6d93ee4229: 21300000
    - c20e30c452db39d42a65019e953f296c: 21300000
    - dd5086c44b5e5e94cbb25572e65e4ab6: 21300000
    - a9158ef4a48423c40a9ea8408729d566: 21300000
    - 40e904050c9826f478bca092d9316d62: 21300000
    - e0f50c05d25aa484ea89b18694ce3e97: 21300000
    - 889cfd056eb9ee64a9f7fb0e7a705cf8: 21300000
    - a75a33150efae274d94691db27bb1f37: 21300000
    - 72b37f1590f5fbc439cc0c64f078b54c: 21300000
    - 3d2f976587212024c8ad6a513d9a4de5: 21300000
    - 7f987b65414ae994fb8546485d4a614b: 21300000
    - c2de4d751dd0f8845b59445823a86e05: 21300000
    - 9e651495f8f21034ebea9d9ca80a053c: 21300000
    - 236de6959342d6f46b858aa6cfb7cd75: 21300000
    - c61621c5f6c346f4e84f2ba7254a7533: 21300000
    - 51c312c5376e8694bacf9efd7b8e27a7: 21300000
    - 4a76e5d50baf69b42a24167ed773ae4d: 21300000
    - 44584736d225ec54aafe44d8bf7c053a: 21300000
    - f972e246cba67034d99a1b8e889f498b: 21300000
    - ce734cd6de902b84baaf6f3b2cfc72f2: 21300000
    - 89088727027ca8c4cabe91bf3a247cfa: 21300000
    - aff94f37f101f374692869700de91aae: 21300000
    - 1de7a057391009248a4df73e9740c34f: 21300000
    - 201ab687b6cee5347a4e2b571e340003: 21300000
    - fa313397d6682744599cc3d468b31e75: 21300000
    - 1f60e2c712b08a54d8d699f412ad8d95: 21300000
    - c86fa4e7678eeaf44a3196377de0a52d: 21300000
    - 774be8e7a1f06c04cabda15fc34ea541: 21300000
    - 646bc4089b2840b408e0952ea876101e: 21300000
    - 6e74a7288227f514eb579843f2bf9608: 21300000
    - 994bd6583dc77fc449bc533a7978994e: 21300000
    - 3481d2680962eac4c80dee8f70cf06b9: 21300000
    - f2afd568ba7345048b8dc7b66209d1f5: 21300000
    - a49ada78461719646b1500678f31f7ca: 21300000
    - 6e86cf9861292dc408d0d587136ba5c5: 21300000
    - 57c83da81b2f1bb4b981b8ad71e2a2cc: 21300000
    - 951a2dc87be5da248a7bdaba5b2392cf: 21300000
    - fefb8cf8d307b1f4ba00049cbc1f1593: 21300000
    - c96c5f192e88d4045a2ae7b0f70369cb: 21300000
    - 6a760529c262dee4cb2be98f08613ae1: 21300000
    - 19e52a59613d017419a4a6b03d508931: 21300000
    - b45721792eafcbb41bbba7799f3aa88e: 21300000
    - 4570e979163e9ed4389ce07d7ab9a5d6: 21300000
    - 38a9f3892b5d8984daa91086445025b8: 21300000
    - a244fb8977183724e90c08a38cf9727b: 21300000
    - 090a3099c11c55049826bf21fc7f5e51: 21300000
    - af3d3ab995ad20e4895dc1cfc1b38d7a: 21300000
    - bcc247c90d9135c4cb642995f9ce583c: 21300000
    - 7255b8c9a486afa48bbdb9886d833b32: 21300000
    - 658143f95d99a7c48a9befa53047baf4: 21300000
    - 0eac875a4802048b8869eef2913ced7b: 21300000
    - b7b53c5a6bc3fdb4a9d8a4d23416a411: 21300000
    - 329b467a42340dd4983da5845353d216: 21300000
    - 7c3d249a35aa6ee4c893cdbc933c83d2: 21300000
    - b68c1c9a74dc82046bfdda26aec9c246: 21300000
    - f2e55d9acf5cb4d4e8075b40588020de: 21300000
    - 98d28caa309bd5f4684d0838a50b8f0b: 21300000
    - 9725900b32fbd6e4d8ebc44532d1add9: 21300000
    - 70db0b2b4b91ca447bfa2a269ad0a35c: 21300000
    - bf1bd74b545c6774980bfe43fa6678c5: 21300000
    - 0228e26b0e5d96b4c908fa975d5b9605: 21300000
    - aea7a08b9ecbb5d46961caa50ee6b518: 21300000
    - 6660158beb0758b479c41d1af52d602e: 21300000
    - 5d414cabdc5cb8b40a7b299c8d3c88f1: 21300000
    - dd2f27bbf11aca7449d9bcf773b4028e: 21300000
    - 6327a8bb8a6e73b45ab19db3a1ede256: 21300000
    - 16b0b7eb12498b4419a036fe789f159b: 21300000
    - 492ccdeb1e8db504dbc8da0ac4183029: 21300000
    - 1324cbfbf78a98f49a7dd072854d1db0: 21300000
    - 07a5280c997f3174fa65c468d0c8278f: 21300000
    - 9f71ed8c0d1e97c48b143c578786221c: 21300000
    - 3d0390ac90770d64a9a06c174ee11894: 21300000
    - fae502ac3630d9f4ab59f8e613dfd605: 21300000
    - 55c324bc43b106b4a8bc759050b6c22b: 21300000
    - facf6fcc309ba9442affaa11e1010c97: 21300000
    - 36fc3edc5c7cbd743928763f844f028d: 21300000
    - 12886dfcc895f3f4189a39caad4a8842: 21300000
    - 60030a0dbd437b2438b339384e5b71d9: 21300000
    - 36efac1dc59c37545b656dec8fa4dbc1: 21300000
    - 7fbfee1db41759748af0331f2f99b14d: 21300000
    - 2ac5814dee50c744e9d6b2ffc8850632: 21300000
    - c44a124d1b87e0a499dede3ada007a9b: 21300000
    - 0b4c9b4d0b4897943811fe4164a6726a: 21300000
    - b5b429ad181c6d543b00ff2c78bcb5d9: 21300000
    - 0c8948bd30e8a9d40b8af72d9fedfceb: 21300000
    - d209df0ee22a742ada135a2ae2a8fca8: 21300000
    - 36f6406e2c9f245478b8c0e49c8232ea: 21300000
    - 04c8227e5892a634fb5a318b22be3d28: 21300000
    - 8515697eee7f90d43a2b66a3f344e073: 21300000
    - 18ef898e0b292bb41ace5352708dbfc5: 21300000
    - 5149ebbe6863fcd4f961ad02c4859135: 21300000
    - 19b61adedf8e0344ea8d44ccbb50e46f: 21300000
    - e6bd0bfe018cf5a47908fec56a054ee9: 21300000
    - cf83940fd63bf644bb1129e566d4d5c4: 21300000
    - 8664bf0f036134e48a5f36441d074bee: 21300000
    - cd48272f14f15d24a827003acd7bf640: 21300000
    - 39dc872f0a0efa349b2c02d955eab708: 21300000
    - e0d03f2f83338304489647810716812f: 21300000
    - c8f8cc3f92b04c64fbec8a1f996db023: 21300000
    - ec5e3e4fb6a3ba542b4eef4d548085f0: 21300000
    - cde61e6f193f9314fb4601ecdac27833: 21300000
    - e36c318f1aba6f0489aca25ba5084730: 21300000
    - d965688f2f3ef364c8216544aac4c2eb: 21300000
    - 097c04bff5fd10b46900055819299510: 21300000
  m_MasterAtlas: {fileID: 0}
  m_PackedSprites:
  - {fileID: 21300000, guid: a9557c30cd6dea441abc38a4f51c6311, type: 3}
  - {fileID: 21300000, guid: e279d9400cc455246b72c8d72a2610ef, type: 3}
  - {fileID: 21300000, guid: 5cd228b0ae98c694e8f5b109f941bd63, type: 3}
  - {fileID: 21300000, guid: 070c47c0d35a68d448a6646ab5236960, type: 3}
  - {fileID: 21300000, guid: a53392f06da27764089592acd1649692, type: 3}
  - {fileID: 21300000, guid: b0060bf0cb6949c4893392a39e987179, type: 3}
  - {fileID: 21300000, guid: 064460019d1447347a472e01583d3285, type: 3}
  - {fileID: 21300000, guid: 9e4adc11c95ecd54c8154492f3111588, type: 3}
  - {fileID: 21300000, guid: cd9b022198268e04895f84e6a0a1747a, type: 3}
  - {fileID: 21300000, guid: 01cf95214ee4ed341a00080296a554ef, type: 3}
  - {fileID: 21300000, guid: 08c59d2186d394943a7ec6ff3bc85fc6, type: 3}
  - {fileID: 21300000, guid: 239b7341fb3961e4396227e2aa1a4e2f, type: 3}
  - {fileID: 21300000, guid: 61bb3471406c3a741880cd98e512f0a6, type: 3}
  - {fileID: 21300000, guid: 1d135991c0af4864c90b614065b80a6d, type: 3}
  - {fileID: 21300000, guid: 981406b1400677449991a093cc2c48a9, type: 3}
  - {fileID: 21300000, guid: 4fe6edc15beab0741a52432bbac04b38, type: 3}
  - {fileID: 21300000, guid: ea96ffc178784544ab3aadd3d9816e8b, type: 3}
  - {fileID: 21300000, guid: 41cd44e10dc330f4cbfa462f7ea93c3a, type: 3}
  - {fileID: 21300000, guid: 1db399e130d825047a800ca573890fe5, type: 3}
  - {fileID: 21300000, guid: c634cee1a54046f47bd557894929d7ff, type: 3}
  - {fileID: 21300000, guid: f7e232f1f93cd2d4fab479b15db0b786, type: 3}
  - {fileID: 21300000, guid: 23f767024a30bd742ac9db532b8c79d9, type: 3}
  - {fileID: 21300000, guid: 192a71623c4ed544bb77763d040ed543, type: 3}
  - {fileID: 21300000, guid: addd3382125663f4fa324893a0e526b4, type: 3}
  - {fileID: 21300000, guid: 4517d2a2fb6acd34fb1e3ba3bd2520fd, type: 3}
  - {fileID: 21300000, guid: b0d42cb23c049894990c84be07648f5e, type: 3}
  - {fileID: 21300000, guid: e1770dc2f9c084449a757b232052f50b, type: 3}
  - {fileID: 21300000, guid: 1d567dd2b77edb64ba098b1200179189, type: 3}
  - {fileID: 21300000, guid: 593c3303aa627e34f9bba1119c3cff36, type: 3}
  - {fileID: 21300000, guid: ef0a4c03742c93a4ebfeaa2a8d735734, type: 3}
  - {fileID: 21300000, guid: ddc5f71302bea7245b1db8fa06df7605, type: 3}
  - {fileID: 21300000, guid: 9b2025232128b4f0cb11024b56d5609f, type: 3}
  - {fileID: 21300000, guid: b57f6d43b4b91ba4aa2d1669e9beeef2, type: 3}
  - {fileID: 21300000, guid: 70204453e9547ab42917194ed93faac2, type: 3}
  - {fileID: 21300000, guid: fffe9163840a5bc418b6c1fea471be4a, type: 3}
  - {fileID: 21300000, guid: 166a1073901bda341bf03426ff831b54, type: 3}
  - {fileID: 21300000, guid: 3c4718830cfc92749a9912ff8f07e043, type: 3}
  - {fileID: 21300000, guid: 42faf9835f3237249a3536acb47e0923, type: 3}
  - {fileID: 21300000, guid: 7003ef83b62a2b44494e41d635a1b97c, type: 3}
  - {fileID: 21300000, guid: 51fbc7b3f6cdd524fbdd74bb51ed49c6, type: 3}
  - {fileID: 21300000, guid: 6ba9c4e3d8c43704db4047e29fb3de18, type: 3}
  - {fileID: 21300000, guid: f09db8e34cf4a2b4ab28c02f53a5da23, type: 3}
  - {fileID: 21300000, guid: b0ea9cf35c17a664fb7524a9612ed712, type: 3}
  - {fileID: 21300000, guid: a0a3c114e73594f4fb9cc029b5986418, type: 3}
  - {fileID: 21300000, guid: f9412714d7731aa44abc9262dc6c03d0, type: 3}
  - {fileID: 21300000, guid: 1371a7145721f654cbcb874fde68c40a, type: 3}
  - {fileID: 21300000, guid: 825a7e3465dd6614ebe6a145245db4bd, type: 3}
  - {fileID: 21300000, guid: d21e6b44a1bf91945b34d161312018e7, type: 3}
  - {fileID: 21300000, guid: 48e98b54d9f599c40b1cb9216fad9999, type: 3}
  - {fileID: 21300000, guid: 067d68b4896286f48b7aafa0153dbdfe, type: 3}
  - {fileID: 21300000, guid: e58e9eb48c5d77344aaf7c6d93ee4229, type: 3}
  - {fileID: 21300000, guid: c20e30c452db39d42a65019e953f296c, type: 3}
  - {fileID: 21300000, guid: dd5086c44b5e5e94cbb25572e65e4ab6, type: 3}
  - {fileID: 21300000, guid: a9158ef4a48423c40a9ea8408729d566, type: 3}
  - {fileID: 21300000, guid: 40e904050c9826f478bca092d9316d62, type: 3}
  - {fileID: 21300000, guid: e0f50c05d25aa484ea89b18694ce3e97, type: 3}
  - {fileID: 21300000, guid: 889cfd056eb9ee64a9f7fb0e7a705cf8, type: 3}
  - {fileID: 21300000, guid: a75a33150efae274d94691db27bb1f37, type: 3}
  - {fileID: 21300000, guid: 72b37f1590f5fbc439cc0c64f078b54c, type: 3}
  - {fileID: 21300000, guid: 3d2f976587212024c8ad6a513d9a4de5, type: 3}
  - {fileID: 21300000, guid: 7f987b65414ae994fb8546485d4a614b, type: 3}
  - {fileID: 21300000, guid: c2de4d751dd0f8845b59445823a86e05, type: 3}
  - {fileID: 21300000, guid: 9e651495f8f21034ebea9d9ca80a053c, type: 3}
  - {fileID: 21300000, guid: 236de6959342d6f46b858aa6cfb7cd75, type: 3}
  - {fileID: 21300000, guid: c61621c5f6c346f4e84f2ba7254a7533, type: 3}
  - {fileID: 21300000, guid: 51c312c5376e8694bacf9efd7b8e27a7, type: 3}
  - {fileID: 21300000, guid: 4a76e5d50baf69b42a24167ed773ae4d, type: 3}
  - {fileID: 21300000, guid: 44584736d225ec54aafe44d8bf7c053a, type: 3}
  - {fileID: 21300000, guid: f972e246cba67034d99a1b8e889f498b, type: 3}
  - {fileID: 21300000, guid: ce734cd6de902b84baaf6f3b2cfc72f2, type: 3}
  - {fileID: 21300000, guid: 89088727027ca8c4cabe91bf3a247cfa, type: 3}
  - {fileID: 21300000, guid: aff94f37f101f374692869700de91aae, type: 3}
  - {fileID: 21300000, guid: 1de7a057391009248a4df73e9740c34f, type: 3}
  - {fileID: 21300000, guid: 201ab687b6cee5347a4e2b571e340003, type: 3}
  - {fileID: 21300000, guid: fa313397d6682744599cc3d468b31e75, type: 3}
  - {fileID: 21300000, guid: 1f60e2c712b08a54d8d699f412ad8d95, type: 3}
  - {fileID: 21300000, guid: c86fa4e7678eeaf44a3196377de0a52d, type: 3}
  - {fileID: 21300000, guid: 774be8e7a1f06c04cabda15fc34ea541, type: 3}
  - {fileID: 21300000, guid: 646bc4089b2840b408e0952ea876101e, type: 3}
  - {fileID: 21300000, guid: 6e74a7288227f514eb579843f2bf9608, type: 3}
  - {fileID: 21300000, guid: 994bd6583dc77fc449bc533a7978994e, type: 3}
  - {fileID: 21300000, guid: 3481d2680962eac4c80dee8f70cf06b9, type: 3}
  - {fileID: 21300000, guid: f2afd568ba7345048b8dc7b66209d1f5, type: 3}
  - {fileID: 21300000, guid: a49ada78461719646b1500678f31f7ca, type: 3}
  - {fileID: 21300000, guid: 6e86cf9861292dc408d0d587136ba5c5, type: 3}
  - {fileID: 21300000, guid: 57c83da81b2f1bb4b981b8ad71e2a2cc, type: 3}
  - {fileID: 21300000, guid: 951a2dc87be5da248a7bdaba5b2392cf, type: 3}
  - {fileID: 21300000, guid: fefb8cf8d307b1f4ba00049cbc1f1593, type: 3}
  - {fileID: 21300000, guid: c96c5f192e88d4045a2ae7b0f70369cb, type: 3}
  - {fileID: 21300000, guid: 6a760529c262dee4cb2be98f08613ae1, type: 3}
  - {fileID: 21300000, guid: 19e52a59613d017419a4a6b03d508931, type: 3}
  - {fileID: 21300000, guid: b45721792eafcbb41bbba7799f3aa88e, type: 3}
  - {fileID: 21300000, guid: 4570e979163e9ed4389ce07d7ab9a5d6, type: 3}
  - {fileID: 21300000, guid: 38a9f3892b5d8984daa91086445025b8, type: 3}
  - {fileID: 21300000, guid: a244fb8977183724e90c08a38cf9727b, type: 3}
  - {fileID: 21300000, guid: 090a3099c11c55049826bf21fc7f5e51, type: 3}
  - {fileID: 21300000, guid: af3d3ab995ad20e4895dc1cfc1b38d7a, type: 3}
  - {fileID: 21300000, guid: bcc247c90d9135c4cb642995f9ce583c, type: 3}
  - {fileID: 21300000, guid: 7255b8c9a486afa48bbdb9886d833b32, type: 3}
  - {fileID: 21300000, guid: 658143f95d99a7c48a9befa53047baf4, type: 3}
  - {fileID: 21300000, guid: 0eac875a4802048b8869eef2913ced7b, type: 3}
  - {fileID: 21300000, guid: b7b53c5a6bc3fdb4a9d8a4d23416a411, type: 3}
  - {fileID: 21300000, guid: 329b467a42340dd4983da5845353d216, type: 3}
  - {fileID: 21300000, guid: 7c3d249a35aa6ee4c893cdbc933c83d2, type: 3}
  - {fileID: 21300000, guid: b68c1c9a74dc82046bfdda26aec9c246, type: 3}
  - {fileID: 21300000, guid: f2e55d9acf5cb4d4e8075b40588020de, type: 3}
  - {fileID: 21300000, guid: 98d28caa309bd5f4684d0838a50b8f0b, type: 3}
  - {fileID: 21300000, guid: 9725900b32fbd6e4d8ebc44532d1add9, type: 3}
  - {fileID: 21300000, guid: 70db0b2b4b91ca447bfa2a269ad0a35c, type: 3}
  - {fileID: 21300000, guid: bf1bd74b545c6774980bfe43fa6678c5, type: 3}
  - {fileID: 21300000, guid: 0228e26b0e5d96b4c908fa975d5b9605, type: 3}
  - {fileID: 21300000, guid: aea7a08b9ecbb5d46961caa50ee6b518, type: 3}
  - {fileID: 21300000, guid: 6660158beb0758b479c41d1af52d602e, type: 3}
  - {fileID: 21300000, guid: 5d414cabdc5cb8b40a7b299c8d3c88f1, type: 3}
  - {fileID: 21300000, guid: dd2f27bbf11aca7449d9bcf773b4028e, type: 3}
  - {fileID: 21300000, guid: 6327a8bb8a6e73b45ab19db3a1ede256, type: 3}
  - {fileID: 21300000, guid: 16b0b7eb12498b4419a036fe789f159b, type: 3}
  - {fileID: 21300000, guid: 492ccdeb1e8db504dbc8da0ac4183029, type: 3}
  - {fileID: 21300000, guid: 1324cbfbf78a98f49a7dd072854d1db0, type: 3}
  - {fileID: 21300000, guid: 07a5280c997f3174fa65c468d0c8278f, type: 3}
  - {fileID: 21300000, guid: 9f71ed8c0d1e97c48b143c578786221c, type: 3}
  - {fileID: 21300000, guid: 3d0390ac90770d64a9a06c174ee11894, type: 3}
  - {fileID: 21300000, guid: fae502ac3630d9f4ab59f8e613dfd605, type: 3}
  - {fileID: 21300000, guid: 55c324bc43b106b4a8bc759050b6c22b, type: 3}
  - {fileID: 21300000, guid: facf6fcc309ba9442affaa11e1010c97, type: 3}
  - {fileID: 21300000, guid: 36fc3edc5c7cbd743928763f844f028d, type: 3}
  - {fileID: 21300000, guid: 12886dfcc895f3f4189a39caad4a8842, type: 3}
  - {fileID: 21300000, guid: 60030a0dbd437b2438b339384e5b71d9, type: 3}
  - {fileID: 21300000, guid: 36efac1dc59c37545b656dec8fa4dbc1, type: 3}
  - {fileID: 21300000, guid: 7fbfee1db41759748af0331f2f99b14d, type: 3}
  - {fileID: 21300000, guid: 2ac5814dee50c744e9d6b2ffc8850632, type: 3}
  - {fileID: 21300000, guid: c44a124d1b87e0a499dede3ada007a9b, type: 3}
  - {fileID: 21300000, guid: 0b4c9b4d0b4897943811fe4164a6726a, type: 3}
  - {fileID: 21300000, guid: b5b429ad181c6d543b00ff2c78bcb5d9, type: 3}
  - {fileID: 21300000, guid: 0c8948bd30e8a9d40b8af72d9fedfceb, type: 3}
  - {fileID: 21300000, guid: d209df0ee22a742ada135a2ae2a8fca8, type: 3}
  - {fileID: 21300000, guid: 36f6406e2c9f245478b8c0e49c8232ea, type: 3}
  - {fileID: 21300000, guid: 04c8227e5892a634fb5a318b22be3d28, type: 3}
  - {fileID: 21300000, guid: 8515697eee7f90d43a2b66a3f344e073, type: 3}
  - {fileID: 21300000, guid: 18ef898e0b292bb41ace5352708dbfc5, type: 3}
  - {fileID: 21300000, guid: 5149ebbe6863fcd4f961ad02c4859135, type: 3}
  - {fileID: 21300000, guid: 19b61adedf8e0344ea8d44ccbb50e46f, type: 3}
  - {fileID: 21300000, guid: e6bd0bfe018cf5a47908fec56a054ee9, type: 3}
  - {fileID: 21300000, guid: cf83940fd63bf644bb1129e566d4d5c4, type: 3}
  - {fileID: 21300000, guid: 8664bf0f036134e48a5f36441d074bee, type: 3}
  - {fileID: 21300000, guid: cd48272f14f15d24a827003acd7bf640, type: 3}
  - {fileID: 21300000, guid: 39dc872f0a0efa349b2c02d955eab708, type: 3}
  - {fileID: 21300000, guid: e0d03f2f83338304489647810716812f, type: 3}
  - {fileID: 21300000, guid: c8f8cc3f92b04c64fbec8a1f996db023, type: 3}
  - {fileID: 21300000, guid: ec5e3e4fb6a3ba542b4eef4d548085f0, type: 3}
  - {fileID: 21300000, guid: cde61e6f193f9314fb4601ecdac27833, type: 3}
  - {fileID: 21300000, guid: e36c318f1aba6f0489aca25ba5084730, type: 3}
  - {fileID: 21300000, guid: d965688f2f3ef364c8216544aac4c2eb, type: 3}
  - {fileID: 21300000, guid: 097c04bff5fd10b46900055819299510, type: 3}
  m_PackedSpriteNamesToIndex:
  - button play press
  - button_lift_goingup_08
  - water_cooler.008
  - cabinet bronze trophy
  - timer gray_[no_bg]
  - button scores up press
  - timer purple_[no_bg]
  - calander-progress-bar_marker_landscape
  - wood podium bottom
  - button cancel hover
  - theme panel mask mobile
  - cabinet possiton rosette
  - button_lift_goingup_11
  - cables
  - page_red_top_margin
  - button scores down hover
  - gravity galaxy background
  - button change month hover
  - page_top_red_corner3
  - rainy ruins background
  - button restart
  - button_lift_goingup_12
  - page_graph_v2
  - seating area
  - calander_day_screen_TV_narrow_cabinet_bottom
  - button_lift_goingup_01
  - wood poduim top
  - page_top_corner2
  - storage
  - lift_exit_mask
  - button cancel press
  - Tombstone Hills theme background
  - button_lift
  - calander_day_screen_progress_bar_TV mock
  - light
  - page_bottom_corner mobile4
  - ceiling mount 9ring
  - page_graph_v1
  - corner selection
  - page_graph_v3
  - page_bottom_corner mobile2
  - cabinet silver trophy
  - button restart hover
  - rainy ruins logo
  - button cancel
  - page_bottom_corner mobile3
  - calander-single-day-info
  - button_lift_press
  - water_cooler.003
  - page_top_corner4
  - stairs exit mask
  - water cooler
  - page_9slice_day
  - calander-progress-bar_marker_portrait
  - calander_day_screen_TV_narrow_cabinet_top
  - Molten Fortress theme background
  - button_lift_goingup_04
  - wood podium extender
  - timer blue_[no_bg]
  - theme panel mask tv
  - calander_day_screen_TV_narrow_cabinet_middle
  - hot n cold springs logo
  - page_top_corner5
  - button scores down
  - calendar stickers6
  - cabinet deaths cup bottom
  - calander_day_screen_tablet_progress_bar_mock
  - button restart press
  - calander-progress-bar_portrait
  - theme panel outline tv
  - calander-progress-bar_landscapepng
  - cabinet bottom
  - button_lift_goingup_07
  - tutorial_calendar_background
  - water_cooler.011
  - cabinet time cup
  - button scores up
  - timer gold_[no_bg]
  - calendar stickers4
  - calendar stickers5
  - page_bottom_corner mobile1
  - windy skies logo
  - button change month press
  - button_lift_goingup_05
  - hot n cold springs background
  - button_lift_goingup_09
  - button_exit_press
  - page_top_red_corner1
  - cabinet deaths cup sunglasses - no deaths
  - page_top_red_corner2
  - conflict canyon background
  - Sunken Island background
  - calendar stickers2
  - water_cooler.006
  - water_cooler.010
  - button change month
  - button_lift_goingup_02
  - water_cooler.002
  - sofa arm
  - gravity galaxy logo
  - molten fortress logo
  - cabinet fruit trophy
  - capital highway logo
  - button_lift_goingup_03
  - water_cooler.007
  - water_cooler.005
  - back pannel
  - buffering
  - calendar-day-info-iPhoneX
  - lift_no_lights
  - sunken island logo
  - conflict canyon logo
  - cabinet gold trophy
  - lift_lights
  - ceiling mount 13ring
  - button scores down press
  - button play hover
  - cabinet deaths cup
  - lift_door1
  - button play
  - calendar stickers3
  - page_9slice_month
  - treasure mines logo
  - timer silver_[no_bg]
  - stairs exit
  - tutorial_calendar_logo_1
  - water_cooler.004
  - page_top_corner1
  - timer green_[no_bg]
  - water_cooler.009
  - cabinet extender
  - treasure mines background
  - windy skies background
  - tutorial_trophy_icon
  - calendar stickers1
  - tombstone hills logo
  - electrics
  - capital highway background
  - theme panel outline mobile
  - button_exit
  - button_lift_hover
  - button scores up hover
  - cabinet tutorial trophy
  - water_cooler.001
  - cabinet top
  - floor
  - cabinet cardbord trophy
  - button_lift_goingup_06
  - button_lift_goingup_10
  - page_top_corner3
  - button_exit_hover
  - base_[no_bg]
  - lift_door2
  - lift_inside
  m_RenderDataMap: {}
  m_Tag: Menu - Calendar Screen
  m_IsVariant: 0
