%YAML 1.1
%TAG !u! tag:unity3d.com,2011:
--- !u!687078895 &4343727234628468602
SpriteAtlas:
  m_ObjectHideFlags: 0
  m_CorrespondingSourceObject: {fileID: 0}
  m_PrefabInstance: {fileID: 0}
  m_PrefabAsset: {fileID: 0}
  m_Name: Menu - Character Select Screen
  m_EditorData:
    serializedVersion: 2
    textureSettings:
      serializedVersion: 2
      anisoLevel: 1
      compressionQuality: 50
      maxTextureSize: 2048
      textureCompression: 0
      filterMode: 1
      generateMipMaps: 0
      readable: 0
      crunchedCompression: 0
      sRGB: 1
    platformSettings:
    - serializedVersion: 3
      m_BuildTarget: DefaultTexturePlatform
      m_MaxTextureSize: 4096
      m_ResizeAlgorithm: 0
      m_TextureFormat: -1
      m_TextureCompression: 1
      m_CompressionQuality: 50
      m_CrunchedCompression: 0
      m_AllowsAlphaSplitting: 0
      m_Overridden: 0
      m_IgnorePlatformSupport: 0
      m_AndroidETC2FallbackOverride: 0
      m_ForceMaximumCompressionQuality_BC6H_BC7: 0
    packingSettings:
      serializedVersion: 2
      padding: 4
      blockOffset: 1
      allowAlphaSplitting: 0
      enableRotation: 0
      enableTightPacking: 0
      enableAlphaDilation: 0
    secondaryTextureSettings: {}
    variantMultiplier: 1
    packables:
    - {fileID: 102900000, guid: a0d0ea178fd141741b5626223ec72bc0, type: 3}
    - {fileID: 2800000, guid: df992d5bc8cb0df4db32d29fee138edb, type: 3}
    - {fileID: 2800000, guid: 798e7a26a3235a9499825d834aad5e21, type: 3}
    - {fileID: 2800000, guid: 1b4855fb467a20f4aa8d9f03ba40e5ca, type: 3}
    - {fileID: 2800000, guid: 0f22bd186a54bc0408385943789da61e, type: 3}
    - {fileID: 2800000, guid: a395e53ec3d54f845ae5d543b539f265, type: 3}
    bindAsDefault: 1
    isAtlasV2: 0
    cachedData: {fileID: 0}
    packedSpriteRenderDataKeys:
    - cac00c00b14bae7448c118f617f4721e: 21300000
    - 9de3c730bd7a38242bd7b8381f3d5e20: 21300000
    - 4c5949303fc3dd34892ea42968eda093: 21300000
    - b53f46702b883164e98c2167b705d898: 21300000
    - 77b015d0699cd6b49b56aaa33495e74a: 21300000
    - 9d63130162d2dc74585c8a366f418810: 21300000
    - 5249e911a3042864ea03fbd2d604b27b: 21300000
    - cd501c31f71d48147a2f3f0c80b4b868: 21300000
    - ac0bbfa1bc5e6b340bc4364e5c6d44df: 21300000
    - c368fef13d7cff449b38993bdc82ee72: 21300000
    - bd1f6582d938f2142a2e613349814e69: 21300000
    - 50ae9023bb417034cad513bde0dc1db7: 21300000
    - ca9d077360ef85c4b87f8e7070123695: 21300000
    - bcfeb2937ccd0474a813d8e6a5852578: 21300000
    - 7687af347d1df57408618d263a56282b: 21300000
    - b07f7a940c841f14f9b1c0cc1ffad4ce: 21300000
    - bdaab3f4d5c30fc4095c6b858c06d94c: 21300000
    - 3cf5a605bd3439e4dbade93fb1855756: 21300000
    - 677e4f35d94daee448e27313263e523a: 21300000
    - dcbbe685182f8734f88a1ea03c2cedba: 21300000
    - 0ad931e55db815c46b08b8cb5e445796: 21300000
    - 9afc08e5d7f3e5443bcc6d659132a56d: 21300000
    - 60eaa3f55b12fb948b9899b9dd99206d: 21300000
    - 3bd416065ba746641a27b2183d83999a: 21300000
    - 798e7a26a3235a9499825d834aad5e21: 21300000
    - 2f9c3c26e98522a4ca0b43bc4a05e47f: 21300000
    - a78c3746663bbfc4d8d478c2b7e75862: 21300000
    - 51e96ee6b3c36ea4980e60729fb5215e: 21300000
    - 3fda590740b0e964c83498189170fba1: 21300000
    - fcc89027f39ee594b910c02e237eae55: 21300000
    - b96de22717592644ca8ce6610169ce4b: 21300000
    - f31c8b37ce8ffc54aa331ed152ae4e12: 21300000
    - 0f22bd186a54bc0408385943789da61e: 21300000
    - fc440d38272c1c74ca911eceb304f823: 21300000
    - b3b1e5588f7d8964d9398052f4a7515d: 21300000
    - eb495e68af1549e4ea9a0d1e716ac77c: 21300000
    - 63ed8498d8e86d741878fda31bb6f8a5: 21300000
    - 375d72c8c29cb3343b35a376dbf58767: 21300000
    - 510138095eb8da14581541155e2a6da9: 21300000
    - f5a36519872001b45ad53693da8ec191: 21300000
    - 11823719559ddbf499ca4c750ad35110: 21300000
    - 4f9cab19b9e8d7d4e800529acad10432: 21300000
    - 975088292d2322847b59b54ce2b3e744: 21300000
    - e235105987afc05409af20c4584802d8: 21300000
    - 36b315c9998957d4cbe0d8588fa1e9c9: 21300000
    - 50f4710a72385b2498c6a8bb72ea1489: 21300000
    - 944d665a414c2424d97d97ad88e82bf5: 21300000
    - 496c32aa3b6b23042b62c201ea913bc3: 21300000
    - 50809a0b8328e014cb7f894aa6b13bea: 21300000
    - c142c02bab4d1b7408dfeee905e0e27e: 21300000
    - df992d5bc8cb0df4db32d29fee138edb: 21300000
    - 0324226b26c475e4cab8b5e656a0a779: 21300000
    - 9636458bb47172c4fa55daf6d6aeb1e4: 21300000
    - 80f3cdeb3f1467b46a35afc0c5235992: 21300000
    - 1b4855fb467a20f4aa8d9f03ba40e5ca: 21300000
    - 8f448c0ce19bbe64b9d1764f399ceaba: 21300000
    - b734344c6bbec254fbff6f6072a80aa4: 21300000
    - 43ea617c01bfdd64fad12149583d26c3: 21300000
    - d68ec17c0404cdd46ab89ed7b59e2f62: 21300000
    - a895d78cb9bd4024d857c0bdd12396ec: 21300000
    - 602220ac5b5354743913a1e25fe85dcc: 21300000
    - 39c323bc919d2f144916c937d96be22d: 21300000
    - e2f4018d9224eac41860de2030ee365b: 21300000
    - b54b87cd1ed0d5c41b1252de2f4dfeba: 21300000
    - a395e53ec3d54f845ae5d543b539f265: 21300000
    - 2b5a4f6ec0e50134086b342898d926ff: 21300000
    - 703ac77e4acef364e8422ce7c2b36e3b: 21300000
    - 3adcefeeb7768df4ca17be98d89673a8: 21300000
    - 5281c5fe09d57c64daad26b753a2bf83: 21300000
    - b23bf82f3db23944bab5a5d873bdebf7: 21300000
    - 0cd06d5f8fd0e484faca532f7ee46918: 21300000
  m_MasterAtlas: {fileID: 0}
  m_PackedSprites:
  - {fileID: 21300000, guid: cac00c00b14bae7448c118f617f4721e, type: 3}
  - {fileID: 21300000, guid: 9de3c730bd7a38242bd7b8381f3d5e20, type: 3}
  - {fileID: 21300000, guid: 4c5949303fc3dd34892ea42968eda093, type: 3}
  - {fileID: 21300000, guid: b53f46702b883164e98c2167b705d898, type: 3}
  - {fileID: 21300000, guid: 77b015d0699cd6b49b56aaa33495e74a, type: 3}
  - {fileID: 21300000, guid: 9d63130162d2dc74585c8a366f418810, type: 3}
  - {fileID: 21300000, guid: 5249e911a3042864ea03fbd2d604b27b, type: 3}
  - {fileID: 21300000, guid: cd501c31f71d48147a2f3f0c80b4b868, type: 3}
  - {fileID: 21300000, guid: ac0bbfa1bc5e6b340bc4364e5c6d44df, type: 3}
  - {fileID: 21300000, guid: c368fef13d7cff449b38993bdc82ee72, type: 3}
  - {fileID: 21300000, guid: bd1f6582d938f2142a2e613349814e69, type: 3}
  - {fileID: 21300000, guid: 50ae9023bb417034cad513bde0dc1db7, type: 3}
  - {fileID: 21300000, guid: ca9d077360ef85c4b87f8e7070123695, type: 3}
  - {fileID: 21300000, guid: bcfeb2937ccd0474a813d8e6a5852578, type: 3}
  - {fileID: 21300000, guid: 7687af347d1df57408618d263a56282b, type: 3}
  - {fileID: 21300000, guid: b07f7a940c841f14f9b1c0cc1ffad4ce, type: 3}
  - {fileID: 21300000, guid: bdaab3f4d5c30fc4095c6b858c06d94c, type: 3}
  - {fileID: 21300000, guid: 3cf5a605bd3439e4dbade93fb1855756, type: 3}
  - {fileID: 21300000, guid: 677e4f35d94daee448e27313263e523a, type: 3}
  - {fileID: 21300000, guid: dcbbe685182f8734f88a1ea03c2cedba, type: 3}
  - {fileID: 21300000, guid: 0ad931e55db815c46b08b8cb5e445796, type: 3}
  - {fileID: 21300000, guid: 9afc08e5d7f3e5443bcc6d659132a56d, type: 3}
  - {fileID: 21300000, guid: 60eaa3f55b12fb948b9899b9dd99206d, type: 3}
  - {fileID: 21300000, guid: 3bd416065ba746641a27b2183d83999a, type: 3}
  - {fileID: 21300000, guid: 798e7a26a3235a9499825d834aad5e21, type: 3}
  - {fileID: 21300000, guid: 2f9c3c26e98522a4ca0b43bc4a05e47f, type: 3}
  - {fileID: 21300000, guid: a78c3746663bbfc4d8d478c2b7e75862, type: 3}
  - {fileID: 21300000, guid: 51e96ee6b3c36ea4980e60729fb5215e, type: 3}
  - {fileID: 21300000, guid: 3fda590740b0e964c83498189170fba1, type: 3}
  - {fileID: 21300000, guid: fcc89027f39ee594b910c02e237eae55, type: 3}
  - {fileID: 21300000, guid: b96de22717592644ca8ce6610169ce4b, type: 3}
  - {fileID: 21300000, guid: f31c8b37ce8ffc54aa331ed152ae4e12, type: 3}
  - {fileID: 21300000, guid: 0f22bd186a54bc0408385943789da61e, type: 3}
  - {fileID: 21300000, guid: fc440d38272c1c74ca911eceb304f823, type: 3}
  - {fileID: 21300000, guid: b3b1e5588f7d8964d9398052f4a7515d, type: 3}
  - {fileID: 21300000, guid: eb495e68af1549e4ea9a0d1e716ac77c, type: 3}
  - {fileID: 21300000, guid: 63ed8498d8e86d741878fda31bb6f8a5, type: 3}
  - {fileID: 21300000, guid: 375d72c8c29cb3343b35a376dbf58767, type: 3}
  - {fileID: 21300000, guid: 510138095eb8da14581541155e2a6da9, type: 3}
  - {fileID: 21300000, guid: f5a36519872001b45ad53693da8ec191, type: 3}
  - {fileID: 21300000, guid: 11823719559ddbf499ca4c750ad35110, type: 3}
  - {fileID: 21300000, guid: 4f9cab19b9e8d7d4e800529acad10432, type: 3}
  - {fileID: 21300000, guid: 975088292d2322847b59b54ce2b3e744, type: 3}
  - {fileID: 21300000, guid: e235105987afc05409af20c4584802d8, type: 3}
  - {fileID: 21300000, guid: 36b315c9998957d4cbe0d8588fa1e9c9, type: 3}
  - {fileID: 21300000, guid: 50f4710a72385b2498c6a8bb72ea1489, type: 3}
  - {fileID: 21300000, guid: 944d665a414c2424d97d97ad88e82bf5, type: 3}
  - {fileID: 21300000, guid: 496c32aa3b6b23042b62c201ea913bc3, type: 3}
  - {fileID: 21300000, guid: 50809a0b8328e014cb7f894aa6b13bea, type: 3}
  - {fileID: 21300000, guid: c142c02bab4d1b7408dfeee905e0e27e, type: 3}
  - {fileID: 21300000, guid: df992d5bc8cb0df4db32d29fee138edb, type: 3}
  - {fileID: 21300000, guid: 0324226b26c475e4cab8b5e656a0a779, type: 3}
  - {fileID: 21300000, guid: 9636458bb47172c4fa55daf6d6aeb1e4, type: 3}
  - {fileID: 21300000, guid: 80f3cdeb3f1467b46a35afc0c5235992, type: 3}
  - {fileID: 21300000, guid: 1b4855fb467a20f4aa8d9f03ba40e5ca, type: 3}
  - {fileID: 21300000, guid: 8f448c0ce19bbe64b9d1764f399ceaba, type: 3}
  - {fileID: 21300000, guid: b734344c6bbec254fbff6f6072a80aa4, type: 3}
  - {fileID: 21300000, guid: 43ea617c01bfdd64fad12149583d26c3, type: 3}
  - {fileID: 21300000, guid: d68ec17c0404cdd46ab89ed7b59e2f62, type: 3}
  - {fileID: 21300000, guid: a895d78cb9bd4024d857c0bdd12396ec, type: 3}
  - {fileID: 21300000, guid: 602220ac5b5354743913a1e25fe85dcc, type: 3}
  - {fileID: 21300000, guid: 39c323bc919d2f144916c937d96be22d, type: 3}
  - {fileID: 21300000, guid: e2f4018d9224eac41860de2030ee365b, type: 3}
  - {fileID: 21300000, guid: b54b87cd1ed0d5c41b1252de2f4dfeba, type: 3}
  - {fileID: 21300000, guid: a395e53ec3d54f845ae5d543b539f265, type: 3}
  - {fileID: 21300000, guid: 2b5a4f6ec0e50134086b342898d926ff, type: 3}
  - {fileID: 21300000, guid: 703ac77e4acef364e8422ce7c2b36e3b, type: 3}
  - {fileID: 21300000, guid: 3adcefeeb7768df4ca17be98d89673a8, type: 3}
  - {fileID: 21300000, guid: 5281c5fe09d57c64daad26b753a2bf83, type: 3}
  - {fileID: 21300000, guid: b23bf82f3db23944bab5a5d873bdebf7, type: 3}
  - {fileID: 21300000, guid: 0cd06d5f8fd0e484faca532f7ee46918, type: 3}
  m_PackedSpriteNamesToIndex:
  - sprout1
  - character-select-screen-assets_0018_Layer-7
  - character background button missing
  - button_exit_hover
  - pop up cancel
  - Lighting Rig
  - button_exit_press
  - pop up cancel hover
  - doorway
  - Yolk head
  - puffer_locked
  - light 2
  - door open
  - character-select-screen-assets_0019_Layer-6
  - Puffer head
  - upgrades info pannel
  - upgrade pannel back
  - Light 1
  - ability level gage
  - goop1
  - door
  - puffer1
  - full pannel mock
  - back story pop up
  - king_illustration
  - upgrade cell turned off by user
  - up level button
  - light 3
  - character background button yellow
  - upgrades info pannel mock
  - upgrade cell
  - ability level counter
  - sprout
  - abilities button hover
  - character background button
  - door back
  - locked
  - questionmark
  - Xking1
  - button change month press
  - sprout1_locked
  - info video button
  - choose character button
  - upgrade pannel mock
  - the X head
  - up level button press
  - up level button select
  - Hall of Champions sign
  - button change month
  - Xking1_locked
  - goop_illustration
  - floor
  - abilities pop up
  - choose character buutton hover
  - puffer_illustration
  - info video button select
  - button change month hover
  - skirting board
  - Sprout head
  - calender-screen-background_0004_Layer-2
  - toolbox
  - info video button press
  - character background button darker
  - goop1_locked
  - yolk_illustration
  - Goop head
  - abilities button
  - info_symbol
  - character-select-screen-assets_0017_Layer-8
  - black line (1)
  - pink box
  m_RenderDataMap: {}
  m_Tag: Menu - Character Select Screen
  m_IsVariant: 0
