%YAML 1.1
%TAG !u! tag:unity3d.com,2011:
--- !u!687078895 &4343727234628468602
SpriteAtlas:
  m_ObjectHideFlags: 0
  m_CorrespondingSourceObject: {fileID: 0}
  m_PrefabInstance: {fileID: 0}
  m_PrefabAsset: {fileID: 0}
  m_Name: Menu - Character - Goop
  m_EditorData:
    serializedVersion: 2
    textureSettings:
      serializedVersion: 2
      anisoLevel: 1
      compressionQuality: 50
      maxTextureSize: 2048
      textureCompression: 0
      filterMode: 1
      generateMipMaps: 0
      readable: 0
      crunchedCompression: 0
      sRGB: 1
    platformSettings:
    - serializedVersion: 3
      m_BuildTarget: DefaultTexturePlatform
      m_MaxTextureSize: 4096
      m_ResizeAlgorithm: 0
      m_TextureFormat: -1
      m_TextureCompression: 0
      m_CompressionQuality: 50
      m_CrunchedCompression: 0
      m_AllowsAlphaSplitting: 0
      m_Overridden: 0
      m_IgnorePlatformSupport: 0
      m_AndroidETC2FallbackOverride: 0
      m_ForceMaximumCompressionQuality_BC6H_BC7: 0
    packingSettings:
      serializedVersion: 2
      padding: 4
      blockOffset: 1
      allowAlphaSplitting: 0
      enableRotation: 0
      enableTightPacking: 0
      enableAlphaDilation: 0
    secondaryTextureSettings: {}
    variantMultiplier: 1
    packables:
    - {fileID: 102900000, guid: 54a18e5397cb48c46ae3baa5a46f9357, type: 3}
    bindAsDefault: 1
    isAtlasV2: 0
    cachedData: {fileID: 0}
    packedSpriteRenderDataKeys:
    - 4088fd201bfe4ce46b5a42d95d415147: 21300000
    - 1a7f694041f6c7e4cbca766497aee013: 21300000
    - eac374b09b3276542a3643c9c096aed9: 21300000
    - a9bd1c01e5d39b64ca98a6f5074ed731: 21300000
    - 1ec43c51a94afe546ac844f5b8d16887: 21300000
    - 031bf0a17901bac4fa0df4b86797cef0: 21300000
    - 399159a14ba1f454e8c2404fafe55688: 21300000
    - ea7ec622b317a454e89c700cdd730b78: 21300000
    - d573d722efc515541b02470dfa172d7a: 21300000
    - 031c48824a2279a44b1153169634d3ba: 21300000
    - 7dc95e929e982e547973f1464df529b1: 21300000
    - 9ce30323084e77247bb77fa2791148e8: 21300000
    - c6c485d374e3b6f4195348154e19e858: 21300000
    - cf3dcae3f093b9f44bcedcbf2182d287: 21300000
    - b753cef306dc8344b9ec68518709d244: 21300000
    - d67007e4328769546bf9878795fba192: 21300000
    - e732a9e44b7329940ba3c609d15c0fb4: 21300000
    - 15a9af0535a561b4dbaff5957959353f: 21300000
    - cce3312521fa2274d9f6222f4e3b25a9: 21300000
    - 9b6ee745f2e76fa4291e72b9f18eb81c: 21300000
    - c8af62a50a09513499a7af9f55f19d82: 21300000
    - f899a4a552d6335449b24e904b81ca9a: 21300000
    - d03086c61eff7df4b8363e623a0f0c29: 21300000
    - 94db2157bcc05a741afd3c19c35e2966: 21300000
    - abf86d971f4363d4ea26cb7c26ad431f: 21300000
    - 94417318688df03468945ee1c1cda3c6: 21300000
    - 63c709c8985e8784db732ae8f676bacb: 21300000
    - 4adb93d8455e32b4c96d777052ffa71a: 21300000
    - 3e1715f840d3f0f4eab105ad5db01013: 21300000
    - 42bca83902b6d12458c4fd7b0ad5fc4d: 21300000
    - 78c37ca9f7840944885a724b1fcaf0c4: 21300000
    - 0e532e5a9577a5d4fa094e9a76aa4802: 21300000
    - 2b4c93fa41b40ef43b402398bc9d1dd8: 21300000
    - 249eac2b382a2a94daeac76149a26e0e: 21300000
    - c4919b5be21d76a499632041f141ff56: 21300000
    - 8f2110bb35795c14482e1341459975cd: 21300000
    - adc40fbb17dce9f41a7a9f7b30d4a44b: 21300000
    - 9d16d4dc763053f4dad9e8d636b202b0: 21300000
    - d7438b9dc02440e45bcbb20647cca6fc: 21300000
    - 2f5d7dad7acbc324f9540ff186f3dcfb: 21300000
    - 2de2ef0eba0e8d54d98eb019bd166383: 21300000
    - d8b4391fef3a334478ce9d881ab2ab58: 21300000
    - 79bb489fb66d4c043b93efb4573c58f2: 21300000
  m_MasterAtlas: {fileID: 0}
  m_PackedSprites:
  - {fileID: 21300000, guid: 4088fd201bfe4ce46b5a42d95d415147, type: 3}
  - {fileID: 21300000, guid: 1a7f694041f6c7e4cbca766497aee013, type: 3}
  - {fileID: 21300000, guid: eac374b09b3276542a3643c9c096aed9, type: 3}
  - {fileID: 21300000, guid: a9bd1c01e5d39b64ca98a6f5074ed731, type: 3}
  - {fileID: 21300000, guid: 1ec43c51a94afe546ac844f5b8d16887, type: 3}
  - {fileID: 21300000, guid: 031bf0a17901bac4fa0df4b86797cef0, type: 3}
  - {fileID: 21300000, guid: 399159a14ba1f454e8c2404fafe55688, type: 3}
  - {fileID: 21300000, guid: ea7ec622b317a454e89c700cdd730b78, type: 3}
  - {fileID: 21300000, guid: d573d722efc515541b02470dfa172d7a, type: 3}
  - {fileID: 21300000, guid: 031c48824a2279a44b1153169634d3ba, type: 3}
  - {fileID: 21300000, guid: 7dc95e929e982e547973f1464df529b1, type: 3}
  - {fileID: 21300000, guid: 9ce30323084e77247bb77fa2791148e8, type: 3}
  - {fileID: 21300000, guid: c6c485d374e3b6f4195348154e19e858, type: 3}
  - {fileID: 21300000, guid: cf3dcae3f093b9f44bcedcbf2182d287, type: 3}
  - {fileID: 21300000, guid: b753cef306dc8344b9ec68518709d244, type: 3}
  - {fileID: 21300000, guid: d67007e4328769546bf9878795fba192, type: 3}
  - {fileID: 21300000, guid: e732a9e44b7329940ba3c609d15c0fb4, type: 3}
  - {fileID: 21300000, guid: 15a9af0535a561b4dbaff5957959353f, type: 3}
  - {fileID: 21300000, guid: cce3312521fa2274d9f6222f4e3b25a9, type: 3}
  - {fileID: 21300000, guid: 9b6ee745f2e76fa4291e72b9f18eb81c, type: 3}
  - {fileID: 21300000, guid: c8af62a50a09513499a7af9f55f19d82, type: 3}
  - {fileID: 21300000, guid: f899a4a552d6335449b24e904b81ca9a, type: 3}
  - {fileID: 21300000, guid: d03086c61eff7df4b8363e623a0f0c29, type: 3}
  - {fileID: 21300000, guid: 94db2157bcc05a741afd3c19c35e2966, type: 3}
  - {fileID: 21300000, guid: abf86d971f4363d4ea26cb7c26ad431f, type: 3}
  - {fileID: 21300000, guid: 94417318688df03468945ee1c1cda3c6, type: 3}
  - {fileID: 21300000, guid: 63c709c8985e8784db732ae8f676bacb, type: 3}
  - {fileID: 21300000, guid: 4adb93d8455e32b4c96d777052ffa71a, type: 3}
  - {fileID: 21300000, guid: 3e1715f840d3f0f4eab105ad5db01013, type: 3}
  - {fileID: 21300000, guid: 42bca83902b6d12458c4fd7b0ad5fc4d, type: 3}
  - {fileID: 21300000, guid: 78c37ca9f7840944885a724b1fcaf0c4, type: 3}
  - {fileID: 21300000, guid: 0e532e5a9577a5d4fa094e9a76aa4802, type: 3}
  - {fileID: 21300000, guid: 2b4c93fa41b40ef43b402398bc9d1dd8, type: 3}
  - {fileID: 21300000, guid: 249eac2b382a2a94daeac76149a26e0e, type: 3}
  - {fileID: 21300000, guid: c4919b5be21d76a499632041f141ff56, type: 3}
  - {fileID: 21300000, guid: 8f2110bb35795c14482e1341459975cd, type: 3}
  - {fileID: 21300000, guid: adc40fbb17dce9f41a7a9f7b30d4a44b, type: 3}
  - {fileID: 21300000, guid: 9d16d4dc763053f4dad9e8d636b202b0, type: 3}
  - {fileID: 21300000, guid: d7438b9dc02440e45bcbb20647cca6fc, type: 3}
  - {fileID: 21300000, guid: 2f5d7dad7acbc324f9540ff186f3dcfb, type: 3}
  - {fileID: 21300000, guid: 2de2ef0eba0e8d54d98eb019bd166383, type: 3}
  - {fileID: 21300000, guid: d8b4391fef3a334478ce9d881ab2ab58, type: 3}
  - {fileID: 21300000, guid: 79bb489fb66d4c043b93efb4573c58f2, type: 3}
  m_PackedSpriteNamesToIndex:
  - goop_run.001
  - goop_run.004
  - goop_run.002
  - goop_idle2.006
  - goop_run.005
  - goop_idle2.005
  - goop_run.009
  - drop_01
  - goop_idle2.005
  - goop_idle2.003
  - goop_run.009
  - goop_idle2.002
  - goop_idle2.001
  - drop_02
  - goop_idle2.003
  - goop_run.010
  - goop_run.012
  - jump_up_02
  - goop_run.012
  - goop_sit
  - goop_run.006
  - goop_run.003
  - goop_run.003
  - goop_run.006
  - goop_run.010
  - goop_idle2.007
  - goop_idle2.002
  - goop_idle2.004
  - goop_run.008
  - goop_idle2.006
  - goop_run.004
  - goop_run.001
  - goop_run.005
  - goop_run.007
  - goop_run.008
  - goop_idle2.001
  - jump_up_01
  - goop_idle2.007
  - goop_run.011
  - goop_idle2.004
  - goop_run.007
  - goop_run.011
  - goop_run.002
  m_RenderDataMap: {}
  m_Tag: Menu - Character - Goop
  m_IsVariant: 0
