%YAML 1.1
%TAG !u! tag:unity3d.com,2011:
--- !u!687078895 &4343727234628468602
SpriteAtlas:
  m_ObjectHideFlags: 0
  m_CorrespondingSourceObject: {fileID: 0}
  m_PrefabInstance: {fileID: 0}
  m_PrefabAsset: {fileID: 0}
  m_Name: Minigame - Characters - Yolk
  m_EditorData:
    serializedVersion: 2
    textureSettings:
      serializedVersion: 2
      anisoLevel: 1
      compressionQuality: 50
      maxTextureSize: 2048
      textureCompression: 0
      filterMode: 1
      generateMipMaps: 0
      readable: 0
      crunchedCompression: 0
      sRGB: 1
    platformSettings: []
    packingSettings:
      serializedVersion: 2
      padding: 4
      blockOffset: 1
      allowAlphaSplitting: 0
      enableRotation: 1
      enableTightPacking: 1
      enableAlphaDilation: 0
    secondaryTextureSettings: {}
    variantMultiplier: 1
    packables:
    - {fileID: 102900000, guid: e50735d5d84869846991f0cafb428c10, type: 3}
    bindAsDefault: 1
    isAtlasV2: 0
    cachedData: {fileID: 0}
    packedSpriteRenderDataKeys:
    - 9a109f4006847b04fa7b5c378606dfcd: 21300000
    - 059964d0710545243b25a299c7973481: 21300000
    - 313189112e5a9f44f82e9e175f3d394b: 21300000
    - 5b79f4614ed57bd458a0b7851312a542: 21300000
    - 08e8d581bd309724abedf736c37f92d7: 21300000
    - 91bd3ab1c79bfe742869a9ef3a5246df: 21300000
    - ffca86d1b7ba34244bc8c67dce1c6d90: 21300000
    - cb54ec4286925544a86b16e576dd7885: 21300000
    - 8292a8130d90e9f4aa4f67a5aa2f4fd9: 21300000
    - 81260a33e5cf83541ab8c94634333676: 21300000
    - 0d23bb43f4c96414d9b68290c47e5f94: 21300000
    - b66eac43be4855342946e45941fe58e1: 21300000
    - e3f572a36cda1404dbfcf6aaef2b1b93: 21300000
    - 82c0b5d3d47a51344a35fecd674f1b97: 21300000
    - 8619be14012a576479b624a02e75f3c1: 21300000
    - 6749153460475b345a0446699f644006: 21300000
    - a37e685474a1af845959721c3f8ada83: 21300000
    - 70274eb479603ce4aa9511a525aa0955: 21300000
    - df675dd4705128e468a93326e488f6ec: 21300000
    - df81f245cc867354ab6cbe3973e59067: 21300000
    - 22304f850fdba59498af4a1bdc213364: 21300000
    - 332d0cc594291cd4a97a5899fda5df84: 21300000
    - 3c98d12610327024a8139bc57273622e: 21300000
    - 581c5d2692268ed4499d868733a4ec0e: 21300000
    - 605f567690b6ffb448d4a88710258c65: 21300000
    - 06c3a2867c4c86545add0358eb080ac7: 21300000
    - 015d6fb633fe6e349b267a1c44c0df05: 21300000
    - 508e86c6fcf512e4386258d1b808d689: 21300000
    - a7edb9f61a1f1824fb6cb410c9c39f75: 21300000
    - e9bb3f37d862bfb4d94f23178e8b935e: 21300000
    - 6d73829764608754cb2321cdd26ca04d: 21300000
    - 741a76a70a222bf47a560067914c175f: 21300000
    - 5dab8cc766df9bd42bb444b185c0a5fe: 21300000
    - 82f627280cd467946a9708aee1044d94: 21300000
    - 82580f2832040aa44a5f4d86e77942d8: 21300000
    - 43a8de68dc084984eb6d88ca995e7107: 21300000
    - 38690729efa6f0648b7a682ecc8127b3: 21300000
    - 128d5e3930daf6141973191090fd6b2a: 21300000
    - 16cd35c96b34b894fb938f20b6029031: 21300000
    - fb73abd9d4e395349a9a6d0355d79b5b: 21300000
    - be8b43e9d9f7b4445ba216bf047e4644: 21300000
    - 16a277f9427a289439fee2a794f0b7a8: 21300000
    - 9937462a5bc4fa34c95148658577fa7f: 21300000
    - cad7b69a94793664881e23f08329986b: 21300000
    - 7c06e45bbad22084cbcc62930de5876f: 21300000
    - 7289cb6bd5075b04e87efd134d5de62b: 21300000
    - bec2cb8b41af15b4da28e220e6450ab8: 21300000
    - 6a17219b759c7b5459a56cc236aa352a: 21300000
    - 170306bb702d9c041bbce33fdf97e53d: 21300000
    - 74c4ce3ca79c18940ba1eb0529bbab80: 21300000
    - f71848ac5e22f914d92461c8d6056a9d: 21300000
    - e707a5bc1502e7c4abe0d7a72ec1e8e0: 21300000
    - 7e5dd1dcae8320d459aa6d44ee0af5d7: 21300000
    - cda1b3dc061079248aa417a81df26fca: 21300000
    - a46c082d530d2244d9fd23bb0df1c2c0: 21300000
    - 6535105dabefd5244bba44688b4fbe25: 21300000
    - 3759f38d62150a542b5b7d9a399bd8db: 21300000
    - 87eaaf1e7d989804cb893179ac6864ff: 21300000
    - 2e1c148ea7150934eb97ec814582604b: 21300000
    - 22ef890f56392bc48a9272277620872c: 21300000
    - d712f92f7f73762459540911c7b0fc50: 21300000
    - 8f73043f3bdb14744a93f0fa639a1c79: 21300000
    - 6aada27f1d7ce044a9530b94e892af82: 21300000
    - 60643f9f030506e4185aeb498e9fd357: 21300000
    - cf3345bfdf657ed40924ea17e1a055bc: 21300000
    - e9273fbf6b0a1f642bf4e5b52aceb014: 21300000
    - d022edcf2bd399d4983b38a1b42527b5: 21300000
  m_MasterAtlas: {fileID: 0}
  m_PackedSprites:
  - {fileID: 21300000, guid: 9a109f4006847b04fa7b5c378606dfcd, type: 3}
  - {fileID: 21300000, guid: 059964d0710545243b25a299c7973481, type: 3}
  - {fileID: 21300000, guid: 313189112e5a9f44f82e9e175f3d394b, type: 3}
  - {fileID: 21300000, guid: 5b79f4614ed57bd458a0b7851312a542, type: 3}
  - {fileID: 21300000, guid: 08e8d581bd309724abedf736c37f92d7, type: 3}
  - {fileID: 21300000, guid: 91bd3ab1c79bfe742869a9ef3a5246df, type: 3}
  - {fileID: 21300000, guid: ffca86d1b7ba34244bc8c67dce1c6d90, type: 3}
  - {fileID: 21300000, guid: cb54ec4286925544a86b16e576dd7885, type: 3}
  - {fileID: 21300000, guid: 8292a8130d90e9f4aa4f67a5aa2f4fd9, type: 3}
  - {fileID: 21300000, guid: 81260a33e5cf83541ab8c94634333676, type: 3}
  - {fileID: 21300000, guid: 0d23bb43f4c96414d9b68290c47e5f94, type: 3}
  - {fileID: 21300000, guid: b66eac43be4855342946e45941fe58e1, type: 3}
  - {fileID: 21300000, guid: e3f572a36cda1404dbfcf6aaef2b1b93, type: 3}
  - {fileID: 21300000, guid: 82c0b5d3d47a51344a35fecd674f1b97, type: 3}
  - {fileID: 21300000, guid: 8619be14012a576479b624a02e75f3c1, type: 3}
  - {fileID: 21300000, guid: 6749153460475b345a0446699f644006, type: 3}
  - {fileID: 21300000, guid: a37e685474a1af845959721c3f8ada83, type: 3}
  - {fileID: 21300000, guid: 70274eb479603ce4aa9511a525aa0955, type: 3}
  - {fileID: 21300000, guid: df675dd4705128e468a93326e488f6ec, type: 3}
  - {fileID: 21300000, guid: df81f245cc867354ab6cbe3973e59067, type: 3}
  - {fileID: 21300000, guid: 22304f850fdba59498af4a1bdc213364, type: 3}
  - {fileID: 21300000, guid: 332d0cc594291cd4a97a5899fda5df84, type: 3}
  - {fileID: 21300000, guid: 3c98d12610327024a8139bc57273622e, type: 3}
  - {fileID: 21300000, guid: 581c5d2692268ed4499d868733a4ec0e, type: 3}
  - {fileID: 21300000, guid: 605f567690b6ffb448d4a88710258c65, type: 3}
  - {fileID: 21300000, guid: 06c3a2867c4c86545add0358eb080ac7, type: 3}
  - {fileID: 21300000, guid: 015d6fb633fe6e349b267a1c44c0df05, type: 3}
  - {fileID: 21300000, guid: 508e86c6fcf512e4386258d1b808d689, type: 3}
  - {fileID: 21300000, guid: a7edb9f61a1f1824fb6cb410c9c39f75, type: 3}
  - {fileID: 21300000, guid: e9bb3f37d862bfb4d94f23178e8b935e, type: 3}
  - {fileID: 21300000, guid: 6d73829764608754cb2321cdd26ca04d, type: 3}
  - {fileID: 21300000, guid: 741a76a70a222bf47a560067914c175f, type: 3}
  - {fileID: 21300000, guid: 5dab8cc766df9bd42bb444b185c0a5fe, type: 3}
  - {fileID: 21300000, guid: 82f627280cd467946a9708aee1044d94, type: 3}
  - {fileID: 21300000, guid: 82580f2832040aa44a5f4d86e77942d8, type: 3}
  - {fileID: 21300000, guid: 43a8de68dc084984eb6d88ca995e7107, type: 3}
  - {fileID: 21300000, guid: 38690729efa6f0648b7a682ecc8127b3, type: 3}
  - {fileID: 21300000, guid: 128d5e3930daf6141973191090fd6b2a, type: 3}
  - {fileID: 21300000, guid: 16cd35c96b34b894fb938f20b6029031, type: 3}
  - {fileID: 21300000, guid: fb73abd9d4e395349a9a6d0355d79b5b, type: 3}
  - {fileID: 21300000, guid: be8b43e9d9f7b4445ba216bf047e4644, type: 3}
  - {fileID: 21300000, guid: 16a277f9427a289439fee2a794f0b7a8, type: 3}
  - {fileID: 21300000, guid: 9937462a5bc4fa34c95148658577fa7f, type: 3}
  - {fileID: 21300000, guid: cad7b69a94793664881e23f08329986b, type: 3}
  - {fileID: 21300000, guid: 7c06e45bbad22084cbcc62930de5876f, type: 3}
  - {fileID: 21300000, guid: 7289cb6bd5075b04e87efd134d5de62b, type: 3}
  - {fileID: 21300000, guid: bec2cb8b41af15b4da28e220e6450ab8, type: 3}
  - {fileID: 21300000, guid: 6a17219b759c7b5459a56cc236aa352a, type: 3}
  - {fileID: 21300000, guid: 170306bb702d9c041bbce33fdf97e53d, type: 3}
  - {fileID: 21300000, guid: 74c4ce3ca79c18940ba1eb0529bbab80, type: 3}
  - {fileID: 21300000, guid: f71848ac5e22f914d92461c8d6056a9d, type: 3}
  - {fileID: 21300000, guid: e707a5bc1502e7c4abe0d7a72ec1e8e0, type: 3}
  - {fileID: 21300000, guid: 7e5dd1dcae8320d459aa6d44ee0af5d7, type: 3}
  - {fileID: 21300000, guid: cda1b3dc061079248aa417a81df26fca, type: 3}
  - {fileID: 21300000, guid: a46c082d530d2244d9fd23bb0df1c2c0, type: 3}
  - {fileID: 21300000, guid: 6535105dabefd5244bba44688b4fbe25, type: 3}
  - {fileID: 21300000, guid: 3759f38d62150a542b5b7d9a399bd8db, type: 3}
  - {fileID: 21300000, guid: 87eaaf1e7d989804cb893179ac6864ff, type: 3}
  - {fileID: 21300000, guid: 2e1c148ea7150934eb97ec814582604b, type: 3}
  - {fileID: 21300000, guid: 22ef890f56392bc48a9272277620872c, type: 3}
  - {fileID: 21300000, guid: d712f92f7f73762459540911c7b0fc50, type: 3}
  - {fileID: 21300000, guid: 8f73043f3bdb14744a93f0fa639a1c79, type: 3}
  - {fileID: 21300000, guid: 6aada27f1d7ce044a9530b94e892af82, type: 3}
  - {fileID: 21300000, guid: 60643f9f030506e4185aeb498e9fd357, type: 3}
  - {fileID: 21300000, guid: cf3345bfdf657ed40924ea17e1a055bc, type: 3}
  - {fileID: 21300000, guid: e9273fbf6b0a1f642bf4e5b52aceb014, type: 3}
  - {fileID: 21300000, guid: d022edcf2bd399d4983b38a1b42527b5, type: 3}
  m_PackedSpriteNamesToIndex:
  - Yolk_hanging_arm
  - idle.002
  - yolk_hanging.2.002
  - yolk squat
  - idle.008
  - death_03
  - jump_arch_02
  - Yolk2.0_run.010
  - yolk_drop_02
  - jump_arch_03
  - Grab_stand.002
  - Yolk2.0_run.006
  - Grab_stand.004
  - idle.004
  - yolk_ball_roll
  - idle.001
  - death_08
  - death_05
  - yolk_grab_stand_arm
  - Yolk2.0_run.008
  - Yolk2.0_run.004
  - death_04
  - Yolk2.0_run.011
  - yolk_hanging.2.005
  - yolk_hanging.2.001
  - yolk arm 1x
  - Yolk2.0_run.014
  - death_02
  - yolk_hanging.2.003
  - idle.003
  - idle.005
  - yolk frkng arm
  - yolk_abseiling_A02
  - Yolk2.0_run.013
  - Yolk2.0_run.012
  - yolk driving frame
  - death_01
  - idle.007
  - idle.006
  - Yolk2.0_run.009
  - Yolk2.0_run.001
  - idle.009
  - yolk_jump_02
  - death_06
  - Grab_stand.003
  - Yolk2.0_run.015
  - death_10
  - Grab_stand.005
  - Grab_stand.001
  - Yolk2.0_run.007
  - yolk_hanging.2.006
  - Yolk2.0_run.003
  - Yolk2.0_run.002
  - death_07
  - death_11
  - yolk_car
  - jump_arch_04
  - yolk_hanging.2.004
  - jump_arch_01
  - yolk body 1x
  - yolk_drop_01
  - yolk_jump_01
  - Yolk2.0_run.005
  - yolk_hanging.2.007
  - death_09
  - yolk_car_arm
  - yolk_abseiling_A01
  m_RenderDataMap: {}
  m_Tag: Minigame - Characters - Yolk
  m_IsVariant: 0
