%YAML 1.1
%TAG !u! tag:unity3d.com,2011:
--- !u!687078895 &4343727234628468602
SpriteAtlas:
  m_ObjectHideFlags: 0
  m_CorrespondingSourceObject: {fileID: 0}
  m_PrefabInstance: {fileID: 0}
  m_PrefabAsset: {fileID: 0}
  m_Name: Minigame - Thumbnails - Racing
  m_EditorData:
    serializedVersion: 2
    textureSettings:
      serializedVersion: 2
      anisoLevel: 1
      compressionQuality: 50
      maxTextureSize: 2048
      textureCompression: 0
      filterMode: 1
      generateMipMaps: 0
      readable: 0
      crunchedCompression: 0
      sRGB: 1
    platformSettings: []
    packingSettings:
      serializedVersion: 2
      padding: 4
      blockOffset: 1
      allowAlphaSplitting: 0
      enableRotation: 0
      enableTightPacking: 0
      enableAlphaDilation: 0
    secondaryTextureSettings: {}
    variantMultiplier: 1
    packables:
    - {fileID: 2800000, guid: 97336803b1cbcc049bb6d5a2c34f1e1a, type: 3}
    - {fileID: 2800000, guid: 05d275146ef517f419bd8a28cabdea39, type: 3}
    - {fileID: 2800000, guid: 7d529f8249dc33f40a784be1ecc29323, type: 3}
    - {fileID: 2800000, guid: 32d2bd5f2e01afc4f8ff84c85d933402, type: 3}
    - {fileID: 2800000, guid: 86016cc66a01c5e49953e81aec09c405, type: 3}
    - {fileID: 2800000, guid: 8b945c1de7f908f4d8baf60508867531, type: 3}
    - {fileID: 2800000, guid: b783b9780b614ce479d81717d23dc604, type: 3}
    - {fileID: 2800000, guid: a4d55f431f340fc4aa9ce7040aa18a73, type: 3}
    - {fileID: 2800000, guid: 3375c936209932d4b93a81dbf9dc70e7, type: 3}
    - {fileID: 2800000, guid: 8eac3fcbf588e494f90d18422e447a6b, type: 3}
    - {fileID: 2800000, guid: 22d67dd2fc4f85a458c54f0d2f58e1b2, type: 3}
    - {fileID: 2800000, guid: 7be2fd7cd67b63d45a5690252ec817af, type: 3}
    - {fileID: 2800000, guid: 1bef8e11cd9fa904898c9870017dee5e, type: 3}
    - {fileID: 2800000, guid: 1bb70c8a2b881c242a5463c317db1505, type: 3}
    - {fileID: 2800000, guid: fff515947ff9117468e88a456c38ac9f, type: 3}
    - {fileID: 2800000, guid: fcf409f3efcf0e24ca435c39c2147e1a, type: 3}
    - {fileID: 2800000, guid: ffca7bf7e45b1ec429905346d6f60cc0, type: 3}
    - {fileID: 2800000, guid: 53be0663e4d48fe45bb04687c9cdbc49, type: 3}
    - {fileID: 2800000, guid: 15abe96da7e2d1f429f04df6eb29fb81, type: 3}
    - {fileID: 2800000, guid: 23fd0720e0300a141babcbc6332d1626, type: 3}
    bindAsDefault: 1
    isAtlasV2: 0
    cachedData: {fileID: 0}
    packedSpriteRenderDataKeys:
    - 23fd0720e0300a141babcbc6332d1626: 21300000
    - 1bef8e11cd9fa904898c9870017dee5e: 21300000
    - 7d529f8249dc33f40a784be1ecc29323: 21300000
    - 22d67dd2fc4f85a458c54f0d2f58e1b2: 21300000
    - 97336803b1cbcc049bb6d5a2c34f1e1a: 21300000
    - a4d55f431f340fc4aa9ce7040aa18a73: 21300000
    - 53be0663e4d48fe45bb04687c9cdbc49: 21300000
    - fcf409f3efcf0e24ca435c39c2147e1a: 21300000
    - 05d275146ef517f419bd8a28cabdea39: 21300000
    - fff515947ff9117468e88a456c38ac9f: 21300000
    - 3375c936209932d4b93a81dbf9dc70e7: 21300000
    - 86016cc66a01c5e49953e81aec09c405: 21300000
    - ffca7bf7e45b1ec429905346d6f60cc0: 21300000
    - b783b9780b614ce479d81717d23dc604: 21300000
    - 1bb70c8a2b881c242a5463c317db1505: 21300000
    - 8eac3fcbf588e494f90d18422e447a6b: 21300000
    - 7be2fd7cd67b63d45a5690252ec817af: 21300000
    - 8b945c1de7f908f4d8baf60508867531: 21300000
    - 15abe96da7e2d1f429f04df6eb29fb81: 21300000
    - 32d2bd5f2e01afc4f8ff84c85d933402: 21300000
  m_MasterAtlas: {fileID: 0}
  m_PackedSprites:
  - {fileID: 21300000, guid: 23fd0720e0300a141babcbc6332d1626, type: 3}
  - {fileID: 21300000, guid: 1bef8e11cd9fa904898c9870017dee5e, type: 3}
  - {fileID: 21300000, guid: 7d529f8249dc33f40a784be1ecc29323, type: 3}
  - {fileID: 21300000, guid: 22d67dd2fc4f85a458c54f0d2f58e1b2, type: 3}
  - {fileID: 21300000, guid: 97336803b1cbcc049bb6d5a2c34f1e1a, type: 3}
  - {fileID: 21300000, guid: a4d55f431f340fc4aa9ce7040aa18a73, type: 3}
  - {fileID: 21300000, guid: 53be0663e4d48fe45bb04687c9cdbc49, type: 3}
  - {fileID: 21300000, guid: fcf409f3efcf0e24ca435c39c2147e1a, type: 3}
  - {fileID: 21300000, guid: 05d275146ef517f419bd8a28cabdea39, type: 3}
  - {fileID: 21300000, guid: fff515947ff9117468e88a456c38ac9f, type: 3}
  - {fileID: 21300000, guid: 3375c936209932d4b93a81dbf9dc70e7, type: 3}
  - {fileID: 21300000, guid: 86016cc66a01c5e49953e81aec09c405, type: 3}
  - {fileID: 21300000, guid: ffca7bf7e45b1ec429905346d6f60cc0, type: 3}
  - {fileID: 21300000, guid: b783b9780b614ce479d81717d23dc604, type: 3}
  - {fileID: 21300000, guid: 1bb70c8a2b881c242a5463c317db1505, type: 3}
  - {fileID: 21300000, guid: 8eac3fcbf588e494f90d18422e447a6b, type: 3}
  - {fileID: 21300000, guid: 7be2fd7cd67b63d45a5690252ec817af, type: 3}
  - {fileID: 21300000, guid: 8b945c1de7f908f4d8baf60508867531, type: 3}
  - {fileID: 21300000, guid: 15abe96da7e2d1f429f04df6eb29fb81, type: 3}
  - {fileID: 21300000, guid: 32d2bd5f2e01afc4f8ff84c85d933402, type: 3}
  m_PackedSpriteNamesToIndex:
  - racing_intermediate_5
  - racing_expert_3
  - racing_advanced_3
  - racing_expert_1
  - racing_advanced_1
  - racing_beginner_3
  - racing_intermediate_3
  - racing_intermediate_1
  - racing_advanced_2
  - racing_expert_5
  - racing_beginner_4
  - racing_advanced_5
  - racing_intermediate_2
  - racing_beginner_2
  - racing_expert_4
  - racing_beginner_5
  - racing_expert_2
  - racing_beginner_1
  - racing_intermediate_4
  - racing_advanced_4
  m_RenderDataMap: {}
  m_Tag: Minigame - Thumbnails - Racing
  m_IsVariant: 0
