%YAML 1.1
%TAG !u! tag:unity3d.com,2011:
--- !u!687078895 &4343727234628468602
SpriteAtlas:
  m_ObjectHideFlags: 0
  m_CorrespondingSourceObject: {fileID: 0}
  m_PrefabInstance: {fileID: 0}
  m_PrefabAsset: {fileID: 0}
  m_Name: Minigame - Shared
  m_EditorData:
    serializedVersion: 2
    textureSettings:
      serializedVersion: 2
      anisoLevel: 1
      compressionQuality: 50
      maxTextureSize: 2048
      textureCompression: 0
      filterMode: 1
      generateMipMaps: 0
      readable: 0
      crunchedCompression: 0
      sRGB: 1
    platformSettings: []
    packingSettings:
      serializedVersion: 2
      padding: 4
      blockOffset: 1
      allowAlphaSplitting: 0
      enableRotation: 1
      enableTightPacking: 1
      enableAlphaDilation: 0
    secondaryTextureSettings: {}
    variantMultiplier: 1
    packables:
    - {fileID: 102900000, guid: b80205653fbf5704fbf9b6389b4abfef, type: 3}
    - {fileID: 102900000, guid: b88a73f5082ba374e89c46c4676940a3, type: 3}
    - {fileID: 102900000, guid: a58ba1f305b9ee7468c23d2c5bb138d5, type: 3}
    bindAsDefault: 1
    isAtlasV2: 0
    cachedData: {fileID: 0}
    packedSpriteRenderDataKeys:
    - 78bbc70014152da4caad7a6a8c358d3e: 21300000
    - 94c301107d8e98e4390fd906f96b0fee: 21300000
    - 5ac77910fba539e40a14fae4b20dde89: 21300000
    - e45e1630e542a224893ea537aa14be2e: 21300000
    - d3249c30f87347f4f8886d711314ac49: 21300000
    - 8d781040b119d2346bb54f8f7bfef2f5: 21300000
    - e5e25150ffcbd054faa00ed4b700ae53: 21300000
    - dd41c650699daaf498071c5f5792c557: 21300000
    - 137e8a50a9b1c2947aa86ffac9c54fc5: 21300000
    - 1528fa6044dddf348b7ee6578659e65a: 21300000
    - 97243c60dc8ee3748b4562b0274db572: 21300000
    - 1e09c670dbdbe9d4481a937cc2716f5c: 21300000
    - d5bede80b7d2cba42bcd3c37c588e3d0: 21300000
    - 75f784a03b0e6a046bd1036564240cb0: 21300000
    - 76e366a01e64f18479c8f3b2f6ccb166: 21300000
    - 4990c6a05cd18a646820b78b4ad6f61b: 21300000
    - bbd5daa0d15028e45ae162d19bce7620: 21300000
    - b1b38ea01d7a5314db3bd2f4c920c2dd: 21300000
    - cbc7ebb002e673048b740c3e2af3ba77: 21300000
    - 5c6314c07a5b05441aff366f3bed04c8: 21300000
    - af8ef5c072ac9714d947b7eb61b676e3: 21300000
    - d63c37c08d4e8ce42829f0d7e0c84649: 21300000
    - a49317d0045043c46a24e12fbb39e5e6: 21300000
    - 9e7d7de0357c49c449200c423c6c382b: 21300000
    - 7a0320f0a52f66543a231d08110a8c34: 21300000
    - 9140b0f0df337564e93d904543aa9ade: 21300000
    - 34a444f0f292c4f4e88cbcd3d8feea55: 21300000
    - 8643e501420702947b51606f9ef48f25: 21300000
    - 42f15f01253b71245804965b8b343fa9: 21300000
    - 59bfb421d45523e4a9f063dccfa7330c: 21300000
    - a622472165edf19488596a823e7cbd0e: 21300000
    - f20d6931d72ceb8489218013c2e1daa1: 21300000
    - cd678251191baed49af80ade9cfd2cf8: 21300000
    - bbd2f4518561de84ba8781a53bfa8beb: 21300000
    - d4c0d551106ce8540a58a9e35c5e23ec: 21300000
    - 0f5c8161f3f887d4db299430e264644f: 21300000
    - d7a3a561fad1f8344a0e6d2d9b64c358: 21300000
    - e90008617306f114f8b8cde37353940b: 21300000
    - 8abee8618a9b311448ff334f89cca741: 21300000
    - 0ba8df61fdfea2345a52e79ac07222c5: 21300000
    - f1a1937192f59b1498d05c0693469414: 21300000
    - ffa1e4718c517674c871d06d7dba8c30: 21300000
    - c0c6d971ebf4502468bd8dd8152c8b91: 21300000
    - 378a87a10daec5a40b51f2f51cfa2b25: 21300000
    - 872ee3b1bc69347439c9681698ee3830: 21300000
    - 48f662d112279074398e7330f40c10d7: 21300000
    - 39fe35d165a23b84a876423dea0d9d2d: 21300000
    - 3ac265d156a5e854ea47619a0134939c: 21300000
    - 38a3e9d1e43528948b6c1d0f3331086d: 21300000
    - c67833e1b58d7ed4c9c0fef5aeb85b4c: 21300000
    - 63a518e1a9b563d47baf666e5c729812: 21300000
    - 1158eae1aecccd64b8d7f5ebef3580e2: 21300000
    - f689ffe1dda782b4391e5a4f631ed863: 21300000
    - 414ce7f130b7bc84f8e80e6e17cf4240: 21300000
    - 62e8eef1e11c7b54b9d7ead8e543fab2: 21300000
    - 8348630234acaba46983b6b96e4f073c: 21300000
    - e410d3025bb26e04bbcb8b28618d9133: 21300000
    - 320c6412cf1664a4eb51dd9b74d963a1: 21300000
    - d3bd46122a4eb2141a8f95e771215ee9: 21300000
    - 868c6b12059f9e844ae1fbdc16b70bd0: 21300000
    - 4cc49d120e909ad41abb2deb86c812ad: 21300000
    - abc0ae12d3f31844d985110f71751aec: 21300000
    - 22621022e3707754993ceb804840916f: 21300000
    - bccefd2269d1c774a83bb90f899bb45b: 21300000
    - 023fc13256bd1684f97e5ee469de6df8: 21300000
    - af2fb232ce1f67f4388895cbf3ff7189: 21300000
    - a819fe32081a29b469b04beb7c018373: 21300000
    - 47d9c242f96188b47a4dfc85e6adadda: 21300000
    - f5541a424b56b3b4f8d28a23f4a289a1: 21300000
    - 12b1ce4290381fa4bade79bc85ff8058: 21300000
    - fd8493526fe856b4dad5a53e2d3b5c06: 21300000
    - 6e971452283ea144d9cc774e1a2b1be2: 21300000
    - e1d124629441ed843852fa98f7a2aed5: 21300000
    - 5938d962fde6c9e4fa09d843e93cc32c: 21300000
    - 7457b472785530f4f9a4e62bda421c4f: 21300000
    - 882a0772e724f6848930d7947f87fa46: 21300000
    - 4b13c2822d2484248b0b2cdb02ab22e2: 21300000
    - 9f14958298f2ed54c8c704929c4c2cd6: 21300000
    - 3be5678224a20d0449a83552d8786268: 21300000
    - af5ff982bb3a7764f8e401f294c07636: 21300000
    - 02b65092397cb704a91f99a558789c09: 21300000
    - cc1557922b6cd294c9849861d15122fa: 21300000
    - f0fe1b9231384f6429239e964115e9d0: 21300000
    - 8cfbf4a250c036244ade63f8d7b35f8b: 21300000
    - 17b156a20dbf635499b9de3a02a545bc: 21300000
    - 8a8cb6b293f16e14e875ec38a90b00b9: 21300000
    - a76f99b21532ac248bfe26040bab2924: 21300000
    - 2e143fb22caefeb44876ec115811c2d9: 21300000
    - 9a2962c23c68d5a46bd245be697ac5a9: 21300000
    - c10e56c25e36aed45b4ed00f474d8f1b: 21300000
    - cf093cc2e1f3a5d409fdb848735afbcf: 21300000
    - c71614d208bfee44eb3cc4705d946ba8: 21300000
    - 132722e25f3b1fc41bb556798ff7ec30: 21300000
    - ed8958e2ac6f7a641a537183eba93e89: 21300000
    - 14e30ae24a5f2a349894cf2a4ca718db: 21300000
    - b0b9b7039e403ab46b6a19925d755228: 21300000
    - d9486903279154c468f8801785bc7982: 21300000
    - 4cbabd036196793468c34cf298465963: 21300000
    - 0c71ae138a77d9f48bf25894c1c2b8d9: 21300000
    - fed37723cb612f249afcaf426aec3d6c: 21300000
    - 1fea2e234baba08438ba804bc519fce7: 21300000
    - e01cc743618c68e4c95351a235dc5f62: 21300000
    - 2d491a43d2fcfdf43b6ef44d3b02f811: 21300000
    - c74b0e43e8a6bff419ce9e497a1d229e: 21300000
    - a475be43101b78b40926f9a654b06793: 21300000
    - c0265153481b9ce42a455bbad5db1527: 21300000
    - 39357153fa47dc345916ef082ea03769: 21300000
    - 823a12534991f024ea07bfbef129ac71: 21300000
    - 46298b53960a0d04ca679288b870d488: 21300000
    - 28387a6357dde494a90a19f43dcd2b06: 21300000
    - 7f6232735d25a0f4588557942d8d2bf0: 21300000
    - 5ab0377376d1be54ab42b05a3063ec97: 21300000
    - 2256bb7320ff23148b3d4dc7def6df36: 21300000
    - 5bd30483945390c48ba59cc08093f8bb: 21300000
    - 23eec58322fe62948a2a197a66fb06ec: 21300000
    - 66381f83ba5cb2f4bb2831c60d11865c: 21300000
    - c7d5c993fdef5ad41b8a8ac71a2178e0: 21300000
    - 365d1d93c52dcc2459dbd07031e3d00d: 21300000
    - e02d63a3c4a45dd42a6bfc5c249cc425: 21300000
    - 2df9cfa31a3f2274fb59bfbe350696a0: 21300000
    - 30c670b39577de642af0aec7516c578c: 21300000
    - 8b89b0b3ae18a4144abef95d0b7c0dae: 21300000
    - 2cc30cc3b450d9c4cade4466d309328d: 21300000
    - e5890ec3529c628459527bd75d800545: 21300000
    - d7d662d37c891794cb2450cd387d5bb0: 21300000
    - a80cf4d348be5494ebafa7ac40c6a865: 21300000
    - 797fc8d39f79f0b418f88d111fb301ca: 21300000
    - ee644ed3200f228498bc0eed3eb74845: 21300000
    - 6eddb0e324966164dba6d1ce8ab3aed9: 21300000
    - 04ab43e3936cdb544ba8743326b5015e: 21300000
    - 0d31cae3cec83e0439476287cb424461: 21300000
    - 93cbcbe3d8af0cf4facbc65a1e93900a: 21300000
    - 93259de3a9e39d0449fc08d19489e577: 21300000
    - 1ebaacf327a198743bcf65470e1c1974: 21300000
    - 4311500425d7c4d4796a0b0d2649f738: 21300000
    - 24d6ca0463627694299c21214815f55f: 21300000
    - 22606414aeb147f4baa054afa2f369b6: 21300000
    - c3f8481454259e844bff4f392b8e4837: 21300000
    - d5a159148cf4ae647a3fc5a591cdeb65: 21300000
    - 0faf2b14284c43e44a1e98d2af4f5cea: 21300000
    - fd3fbd1434444e9469ac85b25c380f54: 21300000
    - c02e7f141f4c2db4d8616d793f2889c1: 21300000
    - fee74924f8afbfe4f9bfebfe95669655: 21300000
    - 659def3466454124eb4a915dc8014abf: 21300000
    - 3063a2440c979e141be139109d7216a4: 21300000
    - b2b8c4445b806aa4383069e51cad9dba: 21300000
    - b234464451e703f49b4146eac1793244: 21300000
    - 9f42384485fac5e46b9054164688cd06: 21300000
    - 02fc194462d0e5b44a29afa8aa69a954: 21300000
    - e70f7c44004fde84babd934b33663e6a: 21300000
    - bb3e335453acb804ea414a2229f8da0e: 21300000
    - 6c66a654c91596a4f8fa68fd29d2c322: 21300000
    - 95db7854269c4024a8ee7d4bff352fcf: 21300000
    - dd759a548dc17aa4799486d2be14c615: 21300000
    - d0176f54ca9740e409f33c0db5687b13: 21300000
    - d4314364bf35f3b4fb4b69720cfe930d: 21300000
    - 97dd956405d9af0429ab499628f2057f: 21300000
    - e4eeb964400265644b5e0086a72669a4: 21300000
    - dfc7ca643f4444c4b8831259db1bf4d3: 21300000
    - 3d63a8741471cd9498f2bc95f18add83: 21300000
    - 6cf26184abff573429dcb4619b8213fe: 21300000
    - 9e840384f70b0be45a59fe5bd71de6a6: 21300000
    - d967e984bef1827459f9162c896b171e: 21300000
    - 292d2a84a876b7e499b6def180a96742: 21300000
    - 65472e8443e8d8f42bcb09ee7684dd5e: 21300000
    - 1976df84eb102344ea40a0409e664d6c: 21300000
    - 85cc92941f8434f40b95a8a2da3f8f59: 21300000
    - 84270794fd90ea74baa5de7e86489a9c: 21300000
    - 0289cb94e6d215348a2dd12fc6910fd7: 21300000
    - f59f9f947510871418686276a05f2260: 21300000
    - 2210c5a4587438149b549d89016dc260: 21300000
    - 8974eea463dbe1f4585cdf89df932cd5: 21300000
    - 0167d1b467c0abf4180f169712f796d3: 21300000
    - 4be695b4683a44449915de6b191ef763: 21300000
    - 899096b4a2d383d48b71ea868d460ded: 21300000
    - 3a454ec46d11b5a49b3f90c0aa125fbf: 21300000
    - 6c99aec45e5b8a94d9edb523c266ab92: 21300000
    - 0c1202d4b89bd07428c74426a6483557: 21300000
    - 4adecdd4e14a6c648837cdda99268e2f: 21300000
    - 01cef2e433be82a4b80d83aceeacf099: 21300000
    - dc5ba4e4638850e47aa14bda75676226: 21300000
    - 909465e4438448e4b8eb14de53ad9d48: 21300000
    - e72b95e4869ab7145a466460b9eeb45b: 21300000
    - f84ae8e437500aa4d97f3d00af185769: 21300000
    - e6f219e423cf44a498006395971406b3: 21300000
    - 7a9e30f46f8f2cd44abeac268979bdc6: 21300000
    - 221484f4a49f13846aa2fc84286c4901: 21300000
    - 36d41df4ebd3d7b4f888281e2478f53a: 21300000
    - 81b04705431ee704a9dc8fb510bf7e71: 21300000
    - c4d7b705d9dee7e42ba0e30bbe173685: 21300000
    - 6f1b0b05a49ecef44bb1779ef9b98dcf: 21300000
    - 1ccc3c1581f79294fba13785bb216106: 21300000
    - 944001252ca45a54387e8b9ccce737df: 21300000
    - 14c8842595592994086aa795f370a269: 21300000
    - 039aba25e9341b64ea9d9522bad28e37: 21300000
    - 6c492b25d14d38a48bb0533e72a6c2c3: 21300000
    - dc5ad03574ca81a4982ad7ee6891b0c9: 21300000
    - 20f865358e8cc9340b30d0f976da2086: 21300000
    - 2bb669356e3a2724c9e74f91bd54e26b: 21300000
    - 320ae935d16b7e2429619d5f299d1987: 21300000
    - 58fead35363883d41a42bb68bedc3237: 21300000
    - 25c603450985a4d41b080d937e1dacbd: 21300000
    - 4d4a394521451c04b8f261aba432a67b: 21300000
    - 61e28d553784eb646ab1e7e5a88191d7: 21300000
    - a6f5876555cdda645968147b0ad3d4b1: 21300000
    - 7c9da675c933c1f41ad3e51f92fd9c6e: 21300000
    - 360df585581617043ad5506bd2f1882c: 21300000
    - befe87859074a0f479a461832f19a98a: 21300000
    - 8265c7856e82d5f439068a576f7a527d: 21300000
    - f28fde85dd3df5849806b4dbf4ee2643: 21300000
    - 02519095663be31459b104aabb4b7e46: 21300000
    - 72fc7195a20519d4094afafa174ef92c: 21300000
    - 6cd04695763f66e448625a3285590337: 21300000
    - d466869589027bd45ae4597797dd0d34: 21300000
    - 89ceb69597eed43459995277d365670f: 21300000
    - 2f1c1b956f3211b44b69b293a28d51f6: 21300000
    - b319db95f5fa72440851bd786d87aca9: 21300000
    - 99a43e952dcbf4d488a753f7addb0398: 21300000
    - 8a7700a55a1f9c24db8c188ce92e74a0: 21300000
    - f9602ba5746496841924c592e069a9d2: 21300000
    - 7e70e8b5c2924674db260c5f350276ba: 21300000
    - cba90db59a72c9e419f900f95906e779: 21300000
    - f606eeb50b70d464b88932ea158d3168: 21300000
    - 48c9d5c5011eea04f85a5426167de028: 21300000
    - 6bc488d591d6afc409683c09e9e2cc19: 21300000
    - d316cdd5d496d9944a9acfcf1682dce4: 21300000
    - a3feaae51c5129e40a2bec78674f28f6: 21300000
    - 9b61c0f517f56f54c9a5d4af63dec59f: 21300000
    - 76b847f5047cde7488045daecb3e306c: 21300000
    - f22fd7f5bc35c8f4e84f281c636b4fb5: 21300000
    - 62f30af54d2f0b34caeb324c924713bc: 21300000
    - 32141df5cbc758b4d8de9c3a6e632160: 21300000
    - aa050b06e14e0394b99140a009588711: 21300000
    - 1dd256160e185994a95c25cac0afda33: 21300000
    - 3dce1226b84c4be4ab96aec1f6bcb9dd: 21300000
    - e285722658b69e544bc2d785bdf09211: 21300000
    - 04255a26a88ecaa419a743f406c7670a: 21300000
    - 0d6c8c2612da81346972b51065bc8b78: 21300000
    - eba97e26e2de9644592b6d90d80a6908: 21300000
    - 0729c736e2be34348aa377cda39be792: 21300000
    - 41921836a36663549b50fcbadd5970dd: 21300000
    - db0d6d46e5812b64c8d5e36a7995ff0a: 21300000
    - 2b89b456c3113c14885b499519280b7b: 21300000
    - dd901756c475a924eb94927ed291a43f: 21300000
    - 5537fb56203f9c649b2007f6b20f9fcf: 21300000
    - cc3bed56b45215a4a9083f5a3796c954: 21300000
    - 9daa40669f3b4254584fbe00f5e0106b: 21300000
    - 036431663c44328499ce5e32efa30bbf: 21300000
    - b72671666a829674bb22077582674da4: 21300000
    - 3e9234667703f2348893cbbb1a85077d: 21300000
    - 6db87b66fb6954c4b85ef04c4263fe04: 21300000
    - 2f5ae276de825f04b9cfccd318d18316: 21300000
    - 2182d47692a5ce64f984453b6dfbf1aa: 21300000
    - 12293976196e50f4a82f2fddb3d9636f: 21300000
    - 097ec7a6d43e1f34aac2249c045a1333: 21300000
    - 4cc898a6b5976314b8f1b78bc2c7c161: 21300000
    - 0af6d8a658bc83c4bbcf4bd378c711c9: 21300000
    - 26124ba6d68a168428cea3d166590d43: 21300000
    - d792fba64cc742b4ab1572077fe3b36a: 21300000
    - f5086fa6089ecc24a9430c790e541de5: 21300000
    - 5a63afa662e909340823ccd01b017de8: 21300000
    - d15af3b641f32754c931202e8bb41d78: 21300000
    - 7bd51cb62000a2a42844dd9ff59b075c: 21300000
    - 7528dcb6b3373964bb0bd4098b33c7e6: 21300000
    - 154731d605d78e841bfffd038b454120: 21300000
    - df74a4d6428b3d64390611fc01ceff1d: 21300000
    - 971719e65fbfa064c8f5773ee9a17171: 21300000
    - 30f27de6cb67119428d42e78c886a9b5: 21300000
    - 3faa0ee6ee0c6804fb641ef41b3178a4: 21300000
    - 6448e6f675c44334cba87d1c922d1eea: 21300000
    - a2730207215b3344c9ffd527de45895e: 21300000
    - eb8573075187bfa48b04bb42ce9984ea: 21300000
    - c068b907c2e340941bdbea464e191148: 21300000
    - e656f907ce1ee20479da00b6153c46e6: 21300000
    - 7b956b07f8fc7c14aaadb808d2393889: 21300000
    - fd41b41703b7c9c41824fe04aaa80a7d: 21300000
    - cd055d17ccb2255498acabc377e9fa4c: 21300000
    - a52c4427a44e79140ad93e935002de50: 21300000
    - 1116e627630dce242b13fbb0aab26c6e: 21300000
    - b9f6ae274fd1d124e977dc1fec039b2a: 21300000
    - 9dec1f271fdfd784c900e3a227a57e20: 21300000
    - 2eb65637247f8ae4eabe7ac9895f00c9: 21300000
    - 41a08447d6ce06d4a9c9a43b6e09cc4a: 21300000
    - b5d2385734413594ca870e75bab23863: 21300000
    - 9ccfaa5787e39d74782f1623e3145323: 21300000
    - 2a4b9b67eb8003a45bce8b69cea369fb: 21300000
    - 9d738c6781c58a84f99c467d4afb5798: 21300000
    - afc48077b69db0146970cb244689cb79: 21300000
    - f9a4667765bb6b3439f3c7f9d1d5f014: 21300000
    - 2e735b77967d6934db570ee7f1b3c553: 21300000
    - 2b2551875d048254d9665b56949c727e: 21300000
    - 9b71b4871e03f4c4a8c3986a575061dd: 21300000
    - 3234b5877ed24dc4c9e18b533024add4: 21300000
    - fde35197e78a59641a52e60906ec4df0: 21300000
    - 7df1a2979eb15974a8c04930f2b33752: 21300000
    - e8a0c9a73e423b64088c96e96c3ccb8e: 21300000
    - 14c17ba7fd861614096214ee4424b58a: 21300000
    - a4aec5b7ead78ad4abc6b114316057ed: 21300000
    - 7aec70c7e5cdb214896355041d4db2bc: 21300000
    - 1b21fac777d613940aaba8bd867ecead: 21300000
    - ed1485d7602910840ae5be4b11eace00: 21300000
    - 23a52ad779329264ba0c71b8379572df: 21300000
    - 4cfc8ed78f7ebaf4782c6c3dd982c098: 21300000
    - 3368b0e7faa346f43b3e7a2843c285d2: 21300000
    - 1e41c7e71ce47304b9a8ae002479571c: 21300000
    - bc780be7a00e37244a537f35eaa22612: 21300000
    - f148c0f7fd4753446a4990ede833f34d: 21300000
    - 20a037f7d5bdfe24ebe383135c692238: 21300000
    - 2826a7f74242bd345a6e8d08b65c3701: 21300000
    - 9d5abef7c20363a49863fc999009c44b: 21300000
    - d49ecf08a567b0246934536fa2bb7f61: 21300000
    - 8f53f118c6394164d8126ccba54d0f77: 21300000
    - 70ad302864801914081cf0cfe9514ecf: 21300000
    - 849a5128b121151409a4d8edb5c346b1: 21300000
    - 1396942804ba75747957d599c60550e5: 21300000
    - f0ab282806ba08a419704be724ea7790: 21300000
    - cb88dd28c2b1ea34db1d2152332bc3f5: 21300000
    - bcdc8e28f3847164998bfb04647ef631: 21300000
    - 57d2c9386dd29bc428b3cf7590ae572c: 21300000
    - 06247b3840de2ea4184e41a7a8b04aa5: 21300000
    - 24176e383ea586f4a95c579b50b6c485: 21300000
    - 58c35148c0d58b346a6796a1ea5e5b4c: 21300000
    - ce1f1248d6977454aa7c5684d1a3aa38: 21300000
    - 01648248cb781674d9bcb6f0cb2cf12b: 21300000
    - ad420448d3795e5478f5edaab953dec6: 21300000
    - a7674448fb76e8e4fabb41efbbcbc234: 21300000
    - 467bc258c35e920448ebc48536c5797a: 21300000
    - e63dc258a3e7d1d41bb5c1533c7fc009: 21300000
    - 14501858c0fa3954a9ea09ca3c549dda: 21300000
    - a86d6a68bc170044eb7d7b8cd8d55ce7: 21300000
    - 84a025780a0640243ab1b3805c8c37aa: 21300000
    - 85f1967847d9cf54ab322c3af9c3efda: 21300000
    - 851d6878d3bf4b64eb6d31d9224c104c: 21300000
    - 3d9acb880e442f54285c3aa0c57eaa90: 21300000
    - c6393d98c99e89b45813a7f080044f74: 21300000
    - 114c96a8c145c3f4285f907b26b0d4aa: 21300000
    - bc0ec6a80b2397c4f82d0ebdca8a682f: 21300000
    - 610b5ca861ead8a47a947caf99a45403: 21300000
    - 50c18ca899fcb8041a58b3e8bc28514d: 21300000
    - 2744b4b8215ccd443a4810e17d0c778c: 21300000
    - 404165b837f18c44fb9e5e044a09a275: 21300000
    - 652c42c8a5b867c4db36e29ea9f95268: 21300000
    - cd6d53c8056909b41b15550fd833d02c: 21300000
    - ac3a76c858c549f4dbb7014d420948b2: 21300000
    - 97695ac829d4bc7468bbec16e33dd877: 21300000
    - 7b7c55d83c8a153428d8a8e463184f4f: 21300000
    - 5f3ffdd80f7c9074283476c4d1e80e99: 21300000
    - dac1a8e83384e9641a015b7235e1e097: 21300000
    - 674c8ee88df643d449346328c6917fe7: 21300000
    - eec1dee8529e1d74288a86c989d82a6c: 21300000
    - a5cfbfe86c0071e42a2f16c365c82aaf: 21300000
    - 9e859cf87b04e714e8165dced2588a51: 21300000
    - 21993b09220133a488515e7bc5d84ff8: 21300000
    - 6d3abd09614960a4baec43f6a5a59c05: 21300000
    - 2454d11984b8a444f859d4931215e296: 21300000
    - 1d1bbb292d01fc545831ebe9244f04d3: 21300000
    - 30f9be29d1660574086580c6d3f4c8d6: 21300000
    - b11740490ea8b084395d68bee532cab7: 21300000
    - 1e5a3149c7bafd64bafc61b47e79420e: 21300000
    - 01bfd749c31155143b884f7825bb2747: 21300000
    - a7b0f35957bd3244fb46da684c20e77e: 21300000
    - 6d410e59fd88d5f44aa761efaffa6a58: 21300000
    - afb2c369be1e3cf4c8f0fcc11086237c: 21300000
    - 51fc4b69f4fde3e439cf26cf3f47b49e: 21300000
    - faf70e691289a8d40bed4b154f0830f9: 21300000
    - 64464e69a31c3bb4184002bc0e5fdab6: 21300000
    - 4c76537948fb81b41bcb1ce96b596674: 21300000
    - 049ab37943ac29248aca567ebb22af66: 21300000
    - 672178790264b974f96b08db910cedcb: 21300000
    - 4b84e97911b09274d99daf1cbb3d89e9: 21300000
    - 46c95a798e5d5d54b93fc300f61b2b15: 21300000
    - c9539f799f53fe245b8e869bf499993a: 21300000
    - d566e38918abead42aaa790f8f285385: 21300000
    - 17277399a54037e4483b606a4ca827fb: 21300000
    - ecc52c9997e70f74099648d01c8a6035: 21300000
    - 9c9631a920713d24c845da9a99250a21: 21300000
    - 96c563a958abc9c438581e7b256ff03c: 21300000
    - 4116a5a9ea0aa64459b3042304deffe1: 21300000
    - 011ee6a9221f20a4e8ba9d20e9cdd7a1: 21300000
    - 966e37a91b2a5344bbd1418516caeebf: 21300000
    - 564afea9a4e465443b730db36156a0aa: 21300000
    - b7acb5b9d516a714198c3e397bcb756b: 21300000
    - 489537c9e018dc749a2c2d19f39fe3ad: 21300000
    - 49517fc94ce1e1e478f5cf05a8b595ca: 21300000
    - 9bf992d9764ea3a46a0e361bbffc4fad: 21300000
    - 4cfb59d9ccf23f74890a38e98eedd70b: 21300000
    - 76557cd9bd294d545bec6949a48eeefe: 21300000
    - 6f3df8f9e661e754d846e589d25e3034: 21300000
    - 3c6bd9f9d266bb0409b08c2a2efe9e00: 21300000
    - c6359af9ac4ead346b1280c3051c8be4: 21300000
    - 8e85ccf9facb2df49ab192801392096d: 21300000
    - 0f06adf96ccb1374eabfee38ee0df778: 21300000
    - 07c4510a85686124791baacee49cba29: 21300000
    - bf60050a98e04df4e802b082fdd9dabf: 21300000
    - 38e9e70ab89741745a967446943af0b1: 21300000
    - e0d9911a609a551448ff5422e024a485: 21300000
    - 9da0d91aceaf4484ca28a681863d77a4: 21300000
    - 64a38a1aeb12b174cafa8d16f1b1b287: 21300000
    - 980bef1af76d6cc47bd09fa8a18732d1: 21300000
    - 0112a02a80e565d42b98c960860fa70e: 21300000
    - f53f992a96100504e81c1dc48a164dfb: 21300000
    - 1223e13ac2f473d4aae55c412727f3ca: 21300000
    - 6049733afd66b3d4a8cd81098fda5717: 21300000
    - 9140163a36e81114ebf700be2ed3ffec: 21300000
    - 5f5f224aa09e82a4aa001c9ade6ad831: 21300000
    - 28da954acef767540846da96dd14b073: 21300000
    - 9635d54a505249343b09f135cdbeddc2: 21300000
    - 8e598e4a857ffc34782bffd1dacb5175: 21300000
    - 1149386ad0ace954cbd2a77b29f68bad: 21300000
    - f346328a813aaa84dbc5bdeb0bf3f494: 21300000
    - d667789a2d5036e419ce920cf94a5af1: 21300000
    - 63faca9a221f6024ba94f89b61dca0b2: 21300000
    - 38bc4f9a14d866d4c8e08d239d4d4f58: 21300000
    - 9f4188aa6a7c1ce46b1f65e7d3504b45: 21300000
    - 7d832eaae31a767498cae25e0de816db: 21300000
    - a086a8ba0756fe24382f717734563ad6: 21300000
    - 8e1e42cac8f2e4e4ead2fabc0dff8dfb: 21300000
    - d488d5cab1f713841ada181f96cf5ba4: 21300000
    - f0d268cad5e839a498970a80df288b3a: 21300000
    - 18bab8ca6abf2bf499d0271934ba8403: 21300000
    - 8fcbbcca2791ced4183294c4c33227f6: 21300000
    - c1a32cdaca3a7bb45b0f0dbe0a99c5f9: 21300000
    - 852c8ddabf03e6c4d9106a2113a157b2: 21300000
    - cba7c6ead223bc542863f85502e6ce73: 21300000
    - cb5f17ea32e47d5498039df457abe879: 21300000
    - 6d3d2aea2a7fea94e8173f8ac399fc50: 21300000
    - c978abeafe00a0249be0a39d861161d2: 21300000
    - f2426dea4f6fa694c8d9b647cd19f784: 21300000
    - 0da878fa2d8ae234d87793dc1f4a91f9: 21300000
    - c7dabefaadcbd8349a033523560e12ce: 21300000
    - ca61110b13dd79148b8e09821eb7d5bd: 21300000
    - 3baa110b9a8c34347819d93ad601bada: 21300000
    - 6957da0b59de7034ca07650d1d50c089: 21300000
    - e768351b414ee234283aeca4853c5ddc: 21300000
    - 33cd571b6eed89042afcfb3b834b1ddf: 21300000
    - 56e9fd1bbf2217447b2a681a8a0904c9: 21300000
    - 91f3112b1d44b51479489b9ec3d5ed23: 21300000
    - ba19ea2b00f51d04e920c6fb73dc1652: 21300000
    - 12e53c2b24b254a4aa05c6d60306092b: 21300000
    - 6ff3ae2be21540c418be4110d01e75f0: 21300000
    - 0776654b3028810458733f49e8606b36: 21300000
    - 17cab64bb22cadb4c88a7213abf6c02f: 21300000
    - a25d174ba6afba7468595b2d998ab7ba: 21300000
    - e693606b2044142449947a312d0ac7c9: 21300000
    - eb11d47b0927d7644adf7b1abcf9a9a8: 21300000
    - bf1e767bd8f3e8c41a575e820f8e9eea: 21300000
    - 3619867bcc0e96d4191bd024102713f6: 21300000
    - b9c1808b48be6dd41902e850bef03451: 21300000
    - 6afa928b6a820474995c4f1fe117e4c1: 21300000
    - 4ea6038baa72fdb4e9b26f102a66bac9: 21300000
    - f439868bec31fbe4cb639fcc9af45112: 21300000
    - d1b83d8babe579b428a98bc7052ffb33: 21300000
    - 2eb9159b764a1d240a022396f13dcdca: 21300000
    - c20ceaab20ddd994fa81deed0331154a: 21300000
    - 82b30dab202f60e4a9d55616ca57bf7a: 21300000
    - 655c41bb81da7d24b9e82133fc9b828e: 21300000
    - 9d21b8bb7e37547488c268d3d42617a3: 21300000
    - b3ac4abbed07312448c750929ca9e18a: 21300000
    - 64a71bbbae407984b955dc90be676924: 21300000
    - 301cebbbb2bd33842be8a85d3cfecc77: 21300000
    - 9a624ccba6cb33a46aca92fa43a9774a: 21300000
    - fd6c34dbcf7cd0047810118dc65f59c9: 21300000
    - c74aecdbe658ab94ba90cc4f0cb42661: 21300000
    - b971b3ebce342dd49b8c8903a4206a15: 21300000
    - 085ff4eb1ab9f1e4b9de2876cda82935: 21300000
    - a098f7eb20c933649bf907af132dbdd8: 21300000
    - 98eb0aeb6c8b51243a14fa517341fda8: 21300000
    - 18f2d4fb39605874b905d77c5e95cc0d: 21300000
    - f12c540c65268054b92aa9b5ab215e8d: 21300000
    - 290f4a0cdd3f9294cbf0b4f06a59c8e8: 21300000
    - fed3931c97714334cbb1554c1158951d: 21300000
    - 3bcf151c16b1e64419b35d65b4a5c972: 21300000
    - 0a956a1cbd87e8644a4d24bcb0abc275: 21300000
    - 2bbeca1c854d52c4a8f0a2b9a64d5d49: 21300000
    - 7ba2fd1c19c83554aae7e67703ab0b92: 21300000
    - a67f6e1c8721ae7448cfdf6dc92e54d7: 21300000
    - 9d9d722ca06903d42b904c31f94a554c: 21300000
    - 7ee0752cd08a53d4ba5fb89a2a285649: 21300000
    - 59a2bc2cace176f4a92c2840b3f21973: 21300000
    - 767f4d2c37a9ce645ac7e491c85ba6ee: 21300000
    - e44b903c80fd70c48b9d43edd703dba6: 21300000
    - 19fa114c3caa5ff459f648b92363bb93: 21300000
    - a474614c8e772e34abff9aa9650a30c0: 21300000
    - d95f134c64414f244a83d56ed945c23d: 21300000
    - 2e83444c3d959c74e9a4f1294782c87f: 21300000
    - 9c49754c051a6ef43bdc679ab940e6cc: 21300000
    - 3fe8015c51056a34098ab85e513a1afd: 21300000
    - ed19585cfe6574e46aca5b8c61e00ea3: 21300000
    - 47c3cc5c7cca65f41a717531742db87b: 21300000
    - ecae4f5ccd2798d46b425fd95615382f: 21300000
    - 6ad3fc6c7d4572f49a8f19d1318d3825: 21300000
    - cd001e6c6c53b8e4cba6048fe3da5aa7: 21300000
    - 9eddbf6c7dd63664a958623fcf71a54c: 21300000
    - dd9d608c7b9cd2344b06f694bca63b2c: 21300000
    - 3a2b868ce753ea645963b01b26294600: 21300000
    - c2011e8c76a37a24db186c075ccc3b9a: 21300000
    - 959b649ce5a4b0942a2bb7fe22a475c1: 21300000
    - 9c22379c07d99b54cb01221da6c0fe5d: 21300000
    - 5a7bebacd13a72b4eaaab5d3e813287f: 21300000
    - ce2eccbcb3959ae469bf9a2fc91d6304: 21300000
    - c49cd2cc5d08fc244b856afdfa999548: 21300000
    - bfd7f2cca3fdd9c4486ee119e88b8042: 21300000
    - 3f8bfbdc0b772f94c8e4fa32f93f636c: 21300000
    - de9f9ddc9f14c7a4bae939b5998e717f: 21300000
    - 0f6095ec38f8c6847aaad4645778add6: 21300000
    - 02ba58fcac128e34e8df9ffef811246c: 21300000
    - 71a73ffccea7441478054b2ef2154551: 21300000
    - 7457ea1d24677894d81307611088e9eb: 21300000
    - 7da5752d7a08aaf4ba1ba43e77717ee5: 21300000
    - 51b79b2d0144df447993b71a77a1fa5e: 21300000
    - 3d02a33d7180c844fb00364ca2532867: 21300000
    - 090a953d507615c47ba3dec1ad04fa26: 21300000
    - 4ff3274d2f9fad4459780a141204362d: 21300000
    - 8109d05da4df5374fb307aee5ac73787: 21300000
    - 5126155d6b620fb408c4fc51d8dbf9a2: 21300000
    - 92e5175d9d5d73b478d169c27acbd653: 21300000
    - 5bd99b5d4a4755e429727c280e6fa117: 21300000
    - ee7f0f5d733475f4d934b7c4965dba5d: 21300000
    - 754d316d99550944ca79deffe6d1c730: 21300000
    - 8b67826d6ae33bc41afc4a5b182fe171: 21300000
    - 7515056d574760b4ba843d2100dd94f6: 21300000
    - 3ce4f56daa409624cb08105d7bc4a45f: 21300000
    - bfd62b6dd42f7d844a7ab828a34aae7e: 21300000
    - 6756fb6dd12d47b49b3243c1c3832ad8: 21300000
    - a37ca67d5bc384e4ea72f3d8346abf43: 21300000
    - 3859877da026edb4eac0e0c6ccd41cd8: 21300000
    - 4b8e6a7d2aa5154409b9a978e267f754: 21300000
    - 52ebff7d0a689614ca3e0d6f440324e1: 21300000
    - d8b9109dc42a0764886c22c2a753bc7d: 21300000
    - 85c3d09df4b57d847a4694172a278160: 21300000
    - 61b60e9dc62a9864a94e10fc3b33e406: 21300000
    - ac3983adf26716241bc3f90fe29dab67: 21300000
    - 5e3ef3ad59f3cd44fbc92d64256d0d88: 21300000
    - f3c3c7ad9d2759f4b9cda2fb159a547c: 21300000
    - fa006cade357e4a4b99fe9c270696d1d: 21300000
    - fafe12bd539694843873bfe0f963131f: 21300000
    - 8a9f32cdfadb50d44b0c6b3ae3c65c90: 21300000
    - 35648bcda2258dc41a9f7f55b1a97da0: 21300000
    - e911dccd6f3ec7946b9e6ae45538ff5b: 21300000
    - 9499e7dd081b2114d86ad49314ba85cc: 21300000
    - 7c3ea2ed8103a2e4d94a8377bb5a1a17: 21300000
    - 3b9603ed2b78e524e915c681ae3abc70: 21300000
    - 6abbc6edef06c19468607eca9b55e886: 21300000
    - 41722bed572067a4a8f62a151ec5f019: 21300000
    - 8ae1feede0d857e44bdb439f78695e01: 21300000
    - e98330fd89c0eb14bad641d913ae5620: 21300000
    - 17c1aafd9d40fac49ae3661b4d858ecd: 21300000
    - caeb181ea82289b4fa314587b56c5cfe: 21300000
    - 21fb6e1ea5cfd7046af81f4e67ea6b25: 21300000
    - 21b7ac2e8d04fdb45bff7690cfb8e7ee: 21300000
    - 75a31d2e7f9fddb41be84d9cf965eb30: 21300000
    - d79b9f2ebcaf9be43bf905361f085511: 21300000
    - 53ab803e698fca2478c5a67566670fe8: 21300000
    - ce4d423ee1a46f34cad1e390b6034077: 21300000
    - 45fa923e654db68429364c45f5344bf5: 21300000
    - 0898b73ed62797849ab916d30f1b932d: 21300000
    - 4385464e312e90f4eaa55b084dfa3c4a: 21300000
    - c179025ec8ea5b742ae726bdf24b987d: 21300000
    - fef8725ef4cf74249af032c84eb18d16: 21300000
    - 947c295ed6254ac48b558bf5dba3e4e5: 21300000
    - f37cbf6e5463c194f9ab5d5b58e2e4db: 21300000
    - 4116287e03564c34eb3206f1ba1c5e58: 21300000
    - 723ba78e2cf741f49be0b3f6e638a338: 21300000
    - fd64209e82daf8e4eac1ae40a2372a10: 21300000
    - 3f81d49ee01f6964c873304890204df3: 21300000
    - 3994a59e2678ab94882d6846b2561057: 21300000
    - 8354469e15ad3fe4fbe6a076bcc39bf6: 21300000
    - 9504dfaec9a302c43ad12bc1ea59cefa: 21300000
    - 0e3b61ce6b5d5014aaffa66463a7a5f9: 21300000
    - a820b1ce4ca583249af5520b7e9a29f6: 21300000
    - 839df4ce3bad61e4192716d3c88d5ec0: 21300000
    - b4dd75ce0790e1c46b751f951a49d586: 21300000
    - bbd195ce9e60f544086bfe6a06b89719: 21300000
    - a575fdce6af4bce40a2a74326bca5345: 21300000
    - eb93eece9993c064896741f3b06c2fd6: 21300000
    - 9fa9f4ee75b888741b29f57f48605f8e: 21300000
    - 0f06e7fe7d957ca44bfbd0c7c8aa7c3c: 21300000
    - c5423ffe0e7bda047810795de0778a70: 21300000
    - a7eeaffed954ecf41be0b2646c96e93f: 21300000
    - 035d480f04c210541be66aab3184b9ad: 21300000
    - e168711f976474b49a4b948430294f0a: 21300000
    - dc07121f829b45540a330878600bf9de: 21300000
    - a3cfa82f221ba0b499808c70bc7b2e83: 21300000
    - 63d9392f1bdc93a4c8ef39b30f0f7938: 21300000
    - db770b2f804cac145a4404a2d6981b8a: 21300000
    - 9eea603fddbc6ec4aab94494b19d2223: 21300000
    - 61c4c53fd4bd33046abf403ae4159bde: 21300000
    - f7d7693f9233bae4e93fa479ead7af05: 21300000
    - 302d725f881dd5d458ea60f9d20de775: 21300000
    - cd9b8d5fba873994193907f94c5fb989: 21300000
    - 666a216f8c404144184e2f6177c7300d: 21300000
    - e20d126fc936de147b75f4a0222783ab: 21300000
    - a328576f880d49a4eb68f46910df5083: 21300000
    - a2802f6f3c5db5642b2b7a6de1a135bc: 21300000
    - 61a2a48f82844ff468929668da248dee: 21300000
    - a4aca48faac54774d8f32ca53f9557fd: 21300000
    - ef91d78fd2dd62c4f8a71faa339d1b65: 21300000
    - 33912b8f6e7aae847ac6d20d2e5b16e1: 21300000
    - ccc51c8f7a2164e4a8dffaae725f2620: 21300000
    - 9e9d9e8f69c96c043807145a23f7b5c5: 21300000
    - 9062519f43789a947814e5d12b5a39cb: 21300000
    - 4b8f259f61dd6374d99e6d99e109531d: 21300000
    - 6200ec9f00134e54baf18461b6529be9: 21300000
    - 000126af39228694184bce0458b467ab: 21300000
    - dbcd46afb7461c54fa069ba1da5549a7: 21300000
    - 15d58aafc9996344b94b83237c534fa2: 21300000
    - 9ee22faf651ccf64f96cc724ea80e4bb: 21300000
    - abe5c3bf3f2853745b55cf465aef3c99: 21300000
    - 4691d5bfe415feb4b9a0f95adfad639a: 21300000
    - 2e1516bf9c78d374397136c3cebcefaa: 21300000
    - 9bb267cffa5e00248911119405ac88ff: 21300000
    - a72208cf6ba70ba438bf148a06c2cbd5: 21300000
    - e3952ccfbb389ae48b8561123a80f90f: 21300000
    - 2b90c0df81ec0934ba6aa47469a23b8d: 21300000
    - 387a46dfa9d8403409d76cfa149eab15: 21300000
    - 0bce60ef45461d14b9cec6f6412560ed: 21300000
    - c6f1b1ef607cd274ab8edb44247e2d91: 21300000
    - 50df52ef6593a0b4c8bf6df2662ce85a: 21300000
    - 5675a7ef4c3b41149a40639781505b4f: 21300000
  m_MasterAtlas: {fileID: 0}
  m_PackedSprites:
  - {fileID: 21300000, guid: 78bbc70014152da4caad7a6a8c358d3e, type: 3}
  - {fileID: 21300000, guid: 94c301107d8e98e4390fd906f96b0fee, type: 3}
  - {fileID: 21300000, guid: 5ac77910fba539e40a14fae4b20dde89, type: 3}
  - {fileID: 21300000, guid: e45e1630e542a224893ea537aa14be2e, type: 3}
  - {fileID: 21300000, guid: d3249c30f87347f4f8886d711314ac49, type: 3}
  - {fileID: 21300000, guid: 8d781040b119d2346bb54f8f7bfef2f5, type: 3}
  - {fileID: 21300000, guid: e5e25150ffcbd054faa00ed4b700ae53, type: 3}
  - {fileID: 21300000, guid: dd41c650699daaf498071c5f5792c557, type: 3}
  - {fileID: 21300000, guid: 137e8a50a9b1c2947aa86ffac9c54fc5, type: 3}
  - {fileID: 21300000, guid: 1528fa6044dddf348b7ee6578659e65a, type: 3}
  - {fileID: 21300000, guid: 97243c60dc8ee3748b4562b0274db572, type: 3}
  - {fileID: 21300000, guid: 1e09c670dbdbe9d4481a937cc2716f5c, type: 3}
  - {fileID: 21300000, guid: d5bede80b7d2cba42bcd3c37c588e3d0, type: 3}
  - {fileID: 21300000, guid: 75f784a03b0e6a046bd1036564240cb0, type: 3}
  - {fileID: 21300000, guid: 76e366a01e64f18479c8f3b2f6ccb166, type: 3}
  - {fileID: 21300000, guid: 4990c6a05cd18a646820b78b4ad6f61b, type: 3}
  - {fileID: 21300000, guid: bbd5daa0d15028e45ae162d19bce7620, type: 3}
  - {fileID: 21300000, guid: b1b38ea01d7a5314db3bd2f4c920c2dd, type: 3}
  - {fileID: 21300000, guid: cbc7ebb002e673048b740c3e2af3ba77, type: 3}
  - {fileID: 21300000, guid: 5c6314c07a5b05441aff366f3bed04c8, type: 3}
  - {fileID: 21300000, guid: af8ef5c072ac9714d947b7eb61b676e3, type: 3}
  - {fileID: 21300000, guid: d63c37c08d4e8ce42829f0d7e0c84649, type: 3}
  - {fileID: 21300000, guid: a49317d0045043c46a24e12fbb39e5e6, type: 3}
  - {fileID: 21300000, guid: 9e7d7de0357c49c449200c423c6c382b, type: 3}
  - {fileID: 21300000, guid: 7a0320f0a52f66543a231d08110a8c34, type: 3}
  - {fileID: 21300000, guid: 9140b0f0df337564e93d904543aa9ade, type: 3}
  - {fileID: 21300000, guid: 34a444f0f292c4f4e88cbcd3d8feea55, type: 3}
  - {fileID: 21300000, guid: 8643e501420702947b51606f9ef48f25, type: 3}
  - {fileID: 21300000, guid: 42f15f01253b71245804965b8b343fa9, type: 3}
  - {fileID: 21300000, guid: 59bfb421d45523e4a9f063dccfa7330c, type: 3}
  - {fileID: 21300000, guid: a622472165edf19488596a823e7cbd0e, type: 3}
  - {fileID: 21300000, guid: f20d6931d72ceb8489218013c2e1daa1, type: 3}
  - {fileID: 21300000, guid: cd678251191baed49af80ade9cfd2cf8, type: 3}
  - {fileID: 21300000, guid: bbd2f4518561de84ba8781a53bfa8beb, type: 3}
  - {fileID: 21300000, guid: d4c0d551106ce8540a58a9e35c5e23ec, type: 3}
  - {fileID: 21300000, guid: 0f5c8161f3f887d4db299430e264644f, type: 3}
  - {fileID: 21300000, guid: d7a3a561fad1f8344a0e6d2d9b64c358, type: 3}
  - {fileID: 21300000, guid: e90008617306f114f8b8cde37353940b, type: 3}
  - {fileID: 21300000, guid: 8abee8618a9b311448ff334f89cca741, type: 3}
  - {fileID: 21300000, guid: 0ba8df61fdfea2345a52e79ac07222c5, type: 3}
  - {fileID: 21300000, guid: f1a1937192f59b1498d05c0693469414, type: 3}
  - {fileID: 21300000, guid: ffa1e4718c517674c871d06d7dba8c30, type: 3}
  - {fileID: 21300000, guid: c0c6d971ebf4502468bd8dd8152c8b91, type: 3}
  - {fileID: 21300000, guid: 378a87a10daec5a40b51f2f51cfa2b25, type: 3}
  - {fileID: 21300000, guid: 872ee3b1bc69347439c9681698ee3830, type: 3}
  - {fileID: 21300000, guid: 48f662d112279074398e7330f40c10d7, type: 3}
  - {fileID: 21300000, guid: 39fe35d165a23b84a876423dea0d9d2d, type: 3}
  - {fileID: 21300000, guid: 3ac265d156a5e854ea47619a0134939c, type: 3}
  - {fileID: 21300000, guid: 38a3e9d1e43528948b6c1d0f3331086d, type: 3}
  - {fileID: 21300000, guid: c67833e1b58d7ed4c9c0fef5aeb85b4c, type: 3}
  - {fileID: 21300000, guid: 63a518e1a9b563d47baf666e5c729812, type: 3}
  - {fileID: 21300000, guid: 1158eae1aecccd64b8d7f5ebef3580e2, type: 3}
  - {fileID: 21300000, guid: f689ffe1dda782b4391e5a4f631ed863, type: 3}
  - {fileID: 21300000, guid: 414ce7f130b7bc84f8e80e6e17cf4240, type: 3}
  - {fileID: 21300000, guid: 62e8eef1e11c7b54b9d7ead8e543fab2, type: 3}
  - {fileID: 21300000, guid: 8348630234acaba46983b6b96e4f073c, type: 3}
  - {fileID: 21300000, guid: e410d3025bb26e04bbcb8b28618d9133, type: 3}
  - {fileID: 21300000, guid: 320c6412cf1664a4eb51dd9b74d963a1, type: 3}
  - {fileID: 21300000, guid: d3bd46122a4eb2141a8f95e771215ee9, type: 3}
  - {fileID: 21300000, guid: 868c6b12059f9e844ae1fbdc16b70bd0, type: 3}
  - {fileID: 21300000, guid: 4cc49d120e909ad41abb2deb86c812ad, type: 3}
  - {fileID: 21300000, guid: abc0ae12d3f31844d985110f71751aec, type: 3}
  - {fileID: 21300000, guid: 22621022e3707754993ceb804840916f, type: 3}
  - {fileID: 21300000, guid: bccefd2269d1c774a83bb90f899bb45b, type: 3}
  - {fileID: 21300000, guid: 023fc13256bd1684f97e5ee469de6df8, type: 3}
  - {fileID: 21300000, guid: af2fb232ce1f67f4388895cbf3ff7189, type: 3}
  - {fileID: 21300000, guid: a819fe32081a29b469b04beb7c018373, type: 3}
  - {fileID: 21300000, guid: 47d9c242f96188b47a4dfc85e6adadda, type: 3}
  - {fileID: 21300000, guid: f5541a424b56b3b4f8d28a23f4a289a1, type: 3}
  - {fileID: 21300000, guid: 12b1ce4290381fa4bade79bc85ff8058, type: 3}
  - {fileID: 21300000, guid: fd8493526fe856b4dad5a53e2d3b5c06, type: 3}
  - {fileID: 21300000, guid: 6e971452283ea144d9cc774e1a2b1be2, type: 3}
  - {fileID: 21300000, guid: e1d124629441ed843852fa98f7a2aed5, type: 3}
  - {fileID: 21300000, guid: 5938d962fde6c9e4fa09d843e93cc32c, type: 3}
  - {fileID: 21300000, guid: 7457b472785530f4f9a4e62bda421c4f, type: 3}
  - {fileID: 21300000, guid: 882a0772e724f6848930d7947f87fa46, type: 3}
  - {fileID: 21300000, guid: 4b13c2822d2484248b0b2cdb02ab22e2, type: 3}
  - {fileID: 21300000, guid: 9f14958298f2ed54c8c704929c4c2cd6, type: 3}
  - {fileID: 21300000, guid: 3be5678224a20d0449a83552d8786268, type: 3}
  - {fileID: 21300000, guid: af5ff982bb3a7764f8e401f294c07636, type: 3}
  - {fileID: 21300000, guid: 02b65092397cb704a91f99a558789c09, type: 3}
  - {fileID: 21300000, guid: cc1557922b6cd294c9849861d15122fa, type: 3}
  - {fileID: 21300000, guid: f0fe1b9231384f6429239e964115e9d0, type: 3}
  - {fileID: 21300000, guid: 8cfbf4a250c036244ade63f8d7b35f8b, type: 3}
  - {fileID: 21300000, guid: 17b156a20dbf635499b9de3a02a545bc, type: 3}
  - {fileID: 21300000, guid: 8a8cb6b293f16e14e875ec38a90b00b9, type: 3}
  - {fileID: 21300000, guid: a76f99b21532ac248bfe26040bab2924, type: 3}
  - {fileID: 21300000, guid: 2e143fb22caefeb44876ec115811c2d9, type: 3}
  - {fileID: 21300000, guid: 9a2962c23c68d5a46bd245be697ac5a9, type: 3}
  - {fileID: 21300000, guid: c10e56c25e36aed45b4ed00f474d8f1b, type: 3}
  - {fileID: 21300000, guid: cf093cc2e1f3a5d409fdb848735afbcf, type: 3}
  - {fileID: 21300000, guid: c71614d208bfee44eb3cc4705d946ba8, type: 3}
  - {fileID: 21300000, guid: 132722e25f3b1fc41bb556798ff7ec30, type: 3}
  - {fileID: 21300000, guid: ed8958e2ac6f7a641a537183eba93e89, type: 3}
  - {fileID: 21300000, guid: 14e30ae24a5f2a349894cf2a4ca718db, type: 3}
  - {fileID: 21300000, guid: b0b9b7039e403ab46b6a19925d755228, type: 3}
  - {fileID: 21300000, guid: d9486903279154c468f8801785bc7982, type: 3}
  - {fileID: 21300000, guid: 4cbabd036196793468c34cf298465963, type: 3}
  - {fileID: 21300000, guid: 0c71ae138a77d9f48bf25894c1c2b8d9, type: 3}
  - {fileID: 21300000, guid: fed37723cb612f249afcaf426aec3d6c, type: 3}
  - {fileID: 21300000, guid: 1fea2e234baba08438ba804bc519fce7, type: 3}
  - {fileID: 21300000, guid: e01cc743618c68e4c95351a235dc5f62, type: 3}
  - {fileID: 21300000, guid: 2d491a43d2fcfdf43b6ef44d3b02f811, type: 3}
  - {fileID: 21300000, guid: c74b0e43e8a6bff419ce9e497a1d229e, type: 3}
  - {fileID: 21300000, guid: a475be43101b78b40926f9a654b06793, type: 3}
  - {fileID: 21300000, guid: c0265153481b9ce42a455bbad5db1527, type: 3}
  - {fileID: 21300000, guid: 39357153fa47dc345916ef082ea03769, type: 3}
  - {fileID: 21300000, guid: 823a12534991f024ea07bfbef129ac71, type: 3}
  - {fileID: 21300000, guid: 46298b53960a0d04ca679288b870d488, type: 3}
  - {fileID: 21300000, guid: 28387a6357dde494a90a19f43dcd2b06, type: 3}
  - {fileID: 21300000, guid: 7f6232735d25a0f4588557942d8d2bf0, type: 3}
  - {fileID: 21300000, guid: 5ab0377376d1be54ab42b05a3063ec97, type: 3}
  - {fileID: 21300000, guid: 2256bb7320ff23148b3d4dc7def6df36, type: 3}
  - {fileID: 21300000, guid: 5bd30483945390c48ba59cc08093f8bb, type: 3}
  - {fileID: 21300000, guid: 23eec58322fe62948a2a197a66fb06ec, type: 3}
  - {fileID: 21300000, guid: 66381f83ba5cb2f4bb2831c60d11865c, type: 3}
  - {fileID: 21300000, guid: c7d5c993fdef5ad41b8a8ac71a2178e0, type: 3}
  - {fileID: 21300000, guid: 365d1d93c52dcc2459dbd07031e3d00d, type: 3}
  - {fileID: 21300000, guid: e02d63a3c4a45dd42a6bfc5c249cc425, type: 3}
  - {fileID: 21300000, guid: 2df9cfa31a3f2274fb59bfbe350696a0, type: 3}
  - {fileID: 21300000, guid: 30c670b39577de642af0aec7516c578c, type: 3}
  - {fileID: 21300000, guid: 8b89b0b3ae18a4144abef95d0b7c0dae, type: 3}
  - {fileID: 21300000, guid: 2cc30cc3b450d9c4cade4466d309328d, type: 3}
  - {fileID: 21300000, guid: e5890ec3529c628459527bd75d800545, type: 3}
  - {fileID: 21300000, guid: d7d662d37c891794cb2450cd387d5bb0, type: 3}
  - {fileID: 21300000, guid: a80cf4d348be5494ebafa7ac40c6a865, type: 3}
  - {fileID: 21300000, guid: 797fc8d39f79f0b418f88d111fb301ca, type: 3}
  - {fileID: 21300000, guid: ee644ed3200f228498bc0eed3eb74845, type: 3}
  - {fileID: 21300000, guid: 6eddb0e324966164dba6d1ce8ab3aed9, type: 3}
  - {fileID: 21300000, guid: 04ab43e3936cdb544ba8743326b5015e, type: 3}
  - {fileID: 21300000, guid: 0d31cae3cec83e0439476287cb424461, type: 3}
  - {fileID: 21300000, guid: 93cbcbe3d8af0cf4facbc65a1e93900a, type: 3}
  - {fileID: 21300000, guid: 93259de3a9e39d0449fc08d19489e577, type: 3}
  - {fileID: 21300000, guid: 1ebaacf327a198743bcf65470e1c1974, type: 3}
  - {fileID: 21300000, guid: 4311500425d7c4d4796a0b0d2649f738, type: 3}
  - {fileID: 21300000, guid: 24d6ca0463627694299c21214815f55f, type: 3}
  - {fileID: 21300000, guid: 22606414aeb147f4baa054afa2f369b6, type: 3}
  - {fileID: 21300000, guid: c3f8481454259e844bff4f392b8e4837, type: 3}
  - {fileID: 21300000, guid: d5a159148cf4ae647a3fc5a591cdeb65, type: 3}
  - {fileID: 21300000, guid: 0faf2b14284c43e44a1e98d2af4f5cea, type: 3}
  - {fileID: 21300000, guid: fd3fbd1434444e9469ac85b25c380f54, type: 3}
  - {fileID: 21300000, guid: c02e7f141f4c2db4d8616d793f2889c1, type: 3}
  - {fileID: 21300000, guid: fee74924f8afbfe4f9bfebfe95669655, type: 3}
  - {fileID: 21300000, guid: 659def3466454124eb4a915dc8014abf, type: 3}
  - {fileID: 21300000, guid: 3063a2440c979e141be139109d7216a4, type: 3}
  - {fileID: 21300000, guid: b2b8c4445b806aa4383069e51cad9dba, type: 3}
  - {fileID: 21300000, guid: b234464451e703f49b4146eac1793244, type: 3}
  - {fileID: 21300000, guid: 9f42384485fac5e46b9054164688cd06, type: 3}
  - {fileID: 21300000, guid: 02fc194462d0e5b44a29afa8aa69a954, type: 3}
  - {fileID: 21300000, guid: e70f7c44004fde84babd934b33663e6a, type: 3}
  - {fileID: 21300000, guid: bb3e335453acb804ea414a2229f8da0e, type: 3}
  - {fileID: 21300000, guid: 6c66a654c91596a4f8fa68fd29d2c322, type: 3}
  - {fileID: 21300000, guid: 95db7854269c4024a8ee7d4bff352fcf, type: 3}
  - {fileID: 21300000, guid: dd759a548dc17aa4799486d2be14c615, type: 3}
  - {fileID: 21300000, guid: d0176f54ca9740e409f33c0db5687b13, type: 3}
  - {fileID: 21300000, guid: d4314364bf35f3b4fb4b69720cfe930d, type: 3}
  - {fileID: 21300000, guid: 97dd956405d9af0429ab499628f2057f, type: 3}
  - {fileID: 21300000, guid: e4eeb964400265644b5e0086a72669a4, type: 3}
  - {fileID: 21300000, guid: dfc7ca643f4444c4b8831259db1bf4d3, type: 3}
  - {fileID: 21300000, guid: 3d63a8741471cd9498f2bc95f18add83, type: 3}
  - {fileID: 21300000, guid: 6cf26184abff573429dcb4619b8213fe, type: 3}
  - {fileID: 21300000, guid: 9e840384f70b0be45a59fe5bd71de6a6, type: 3}
  - {fileID: 21300000, guid: d967e984bef1827459f9162c896b171e, type: 3}
  - {fileID: 21300000, guid: 292d2a84a876b7e499b6def180a96742, type: 3}
  - {fileID: 21300000, guid: 65472e8443e8d8f42bcb09ee7684dd5e, type: 3}
  - {fileID: 21300000, guid: 1976df84eb102344ea40a0409e664d6c, type: 3}
  - {fileID: 21300000, guid: 85cc92941f8434f40b95a8a2da3f8f59, type: 3}
  - {fileID: 21300000, guid: 84270794fd90ea74baa5de7e86489a9c, type: 3}
  - {fileID: 21300000, guid: 0289cb94e6d215348a2dd12fc6910fd7, type: 3}
  - {fileID: 21300000, guid: f59f9f947510871418686276a05f2260, type: 3}
  - {fileID: 21300000, guid: 2210c5a4587438149b549d89016dc260, type: 3}
  - {fileID: 21300000, guid: 8974eea463dbe1f4585cdf89df932cd5, type: 3}
  - {fileID: 21300000, guid: 0167d1b467c0abf4180f169712f796d3, type: 3}
  - {fileID: 21300000, guid: 4be695b4683a44449915de6b191ef763, type: 3}
  - {fileID: 21300000, guid: 899096b4a2d383d48b71ea868d460ded, type: 3}
  - {fileID: 21300000, guid: 3a454ec46d11b5a49b3f90c0aa125fbf, type: 3}
  - {fileID: 21300000, guid: 6c99aec45e5b8a94d9edb523c266ab92, type: 3}
  - {fileID: 21300000, guid: 0c1202d4b89bd07428c74426a6483557, type: 3}
  - {fileID: 21300000, guid: 4adecdd4e14a6c648837cdda99268e2f, type: 3}
  - {fileID: 21300000, guid: 01cef2e433be82a4b80d83aceeacf099, type: 3}
  - {fileID: 21300000, guid: dc5ba4e4638850e47aa14bda75676226, type: 3}
  - {fileID: 21300000, guid: 909465e4438448e4b8eb14de53ad9d48, type: 3}
  - {fileID: 21300000, guid: e72b95e4869ab7145a466460b9eeb45b, type: 3}
  - {fileID: 21300000, guid: f84ae8e437500aa4d97f3d00af185769, type: 3}
  - {fileID: 21300000, guid: e6f219e423cf44a498006395971406b3, type: 3}
  - {fileID: 21300000, guid: 7a9e30f46f8f2cd44abeac268979bdc6, type: 3}
  - {fileID: 21300000, guid: 221484f4a49f13846aa2fc84286c4901, type: 3}
  - {fileID: 21300000, guid: 36d41df4ebd3d7b4f888281e2478f53a, type: 3}
  - {fileID: 21300000, guid: 81b04705431ee704a9dc8fb510bf7e71, type: 3}
  - {fileID: 21300000, guid: c4d7b705d9dee7e42ba0e30bbe173685, type: 3}
  - {fileID: 21300000, guid: 6f1b0b05a49ecef44bb1779ef9b98dcf, type: 3}
  - {fileID: 21300000, guid: 1ccc3c1581f79294fba13785bb216106, type: 3}
  - {fileID: 21300000, guid: 944001252ca45a54387e8b9ccce737df, type: 3}
  - {fileID: 21300000, guid: 14c8842595592994086aa795f370a269, type: 3}
  - {fileID: 21300000, guid: 039aba25e9341b64ea9d9522bad28e37, type: 3}
  - {fileID: 21300000, guid: 6c492b25d14d38a48bb0533e72a6c2c3, type: 3}
  - {fileID: 21300000, guid: dc5ad03574ca81a4982ad7ee6891b0c9, type: 3}
  - {fileID: 21300000, guid: 20f865358e8cc9340b30d0f976da2086, type: 3}
  - {fileID: 21300000, guid: 2bb669356e3a2724c9e74f91bd54e26b, type: 3}
  - {fileID: 21300000, guid: 320ae935d16b7e2429619d5f299d1987, type: 3}
  - {fileID: 21300000, guid: 58fead35363883d41a42bb68bedc3237, type: 3}
  - {fileID: 21300000, guid: 25c603450985a4d41b080d937e1dacbd, type: 3}
  - {fileID: 21300000, guid: 4d4a394521451c04b8f261aba432a67b, type: 3}
  - {fileID: 21300000, guid: 61e28d553784eb646ab1e7e5a88191d7, type: 3}
  - {fileID: 21300000, guid: a6f5876555cdda645968147b0ad3d4b1, type: 3}
  - {fileID: 21300000, guid: 7c9da675c933c1f41ad3e51f92fd9c6e, type: 3}
  - {fileID: 21300000, guid: 360df585581617043ad5506bd2f1882c, type: 3}
  - {fileID: 21300000, guid: befe87859074a0f479a461832f19a98a, type: 3}
  - {fileID: 21300000, guid: 8265c7856e82d5f439068a576f7a527d, type: 3}
  - {fileID: 21300000, guid: f28fde85dd3df5849806b4dbf4ee2643, type: 3}
  - {fileID: 21300000, guid: 02519095663be31459b104aabb4b7e46, type: 3}
  - {fileID: 21300000, guid: 72fc7195a20519d4094afafa174ef92c, type: 3}
  - {fileID: 21300000, guid: 6cd04695763f66e448625a3285590337, type: 3}
  - {fileID: 21300000, guid: d466869589027bd45ae4597797dd0d34, type: 3}
  - {fileID: 21300000, guid: 89ceb69597eed43459995277d365670f, type: 3}
  - {fileID: 21300000, guid: 2f1c1b956f3211b44b69b293a28d51f6, type: 3}
  - {fileID: 21300000, guid: b319db95f5fa72440851bd786d87aca9, type: 3}
  - {fileID: 21300000, guid: 99a43e952dcbf4d488a753f7addb0398, type: 3}
  - {fileID: 21300000, guid: 8a7700a55a1f9c24db8c188ce92e74a0, type: 3}
  - {fileID: 21300000, guid: f9602ba5746496841924c592e069a9d2, type: 3}
  - {fileID: 21300000, guid: 7e70e8b5c2924674db260c5f350276ba, type: 3}
  - {fileID: 21300000, guid: cba90db59a72c9e419f900f95906e779, type: 3}
  - {fileID: 21300000, guid: f606eeb50b70d464b88932ea158d3168, type: 3}
  - {fileID: 21300000, guid: 48c9d5c5011eea04f85a5426167de028, type: 3}
  - {fileID: 21300000, guid: 6bc488d591d6afc409683c09e9e2cc19, type: 3}
  - {fileID: 21300000, guid: d316cdd5d496d9944a9acfcf1682dce4, type: 3}
  - {fileID: 21300000, guid: a3feaae51c5129e40a2bec78674f28f6, type: 3}
  - {fileID: 21300000, guid: 9b61c0f517f56f54c9a5d4af63dec59f, type: 3}
  - {fileID: 21300000, guid: 76b847f5047cde7488045daecb3e306c, type: 3}
  - {fileID: 21300000, guid: f22fd7f5bc35c8f4e84f281c636b4fb5, type: 3}
  - {fileID: 21300000, guid: 62f30af54d2f0b34caeb324c924713bc, type: 3}
  - {fileID: 21300000, guid: 32141df5cbc758b4d8de9c3a6e632160, type: 3}
  - {fileID: 21300000, guid: aa050b06e14e0394b99140a009588711, type: 3}
  - {fileID: 21300000, guid: 1dd256160e185994a95c25cac0afda33, type: 3}
  - {fileID: 21300000, guid: 3dce1226b84c4be4ab96aec1f6bcb9dd, type: 3}
  - {fileID: 21300000, guid: e285722658b69e544bc2d785bdf09211, type: 3}
  - {fileID: 21300000, guid: 04255a26a88ecaa419a743f406c7670a, type: 3}
  - {fileID: 21300000, guid: 0d6c8c2612da81346972b51065bc8b78, type: 3}
  - {fileID: 21300000, guid: eba97e26e2de9644592b6d90d80a6908, type: 3}
  - {fileID: 21300000, guid: 0729c736e2be34348aa377cda39be792, type: 3}
  - {fileID: 21300000, guid: 41921836a36663549b50fcbadd5970dd, type: 3}
  - {fileID: 21300000, guid: db0d6d46e5812b64c8d5e36a7995ff0a, type: 3}
  - {fileID: 21300000, guid: 2b89b456c3113c14885b499519280b7b, type: 3}
  - {fileID: 21300000, guid: dd901756c475a924eb94927ed291a43f, type: 3}
  - {fileID: 21300000, guid: 5537fb56203f9c649b2007f6b20f9fcf, type: 3}
  - {fileID: 21300000, guid: cc3bed56b45215a4a9083f5a3796c954, type: 3}
  - {fileID: 21300000, guid: 9daa40669f3b4254584fbe00f5e0106b, type: 3}
  - {fileID: 21300000, guid: 036431663c44328499ce5e32efa30bbf, type: 3}
  - {fileID: 21300000, guid: b72671666a829674bb22077582674da4, type: 3}
  - {fileID: 21300000, guid: 3e9234667703f2348893cbbb1a85077d, type: 3}
  - {fileID: 21300000, guid: 6db87b66fb6954c4b85ef04c4263fe04, type: 3}
  - {fileID: 21300000, guid: 2f5ae276de825f04b9cfccd318d18316, type: 3}
  - {fileID: 21300000, guid: 2182d47692a5ce64f984453b6dfbf1aa, type: 3}
  - {fileID: 21300000, guid: 12293976196e50f4a82f2fddb3d9636f, type: 3}
  - {fileID: 21300000, guid: 097ec7a6d43e1f34aac2249c045a1333, type: 3}
  - {fileID: 21300000, guid: 4cc898a6b5976314b8f1b78bc2c7c161, type: 3}
  - {fileID: 21300000, guid: 0af6d8a658bc83c4bbcf4bd378c711c9, type: 3}
  - {fileID: 21300000, guid: 26124ba6d68a168428cea3d166590d43, type: 3}
  - {fileID: 21300000, guid: d792fba64cc742b4ab1572077fe3b36a, type: 3}
  - {fileID: 21300000, guid: f5086fa6089ecc24a9430c790e541de5, type: 3}
  - {fileID: 21300000, guid: 5a63afa662e909340823ccd01b017de8, type: 3}
  - {fileID: 21300000, guid: d15af3b641f32754c931202e8bb41d78, type: 3}
  - {fileID: 21300000, guid: 7bd51cb62000a2a42844dd9ff59b075c, type: 3}
  - {fileID: 21300000, guid: 7528dcb6b3373964bb0bd4098b33c7e6, type: 3}
  - {fileID: 21300000, guid: 154731d605d78e841bfffd038b454120, type: 3}
  - {fileID: 21300000, guid: df74a4d6428b3d64390611fc01ceff1d, type: 3}
  - {fileID: 21300000, guid: 971719e65fbfa064c8f5773ee9a17171, type: 3}
  - {fileID: 21300000, guid: 30f27de6cb67119428d42e78c886a9b5, type: 3}
  - {fileID: 21300000, guid: 3faa0ee6ee0c6804fb641ef41b3178a4, type: 3}
  - {fileID: 21300000, guid: 6448e6f675c44334cba87d1c922d1eea, type: 3}
  - {fileID: 21300000, guid: a2730207215b3344c9ffd527de45895e, type: 3}
  - {fileID: 21300000, guid: eb8573075187bfa48b04bb42ce9984ea, type: 3}
  - {fileID: 21300000, guid: c068b907c2e340941bdbea464e191148, type: 3}
  - {fileID: 21300000, guid: e656f907ce1ee20479da00b6153c46e6, type: 3}
  - {fileID: 21300000, guid: 7b956b07f8fc7c14aaadb808d2393889, type: 3}
  - {fileID: 21300000, guid: fd41b41703b7c9c41824fe04aaa80a7d, type: 3}
  - {fileID: 21300000, guid: cd055d17ccb2255498acabc377e9fa4c, type: 3}
  - {fileID: 21300000, guid: a52c4427a44e79140ad93e935002de50, type: 3}
  - {fileID: 21300000, guid: 1116e627630dce242b13fbb0aab26c6e, type: 3}
  - {fileID: 21300000, guid: b9f6ae274fd1d124e977dc1fec039b2a, type: 3}
  - {fileID: 21300000, guid: 9dec1f271fdfd784c900e3a227a57e20, type: 3}
  - {fileID: 21300000, guid: 2eb65637247f8ae4eabe7ac9895f00c9, type: 3}
  - {fileID: 21300000, guid: 41a08447d6ce06d4a9c9a43b6e09cc4a, type: 3}
  - {fileID: 21300000, guid: b5d2385734413594ca870e75bab23863, type: 3}
  - {fileID: 21300000, guid: 9ccfaa5787e39d74782f1623e3145323, type: 3}
  - {fileID: 21300000, guid: 2a4b9b67eb8003a45bce8b69cea369fb, type: 3}
  - {fileID: 21300000, guid: 9d738c6781c58a84f99c467d4afb5798, type: 3}
  - {fileID: 21300000, guid: afc48077b69db0146970cb244689cb79, type: 3}
  - {fileID: 21300000, guid: f9a4667765bb6b3439f3c7f9d1d5f014, type: 3}
  - {fileID: 21300000, guid: 2e735b77967d6934db570ee7f1b3c553, type: 3}
  - {fileID: 21300000, guid: 2b2551875d048254d9665b56949c727e, type: 3}
  - {fileID: 21300000, guid: 9b71b4871e03f4c4a8c3986a575061dd, type: 3}
  - {fileID: 21300000, guid: 3234b5877ed24dc4c9e18b533024add4, type: 3}
  - {fileID: 21300000, guid: fde35197e78a59641a52e60906ec4df0, type: 3}
  - {fileID: 21300000, guid: 7df1a2979eb15974a8c04930f2b33752, type: 3}
  - {fileID: 21300000, guid: e8a0c9a73e423b64088c96e96c3ccb8e, type: 3}
  - {fileID: 21300000, guid: 14c17ba7fd861614096214ee4424b58a, type: 3}
  - {fileID: 21300000, guid: a4aec5b7ead78ad4abc6b114316057ed, type: 3}
  - {fileID: 21300000, guid: 7aec70c7e5cdb214896355041d4db2bc, type: 3}
  - {fileID: 21300000, guid: 1b21fac777d613940aaba8bd867ecead, type: 3}
  - {fileID: 21300000, guid: ed1485d7602910840ae5be4b11eace00, type: 3}
  - {fileID: 21300000, guid: 23a52ad779329264ba0c71b8379572df, type: 3}
  - {fileID: 21300000, guid: 4cfc8ed78f7ebaf4782c6c3dd982c098, type: 3}
  - {fileID: 21300000, guid: 3368b0e7faa346f43b3e7a2843c285d2, type: 3}
  - {fileID: 21300000, guid: 1e41c7e71ce47304b9a8ae002479571c, type: 3}
  - {fileID: 21300000, guid: bc780be7a00e37244a537f35eaa22612, type: 3}
  - {fileID: 21300000, guid: f148c0f7fd4753446a4990ede833f34d, type: 3}
  - {fileID: 21300000, guid: 20a037f7d5bdfe24ebe383135c692238, type: 3}
  - {fileID: 21300000, guid: 2826a7f74242bd345a6e8d08b65c3701, type: 3}
  - {fileID: 21300000, guid: 9d5abef7c20363a49863fc999009c44b, type: 3}
  - {fileID: 21300000, guid: d49ecf08a567b0246934536fa2bb7f61, type: 3}
  - {fileID: 21300000, guid: 8f53f118c6394164d8126ccba54d0f77, type: 3}
  - {fileID: 21300000, guid: 70ad302864801914081cf0cfe9514ecf, type: 3}
  - {fileID: 21300000, guid: 849a5128b121151409a4d8edb5c346b1, type: 3}
  - {fileID: 21300000, guid: 1396942804ba75747957d599c60550e5, type: 3}
  - {fileID: 21300000, guid: f0ab282806ba08a419704be724ea7790, type: 3}
  - {fileID: 21300000, guid: cb88dd28c2b1ea34db1d2152332bc3f5, type: 3}
  - {fileID: 21300000, guid: bcdc8e28f3847164998bfb04647ef631, type: 3}
  - {fileID: 21300000, guid: 57d2c9386dd29bc428b3cf7590ae572c, type: 3}
  - {fileID: 21300000, guid: 06247b3840de2ea4184e41a7a8b04aa5, type: 3}
  - {fileID: 21300000, guid: 24176e383ea586f4a95c579b50b6c485, type: 3}
  - {fileID: 21300000, guid: 58c35148c0d58b346a6796a1ea5e5b4c, type: 3}
  - {fileID: 21300000, guid: ce1f1248d6977454aa7c5684d1a3aa38, type: 3}
  - {fileID: 21300000, guid: 01648248cb781674d9bcb6f0cb2cf12b, type: 3}
  - {fileID: 21300000, guid: ad420448d3795e5478f5edaab953dec6, type: 3}
  - {fileID: 21300000, guid: a7674448fb76e8e4fabb41efbbcbc234, type: 3}
  - {fileID: 21300000, guid: 467bc258c35e920448ebc48536c5797a, type: 3}
  - {fileID: 21300000, guid: e63dc258a3e7d1d41bb5c1533c7fc009, type: 3}
  - {fileID: 21300000, guid: 14501858c0fa3954a9ea09ca3c549dda, type: 3}
  - {fileID: 21300000, guid: a86d6a68bc170044eb7d7b8cd8d55ce7, type: 3}
  - {fileID: 21300000, guid: 84a025780a0640243ab1b3805c8c37aa, type: 3}
  - {fileID: 21300000, guid: 85f1967847d9cf54ab322c3af9c3efda, type: 3}
  - {fileID: 21300000, guid: 851d6878d3bf4b64eb6d31d9224c104c, type: 3}
  - {fileID: 21300000, guid: 3d9acb880e442f54285c3aa0c57eaa90, type: 3}
  - {fileID: 21300000, guid: c6393d98c99e89b45813a7f080044f74, type: 3}
  - {fileID: 21300000, guid: 114c96a8c145c3f4285f907b26b0d4aa, type: 3}
  - {fileID: 21300000, guid: bc0ec6a80b2397c4f82d0ebdca8a682f, type: 3}
  - {fileID: 21300000, guid: 610b5ca861ead8a47a947caf99a45403, type: 3}
  - {fileID: 21300000, guid: 50c18ca899fcb8041a58b3e8bc28514d, type: 3}
  - {fileID: 21300000, guid: 2744b4b8215ccd443a4810e17d0c778c, type: 3}
  - {fileID: 21300000, guid: 404165b837f18c44fb9e5e044a09a275, type: 3}
  - {fileID: 21300000, guid: 652c42c8a5b867c4db36e29ea9f95268, type: 3}
  - {fileID: 21300000, guid: cd6d53c8056909b41b15550fd833d02c, type: 3}
  - {fileID: 21300000, guid: ac3a76c858c549f4dbb7014d420948b2, type: 3}
  - {fileID: 21300000, guid: 97695ac829d4bc7468bbec16e33dd877, type: 3}
  - {fileID: 21300000, guid: 7b7c55d83c8a153428d8a8e463184f4f, type: 3}
  - {fileID: 21300000, guid: 5f3ffdd80f7c9074283476c4d1e80e99, type: 3}
  - {fileID: 21300000, guid: dac1a8e83384e9641a015b7235e1e097, type: 3}
  - {fileID: 21300000, guid: 674c8ee88df643d449346328c6917fe7, type: 3}
  - {fileID: 21300000, guid: eec1dee8529e1d74288a86c989d82a6c, type: 3}
  - {fileID: 21300000, guid: a5cfbfe86c0071e42a2f16c365c82aaf, type: 3}
  - {fileID: 21300000, guid: 9e859cf87b04e714e8165dced2588a51, type: 3}
  - {fileID: 21300000, guid: 21993b09220133a488515e7bc5d84ff8, type: 3}
  - {fileID: 21300000, guid: 6d3abd09614960a4baec43f6a5a59c05, type: 3}
  - {fileID: 21300000, guid: 2454d11984b8a444f859d4931215e296, type: 3}
  - {fileID: 21300000, guid: 1d1bbb292d01fc545831ebe9244f04d3, type: 3}
  - {fileID: 21300000, guid: 30f9be29d1660574086580c6d3f4c8d6, type: 3}
  - {fileID: 21300000, guid: b11740490ea8b084395d68bee532cab7, type: 3}
  - {fileID: 21300000, guid: 1e5a3149c7bafd64bafc61b47e79420e, type: 3}
  - {fileID: 21300000, guid: 01bfd749c31155143b884f7825bb2747, type: 3}
  - {fileID: 21300000, guid: a7b0f35957bd3244fb46da684c20e77e, type: 3}
  - {fileID: 21300000, guid: 6d410e59fd88d5f44aa761efaffa6a58, type: 3}
  - {fileID: 21300000, guid: afb2c369be1e3cf4c8f0fcc11086237c, type: 3}
  - {fileID: 21300000, guid: 51fc4b69f4fde3e439cf26cf3f47b49e, type: 3}
  - {fileID: 21300000, guid: faf70e691289a8d40bed4b154f0830f9, type: 3}
  - {fileID: 21300000, guid: 64464e69a31c3bb4184002bc0e5fdab6, type: 3}
  - {fileID: 21300000, guid: 4c76537948fb81b41bcb1ce96b596674, type: 3}
  - {fileID: 21300000, guid: 049ab37943ac29248aca567ebb22af66, type: 3}
  - {fileID: 21300000, guid: 672178790264b974f96b08db910cedcb, type: 3}
  - {fileID: 21300000, guid: 4b84e97911b09274d99daf1cbb3d89e9, type: 3}
  - {fileID: 21300000, guid: 46c95a798e5d5d54b93fc300f61b2b15, type: 3}
  - {fileID: 21300000, guid: c9539f799f53fe245b8e869bf499993a, type: 3}
  - {fileID: 21300000, guid: d566e38918abead42aaa790f8f285385, type: 3}
  - {fileID: 21300000, guid: 17277399a54037e4483b606a4ca827fb, type: 3}
  - {fileID: 21300000, guid: ecc52c9997e70f74099648d01c8a6035, type: 3}
  - {fileID: 21300000, guid: 9c9631a920713d24c845da9a99250a21, type: 3}
  - {fileID: 21300000, guid: 96c563a958abc9c438581e7b256ff03c, type: 3}
  - {fileID: 21300000, guid: 4116a5a9ea0aa64459b3042304deffe1, type: 3}
  - {fileID: 21300000, guid: 011ee6a9221f20a4e8ba9d20e9cdd7a1, type: 3}
  - {fileID: 21300000, guid: 966e37a91b2a5344bbd1418516caeebf, type: 3}
  - {fileID: 21300000, guid: 564afea9a4e465443b730db36156a0aa, type: 3}
  - {fileID: 21300000, guid: b7acb5b9d516a714198c3e397bcb756b, type: 3}
  - {fileID: 21300000, guid: 489537c9e018dc749a2c2d19f39fe3ad, type: 3}
  - {fileID: 21300000, guid: 49517fc94ce1e1e478f5cf05a8b595ca, type: 3}
  - {fileID: 21300000, guid: 9bf992d9764ea3a46a0e361bbffc4fad, type: 3}
  - {fileID: 21300000, guid: 4cfb59d9ccf23f74890a38e98eedd70b, type: 3}
  - {fileID: 21300000, guid: 76557cd9bd294d545bec6949a48eeefe, type: 3}
  - {fileID: 21300000, guid: 6f3df8f9e661e754d846e589d25e3034, type: 3}
  - {fileID: 21300000, guid: 3c6bd9f9d266bb0409b08c2a2efe9e00, type: 3}
  - {fileID: 21300000, guid: c6359af9ac4ead346b1280c3051c8be4, type: 3}
  - {fileID: 21300000, guid: 8e85ccf9facb2df49ab192801392096d, type: 3}
  - {fileID: 21300000, guid: 0f06adf96ccb1374eabfee38ee0df778, type: 3}
  - {fileID: 21300000, guid: 07c4510a85686124791baacee49cba29, type: 3}
  - {fileID: 21300000, guid: bf60050a98e04df4e802b082fdd9dabf, type: 3}
  - {fileID: 21300000, guid: 38e9e70ab89741745a967446943af0b1, type: 3}
  - {fileID: 21300000, guid: e0d9911a609a551448ff5422e024a485, type: 3}
  - {fileID: 21300000, guid: 9da0d91aceaf4484ca28a681863d77a4, type: 3}
  - {fileID: 21300000, guid: 64a38a1aeb12b174cafa8d16f1b1b287, type: 3}
  - {fileID: 21300000, guid: 980bef1af76d6cc47bd09fa8a18732d1, type: 3}
  - {fileID: 21300000, guid: 0112a02a80e565d42b98c960860fa70e, type: 3}
  - {fileID: 21300000, guid: f53f992a96100504e81c1dc48a164dfb, type: 3}
  - {fileID: 21300000, guid: 1223e13ac2f473d4aae55c412727f3ca, type: 3}
  - {fileID: 21300000, guid: 6049733afd66b3d4a8cd81098fda5717, type: 3}
  - {fileID: 21300000, guid: 9140163a36e81114ebf700be2ed3ffec, type: 3}
  - {fileID: 21300000, guid: 5f5f224aa09e82a4aa001c9ade6ad831, type: 3}
  - {fileID: 21300000, guid: 28da954acef767540846da96dd14b073, type: 3}
  - {fileID: 21300000, guid: 9635d54a505249343b09f135cdbeddc2, type: 3}
  - {fileID: 21300000, guid: 8e598e4a857ffc34782bffd1dacb5175, type: 3}
  - {fileID: 21300000, guid: 1149386ad0ace954cbd2a77b29f68bad, type: 3}
  - {fileID: 21300000, guid: f346328a813aaa84dbc5bdeb0bf3f494, type: 3}
  - {fileID: 21300000, guid: d667789a2d5036e419ce920cf94a5af1, type: 3}
  - {fileID: 21300000, guid: 63faca9a221f6024ba94f89b61dca0b2, type: 3}
  - {fileID: 21300000, guid: 38bc4f9a14d866d4c8e08d239d4d4f58, type: 3}
  - {fileID: 21300000, guid: 9f4188aa6a7c1ce46b1f65e7d3504b45, type: 3}
  - {fileID: 21300000, guid: 7d832eaae31a767498cae25e0de816db, type: 3}
  - {fileID: 21300000, guid: a086a8ba0756fe24382f717734563ad6, type: 3}
  - {fileID: 21300000, guid: 8e1e42cac8f2e4e4ead2fabc0dff8dfb, type: 3}
  - {fileID: 21300000, guid: d488d5cab1f713841ada181f96cf5ba4, type: 3}
  - {fileID: 21300000, guid: f0d268cad5e839a498970a80df288b3a, type: 3}
  - {fileID: 21300000, guid: 18bab8ca6abf2bf499d0271934ba8403, type: 3}
  - {fileID: 21300000, guid: 8fcbbcca2791ced4183294c4c33227f6, type: 3}
  - {fileID: 21300000, guid: c1a32cdaca3a7bb45b0f0dbe0a99c5f9, type: 3}
  - {fileID: 21300000, guid: 852c8ddabf03e6c4d9106a2113a157b2, type: 3}
  - {fileID: 21300000, guid: cba7c6ead223bc542863f85502e6ce73, type: 3}
  - {fileID: 21300000, guid: cb5f17ea32e47d5498039df457abe879, type: 3}
  - {fileID: 21300000, guid: 6d3d2aea2a7fea94e8173f8ac399fc50, type: 3}
  - {fileID: 21300000, guid: c978abeafe00a0249be0a39d861161d2, type: 3}
  - {fileID: 21300000, guid: f2426dea4f6fa694c8d9b647cd19f784, type: 3}
  - {fileID: 21300000, guid: 0da878fa2d8ae234d87793dc1f4a91f9, type: 3}
  - {fileID: 21300000, guid: c7dabefaadcbd8349a033523560e12ce, type: 3}
  - {fileID: 21300000, guid: ca61110b13dd79148b8e09821eb7d5bd, type: 3}
  - {fileID: 21300000, guid: 3baa110b9a8c34347819d93ad601bada, type: 3}
  - {fileID: 21300000, guid: 6957da0b59de7034ca07650d1d50c089, type: 3}
  - {fileID: 21300000, guid: e768351b414ee234283aeca4853c5ddc, type: 3}
  - {fileID: 21300000, guid: 33cd571b6eed89042afcfb3b834b1ddf, type: 3}
  - {fileID: 21300000, guid: 56e9fd1bbf2217447b2a681a8a0904c9, type: 3}
  - {fileID: 21300000, guid: 91f3112b1d44b51479489b9ec3d5ed23, type: 3}
  - {fileID: 21300000, guid: ba19ea2b00f51d04e920c6fb73dc1652, type: 3}
  - {fileID: 21300000, guid: 12e53c2b24b254a4aa05c6d60306092b, type: 3}
  - {fileID: 21300000, guid: 6ff3ae2be21540c418be4110d01e75f0, type: 3}
  - {fileID: 21300000, guid: 0776654b3028810458733f49e8606b36, type: 3}
  - {fileID: 21300000, guid: 17cab64bb22cadb4c88a7213abf6c02f, type: 3}
  - {fileID: 21300000, guid: a25d174ba6afba7468595b2d998ab7ba, type: 3}
  - {fileID: 21300000, guid: e693606b2044142449947a312d0ac7c9, type: 3}
  - {fileID: 21300000, guid: eb11d47b0927d7644adf7b1abcf9a9a8, type: 3}
  - {fileID: 21300000, guid: bf1e767bd8f3e8c41a575e820f8e9eea, type: 3}
  - {fileID: 21300000, guid: 3619867bcc0e96d4191bd024102713f6, type: 3}
  - {fileID: 21300000, guid: b9c1808b48be6dd41902e850bef03451, type: 3}
  - {fileID: 21300000, guid: 6afa928b6a820474995c4f1fe117e4c1, type: 3}
  - {fileID: 21300000, guid: 4ea6038baa72fdb4e9b26f102a66bac9, type: 3}
  - {fileID: 21300000, guid: f439868bec31fbe4cb639fcc9af45112, type: 3}
  - {fileID: 21300000, guid: d1b83d8babe579b428a98bc7052ffb33, type: 3}
  - {fileID: 21300000, guid: 2eb9159b764a1d240a022396f13dcdca, type: 3}
  - {fileID: 21300000, guid: c20ceaab20ddd994fa81deed0331154a, type: 3}
  - {fileID: 21300000, guid: 82b30dab202f60e4a9d55616ca57bf7a, type: 3}
  - {fileID: 21300000, guid: 655c41bb81da7d24b9e82133fc9b828e, type: 3}
  - {fileID: 21300000, guid: 9d21b8bb7e37547488c268d3d42617a3, type: 3}
  - {fileID: 21300000, guid: b3ac4abbed07312448c750929ca9e18a, type: 3}
  - {fileID: 21300000, guid: 64a71bbbae407984b955dc90be676924, type: 3}
  - {fileID: 21300000, guid: 301cebbbb2bd33842be8a85d3cfecc77, type: 3}
  - {fileID: 21300000, guid: 9a624ccba6cb33a46aca92fa43a9774a, type: 3}
  - {fileID: 21300000, guid: fd6c34dbcf7cd0047810118dc65f59c9, type: 3}
  - {fileID: 21300000, guid: c74aecdbe658ab94ba90cc4f0cb42661, type: 3}
  - {fileID: 21300000, guid: b971b3ebce342dd49b8c8903a4206a15, type: 3}
  - {fileID: 21300000, guid: 085ff4eb1ab9f1e4b9de2876cda82935, type: 3}
  - {fileID: 21300000, guid: a098f7eb20c933649bf907af132dbdd8, type: 3}
  - {fileID: 21300000, guid: 98eb0aeb6c8b51243a14fa517341fda8, type: 3}
  - {fileID: 21300000, guid: 18f2d4fb39605874b905d77c5e95cc0d, type: 3}
  - {fileID: 21300000, guid: f12c540c65268054b92aa9b5ab215e8d, type: 3}
  - {fileID: 21300000, guid: 290f4a0cdd3f9294cbf0b4f06a59c8e8, type: 3}
  - {fileID: 21300000, guid: fed3931c97714334cbb1554c1158951d, type: 3}
  - {fileID: 21300000, guid: 3bcf151c16b1e64419b35d65b4a5c972, type: 3}
  - {fileID: 21300000, guid: 0a956a1cbd87e8644a4d24bcb0abc275, type: 3}
  - {fileID: 21300000, guid: 2bbeca1c854d52c4a8f0a2b9a64d5d49, type: 3}
  - {fileID: 21300000, guid: 7ba2fd1c19c83554aae7e67703ab0b92, type: 3}
  - {fileID: 21300000, guid: a67f6e1c8721ae7448cfdf6dc92e54d7, type: 3}
  - {fileID: 21300000, guid: 9d9d722ca06903d42b904c31f94a554c, type: 3}
  - {fileID: 21300000, guid: 7ee0752cd08a53d4ba5fb89a2a285649, type: 3}
  - {fileID: 21300000, guid: 59a2bc2cace176f4a92c2840b3f21973, type: 3}
  - {fileID: 21300000, guid: 767f4d2c37a9ce645ac7e491c85ba6ee, type: 3}
  - {fileID: 21300000, guid: e44b903c80fd70c48b9d43edd703dba6, type: 3}
  - {fileID: 21300000, guid: 19fa114c3caa5ff459f648b92363bb93, type: 3}
  - {fileID: 21300000, guid: a474614c8e772e34abff9aa9650a30c0, type: 3}
  - {fileID: 21300000, guid: d95f134c64414f244a83d56ed945c23d, type: 3}
  - {fileID: 21300000, guid: 2e83444c3d959c74e9a4f1294782c87f, type: 3}
  - {fileID: 21300000, guid: 9c49754c051a6ef43bdc679ab940e6cc, type: 3}
  - {fileID: 21300000, guid: 3fe8015c51056a34098ab85e513a1afd, type: 3}
  - {fileID: 21300000, guid: ed19585cfe6574e46aca5b8c61e00ea3, type: 3}
  - {fileID: 21300000, guid: 47c3cc5c7cca65f41a717531742db87b, type: 3}
  - {fileID: 21300000, guid: ecae4f5ccd2798d46b425fd95615382f, type: 3}
  - {fileID: 21300000, guid: 6ad3fc6c7d4572f49a8f19d1318d3825, type: 3}
  - {fileID: 21300000, guid: cd001e6c6c53b8e4cba6048fe3da5aa7, type: 3}
  - {fileID: 21300000, guid: 9eddbf6c7dd63664a958623fcf71a54c, type: 3}
  - {fileID: 21300000, guid: dd9d608c7b9cd2344b06f694bca63b2c, type: 3}
  - {fileID: 21300000, guid: 3a2b868ce753ea645963b01b26294600, type: 3}
  - {fileID: 21300000, guid: c2011e8c76a37a24db186c075ccc3b9a, type: 3}
  - {fileID: 21300000, guid: 959b649ce5a4b0942a2bb7fe22a475c1, type: 3}
  - {fileID: 21300000, guid: 9c22379c07d99b54cb01221da6c0fe5d, type: 3}
  - {fileID: 21300000, guid: 5a7bebacd13a72b4eaaab5d3e813287f, type: 3}
  - {fileID: 21300000, guid: ce2eccbcb3959ae469bf9a2fc91d6304, type: 3}
  - {fileID: 21300000, guid: c49cd2cc5d08fc244b856afdfa999548, type: 3}
  - {fileID: 21300000, guid: bfd7f2cca3fdd9c4486ee119e88b8042, type: 3}
  - {fileID: 21300000, guid: 3f8bfbdc0b772f94c8e4fa32f93f636c, type: 3}
  - {fileID: 21300000, guid: de9f9ddc9f14c7a4bae939b5998e717f, type: 3}
  - {fileID: 21300000, guid: 0f6095ec38f8c6847aaad4645778add6, type: 3}
  - {fileID: 21300000, guid: 02ba58fcac128e34e8df9ffef811246c, type: 3}
  - {fileID: 21300000, guid: 71a73ffccea7441478054b2ef2154551, type: 3}
  - {fileID: 21300000, guid: 7457ea1d24677894d81307611088e9eb, type: 3}
  - {fileID: 21300000, guid: 7da5752d7a08aaf4ba1ba43e77717ee5, type: 3}
  - {fileID: 21300000, guid: 51b79b2d0144df447993b71a77a1fa5e, type: 3}
  - {fileID: 21300000, guid: 3d02a33d7180c844fb00364ca2532867, type: 3}
  - {fileID: 21300000, guid: 090a953d507615c47ba3dec1ad04fa26, type: 3}
  - {fileID: 21300000, guid: 4ff3274d2f9fad4459780a141204362d, type: 3}
  - {fileID: 21300000, guid: 8109d05da4df5374fb307aee5ac73787, type: 3}
  - {fileID: 21300000, guid: 5126155d6b620fb408c4fc51d8dbf9a2, type: 3}
  - {fileID: 21300000, guid: 92e5175d9d5d73b478d169c27acbd653, type: 3}
  - {fileID: 21300000, guid: 5bd99b5d4a4755e429727c280e6fa117, type: 3}
  - {fileID: 21300000, guid: ee7f0f5d733475f4d934b7c4965dba5d, type: 3}
  - {fileID: 21300000, guid: 754d316d99550944ca79deffe6d1c730, type: 3}
  - {fileID: 21300000, guid: 8b67826d6ae33bc41afc4a5b182fe171, type: 3}
  - {fileID: 21300000, guid: 7515056d574760b4ba843d2100dd94f6, type: 3}
  - {fileID: 21300000, guid: 3ce4f56daa409624cb08105d7bc4a45f, type: 3}
  - {fileID: 21300000, guid: bfd62b6dd42f7d844a7ab828a34aae7e, type: 3}
  - {fileID: 21300000, guid: 6756fb6dd12d47b49b3243c1c3832ad8, type: 3}
  - {fileID: 21300000, guid: a37ca67d5bc384e4ea72f3d8346abf43, type: 3}
  - {fileID: 21300000, guid: 3859877da026edb4eac0e0c6ccd41cd8, type: 3}
  - {fileID: 21300000, guid: 4b8e6a7d2aa5154409b9a978e267f754, type: 3}
  - {fileID: 21300000, guid: 52ebff7d0a689614ca3e0d6f440324e1, type: 3}
  - {fileID: 21300000, guid: d8b9109dc42a0764886c22c2a753bc7d, type: 3}
  - {fileID: 21300000, guid: 85c3d09df4b57d847a4694172a278160, type: 3}
  - {fileID: 21300000, guid: 61b60e9dc62a9864a94e10fc3b33e406, type: 3}
  - {fileID: 21300000, guid: ac3983adf26716241bc3f90fe29dab67, type: 3}
  - {fileID: 21300000, guid: 5e3ef3ad59f3cd44fbc92d64256d0d88, type: 3}
  - {fileID: 21300000, guid: f3c3c7ad9d2759f4b9cda2fb159a547c, type: 3}
  - {fileID: 21300000, guid: fa006cade357e4a4b99fe9c270696d1d, type: 3}
  - {fileID: 21300000, guid: fafe12bd539694843873bfe0f963131f, type: 3}
  - {fileID: 21300000, guid: 8a9f32cdfadb50d44b0c6b3ae3c65c90, type: 3}
  - {fileID: 21300000, guid: 35648bcda2258dc41a9f7f55b1a97da0, type: 3}
  - {fileID: 21300000, guid: e911dccd6f3ec7946b9e6ae45538ff5b, type: 3}
  - {fileID: 21300000, guid: 9499e7dd081b2114d86ad49314ba85cc, type: 3}
  - {fileID: 21300000, guid: 7c3ea2ed8103a2e4d94a8377bb5a1a17, type: 3}
  - {fileID: 21300000, guid: 3b9603ed2b78e524e915c681ae3abc70, type: 3}
  - {fileID: 21300000, guid: 6abbc6edef06c19468607eca9b55e886, type: 3}
  - {fileID: 21300000, guid: 41722bed572067a4a8f62a151ec5f019, type: 3}
  - {fileID: 21300000, guid: 8ae1feede0d857e44bdb439f78695e01, type: 3}
  - {fileID: 21300000, guid: e98330fd89c0eb14bad641d913ae5620, type: 3}
  - {fileID: 21300000, guid: 17c1aafd9d40fac49ae3661b4d858ecd, type: 3}
  - {fileID: 21300000, guid: caeb181ea82289b4fa314587b56c5cfe, type: 3}
  - {fileID: 21300000, guid: 21fb6e1ea5cfd7046af81f4e67ea6b25, type: 3}
  - {fileID: 21300000, guid: 21b7ac2e8d04fdb45bff7690cfb8e7ee, type: 3}
  - {fileID: 21300000, guid: 75a31d2e7f9fddb41be84d9cf965eb30, type: 3}
  - {fileID: 21300000, guid: d79b9f2ebcaf9be43bf905361f085511, type: 3}
  - {fileID: 21300000, guid: 53ab803e698fca2478c5a67566670fe8, type: 3}
  - {fileID: 21300000, guid: ce4d423ee1a46f34cad1e390b6034077, type: 3}
  - {fileID: 21300000, guid: 45fa923e654db68429364c45f5344bf5, type: 3}
  - {fileID: 21300000, guid: 0898b73ed62797849ab916d30f1b932d, type: 3}
  - {fileID: 21300000, guid: 4385464e312e90f4eaa55b084dfa3c4a, type: 3}
  - {fileID: 21300000, guid: c179025ec8ea5b742ae726bdf24b987d, type: 3}
  - {fileID: 21300000, guid: fef8725ef4cf74249af032c84eb18d16, type: 3}
  - {fileID: 21300000, guid: 947c295ed6254ac48b558bf5dba3e4e5, type: 3}
  - {fileID: 21300000, guid: f37cbf6e5463c194f9ab5d5b58e2e4db, type: 3}
  - {fileID: 21300000, guid: 4116287e03564c34eb3206f1ba1c5e58, type: 3}
  - {fileID: 21300000, guid: 723ba78e2cf741f49be0b3f6e638a338, type: 3}
  - {fileID: 21300000, guid: fd64209e82daf8e4eac1ae40a2372a10, type: 3}
  - {fileID: 21300000, guid: 3f81d49ee01f6964c873304890204df3, type: 3}
  - {fileID: 21300000, guid: 3994a59e2678ab94882d6846b2561057, type: 3}
  - {fileID: 21300000, guid: 8354469e15ad3fe4fbe6a076bcc39bf6, type: 3}
  - {fileID: 21300000, guid: 9504dfaec9a302c43ad12bc1ea59cefa, type: 3}
  - {fileID: 21300000, guid: 0e3b61ce6b5d5014aaffa66463a7a5f9, type: 3}
  - {fileID: 21300000, guid: a820b1ce4ca583249af5520b7e9a29f6, type: 3}
  - {fileID: 21300000, guid: 839df4ce3bad61e4192716d3c88d5ec0, type: 3}
  - {fileID: 21300000, guid: b4dd75ce0790e1c46b751f951a49d586, type: 3}
  - {fileID: 21300000, guid: bbd195ce9e60f544086bfe6a06b89719, type: 3}
  - {fileID: 21300000, guid: a575fdce6af4bce40a2a74326bca5345, type: 3}
  - {fileID: 21300000, guid: eb93eece9993c064896741f3b06c2fd6, type: 3}
  - {fileID: 21300000, guid: 9fa9f4ee75b888741b29f57f48605f8e, type: 3}
  - {fileID: 21300000, guid: 0f06e7fe7d957ca44bfbd0c7c8aa7c3c, type: 3}
  - {fileID: 21300000, guid: c5423ffe0e7bda047810795de0778a70, type: 3}
  - {fileID: 21300000, guid: a7eeaffed954ecf41be0b2646c96e93f, type: 3}
  - {fileID: 21300000, guid: 035d480f04c210541be66aab3184b9ad, type: 3}
  - {fileID: 21300000, guid: e168711f976474b49a4b948430294f0a, type: 3}
  - {fileID: 21300000, guid: dc07121f829b45540a330878600bf9de, type: 3}
  - {fileID: 21300000, guid: a3cfa82f221ba0b499808c70bc7b2e83, type: 3}
  - {fileID: 21300000, guid: 63d9392f1bdc93a4c8ef39b30f0f7938, type: 3}
  - {fileID: 21300000, guid: db770b2f804cac145a4404a2d6981b8a, type: 3}
  - {fileID: 21300000, guid: 9eea603fddbc6ec4aab94494b19d2223, type: 3}
  - {fileID: 21300000, guid: 61c4c53fd4bd33046abf403ae4159bde, type: 3}
  - {fileID: 21300000, guid: f7d7693f9233bae4e93fa479ead7af05, type: 3}
  - {fileID: 21300000, guid: 302d725f881dd5d458ea60f9d20de775, type: 3}
  - {fileID: 21300000, guid: cd9b8d5fba873994193907f94c5fb989, type: 3}
  - {fileID: 21300000, guid: 666a216f8c404144184e2f6177c7300d, type: 3}
  - {fileID: 21300000, guid: e20d126fc936de147b75f4a0222783ab, type: 3}
  - {fileID: 21300000, guid: a328576f880d49a4eb68f46910df5083, type: 3}
  - {fileID: 21300000, guid: a2802f6f3c5db5642b2b7a6de1a135bc, type: 3}
  - {fileID: 21300000, guid: 61a2a48f82844ff468929668da248dee, type: 3}
  - {fileID: 21300000, guid: a4aca48faac54774d8f32ca53f9557fd, type: 3}
  - {fileID: 21300000, guid: ef91d78fd2dd62c4f8a71faa339d1b65, type: 3}
  - {fileID: 21300000, guid: 33912b8f6e7aae847ac6d20d2e5b16e1, type: 3}
  - {fileID: 21300000, guid: ccc51c8f7a2164e4a8dffaae725f2620, type: 3}
  - {fileID: 21300000, guid: 9e9d9e8f69c96c043807145a23f7b5c5, type: 3}
  - {fileID: 21300000, guid: 9062519f43789a947814e5d12b5a39cb, type: 3}
  - {fileID: 21300000, guid: 4b8f259f61dd6374d99e6d99e109531d, type: 3}
  - {fileID: 21300000, guid: 6200ec9f00134e54baf18461b6529be9, type: 3}
  - {fileID: 21300000, guid: 000126af39228694184bce0458b467ab, type: 3}
  - {fileID: 21300000, guid: dbcd46afb7461c54fa069ba1da5549a7, type: 3}
  - {fileID: 21300000, guid: 15d58aafc9996344b94b83237c534fa2, type: 3}
  - {fileID: 21300000, guid: 9ee22faf651ccf64f96cc724ea80e4bb, type: 3}
  - {fileID: 21300000, guid: abe5c3bf3f2853745b55cf465aef3c99, type: 3}
  - {fileID: 21300000, guid: 4691d5bfe415feb4b9a0f95adfad639a, type: 3}
  - {fileID: 21300000, guid: 2e1516bf9c78d374397136c3cebcefaa, type: 3}
  - {fileID: 21300000, guid: 9bb267cffa5e00248911119405ac88ff, type: 3}
  - {fileID: 21300000, guid: a72208cf6ba70ba438bf148a06c2cbd5, type: 3}
  - {fileID: 21300000, guid: e3952ccfbb389ae48b8561123a80f90f, type: 3}
  - {fileID: 21300000, guid: 2b90c0df81ec0934ba6aa47469a23b8d, type: 3}
  - {fileID: 21300000, guid: 387a46dfa9d8403409d76cfa149eab15, type: 3}
  - {fileID: 21300000, guid: 0bce60ef45461d14b9cec6f6412560ed, type: 3}
  - {fileID: 21300000, guid: c6f1b1ef607cd274ab8edb44247e2d91, type: 3}
  - {fileID: 21300000, guid: 50df52ef6593a0b4c8bf6df2662ce85a, type: 3}
  - {fileID: 21300000, guid: 5675a7ef4c3b41149a40639781505b4f, type: 3}
  m_PackedSpriteNamesToIndex:
  - death_puff_04
  - kiwi_08
  - bulb_glow_09
  - flag_idle_09
  - strawberry_collect_04
  - kiwi_collect_05
  - melon_07
  - strawberry_collect_02
  - death_puff_10
  - banana_06
  - cannon_top_2
  - bulb_glow_10
  - yellow_45_14
  - cherry_collect_08
  - pear_02
  - coins_collect.010
  - lemon_04
  - orange_collect_06
  - red_45_02
  - conveyor_straight_05
  - apple_collect_00
  - spring_03
  - bulb_glow_03
  - giant_apple-1
  - coins_spin.010
  - coins_spin.003
  - drop_dust_04
  - death_puff_06
  - banana_12
  - cannon_plunger
  - coins_spin.002
  - cannon_top_1
  - conveyor_straight_03
  - melon_collect_06
  - pineapple_12
  - block_break_effect.002
  - melon_04
  - cherry_05
  - red_45_06
  - block_break_effect.001
  - conveyor_straight_05
  - e_test_05
  - e_test_03
  - inside_corner_07
  - e_test_03
  - giant_kiwi-2
  - cherry_collect_00
  - inside_corner_05
  - banana_02
  - orange_07
  - conveyor_straight_05
  - spring_04
  - apple_collect_03
  - banana_07
  - bird_fly_3
  - kiwi_05
  - inside_corner_04
  - yellowspring_16
  - spring_09
  - drop_dust_12
  - conveyor_straight_03
  - nozzle 2
  - sweat_04
  - cherry_02
  - bulb_glow_01
  - inside_corner_06
  - break block big left
  - strawberry_13
  - inside_corner_02
  - orange_09
  - yellowspring_08
  - flag_idle_02
  - conveyor_straight_04
  - apple_collect_08
  - cherry_collect_05
  - e_test_07
  - apple_collect_01
  - bulb_glow_07
  - yellow_45_06
  - cherry_collect_04
  - banana_collect_04
  - kiwi_11
  - Apple_07
  - coins_spin.007
  - coins_collect.007
  - giant_strawberry-2
  - break block landscape
  - kiwi_collect_01
  - lemon_collect_02
  - generic_dust_particle_02
  - sweat_05
  - giant_apple-2
  - red_45_08
  - cherry_collect_07
  - red_45_11
  - pear_collect_02
  - flag_idle_05
  - coins_collect.003
  - inside_corner_01
  - spike_vert_2
  - lemon_10
  - melon_collect_05
  - yellow_45_08
  - strawberry_collect_07
  - pineapple_07
  - coins_spin.009
  - Apple_02
  - block_break_effect.003
  - trophy_sparkle_07
  - orange_10
  - red_45_09
  - pear_10
  - inside_corner_01
  - spike_left_1
  - bird_fly_4
  - strawberry_01
  - cannon_top_3
  - giant_kiwi-4
  - kiwi_collect_08
  - yellowspring_12
  - e_test_04
  - e_test_01
  - banana_collect_03
  - spring_01
  - pineapple_13
  - flag_idle_04
  - drop_dust_01
  - lemon_03
  - coins_spin.001
  - bird_fly_6
  - bird_fly_0
  - nozzle 2 top
  - e_test_02
  - coins_spin.005
  - cherry_06
  - melon_collect_09
  - coins_collect.004
  - banana_collect_07
  - banana_11
  - yellowspring_02
  - generic_dust_particle_08
  - coins_spin.006
  - conveyor_straight_03
  - nozzle 4 top
  - pear_08
  - coins_collect.009
  - yellowspring_13
  - melon_collect_00
  - strawberry_06
  - pineapple_00
  - spike_horz_2
  - giant_strawberry-4
  - coins_spin.001
  - conveyor_straight_07
  - coins_collect.008
  - drop_dust_09
  - kiwi_02
  - banana_00
  - conveyor_straight_07
  - flag_idle_03
  - red_45_10
  - Apple_01
  - coins_spin.004
  - pineapple_04
  - conveyor_straight_02
  - lemon_collect_10
  - orange_04
  - e_test_05
  - conveyor_straight_02
  - trophy_sparkle_02
  - Apple_00
  - bird_death2
  - coins_collect.003
  - e_test_05
  - coins_collect.008
  - pear_03
  - pear_collect_04
  - Apple_09
  - yellowspring_10
  - kiwi_10
  - lemon_collect_05
  - generic_dust_particle_04
  - death_puff_01
  - pear_06
  - drop_dust_07
  - conveyor_straight_04
  - banana_collect_05
  - cherry_collect_02
  - banana_09
  - conveyor_straight_05
  - coins_spin.011
  - Apple_10
  - bulb_glow_04
  - spring_08
  - apple_collect_07
  - cherry_13
  - melon_01
  - orange_collect_10
  - strawberry_12
  - banana_08
  - conveyor_left_mid
  - bulb_glow_08
  - generic_dust_particle_03
  - spike_top_2
  - Apple_13
  - inside_corner_07
  - melon_02
  - giant_strawberry-5
  - coins_collect.005
  - nozzle 0 top
  - strawberry_07
  - spike_left_2
  - e_test_06
  - yellow_45_05
  - inside_corner_04
  - orange_collect_00
  - red_45_14
  - spring_07
  - strawberry_collect_08
  - inside_corner_03
  - orange_collect_09
  - banana_05
  - e_test_05
  - spike_right_2
  - inside_corner_02
  - pineapple_03
  - spring_05
  - Apple_12
  - pear_collect_06
  - strawberry_00
  - Apple_03
  - drop_dust_06
  - conveyor_straight_07
  - drop_dust_08
  - kiwi_06
  - coins_collect.005
  - yellowspring_15
  - inside_corner_07
  - lemon_collect_09
  - conveyor_straight_04
  - coins_spin.009
  - lemon_11
  - inside_corner_02
  - dot
  - giant_cherry-1
  - trophy_sparkle_03
  - pear_01
  - yellow_45_03
  - e_test_06
  - kiwi_07
  - melon_12
  - apple_collect_05
  - strawberry_collect_09
  - lemon_collect_07
  - inside_corner_06
  - lemon_12
  - death_puff_11
  - lemon_collect_04
  - orange_12
  - conveyor_right_mid
  - kiwi_collect_07
  - pear_collect_07
  - pear_09
  - bird_fly_7
  - block_break_effect.006
  - melon_collect_04
  - kiwi_collect_10
  - spike_horz_3
  - conveyor_straight_01
  - pear_05
  - trophy_sparkle_06
  - sweat_01
  - Apple_06
  - break block small
  - spike_horz_1
  - pineapple_02
  - pear_collect_09
  - giant_cherry-4
  - e_test_02
  - inside_corner_05
  - banana_collect_06
  - melon_collect_07
  - yellow_45_04
  - cannon_base_layer
  - pineapple_03
  - bulb_glow_02
  - drop_dust_10
  - banana_01
  - pear_12
  - Apple_11
  - break block small right
  - death_puff_02
  - inside_corner_02
  - pineapple_09
  - pineapple_08
  - pineapple_06
  - giant_apple-5
  - cherry_12
  - orange_05
  - bird_fly_2
  - spring_17
  - death_puff_12
  - spike_bottom_2
  - banana_03
  - e_test_06
  - coins_collect.004
  - e_test_02
  - nozzle 5
  - cherry_04
  - inside_corner_01
  - yellowspring_11
  - red_45_16
  - flag_idle_01
  - spring_16
  - trophy_sparkle_05
  - orange_02
  - generic_dust_particle_05
  - inside_corner_03
  - flag_idle_07
  - nozzle 1 top
  - yellow_45_15
  - yellowspring_01
  - orange_13
  - cherry_collect_03
  - coins_collect.001
  - yellow_45_13
  - yellowspring_17
  - kiwi_01
  - banana_collect_01
  - coins_spin.005
  - yellow_45_17
  - banana_collect_08
  - nozzle 3
  - melon_00
  - cherry_collect_01
  - coins_collect.009
  - strawberry_collect_01
  - nozzle 3 top
  - giant_cherry-3
  - e_test_07
  - flag_idle_06
  - e_test_03
  - bird_fly_1
  - e_test_01
  - inside_corner_05
  - button_down
  - orange_collect_02
  - apple_collect_06
  - kiwi_12
  - melon_13
  - giant_apple-6
  - inside_corner_03
  - conveyor_straight_06
  - coins_collect.007
  - giant_cherry-5
  - strawberry_collect_03
  - strawberry_08
  - conveyor_straight_07
  - giant_cherry-0
  - lemon_collect_01
  - spring_11
  - spike_top_1
  - drop_dust_05
  - e_test_01
  - giant_kiwi-0
  - e_test_06
  - orange_03
  - trophy_sparkle_04
  - generic_dust_particle_09
  - sweat_06
  - kiwi_collect_03
  - block_break_effect.005
  - pear_collect_01
  - checkpoint-smack_4
  - orange_11
  - red_45_12
  - orange_collect_04
  - Apple_08
  - kiwi_collect_06
  - Apple_04
  - pear_collect_10
  - block_inactive_thin
  - melon_05
  - coins_spin.004
  - Apple_05
  - coins_spin.006
  - break block portrait_piece_01
  - coins_collect.002
  - inside_corner_04
  - coins_collect.006
  - banana_collect_02
  - yellowspring_03
  - lemon_collect_03
  - block_break_effect.007
  - kiwi_04
  - pear_collect_03
  - cherry_collect_09
  - flag_idle_12
  - spike_junct_1
  - death_puff_07
  - checkpoint-smack_6
  - coins_spin.007
  - giant_kiwi-1
  - melon_collect_02
  - pear_11
  - cherry_11
  - yellowspring_07
  - coins_spin.002
  - orange_collect_01
  - red_45_15
  - pear_collect_00
  - cherry_collect_06
  - cherry_collect_10
  - kiwi_03
  - lemon_collect_00
  - giant_kiwi-6
  - flag_idle_13
  - red_45_13
  - yellowspring_09
  - yellowspring_14
  - lemon_05
  - spike_right_1
  - strawberry_03
  - pineapple_10
  - death_puff_03
  - yellow_45_02
  - pineapple_05
  - checkpoint-smack_5
  - inside_corner_04
  - red_45_01
  - drop_dust_11
  - spring_14
  - kiwi_collect_00
  - melon_10
  - inside_corner_07
  - break block big right
  - conveyor_straight_03
  - yellow_45_01
  - banana_10
  - drop_dust_03
  - strawberry_collect_06
  - e_test_03
  - nozzle 5 top
  - melon_collect_08
  - conveyor_straight_04
  - trophy_sparkle_01
  - kiwi_09
  - spike_vert_3
  - melon_11
  - pineapple_07
  - strawberry_05
  - inside_corner_05
  - cherry_10
  - yellowspring_04
  - conveyor_straight_01
  - giant_cherry-6
  - bird_fly_5
  - coins_collect.002
  - cherry_07
  - block_inactive
  - apple_collect_10
  - inside_corner_01
  - cherry_03
  - e_test_07
  - spring_10
  - melon_collect_10
  - orange_01
  - coins_collect.010
  - melon_06
  - banana_collect_09
  - banana_collect_10
  - banana_collect_00
  - cherry_08
  - bulb_glow_05
  - coins_collect.001
  - conveyor_straight_06
  - coins_spin.010
  - strawberry_collect_00
  - orange_00
  - strawberry_09
  - generic_dust_particle_07
  - lemon_00
  - yellow_45_12
  - generic_dust_particle_12
  - giant_kiwi-5
  - lemon_01
  - drop_dust_02
  - orange_collect_07
  - flag_idle_14
  - sweat_03
  - death_puff_09
  - strawberry_11
  - pear_13
  - cherry_09
  - orange_06
  - strawberry_04
  - coins_collect.006
  - lemon_07
  - spring_13
  - pear_collect_08
  - melon_03
  - e_test_04
  - orange_collect_08
  - nozzle 0
  - flag_idle_11
  - flag_idle_10
  - orange_collect_03
  - coins_spin.011
  - conveyor_straight_01
  - lemon_collect_06
  - checkpoint-smack_2
  - yellow_45_11
  - break block small left
  - pineapple_10
  - melon_08
  - pear_00
  - spring_02
  - giant_strawberry-3
  - nozzle 1
  - conveyor_straight_06
  - e_test_04
  - yellow_45_09
  - giant_apple-0
  - pineapple_08
  - pineapple_02
  - block_break_effect.004
  - sweat_02
  - orange_08
  - break block portrait_piece_02
  - generic_dust_particle_01
  - kiwi_collect_04
  - pineapple_04
  - pineapple_00
  - red_45_04
  - yellow_45_10
  - inside_corner_03
  - cherry_00
  - giant_apple-4
  - giant_strawberry-1
  - inside_corner_06
  - spike_bottom_1
  - melon_09
  - yellowspring_05
  - giant_apple-3
  - cannon_socket
  - checkpoint-smack_3
  - lemon_06
  - kiwi_13
  - conveyor_straight_02
  - break block big
  - lemon_13
  - coins_spin.003
  - strawberry_02
  - giant_kiwi-3
  - pineapple_09
  - pear_04
  - death_puff_08
  - spring_15
  - bulb_glow_06
  - coins_spin.008
  - generic_dust_particle_10
  - lemon_09
  - apple_collect_02
  - break block landscape_piece_01
  - yellowspring_06
  - strawberry_10
  - giant_strawberry-0
  - conveyor_straight_02
  - apple_collect_09
  - e_test_07
  - orange_collect_05
  - red_45_05
  - kiwi_collect_09
  - strawberry_collect_05
  - lemon_collect_08
  - spring_06
  - e_test_02
  - inside_corner_06
  - pear_07
  - break block portrait
  - button_up
  - red_45_07
  - spike_vert_1
  - pineapple_11
  - giant_strawberry-6
  - melon_collect_01
  - conveyor_straight_06
  - spring_12
  - yellow_45_16
  - pear_collect_05
  - pineapple_05
  - cherry_01
  - flag_idle_08
  - lemon_08
  - apple_collect_04
  - coins_spin.008
  - kiwi_collect_02
  - generic_dust_particle_06
  - nozzle 4
  - red_45_17
  - break block landscape_piece_02
  - strawberry_collect_10
  - kiwi_00
  - banana_04
  - pineapple_01
  - e_test_04
  - e_test_01
  - lemon_02
  - banana_13
  - red_45_03
  - death_puff_05
  - giant_cherry-2
  - pineapple_01
  - yellow_45_07
  - spring_18
  - melon_collect_03
  - generic_dust_particle_11
  - pineapple_06
  - conveyor_straight_01
  m_RenderDataMap: {}
  m_Tag: Minigame - Shared
  m_IsVariant: 0
