%YAML 1.1
%TAG !u! tag:unity3d.com,2011:
--- !u!687078895 &4343727234628468602
SpriteAtlas:
  m_ObjectHideFlags: 0
  m_CorrespondingSourceObject: {fileID: 0}
  m_PrefabInstance: {fileID: 0}
  m_PrefabAsset: {fileID: 0}
  m_Name: Minigame - Tutorial - Pinball
  m_EditorData:
    serializedVersion: 2
    textureSettings:
      serializedVersion: 2
      anisoLevel: 1
      compressionQuality: 50
      maxTextureSize: 2048
      textureCompression: 0
      filterMode: 1
      generateMipMaps: 0
      readable: 0
      crunchedCompression: 0
      sRGB: 1
    platformSettings: []
    packingSettings:
      serializedVersion: 2
      padding: 4
      blockOffset: 1
      allowAlphaSplitting: 0
      enableRotation: 0
      enableTightPacking: 0
      enableAlphaDilation: 0
    secondaryTextureSettings: {}
    variantMultiplier: 1
    packables:
    - {fileID: 102900000, guid: cee61aeba5e6c1a49aee878b983acf51, type: 3}
    bindAsDefault: 1
    isAtlasV2: 0
    cachedData: {fileID: 0}
    packedSpriteRenderDataKeys:
    - 0cae3a40719b67d45ac61074dca5b49b: 21300000
    - 585320d00bd1ee14199e43d91923a10d: 21300000
    - b5661162b68822b42bf68b74fada1868: 21300000
    - dcb8a09279ed9564799ee2b917175130: 21300000
    - b87daca3ec735d342b4c881f982cf7ed: 21300000
    - 0b9a7d04819464248a768889fa07546e: 21300000
    - 3ca76184abb8e9b40bc306c670eb0909: 21300000
    - 10df1965d3ef89e41b152f215e86b826: 21300000
    - 909fbfa56e50ff84fabddb80baa7741d: 21300000
    - 4efe5ef6853bda249b469d991552b565: 21300000
    - eeaef757ab0a1084baba785e45a9c77c: 21300000
    - f0b5bbb7a1c5c9947bfa7beff0cdc133: 21300000
    - 576ee729adca2cc43bb263e35c018b2e: 21300000
    - 5fd4244a6e6870545811db089cb35819: 21300000
    - 0e9f0c5a26d2f5949b047a48ad1672b2: 21300000
    - 7d07fd1bbf936cf4d8e8144bf79a526e: 21300000
    - d7bbf37b5578d1d4c914c82306801d1a: 21300000
    - f45872abedaf583408781932fa3507e7: 21300000
    - 9c08627cdfc81d148b6d4c1a2bbda10f: 21300000
    - 2e3eb68c6bef0be46a2335908a6fcc4b: 21300000
    - 45e3d92d8f630d14c995865005cf7ff1: 21300000
    - 1d82262ef1ed1a144bd5acc29a269c24: 21300000
    - c1e3aa8f7da098841acadc995366634e: 21300000
    - 7d9e17cfa2dcad448b60a55bf9edf9fb: 21300000
  m_MasterAtlas: {fileID: 0}
  m_PackedSprites:
  - {fileID: 21300000, guid: 0cae3a40719b67d45ac61074dca5b49b, type: 3}
  - {fileID: 21300000, guid: 585320d00bd1ee14199e43d91923a10d, type: 3}
  - {fileID: 21300000, guid: b5661162b68822b42bf68b74fada1868, type: 3}
  - {fileID: 21300000, guid: dcb8a09279ed9564799ee2b917175130, type: 3}
  - {fileID: 21300000, guid: b87daca3ec735d342b4c881f982cf7ed, type: 3}
  - {fileID: 21300000, guid: 0b9a7d04819464248a768889fa07546e, type: 3}
  - {fileID: 21300000, guid: 3ca76184abb8e9b40bc306c670eb0909, type: 3}
  - {fileID: 21300000, guid: 10df1965d3ef89e41b152f215e86b826, type: 3}
  - {fileID: 21300000, guid: 909fbfa56e50ff84fabddb80baa7741d, type: 3}
  - {fileID: 21300000, guid: 4efe5ef6853bda249b469d991552b565, type: 3}
  - {fileID: 21300000, guid: eeaef757ab0a1084baba785e45a9c77c, type: 3}
  - {fileID: 21300000, guid: f0b5bbb7a1c5c9947bfa7beff0cdc133, type: 3}
  - {fileID: 21300000, guid: 576ee729adca2cc43bb263e35c018b2e, type: 3}
  - {fileID: 21300000, guid: 5fd4244a6e6870545811db089cb35819, type: 3}
  - {fileID: 21300000, guid: 0e9f0c5a26d2f5949b047a48ad1672b2, type: 3}
  - {fileID: 21300000, guid: 7d07fd1bbf936cf4d8e8144bf79a526e, type: 3}
  - {fileID: 21300000, guid: d7bbf37b5578d1d4c914c82306801d1a, type: 3}
  - {fileID: 21300000, guid: f45872abedaf583408781932fa3507e7, type: 3}
  - {fileID: 21300000, guid: 9c08627cdfc81d148b6d4c1a2bbda10f, type: 3}
  - {fileID: 21300000, guid: 2e3eb68c6bef0be46a2335908a6fcc4b, type: 3}
  - {fileID: 21300000, guid: 45e3d92d8f630d14c995865005cf7ff1, type: 3}
  - {fileID: 21300000, guid: 1d82262ef1ed1a144bd5acc29a269c24, type: 3}
  - {fileID: 21300000, guid: c1e3aa8f7da098841acadc995366634e, type: 3}
  - {fileID: 21300000, guid: 7d9e17cfa2dcad448b60a55bf9edf9fb, type: 3}
  m_PackedSpriteNamesToIndex:
  - Flippers.007
  - Flippers.003
  - CanonFire.002
  - CanonFire.012
  - CanonFire.004
  - CanonFire.005
  - Flippers.001
  - Flippers.006
  - CanonFire.007
  - CanonFire.006
  - CanonFire.010
  - CanonFire.013
  - CanonFire.009
  - CanonFire.011
  - CanonFire.014
  - CanonFire.001
  - Flippers.005
  - Flippers.004
  - Flippers.008
  - CanonFire.008
  - CanonFire.003
  - CanonFire.015
  - Flippers.002
  - Flippers.009
  m_RenderDataMap: {}
  m_Tag: Minigame - Tutorial - Pinball
  m_IsVariant: 0
