%YAML 1.1
%TAG !u! tag:unity3d.com,2011:
--- !u!687078895 &4343727234628468602
SpriteAtlas:
  m_ObjectHideFlags: 0
  m_CorrespondingSourceObject: {fileID: 0}
  m_PrefabInstance: {fileID: 0}
  m_PrefabAsset: {fileID: 0}
  m_Name: Particles
  m_EditorData:
    serializedVersion: 2
    textureSettings:
      serializedVersion: 2
      anisoLevel: 1
      compressionQuality: 50
      maxTextureSize: 2048
      textureCompression: 0
      filterMode: 1
      generateMipMaps: 0
      readable: 0
      crunchedCompression: 0
      sRGB: 1
    platformSettings: []
    packingSettings:
      serializedVersion: 2
      padding: 4
      blockOffset: 1
      allowAlphaSplitting: 0
      enableRotation: 1
      enableTightPacking: 1
      enableAlphaDilation: 0
    secondaryTextureSettings: {}
    variantMultiplier: 1
    packables:
    - {fileID: 102900000, guid: cc53a36a4dbcf4b01b1e86594926a904, type: 3}
    bindAsDefault: 1
    isAtlasV2: 0
    cachedData: {fileID: 0}
    packedSpriteRenderDataKeys:
    - e252bf10941ce5b4787e692d80c2206c: 21300000
    - 5c9e9820722524acca5ad2603ad4463c: 21300000
    - ebd19240d2a46f246b93ac95b7195492: 21300000
    - c511158019123634db75d13545fa5415: 21300000
    - 3fea4580e5b464b76a6936857f6c748a: 21300000
    - bb3821d048f6f9a4bb23728eeaac5f7b: 21300000
    - 90a58df0257274245a73cc554a4fdd70: 21300000
    - 72eaad51eb8395146ba845dc1605ad5d: 21300000
    - 60e1b46127d8da04bbe523ad65bc95af: 21300000
    - 1d6b51713133248fda56c9edc398cba8: 21300000
    - 4028ad81b9871df49af5b6e3151a79df: 21300000
    - 8d1846a19c0d247299e9b0d4c494d908: 21300000
    - 5f24c3b193b684919863eb345beb645c: 21300000
    - 2a4e18b150cdc81488d02cfb229b36c2: 21300000
    - 14e298e1aca70794a9cefea352b89f55: 21300000
    - 04fe9e029744483459543915cd74409c: 21300000
    - e888bf12149ca104a87204d2f2de036b: 21300000
    - 08122b2269f08471496dc98b6b574fa7: 21300000
    - eb96db22ba20e4cf7955d0c4ec8dca26: 21300000
    - 9b64af22d55414ecebae440815dbbbaa: 21300000
    - 51a7693276e48c649b2a9f701dd48425: 21300000
    - bfa6cd322c0528f44b840a17a3c09ba9: 21300000
    - 45b7a752423d85a4abd70a4d1c864d06: 21300000
    - 5c5a0962d985e4d28a42bd7e4d781be2: 21300000
    - 6c6c6962ec3f74594a5facf782857c8d: 21300000
    - 8d341672163944fb384c2ff10e467660: 21300000
    - c273c5825b9224cdb851c7daaaa8702f: 21300000
    - 84aa04a2ec6248349a58a683917bf9ce: 21300000
    - 95c96ba22f570d549b92989c7beaedc6: 21300000
    - 75e6fbc252e42ae46813296a41af9b35: 21300000
    - 33b4b613d084942a7933289dd0f88699: 21300000
    - 5daf7f432071e4644b9e73077fa5dd8a: 21300000
    - 968635832e71e45498fec3663053994a: 21300000
    - 8f3c5a832e4f1fb469e288c526ea1b33: 21300000
    - 231f2393485654849b465f27b4bad8dc: 21300000
    - ec5333d3d8c5702459796ec417021f9f: 21300000
    - 84dad5d30af2a9742a30fc2af187e06a: 21300000
    - 949e90e36cb524c99a923869b100ed33: 21300000
    - 8b9b23f342baec84b9ecff1b7e9857bf: 21300000
    - bced50149207146939bd997548844277: 21300000
    - dfe1244402ae74b47b9c9ccec7a1d4ad: 21300000
    - 0a09d8643903ac44e83d2df4c1dbd2d8: 21300000
    - 385ccd74f343e4ba295fc0eba3d5f51d: 21300000
    - 153ad89458631c54a9f73983b5cdb5be: 21300000
    - dd75dea4db7af764eaab1e728ac74038: 21300000
    - 7767d4b4b496f49d6801fa95729d66e3: 21300000
    - 8eacaa059807b478681c846650d8a3f8: 21300000
    - e0347e15c9376432593a034766a402d4: 21300000
    - 630fe03570e3c6d48b656dbe808d63db: 21300000
    - 9c85a83593e2f4948b475e7394072e76: 21300000
    - b14f3f556d1f94f54bbcd6ad13069333: 21300000
    - 4e9d957504962204f8e0d1c7f2f314e4: 21300000
    - 73e54d75924db4598baf3a19fac3fc27: 21300000
    - 87e5fd75eb9794b8eb6e99b74b8ff83f: 21300000
    - f4e841852cfd241f8b3e2eba3adce196: 21300000
    - 9a28518527331ba48af4c5f1b3a63945: 21300000
    - a65e95a591864054a85bab0bd57cdff4: 21300000
    - a25333b5cf67f204eb8bb04414c2775d: 21300000
    - 41ef75b5b9a722e499173ca60440abce: 21300000
    - 218450d570f934510980a04471001d9d: 21300000
    - 57cfd6068b2876946a5d1c74c00525bc: 21300000
    - dbf67f26fb70ea448b94bf87856be40d: 21300000
    - 98072446f5978284e9579809b1c91e75: 21300000
    - 1b4a3e661ae5b467ab85ad4876d995fc: 21300000
    - 7e32917677a914405a9c35c8c30f5ecc: 21300000
    - 15cf1cb68b139466894048dce473a054: 21300000
    - 9743dcb6a8d3e6e4a87500eac2e3fcc9: 21300000
    - 828188c67af0be943bfd672e2e118335: 21300000
    - 1eaf9fc637815154e9e595f1ea12acae: 21300000
    - 056a57d6bf04641f89e6088ef8b827e5: 21300000
    - 1bc824e69736eae4e9f18e29fe4a4741: 21300000
    - a1f69cf6489c0c4488ea5d7e8db0b40d: 21300000
    - 0a4a0ff67c589dd469200006b5337ead: 21300000
    - 21ec4e07f50cd463ebde43efa9405ac2: 21300000
    - 22683217824be9f4ba179714e4397e48: 21300000
    - 954b52172f63faf4bba4ac072a869c28: 21300000
    - ef074c474eac46748a57d29038c2291d: 21300000
    - 9cbd625737b11dd45852662828f35cef: 21300000
    - 2168a0779051aa64194520934612eb10: 21300000
    - ea6d5177d8e38a74fa5f67cffa3e57b4: 21300000
    - 421cf8873899c472ca57a00f37dfc4e9: 21300000
    - fd9e53974c0d54265b80315d3abdfda1: 21300000
    - 50fada97e404249c1a16e0e3e1493417: 21300000
    - 45070c9772911994687e7bb09f927fe1: 21300000
    - e0d08ea78c2a2764f9ec5af8686b1b34: 21300000
    - 69e461b7d6cd22848b0fe4f9ababf50b: 21300000
    - dab4f6c7c809b74499f9ddccedf589e1: 21300000
    - 48cbf1d77218a324b85d3157fa5c0c86: 21300000
    - 7d98e2d767da80b44a39161faca93e96: 21300000
    - c0f7fae7c4c4046ea87db405f3393cfe: 21300000
    - 9182a5482d7b5334cbb86eb4c05ae0b7: 21300000
    - d1355958ad2c5154586a0cb91b19bb8a: 21300000
    - bf5f73780cc6d48158504342625a61f1: 21300000
    - 06b63d7829e03ea409c4f3d6c3ca372d: 21300000
    - 3b4fd6a8095d54472bc6e38d705e0bab: 21300000
    - 62aa6ba884b5fed4b9fc00c607371196: 21300000
    - 78468ba8faa1448eda05da8e43c7c1b0: 21300000
    - 18c820b8ec051e1418918ecc69237ab4: 21300000
    - b0ecb5c896d1f47648dce38ffb50009a: 21300000
    - fdb35dd8e6a0f0a4585689277d882a97: 21300000
    - 5ce823e83b42e2949b649067d9109732: 21300000
    - 28ebbe19095d4ed419307571626e12c4: 21300000
    - 968a4429d65bd8a4ab9430f2150cbfcc: 21300000
    - d91f78492c000491bae1dc201e45f920: 21300000
    - fc0b5a4969e794101be33617b009c5df: 21300000
    - db643c5915d704b4ba7765930540fdb3: 21300000
    - 6e891899cf4164427be814b9bd402f27: 21300000
    - 89b1d3c91e0c24aeb97d7c904e37947c: 21300000
    - 2f838bd91cac34279b7bdf8aa9a7f41b: 21300000
    - 497c6ce960f994645ab7f2d3c4dc5519: 21300000
    - 43d8ef1a9e4fa014c865af70f6695de9: 21300000
    - 5e3c182ae80f44203b32da1cd824e275: 21300000
    - a23a474a166f3481f8d57be942bd9d7b: 21300000
    - 81d22c4a5efa2c74997046776e16a4c9: 21300000
    - cfe9815adaddd44f5b0375b284a0b623: 21300000
    - 6c52678a18a6cf24d8a059fb998f33d3: 21300000
    - 32a41eaa91ed35a448018198059bec92: 21300000
    - 762b42bad7e724082911555af008fec6: 21300000
    - b39376ba31d8642309c1943c94156cd0: 21300000
    - 4640162b4d8c14b75b23a9d12683806e: 21300000
    - 6e9ae62b31422564a8a5e14273c9e792: 21300000
    - b0938d3b81467e3469b3f11a890ca1a1: 21300000
    - e8580f4b0a2ef4acc9ec2e173ddaea2d: 21300000
    - da31df5b7a321451f99bf5e2800e2b4f: 21300000
    - 9300376b95aeb46d98b4eaa499724da3: 21300000
    - 4eda6d9b1ff42474f8de45c1ac284623: 21300000
    - f9398ebb9babec74988d117d13d94b91: 21300000
    - f1b6bdfbbb6c18540bd9970729e9d6e4: 21300000
    - 3102850ca7d380f4882ef04ef3feb032: 21300000
    - 2700c21c48bf10f4b937bab956bb1994: 21300000
    - f453612caf686a241a7bf4f6d753a271: 21300000
    - 1422ad3c3ed932745b28fd73c4d6888a: 21300000
    - ec831f7cc59542a4988186fe46d3927c: 21300000
    - ee9c049ccca46994fb5d1dfb6475c33b: 21300000
    - 2c02f6fc63422f746b71a53f66926cd9: 21300000
    - b732291d624538640b91746ac0d887d1: 21300000
    - c220023d0abe04c20aad6da77ed89775: 21300000
    - 64c3104d0f8f7d440846dd0a042df1a3: 21300000
    - 9f0ff25d26e3a0a4e9d0317d085d51c2: 21300000
    - bbdfed5dcddf0944ca8adb3df5a89f55: 21300000
    - 7154be5d3991d4265831a1829006d363: 21300000
    - ec1c9c6d03f77d443ac72bcbb950f214: 21300000
    - 5c6d3f7db301046f5b47bd3cc74f6cb6: 21300000
    - 88d58f8d2709640979897fa3149e3d22: 21300000
    - 7053df8d6aff21043b9aa6b3d3182dcf: 21300000
    - ff0e989da792ebd428b7cf3b78e20e4e: 21300000
    - 0c28fb9d655574f2aa76ac771706cb51: 21300000
    - 041e70ade97984a6bb29d031e40f3e77: 21300000
    - f37d86adc345946c19221bea7984fa6b: 21300000
    - 51e1e6ad552e24939af77de799949874: 21300000
    - 5e30e9bdaec617a46812f57f9432481e: 21300000
    - 9a87cdcd61d767b4cb998feabc96c3c1: 21300000
    - 93b8d8ddd8882014785db6b06ad709ae: 21300000
    - cdb9d6ed482baea4290b12a0a14bdcd1: 21300000
    - 56b31cfd01bcf9448ab0b9c814ba002a: 21300000
    - abbb190efc92b4a46bf4c37b8a55a277: 21300000
    - d44a673e44e3b452bbf979d736992f78: 21300000
    - 3de4225e2b5dc8c48ac7be9a3c478ba1: 21300000
    - 1d4df27e3740100469818deef753774e: 21300000
    - 9dca538ed507c234f9e9781ff454a2cb: 21300000
    - 0fd0f38e1b45645348e71b79fd730aaf: 21300000
    - e1543e9e76133f7429f105e6d0548020: 21300000
    - 54863e9e6046b407b9dcb6affefe86b8: 21300000
    - e9c36aaebc64941f78d9a4bb2f42514f: 21300000
    - 42c52cbe64a11462a879bbbe27d38214: 21300000
    - e53eacdee4a4a8a41a6a004d7335a220: 21300000
    - 5df3890fe56da4c20a015ddb5a814469: 21300000
    - 6fe34f1fa3fc541e684f844c67f34839: 21300000
    - 16a4bf1f9155c4caaa4289174dc686de: 21300000
    - 99ee732ff77e08a42a7e2d9406346c9a: 21300000
    - 68d5552f9df01420382459539271df92: 21300000
    - 1604062f3ea01442fbff96a1b47a68ec: 21300000
    - eda4014ff0f5a495ea2a16f37222dfda: 21300000
    - 565a255fdfe83d24296e1a81c88217d3: 21300000
    - 2dbde95f4defe4059982465bcc0baf0f: 21300000
    - 52f5c06f24a994ed29f4337de3332f02: 21300000
    - e6712d8fac4be4ed7aae032cb308c531: 21300000
    - c04bf99f342c382489aea83ecd8a7158: 21300000
    - a60db3afa77a5e04ab42178143bdc275: 21300000
    - d102afbfd1f6dfb48b39ce71ed295abe: 21300000
    - d4e351cf09594164a83f11c64c577932: 21300000
    - e66d97dfd547f5b449cd7943be442f7a: 21300000
    - 041202ef3528046efabfd11adf5718b4: 21300000
  m_MasterAtlas: {fileID: 0}
  m_PackedSprites:
  - {fileID: 21300000, guid: e252bf10941ce5b4787e692d80c2206c, type: 3}
  - {fileID: 21300000, guid: 5c9e9820722524acca5ad2603ad4463c, type: 3}
  - {fileID: 21300000, guid: ebd19240d2a46f246b93ac95b7195492, type: 3}
  - {fileID: 21300000, guid: c511158019123634db75d13545fa5415, type: 3}
  - {fileID: 21300000, guid: 3fea4580e5b464b76a6936857f6c748a, type: 3}
  - {fileID: 21300000, guid: bb3821d048f6f9a4bb23728eeaac5f7b, type: 3}
  - {fileID: 21300000, guid: 90a58df0257274245a73cc554a4fdd70, type: 3}
  - {fileID: 21300000, guid: 72eaad51eb8395146ba845dc1605ad5d, type: 3}
  - {fileID: 21300000, guid: 60e1b46127d8da04bbe523ad65bc95af, type: 3}
  - {fileID: 21300000, guid: 1d6b51713133248fda56c9edc398cba8, type: 3}
  - {fileID: 21300000, guid: 4028ad81b9871df49af5b6e3151a79df, type: 3}
  - {fileID: 21300000, guid: 8d1846a19c0d247299e9b0d4c494d908, type: 3}
  - {fileID: 21300000, guid: 5f24c3b193b684919863eb345beb645c, type: 3}
  - {fileID: 21300000, guid: 2a4e18b150cdc81488d02cfb229b36c2, type: 3}
  - {fileID: 21300000, guid: 14e298e1aca70794a9cefea352b89f55, type: 3}
  - {fileID: 21300000, guid: 04fe9e029744483459543915cd74409c, type: 3}
  - {fileID: 21300000, guid: e888bf12149ca104a87204d2f2de036b, type: 3}
  - {fileID: 21300000, guid: 08122b2269f08471496dc98b6b574fa7, type: 3}
  - {fileID: 21300000, guid: eb96db22ba20e4cf7955d0c4ec8dca26, type: 3}
  - {fileID: 21300000, guid: 9b64af22d55414ecebae440815dbbbaa, type: 3}
  - {fileID: 21300000, guid: 51a7693276e48c649b2a9f701dd48425, type: 3}
  - {fileID: 21300000, guid: bfa6cd322c0528f44b840a17a3c09ba9, type: 3}
  - {fileID: 21300000, guid: 45b7a752423d85a4abd70a4d1c864d06, type: 3}
  - {fileID: 21300000, guid: 5c5a0962d985e4d28a42bd7e4d781be2, type: 3}
  - {fileID: 21300000, guid: 6c6c6962ec3f74594a5facf782857c8d, type: 3}
  - {fileID: 21300000, guid: 8d341672163944fb384c2ff10e467660, type: 3}
  - {fileID: 21300000, guid: c273c5825b9224cdb851c7daaaa8702f, type: 3}
  - {fileID: 21300000, guid: 84aa04a2ec6248349a58a683917bf9ce, type: 3}
  - {fileID: 21300000, guid: 95c96ba22f570d549b92989c7beaedc6, type: 3}
  - {fileID: 21300000, guid: 75e6fbc252e42ae46813296a41af9b35, type: 3}
  - {fileID: 21300000, guid: 33b4b613d084942a7933289dd0f88699, type: 3}
  - {fileID: 21300000, guid: 5daf7f432071e4644b9e73077fa5dd8a, type: 3}
  - {fileID: 21300000, guid: 968635832e71e45498fec3663053994a, type: 3}
  - {fileID: 21300000, guid: 8f3c5a832e4f1fb469e288c526ea1b33, type: 3}
  - {fileID: 21300000, guid: 231f2393485654849b465f27b4bad8dc, type: 3}
  - {fileID: 21300000, guid: ec5333d3d8c5702459796ec417021f9f, type: 3}
  - {fileID: 21300000, guid: 84dad5d30af2a9742a30fc2af187e06a, type: 3}
  - {fileID: 21300000, guid: 949e90e36cb524c99a923869b100ed33, type: 3}
  - {fileID: 21300000, guid: 8b9b23f342baec84b9ecff1b7e9857bf, type: 3}
  - {fileID: 21300000, guid: bced50149207146939bd997548844277, type: 3}
  - {fileID: 21300000, guid: dfe1244402ae74b47b9c9ccec7a1d4ad, type: 3}
  - {fileID: 21300000, guid: 0a09d8643903ac44e83d2df4c1dbd2d8, type: 3}
  - {fileID: 21300000, guid: 385ccd74f343e4ba295fc0eba3d5f51d, type: 3}
  - {fileID: 21300000, guid: 153ad89458631c54a9f73983b5cdb5be, type: 3}
  - {fileID: 21300000, guid: dd75dea4db7af764eaab1e728ac74038, type: 3}
  - {fileID: 21300000, guid: 7767d4b4b496f49d6801fa95729d66e3, type: 3}
  - {fileID: 21300000, guid: 8eacaa059807b478681c846650d8a3f8, type: 3}
  - {fileID: 21300000, guid: e0347e15c9376432593a034766a402d4, type: 3}
  - {fileID: 21300000, guid: 630fe03570e3c6d48b656dbe808d63db, type: 3}
  - {fileID: 21300000, guid: 9c85a83593e2f4948b475e7394072e76, type: 3}
  - {fileID: 21300000, guid: b14f3f556d1f94f54bbcd6ad13069333, type: 3}
  - {fileID: 21300000, guid: 4e9d957504962204f8e0d1c7f2f314e4, type: 3}
  - {fileID: 21300000, guid: 73e54d75924db4598baf3a19fac3fc27, type: 3}
  - {fileID: 21300000, guid: 87e5fd75eb9794b8eb6e99b74b8ff83f, type: 3}
  - {fileID: 21300000, guid: f4e841852cfd241f8b3e2eba3adce196, type: 3}
  - {fileID: 21300000, guid: 9a28518527331ba48af4c5f1b3a63945, type: 3}
  - {fileID: 21300000, guid: a65e95a591864054a85bab0bd57cdff4, type: 3}
  - {fileID: 21300000, guid: a25333b5cf67f204eb8bb04414c2775d, type: 3}
  - {fileID: 21300000, guid: 41ef75b5b9a722e499173ca60440abce, type: 3}
  - {fileID: 21300000, guid: 218450d570f934510980a04471001d9d, type: 3}
  - {fileID: 21300000, guid: 57cfd6068b2876946a5d1c74c00525bc, type: 3}
  - {fileID: 21300000, guid: dbf67f26fb70ea448b94bf87856be40d, type: 3}
  - {fileID: 21300000, guid: 98072446f5978284e9579809b1c91e75, type: 3}
  - {fileID: 21300000, guid: 1b4a3e661ae5b467ab85ad4876d995fc, type: 3}
  - {fileID: 21300000, guid: 7e32917677a914405a9c35c8c30f5ecc, type: 3}
  - {fileID: 21300000, guid: 15cf1cb68b139466894048dce473a054, type: 3}
  - {fileID: 21300000, guid: 9743dcb6a8d3e6e4a87500eac2e3fcc9, type: 3}
  - {fileID: 21300000, guid: 828188c67af0be943bfd672e2e118335, type: 3}
  - {fileID: 21300000, guid: 1eaf9fc637815154e9e595f1ea12acae, type: 3}
  - {fileID: 21300000, guid: 056a57d6bf04641f89e6088ef8b827e5, type: 3}
  - {fileID: 21300000, guid: 1bc824e69736eae4e9f18e29fe4a4741, type: 3}
  - {fileID: 21300000, guid: a1f69cf6489c0c4488ea5d7e8db0b40d, type: 3}
  - {fileID: 21300000, guid: 0a4a0ff67c589dd469200006b5337ead, type: 3}
  - {fileID: 21300000, guid: 21ec4e07f50cd463ebde43efa9405ac2, type: 3}
  - {fileID: 21300000, guid: 22683217824be9f4ba179714e4397e48, type: 3}
  - {fileID: 21300000, guid: 954b52172f63faf4bba4ac072a869c28, type: 3}
  - {fileID: 21300000, guid: ef074c474eac46748a57d29038c2291d, type: 3}
  - {fileID: 21300000, guid: 9cbd625737b11dd45852662828f35cef, type: 3}
  - {fileID: 21300000, guid: 2168a0779051aa64194520934612eb10, type: 3}
  - {fileID: 21300000, guid: ea6d5177d8e38a74fa5f67cffa3e57b4, type: 3}
  - {fileID: 21300000, guid: 421cf8873899c472ca57a00f37dfc4e9, type: 3}
  - {fileID: 21300000, guid: fd9e53974c0d54265b80315d3abdfda1, type: 3}
  - {fileID: 21300000, guid: 50fada97e404249c1a16e0e3e1493417, type: 3}
  - {fileID: 21300000, guid: 45070c9772911994687e7bb09f927fe1, type: 3}
  - {fileID: 21300000, guid: e0d08ea78c2a2764f9ec5af8686b1b34, type: 3}
  - {fileID: 21300000, guid: 69e461b7d6cd22848b0fe4f9ababf50b, type: 3}
  - {fileID: 21300000, guid: dab4f6c7c809b74499f9ddccedf589e1, type: 3}
  - {fileID: 21300000, guid: 48cbf1d77218a324b85d3157fa5c0c86, type: 3}
  - {fileID: 21300000, guid: 7d98e2d767da80b44a39161faca93e96, type: 3}
  - {fileID: 21300000, guid: c0f7fae7c4c4046ea87db405f3393cfe, type: 3}
  - {fileID: 21300000, guid: 9182a5482d7b5334cbb86eb4c05ae0b7, type: 3}
  - {fileID: 21300000, guid: d1355958ad2c5154586a0cb91b19bb8a, type: 3}
  - {fileID: 21300000, guid: bf5f73780cc6d48158504342625a61f1, type: 3}
  - {fileID: 21300000, guid: 06b63d7829e03ea409c4f3d6c3ca372d, type: 3}
  - {fileID: 21300000, guid: 3b4fd6a8095d54472bc6e38d705e0bab, type: 3}
  - {fileID: 21300000, guid: 62aa6ba884b5fed4b9fc00c607371196, type: 3}
  - {fileID: 21300000, guid: 78468ba8faa1448eda05da8e43c7c1b0, type: 3}
  - {fileID: 21300000, guid: 18c820b8ec051e1418918ecc69237ab4, type: 3}
  - {fileID: 21300000, guid: b0ecb5c896d1f47648dce38ffb50009a, type: 3}
  - {fileID: 21300000, guid: fdb35dd8e6a0f0a4585689277d882a97, type: 3}
  - {fileID: 21300000, guid: 5ce823e83b42e2949b649067d9109732, type: 3}
  - {fileID: 21300000, guid: 28ebbe19095d4ed419307571626e12c4, type: 3}
  - {fileID: 21300000, guid: 968a4429d65bd8a4ab9430f2150cbfcc, type: 3}
  - {fileID: 21300000, guid: d91f78492c000491bae1dc201e45f920, type: 3}
  - {fileID: 21300000, guid: fc0b5a4969e794101be33617b009c5df, type: 3}
  - {fileID: 21300000, guid: db643c5915d704b4ba7765930540fdb3, type: 3}
  - {fileID: 21300000, guid: 6e891899cf4164427be814b9bd402f27, type: 3}
  - {fileID: 21300000, guid: 89b1d3c91e0c24aeb97d7c904e37947c, type: 3}
  - {fileID: 21300000, guid: 2f838bd91cac34279b7bdf8aa9a7f41b, type: 3}
  - {fileID: 21300000, guid: 497c6ce960f994645ab7f2d3c4dc5519, type: 3}
  - {fileID: 21300000, guid: 43d8ef1a9e4fa014c865af70f6695de9, type: 3}
  - {fileID: 21300000, guid: 5e3c182ae80f44203b32da1cd824e275, type: 3}
  - {fileID: 21300000, guid: a23a474a166f3481f8d57be942bd9d7b, type: 3}
  - {fileID: 21300000, guid: 81d22c4a5efa2c74997046776e16a4c9, type: 3}
  - {fileID: 21300000, guid: cfe9815adaddd44f5b0375b284a0b623, type: 3}
  - {fileID: 21300000, guid: 6c52678a18a6cf24d8a059fb998f33d3, type: 3}
  - {fileID: 21300000, guid: 32a41eaa91ed35a448018198059bec92, type: 3}
  - {fileID: 21300000, guid: 762b42bad7e724082911555af008fec6, type: 3}
  - {fileID: 21300000, guid: b39376ba31d8642309c1943c94156cd0, type: 3}
  - {fileID: 21300000, guid: 4640162b4d8c14b75b23a9d12683806e, type: 3}
  - {fileID: 21300000, guid: 6e9ae62b31422564a8a5e14273c9e792, type: 3}
  - {fileID: 21300000, guid: b0938d3b81467e3469b3f11a890ca1a1, type: 3}
  - {fileID: 21300000, guid: e8580f4b0a2ef4acc9ec2e173ddaea2d, type: 3}
  - {fileID: 21300000, guid: da31df5b7a321451f99bf5e2800e2b4f, type: 3}
  - {fileID: 21300000, guid: 9300376b95aeb46d98b4eaa499724da3, type: 3}
  - {fileID: 21300000, guid: 4eda6d9b1ff42474f8de45c1ac284623, type: 3}
  - {fileID: 21300000, guid: f9398ebb9babec74988d117d13d94b91, type: 3}
  - {fileID: 21300000, guid: f1b6bdfbbb6c18540bd9970729e9d6e4, type: 3}
  - {fileID: 21300000, guid: 3102850ca7d380f4882ef04ef3feb032, type: 3}
  - {fileID: 21300000, guid: 2700c21c48bf10f4b937bab956bb1994, type: 3}
  - {fileID: 21300000, guid: f453612caf686a241a7bf4f6d753a271, type: 3}
  - {fileID: 21300000, guid: 1422ad3c3ed932745b28fd73c4d6888a, type: 3}
  - {fileID: 21300000, guid: ec831f7cc59542a4988186fe46d3927c, type: 3}
  - {fileID: 21300000, guid: ee9c049ccca46994fb5d1dfb6475c33b, type: 3}
  - {fileID: 21300000, guid: 2c02f6fc63422f746b71a53f66926cd9, type: 3}
  - {fileID: 21300000, guid: b732291d624538640b91746ac0d887d1, type: 3}
  - {fileID: 21300000, guid: c220023d0abe04c20aad6da77ed89775, type: 3}
  - {fileID: 21300000, guid: 64c3104d0f8f7d440846dd0a042df1a3, type: 3}
  - {fileID: 21300000, guid: 9f0ff25d26e3a0a4e9d0317d085d51c2, type: 3}
  - {fileID: 21300000, guid: bbdfed5dcddf0944ca8adb3df5a89f55, type: 3}
  - {fileID: 21300000, guid: 7154be5d3991d4265831a1829006d363, type: 3}
  - {fileID: 21300000, guid: ec1c9c6d03f77d443ac72bcbb950f214, type: 3}
  - {fileID: 21300000, guid: 5c6d3f7db301046f5b47bd3cc74f6cb6, type: 3}
  - {fileID: 21300000, guid: 88d58f8d2709640979897fa3149e3d22, type: 3}
  - {fileID: 21300000, guid: 7053df8d6aff21043b9aa6b3d3182dcf, type: 3}
  - {fileID: 21300000, guid: ff0e989da792ebd428b7cf3b78e20e4e, type: 3}
  - {fileID: 21300000, guid: 0c28fb9d655574f2aa76ac771706cb51, type: 3}
  - {fileID: 21300000, guid: 041e70ade97984a6bb29d031e40f3e77, type: 3}
  - {fileID: 21300000, guid: f37d86adc345946c19221bea7984fa6b, type: 3}
  - {fileID: 21300000, guid: 51e1e6ad552e24939af77de799949874, type: 3}
  - {fileID: 21300000, guid: 5e30e9bdaec617a46812f57f9432481e, type: 3}
  - {fileID: 21300000, guid: 9a87cdcd61d767b4cb998feabc96c3c1, type: 3}
  - {fileID: 21300000, guid: 93b8d8ddd8882014785db6b06ad709ae, type: 3}
  - {fileID: 21300000, guid: cdb9d6ed482baea4290b12a0a14bdcd1, type: 3}
  - {fileID: 21300000, guid: 56b31cfd01bcf9448ab0b9c814ba002a, type: 3}
  - {fileID: 21300000, guid: abbb190efc92b4a46bf4c37b8a55a277, type: 3}
  - {fileID: 21300000, guid: d44a673e44e3b452bbf979d736992f78, type: 3}
  - {fileID: 21300000, guid: 3de4225e2b5dc8c48ac7be9a3c478ba1, type: 3}
  - {fileID: 21300000, guid: 1d4df27e3740100469818deef753774e, type: 3}
  - {fileID: 21300000, guid: 9dca538ed507c234f9e9781ff454a2cb, type: 3}
  - {fileID: 21300000, guid: 0fd0f38e1b45645348e71b79fd730aaf, type: 3}
  - {fileID: 21300000, guid: e1543e9e76133f7429f105e6d0548020, type: 3}
  - {fileID: 21300000, guid: 54863e9e6046b407b9dcb6affefe86b8, type: 3}
  - {fileID: 21300000, guid: e9c36aaebc64941f78d9a4bb2f42514f, type: 3}
  - {fileID: 21300000, guid: 42c52cbe64a11462a879bbbe27d38214, type: 3}
  - {fileID: 21300000, guid: e53eacdee4a4a8a41a6a004d7335a220, type: 3}
  - {fileID: 21300000, guid: 5df3890fe56da4c20a015ddb5a814469, type: 3}
  - {fileID: 21300000, guid: 6fe34f1fa3fc541e684f844c67f34839, type: 3}
  - {fileID: 21300000, guid: 16a4bf1f9155c4caaa4289174dc686de, type: 3}
  - {fileID: 21300000, guid: 99ee732ff77e08a42a7e2d9406346c9a, type: 3}
  - {fileID: 21300000, guid: 68d5552f9df01420382459539271df92, type: 3}
  - {fileID: 21300000, guid: 1604062f3ea01442fbff96a1b47a68ec, type: 3}
  - {fileID: 21300000, guid: eda4014ff0f5a495ea2a16f37222dfda, type: 3}
  - {fileID: 21300000, guid: 565a255fdfe83d24296e1a81c88217d3, type: 3}
  - {fileID: 21300000, guid: 2dbde95f4defe4059982465bcc0baf0f, type: 3}
  - {fileID: 21300000, guid: 52f5c06f24a994ed29f4337de3332f02, type: 3}
  - {fileID: 21300000, guid: e6712d8fac4be4ed7aae032cb308c531, type: 3}
  - {fileID: 21300000, guid: c04bf99f342c382489aea83ecd8a7158, type: 3}
  - {fileID: 21300000, guid: a60db3afa77a5e04ab42178143bdc275, type: 3}
  - {fileID: 21300000, guid: d102afbfd1f6dfb48b39ce71ed295abe, type: 3}
  - {fileID: 21300000, guid: d4e351cf09594164a83f11c64c577932, type: 3}
  - {fileID: 21300000, guid: e66d97dfd547f5b449cd7943be442f7a, type: 3}
  - {fileID: 21300000, guid: 041202ef3528046efabfd11adf5718b4, type: 3}
  m_PackedSpriteNamesToIndex:
  - drop_dust_12
  - enemy_respawn_effect_6
  - wall_slide_jump_dust.007
  - wall_slide_jump_dust.004
  - enemy_respawn_effect_8
  - generic_dust_particle_09
  - drop_dust_04
  - coin_sparkle_02
  - wall_slide_jump_dust.002
  - electric_grip_effect.003
  - dustskid.005
  - enemy_respawn_effect_3
  - swim_splash_anim2.007
  - sweat_06
  - wall_slide_jump_dust.003
  - wall_slide_jump_dust.006
  - wall_slide_jump_dust.006
  - enemy_death_puff_7
  - exclamation_mark.010
  - dust_skid_0
  - dustskid.002
  - land_dust_effect_0
  - generic_dust_particle_08
  - electric_grip_effect.004
  - enemy_death_effect_0
  - exclamation_mark.004
  - jump_effect_3
  - water_splash_particles.007
  - drop_dust_09
  - sweat_01
  - enemy_death_effect_11
  - exclamation_mark.003
  - wall_slide_jump_dust.008
  - coin_sparkle_05
  - enemy_respawn_effect_4
  - sweat_04
  - death_puff_03
  - enemy_death_effect_13
  - death_puff_08
  - swim_splash_anim2.006
  - swim_splash_anim2.003
  - wall_slide_jump_dust.007
  - enemy_death_puff_0
  - dustskid.001
  - egg_yolk_particle_04
  - swim_splash_anim2.001
  - enemy_death_effect_10
  - enemy_death_effect_12
  - water_splash_particles.003
  - drop_dust_07
  - dust_skid_4
  - egg_yolk_particle_05
  - enemy_respawn_effect_11
  - swim_splash_anim2.005
  - enemy_death_effect_2
  - drop_dust_01
  - drop_dust_03
  - dustskid.006
  - land_dust_effect_8
  - electric_grip_effect.001
  - death_puff_02
  - generic_dust_particle_05
  - generic_dust_particle_10
  - enemy_death_effect_7
  - jump_effect_4
  - exclamation_mark.002
  - death_puff_04
  - death_puff_07
  - egg_yolk_particle_01
  - swim_splash_anim2.002
  - death_puff_09
  - doublejump_dust.005
  - sweat_02
  - electric_grip_effect.009
  - wall_slide_jump_dust.001
  - generic_dust_particle_04
  - wall_slide_jump_dust.008
  - wall_slide_jump_dust.005
  - generic_dust_particle_06
  - egg_yolk_particle_06
  - enemy_death_effect_3
  - exclamation_mark.008
  - enemy_death_effect_1
  - generic_dust_particle_12
  - land_dust_effect_5
  - wall_slide_jump_dust.005
  - generic_dust_particle_03
  - coin_sparkle_04
  - generic_dust_particle_01
  - enemy_death_effect_14
  - drop_dust_02
  - generic_dust_particle_02
  - enemy_death_effect_5
  - hit effect
  - enemy_death_puff_2
  - sweat_03
  - jump_effect_0
  - doublejump_dust.004
  - exclamation_mark.001
  - generic_dust_particle_11
  - wall_slide_jump_dust.001
  - egg_yolk_particle_03
  - coin_sparkle_03
  - enemy_respawn_effect_2
  - exclamation_mark.009
  - electric_grip_effect.010
  - jump_effect_1
  - enemy_death_puff_3
  - enemy_respawn_effect_5
  - enemy_respawn_effect_7
  - water_splash_particles.002
  - jump_effect_5
  - dust_skid_2
  - drop_dust_10
  - jump_effect_6
  - dustskid.004
  - death_puff_05
  - swim_splash_anim2.004
  - enemy_death_puff_5
  - enemy_respawn_effect_9
  - egg_yolk_particle_02
  - land_dust_effect_3
  - electric_grip_effect.002
  - dust_skid_5
  - enemy_death_effect_8
  - sweat_05
  - death_puff_06
  - water_splash_particles.001
  - land_dust_effect_6
  - land_dust_effect_2
  - doublejump_dust.007
  - wall_slide_jump_dust.002
  - dustskid.003
  - drop_dust_11
  - doublejump_dust.002
  - death_puff_12
  - exclamation_mark.011
  - drop_dust_05
  - wall_slide_jump_dust.004
  - egg_yolk_particle_08
  - jump_effect_7
  - drop_dust_06
  - enemy_death_effect_9
  - enemy_death_effect_6
  - doublejump_dust.006
  - water_splash_particles.006
  - enemy_respawn_effect_0
  - exclamation_mark.006
  - jump_effect_8
  - electric_grip_effect.006
  - wall_slide_jump_dust.009
  - death_puff_10
  - coin_sparkle_01
  - land_dust_effect_7
  - drop_dust_08
  - land_dust_effect_4
  - electric_grip_effect.008
  - dustskid.008
  - doublejump_dust.003
  - death_puff_01
  - death_particle
  - land_dust_effect_1
  - electric_grip_effect.005
  - enemy_death_puff_4
  - exclamation_mark.007
  - wall_slide_jump_dust.003
  - enemy_respawn_effect_10
  - dust_skid_3
  - electric_grip_effect.007
  - water_splash_particles.005
  - jump_effect_2
  - enemy_death_puff_1
  - enemy_death_effect_4
  - death_puff_11
  - exclamation_mark.005
  - enemy_death_puff_6
  - dust_skid_1
  - dustskid.007
  - doublejump_dust.001
  - egg_yolk_particle_07
  - generic_dust_particle_07
  - water_splash_particles.004
  - enemy_respawn_effect_1
  m_RenderDataMap: {}
  m_Tag: Particles
  m_IsVariant: 0
