%YAML 1.1
%TAG !u! tag:unity3d.com,2011:
--- !u!687078895 &4343727234628468602
SpriteAtlas:
  m_ObjectHideFlags: 0
  m_CorrespondingSourceObject: {fileID: 0}
  m_PrefabInstance: {fileID: 0}
  m_PrefabAsset: {fileID: 0}
  m_Name: Tiles - Tombstone Hill
  m_EditorData:
    serializedVersion: 2
    textureSettings:
      serializedVersion: 2
      anisoLevel: 1
      compressionQuality: 50
      maxTextureSize: 2048
      textureCompression: 0
      filterMode: 1
      generateMipMaps: 0
      readable: 0
      crunchedCompression: 0
      sRGB: 1
    platformSettings:
    - serializedVersion: 3
      m_BuildTarget: DefaultTexturePlatform
      m_MaxTextureSize: 4096
      m_ResizeAlgorithm: 0
      m_TextureFormat: -1
      m_TextureCompression: 0
      m_CompressionQuality: 50
      m_CrunchedCompression: 0
      m_AllowsAlphaSplitting: 0
      m_Overridden: 0
      m_IgnorePlatformSupport: 0
      m_AndroidETC2FallbackOverride: 0
      m_ForceMaximumCompressionQuality_BC6H_BC7: 1
    packingSettings:
      serializedVersion: 2
      padding: 4
      blockOffset: 1
      allowAlphaSplitting: 0
      enableRotation: 0
      enableTightPacking: 0
      enableAlphaDilation: 0
    secondaryTextureSettings: {}
    variantMultiplier: 1
    packables:
    - {fileID: 102900000, guid: 2d9bee07ed50647f6a06be6563cb4952, type: 3}
    - {fileID: 102900000, guid: fce4783a101bb411997a531289ff3c8c, type: 3}
    - {fileID: 102900000, guid: 953502cb4ec874d3ab96982fdf6a7ecf, type: 3}
    - {fileID: 102900000, guid: 883167b4bf44e4dc8af6310650ee5397, type: 3}
    - {fileID: 102900000, guid: 4aa055d7179cae147bfb02aa44f8b7b8, type: 3}
    - {fileID: 102900000, guid: 46ab1f6f234304814a43d427037b60d5, type: 3}
    bindAsDefault: 1
    isAtlasV2: 0
    cachedData: {fileID: 0}
    packedSpriteRenderDataKeys:
    - 6d8401004e5b944739068474157b7bab: 21300000
    - 834091002437ee64e9e7572e4a21db89: 21300000
    - 3ba12b00ac6304f0ea6d93a514e4b6c4: 21300000
    - b93160207b75945558258093b8a24926: 21300000
    - 90c9482002e894368a6e3a8d75120e01: 21300000
    - 58936820ff24f4e1b8dae6d9363e7590: 21300000
    - 1b03aa209e153401eb71896cbff3382e: 21300000
    - 45db623021e35436ab19a807597c0cfa: 21300000
    - 7c1144305435a44cabf9023322d16bac: 21300000
    - cefd1530e076cad499f192f7925616e0: 21300000
    - df4d11406f54a47caba52d95cfbc3a99: 21300000
    - 5d97b140d35024b9b908981e0d6bbbe4: 21300000
    - 40f9d6405d3da4f359ba43f6f8af76f7: 21300000
    - b7f9d8409b0579347aa84a5bf9013c63: 21300000
    - 2373735031a749c45945944befcfe0f8: 21300000
    - 9a562860ca9c94690819289e97bb1b0b: 21300000
    - 93320f60e0e9549ec9b00fae59d6b522: 21300000
    - 7950f1702ffb84efbb9c8f8a60d87e49: 21300000
    - ef0d73809ee31cc4dbaab7aa2f7cef28: 21300000
    - 016d1a80954bd465081eb4e2b2e98b05: 21300000
    - 8f19af80c6b444950979e96faa830ba8: 21300000
    - 6765b2906f6e44050b49abbec5c54680: 21300000
    - cc194490b8d144d098bee20c449ca989: 21300000
    - 9fc400a03eeece546b2ca9ac0ef3cf10: 21300000
    - 79a552a0cbddd40cd98d5040f064eedd: 21300000
    - 82bf95a0ef64543508f48bc578658fd8: 21300000
    - 4637dec06513a4894ab700b4d2b2bd17: 21300000
    - 90ef8fc06a9fe4ae6bc0178781dad378: 21300000
    - 121114d0e511348609f636c8ba6b49a6: 21300000
    - 3548d4d0e3db54013ba55b3ed7d1a026: 21300000
    - b9d22bd0c693742b7afe9d74e14d6b8b: 21300000
    - 9c494cd04a965cf4d9f7129cb913a51d: 21300000
    - 0fee66e0ad7209c45a81630ba8d5cc65: 21300000
    - cacc88e0c4bf048a79eaa05d8287395a: 21300000
    - 2db880f04fe8f44e7baa2f97eb2d1073: 21300000
    - 502b69f020f344c2ca23c5824f397768: 21300000
    - 4e9f8cf005a1c4c73ae409af3063a8de: 21300000
    - 79f42ef0ad81c4cea91becdfcf4eb6a7: 21300000
    - a93845018319c4ad4a7cd93dabb9274d: 21300000
    - a756960124ecf4ba6a849f3b170c281f: 21300000
    - 88124711f5bf242a8858ff145c00c0a7: 21300000
    - 1743bc11c85018d468df05936dda8c14: 21300000
    - fb226f1130483417881dad6755bbd480: 21300000
    - 1c30bc319e6fa491e9ead7f8710f5107: 21300000
    - 3ed29241a827e4115a1dcad8e25664f9: 21300000
    - f13d3251d939d4076b146cb9e419735c: 21300000
    - 4ca891619353b4ba7802c6aeea12d515: 21300000
    - 7aad91616bd16489d9d7c32ad0f23271: 21300000
    - 09992271d1d184a7580da7a79c30c0bc: 21300000
    - 049ab671b786e48ab9435af59e757181: 21300000
    - 663df081f4ad446948ac8175ef554091: 21300000
    - fc89ee812ae5b40fdaf2b15c65d47d34: 21300000
    - 8e4fe191b64644b83ac3de50c06b3e1e: 21300000
    - 8dbe44a1ca0a14cedac1ebfc2e6dc5a3: 21300000
    - 9a72c7a1677f6481f88aacde58313876: 21300000
    - a71db9a131d2845a780b13eccb6f994a: 21300000
    - 329adeb1bc12c421ba5c96d90fdd716f: 21300000
    - a31435c1bd0cc4c278b4e2d7ca306b34: 21300000
    - b0eef5c11f8314238834b8d9215b0712: 21300000
    - 953c16c159a8347a7b5481737c59f0ae: 21300000
    - aca6a9d16c19e43baa7cfa8fd2e90477: 21300000
    - 658390f10100a4fd4b1a58bda6f07499: 21300000
    - 4e8007f1bbd8b433999560d5d5d61230: 21300000
    - bb3cfef138bc943d6acfabbcbeabf958: 21300000
    - a88791027226ce444a30cf61e21e5425: 21300000
    - f4e68202c40374a2d93af09c811b3dda: 21300000
    - 1ce3d402bf352496ba2f32331317a0d4: 21300000
    - 8b35a702573ff4030a0ef3c0eed99868: 21300000
    - 57fda012baf804c5ba846bb8e3aaf3dd: 21300000
    - 0173dc12cbc9f4307b593bf98a80cf4c: 21300000
    - 79fdde1205e3b40ea9e81e97901ffd9f: 21300000
    - be7b20226211f42b1b57004b5110fffe: 21300000
    - af943122a39f1445aa888dd69df075c4: 21300000
    - 52e9e122f84f24011a1cb93d3687fcd3: 21300000
    - 1e27bb220364f4110ae8f151ad31b021: 21300000
    - 470710320afe4406c8a54380e4461abd: 21300000
    - bcb6e03212a9b4836b9c3feab141b0b5: 21300000
    - 9710a132818c74cc88a8c5d8d43716bf: 21300000
    - 36bb59327a34049ffa7b8ddad7dce4dd: 21300000
    - b8a0fc32caea640caafd3cc98cef0845: 21300000
    - 13cff2426144d4ae0b76249d56f117bd: 21300000
    - b77a81523edb54d3295661747c754815: 21300000
    - 16d19a520967840c9b5a3ca79e9c976f: 21300000
    - ef2f5062080f644e6ab9a3e48c5ef8ee: 21300000
    - 3674ed62661de4613a91dc2a54f84744: 21300000
    - f2b28572a1fbc4bcd81cfca2176cfd2b: 21300000
    - b386d772cb38b45ed89b432ae584f96a: 21300000
    - 43e72a72dd7aa48b18d361ce60c79a79: 21300000
    - f7376e92d7e9148dbb85125adf6b8f85: 21300000
    - d2f516a26b23849b2b57e52d9cede271: 21300000
    - 51e7b6a2e336c04429602ddbd5965a7c: 21300000
    - a00feaa2c4f4e4ba8862bb9f7b32d2e1: 21300000
    - f143e2b2efb104adc96fa43c97e88438: 21300000
    - bd39c3b2b2b394269ac3cc7c0c4c6d3f: 21300000
    - e9dc25b2aa619402c95a17d99d7f2972: 21300000
    - 29b369c283ace4deb8cc589ec21712e7: 21300000
    - cec9bcc2114d8434ea8ba0c528a540d5: 21300000
    - b79c60d2a73b242d6a211b71c52e8f90: 21300000
    - 2a9778d2478624b4287590c143220b9c: 21300000
    - 4909ecd29eb434c129a2fd4c11065ce4: 21300000
    - 85fa31e2a5bc544d8b5f27d1e815ac43: 21300000
    - e62a2de2f642e47428ad626f32c75cf2: 21300000
    - 424901f284aad4ac79611454a976ad6f: 21300000
    - 35a953f276a67441ca175cd5ea629400: 21300000
    - 05cf38f2ac54440e49ab101ed7d1b599: 21300000
    - d59846031672e48fab8df4c18a3daf73: 21300000
    - 705984139be6b4c90bb778c7f6d9a0b0: 21300000
    - a0c64c13714143e43be37c89cb10693b: 21300000
    - 11e6a523b4f814d0e89ba0ac8d051d84: 21300000
    - 2b4cf62360b4c4669983cabf7361fcaa: 21300000
    - b5d2ae2311ab546db88d040469639c95: 21300000
    - df27be238c1cd4f4683f1e213882b1b4: 21300000
    - 85dd2a434bfa443c2acaf4b3bf9a39a7: 21300000
    - ad6024536f1024db7a0fa62b115168f9: 21300000
    - eab35f538a168499c8657aeac057f2cf: 21300000
    - abca10633bc7bdd4793cc29741a88045: 21300000
    - daef1f83a6d72475bb638609224bae08: 21300000
    - eed9b293622214baab25741e000b75f8: 21300000
    - df89e293d2c844249b2960865dd6543d: 21300000
    - 37eb53a3ccd254c96975d3deca4b54ab: 21300000
    - a3d795a3410b34b5d85b8f92ec6680b4: 21300000
    - 0f75d7a389f2b4798878d875ea45e137: 21300000
    - 024768a3c136340a2b1af34d66b4643f: 21300000
    - a00c0da388e294222ae7f9ef75be6556: 21300000
    - fa81afb3bfb0544a799062f14f656fe9: 21300000
    - 144fffb3aff84483a992c6719488e0f4: 21300000
    - f01116c359fd647448efc400f71e2251: 21300000
    - e9946cc37630e4befbce876573d53b38: 21300000
    - 03b79dc324cae41fe92a47a7fcfde0a3: 21300000
    - ca6283d3b1fd7445da4d490e43f31762: 21300000
    - 929700e37718443fea9bca0966e7e9d6: 21300000
    - 9ca191e36b2564e87a1e7bc60b80a775: 21300000
    - 821cd1e3ab1943149a99f31d4692fd51: 21300000
    - 183e42e3835db4ff5bb281e046fb53b9: 21300000
    - 91dd86e3a3427402f9434d18a565c1cd: 21300000
    - a0c247e3f083848c1ac6a4ce1dd17322: 21300000
    - 0b4467f31f1c947bdbc86626f96c780d: 21300000
    - 756ea3143d566462eb049d3784aeb267: 21300000
    - fd888614c7c42450c962194ea7b9a64a: 21300000
    - 8cf3dc14d4c7e41f7840bdd9a9c2586f: 21300000
    - a12251244e373404cbcc7fabfe4432ce: 21300000
    - e34da23411a9b419b8a2130ed24fce17: 21300000
    - 2b600b34f1ff940c7aa49be37de87d83: 21300000
    - 416ce34459b014404a545d6e169a83bb: 21300000
    - a5dd7554840f04be0a941a838f943288: 21300000
    - a361a854dea1243e58d932fc57fdbe07: 21300000
    - 1d5f4d543e4de401599360429c57d253: 21300000
    - 564287644cd0a473ba85b0b8d609e6da: 21300000
    - 50f52d64a05a349299720f3552e46a0b: 21300000
    - a8bfe674dc9c946d4935c18e78acf90c: 21300000
    - e524b38413e424462a2ef9e5529f03f2: 21300000
    - 8d7224840ba9743899307ad2fad9638d: 21300000
    - 6ea5e19456de19b4a8a15ed3f49f7265: 21300000
    - e3c3a994f46d94b09ac9ca560d104e89: 21300000
    - 96931d940b6f746aaac58a17c221fee6: 21300000
    - f95ed6a447bcc4955a5a36d8c7df9f39: 21300000
    - 2e28e7b48a9714d0a875ab3e55699d4a: 21300000
    - 245431c4a54994e56af2acd05b13a6ea: 21300000
    - 375ccec424f9d4e7f890081738ddecd9: 21300000
    - 308050d4272d645fdb0be45680596f9a: 21300000
    - 085aeed437e974c44897e39b4f6ed368: 21300000
    - 9f9c25e4084b04f66aa1683109244d75: 21300000
    - f3f357e44e97143b5b0936bbfaa02043: 21300000
    - 7d6a0ee49b4174d28b5430318e801f31: 21300000
    - d4ccbfe440a9f46f49a4efc38d443517: 21300000
    - 61cc43f4e83a544e5b9640f5375d498b: 21300000
    - 172754f46e84d4b1db0eacccfe40f5ef: 21300000
    - d991e205dd1244f568df4aa7eedbdbcf: 21300000
    - 236bce058fb3a41e4aba626ee16acd6e: 21300000
    - 9af4b61546d8448379f50ae17178940b: 21300000
    - e0bf3c15383e746d9a07c900d0e4a0eb: 21300000
    - c2cb3525b71624fc38be5143afb6e00e: 21300000
    - 1f4c2d251c12941ff97d7223a8cc5dbb: 21300000
    - cfde0945de22845889327c0ade43ee02: 21300000
    - 5164a155e59d241c490ba928f8feeac9: 21300000
    - 237fd5555cf4cbb49bdb9e8cd3565c71: 21300000
    - f5d6b685285634a5089f2d3e99c64961: 21300000
    - 3630dc9590f3c49d8a4de6c692234317: 21300000
    - 8ea911b57d7da45d29c4deccf8576ed3: 21300000
    - 300595b51d4a04d719f1bf31c3743f5e: 21300000
    - 0b76c6b5939274a94a3ad49f03394456: 21300000
    - 79cc71d5f76b841eabb9f23047d487ac: 21300000
    - abb47bd56e43a493684bcc666956719a: 21300000
    - 8e7e87e5a813e494fb1289e638182d51: 21300000
    - 29c748f578a944442bae7fa6142bc19d: 21300000
    - 43ed2cf54eab047d58b4ddbd90d1b4d4: 21300000
    - a2726306ee3b640ab9a84f070a51afb5: 21300000
    - e9968406a50474743861102fdfc719eb: 21300000
    - 960dc506f02394852b827783207503a2: 21300000
    - 6f76cf064b16a4c92a1e6abd438af9a1: 21300000
    - 5725d716aa28e446da1d60b57a47ec2b: 21300000
    - b3abdb16664ae4f57b71659158525841: 21300000
    - c8540c16cb40443eda3badc61db951f3: 21300000
    - cfecb526354614e7aa03ecdbb27bb26e: 21300000
    - 71c9df2663d03b941a84871e16e19ae4: 21300000
    - 86bc34362267942ec8c8fc9a17b050ca: 21300000
    - 746f2636fd27a4b3ea44d6eada8e48d3: 21300000
    - b2d6b34603b4c4940be81d89cc7b9018: 21300000
    - c19f8446eb0464f3aaa90ed825c07230: 21300000
    - e33e6c46f52e54edc87a6fe2562d77f8: 21300000
    - 98d97f46651b94379938f3c87764e926: 21300000
    - 4c26f05686b04ab41bd11da0b0b3c78e: 21300000
    - 1eb4b856cf8cb4015a951244bd9cc42a: 21300000
    - 2464ab56bd0df4f4a9fbe5230512d368: 21300000
    - 4364f8669c1f94b98b49be88526ec756: 21300000
    - c8b71c66b091e401c8c1c2fa78117d03: 21300000
    - fa53f276fe2f34bbf9c4ba5f74b771b4: 21300000
    - 8284d976b3f254341ac745181e991005: 21300000
    - 2f8b23862d00143c99d56d56999eaa45: 21300000
    - 61a7a096b2533814fb875ae45c6f664f: 21300000
    - a3d30596f774a4c0aadfb0482ecccd22: 21300000
    - f74ca5967918642079d07a495c1a08d9: 21300000
    - 08f54b962cbff4eb4bb70a5c63334de7: 21300000
    - 3d4ebc96c43d94a11bf15cb08a6c0f53: 21300000
    - e5f8d5a6b5d094ab1ba6871fefd1b058: 21300000
    - c6da23b6aad694f5fbacdfdcaacf98e9: 21300000
    - 213592c67361b4c2bb5aedebcfaf7e79: 21300000
    - e721d2c64f7c946639e33e430bfb42d6: 21300000
    - 1e5fc1d6f84934474b196c671537a14b: 21300000
    - 386827d680d0c49e08a2a487ceecb461: 21300000
    - ee731cd603929412b82dbbf28205b9a0: 21300000
    - 783095e68106642dfa4621c1d21c0187: 21300000
    - 51cc47e6955914c3aa2f6c08f3e00f81: 21300000
    - a8bdd9e6a98e84443839af89d6d5a4e8: 21300000
    - 87f98ee6bda05ef4bb30fdb56e2f08ec: 21300000
    - c0894fe6fdf40e04ea1d33d88229edee: 21300000
    - 96fc84f68b65d05499f6dc200b957656: 21300000
    - 36a37bf69341a4ccb857a6b632bbb3e5: 21300000
    - e4d95d0718a9249d3a2eef8757900f24: 21300000
    - 2e5a6e076c50d415ea8caf5bdf4b36d1: 21300000
    - c2f0a017854624258bed048c173d7bdf: 21300000
    - 8e4ad7176686640bbb595822b80a62ae: 21300000
    - 87282627a78a54b4a8321db120e8ef59: 21300000
    - e1e336278643f4396bf4a2f007e457b5: 21300000
    - ff991727a45857142bb524b58d92e628: 21300000
    - ca1a99277817e415a93d6314bec6d939: 21300000
    - 0cba8d27ef3e54a14b54377da6af3ba6: 21300000
    - 143cd5671eed84d5d83200fd44f9fd18: 21300000
    - f28b08676b410e54d921afbc2a6d6f29: 21300000
    - 89e6ba677bed441b1b0196842401b6a0: 21300000
    - 36c6d6775f0015f44b28b3cfaaa87d10: 21300000
    - ff83497730f4b4b4ca63b5b855c4be33: 21300000
    - 6476ad77751bf4429bd7439268fb73a0: 21300000
    - c2ca4b8779adc4d7aba40844553a9805: 21300000
    - 0dc06c873c20149b69811e636e6eae9c: 21300000
    - 1a6e7697019644104b5fc523c612ee5a: 21300000
    - 81bc2897ef05c40859ce44fbac8408dc: 21300000
    - 58ecc5a780e1c4544896ba6cccd83a32: 21300000
    - 49029ac7b6f0b47ef87764f9ca3c002c: 21300000
    - 232feac72a8df415fbbff9540a38ec62: 21300000
    - 6eeb50d7cc2d34e87b8bc120eeeb91f4: 21300000
    - f7d037d70edd542cfa58af92f0857275: 21300000
    - 8f2dc7d76a1f64d7a9277871fc5716d9: 21300000
    - c3028ce72590d464d81173a56176d17e: 21300000
    - 2fea39f786d944bac953530eac477cdd: 21300000
    - b51de9f709bf24c0ebea11b4295d084e: 21300000
    - 5e65d0080d0a14818bb805b41e77ae70: 21300000
    - 3fb00728b987046e19e670eed60282dc: 21300000
    - 12de3b2858b584dc991a8a96da582a4e: 21300000
    - 114be558b5bfd4a8c9856176460c3180: 21300000
    - 6afed958b4b49ad46aa5f222480290d6: 21300000
    - 1e410b587bf364572a0417fc4a06d7f9: 21300000
    - 2e873368eb97440df851df669c271da8: 21300000
    - 8e3a6f685fa8b46c9b2c1a6431aa741d: 21300000
    - ee390478f999949d9878260f4ff34db0: 21300000
    - b6334c78dc430461a9a63569108ee428: 21300000
    - d04d9c78a02674bd487b8af87f9ad6b2: 21300000
    - f24a218870b104c3a94d023ec7e5438c: 21300000
    - aa98da88989be44fd85d0eb1654f16a3: 21300000
    - 94b3db88fd1774eaf9601f9523fef35a: 21300000
    - de020d98269e246a5af2459972c9868c: 21300000
    - ca9a37a897465442bb66bf55112fc35a: 21300000
    - 53249ea885676400081b35d5cec369f6: 21300000
    - 70eb92b8787a443bc944e1854206afaf: 21300000
    - a7c1d4c816c030649b8a72a51c35e7a7: 21300000
    - 664e19c8536a4412c8878ad8dd5ca14a: 21300000
    - 0efbdbc8e9ff243539d13c0079b88600: 21300000
    - 2b9fd3d8b4d0d4390a13ab4dbb2b27c2: 21300000
    - a97772e8197b63b48957a6b5f60d8edf: 21300000
    - 1b18f4e8dcab54a4198e68b78d1615bc: 21300000
    - 9de8c6e8c607d4c2a9f32e87109f298b: 21300000
    - 40c4eae8b946b4ea68eee9a2d13e9b46: 21300000
    - 2a576fe8ad1724a8384a870d1a18972e: 21300000
    - 8186c5f86f7816047859e50e411b7243: 21300000
    - 380469f8244f6407b860213fd3733e28: 21300000
    - 307fd419eb5e14e568ea82214d6d3f39: 21300000
    - ec1d5d19fa2334ad39a1084e3b8370fb: 21300000
    - cfb5b4291748a4d638842f5f27cc64a7: 21300000
    - 80100829751a547dd890a383b2dd9d4c: 21300000
    - a0c15939247a81046badd346053000f8: 21300000
    - 8a847a391a00448d59a2a4684d99071b: 21300000
    - d4b3c349672c64216984a22040d31c43: 21300000
    - 712a8e696390521468e2dbfc3d085bf8: 21300000
    - fddfff693f67f447ea7bfda19a8fef99: 21300000
    - a2da80890950040529f78b26e7cc1399: 21300000
    - 8bd12289d5b054941b6bcced035b3692: 21300000
    - ff8bc5891148a47898e52c9c94104130: 21300000
    - ffd129899adec4a2eb39331ddd35bdff: 21300000
    - f422f2991b95e441485a9cde7b1030a0: 21300000
    - a09398999c8fd423dae769b53db052b8: 21300000
    - 02172d99707a24568a1e0a2336d1bf4f: 21300000
    - 1e82fd9958d944ca0a27b7196d7cb5e1: 21300000
    - bc4ee6b94b6bd46759bd266c5aedcd85: 21300000
    - 759447b948ea849ab8843bb976000c7e: 21300000
    - b83ec7b9e65aa48b1915a332216bddf4: 21300000
    - 0b2e0db9af7514d93a789408cc7a3edd: 21300000
    - 5d2aafd9fc365463e93bb4104c3e3b27: 21300000
    - 882bf7e9b2f084d5e8959ded7277f27c: 21300000
    - 49f268e9044d24d04b506dcb35878f21: 21300000
    - 3490abe9635934632a7f9096f636d621: 21300000
    - 97fe41f9d77274bc6a8275faff7233fe: 21300000
    - b29468f94af384d3caa7d1e10adf0b04: 21300000
    - 33238af9442e049d5ace2443a280ab9b: 21300000
    - ef08610aef0794a7ab9e0cbf476012ad: 21300000
    - ef72850a84de74a4f99cf394c7e84e52: 21300000
    - f592d90a7e7284c2894ec99ede0c04e4: 21300000
    - 687ede0a6b1afc8468e06a8511fcf220: 21300000
    - 7bf6d81af44154ee18bff6b639ea9206: 21300000
    - 336e5e1a6cfed463db2cfc5a63781141: 21300000
    - d7b1a32a42e054148ab60701a940766d: 21300000
    - 5b5cf83a43fdfd54395589ec3aabda66: 21300000
    - 46a5393ae24e14741b63b870913aac59: 21300000
    - 3c1e4e3a2efe044cc820d32383d3388f: 21300000
    - 0a24d14a33d6f4e44ba8bf666be65f59: 21300000
    - ec3f444ae8fa4439dab7e8efdd7d0600: 21300000
    - 12dab64a114f34de68c2d61e27c66b23: 21300000
    - 73d47c4ab05074251bb3ebb3fcabe3d2: 21300000
    - 30c71e5a0528b456fb035ddbf1fa3b4f: 21300000
    - d60f507a04fe84ae99c2feae742cf580: 21300000
    - 37a8c77adfa2a004d97906b9b6c0fa84: 21300000
    - 933daa7a80e6a474197e3a0e5b5b72a9: 21300000
    - 05b2bc7a3f9fd424c8e05b0cc4ba0849: 21300000
    - 6a715e8a4cfeb4c52bdd5a842209c0a2: 21300000
    - e0e1cd9a5746f41f884e32b0d0ea8681: 21300000
    - 658ba1ca686274e2e90906eb2a36a128: 21300000
    - 7cee28caca5274d27af4700caacee682: 21300000
    - be365bda2aa9844d5b0cc2aac40bae67: 21300000
    - 1fca50ea502a841978bfcb63c3c29ae1: 21300000
    - b25987ea5cdb04b1b9d6384ba8c9ec8c: 21300000
    - fc1ae1fadad6e40e48175d2e84a271c0: 21300000
    - 201bd9fa3cc124594ad3d7365a2581df: 21300000
    - 4837bcfa820b54c569a4276a0509cbe4: 21300000
    - da07802b9877f4274929bfa7f082a156: 21300000
    - a8db143b276ea47f4954d517f442f02f: 21300000
    - dfc9c93bec793403e9b8292e46168328: 21300000
    - 010c434b39c0343d989efabd915083ea: 21300000
    - a230164bbd026452380680e3d57ddbe2: 21300000
    - 764fbe4bce6ef6f43b59cc77718a2600: 21300000
    - b593356ba1cb04cfd84c19bb542e78a0: 21300000
    - 9029457b41a4d41ca9426e75056b7c17: 21300000
    - 3b52dc7ba685942c3bcfb81b6bd5a0e1: 21300000
    - ab5fbe7b4ddde43238e95b947b1c1aec: 21300000
    - 0610f18b31c48dd4db66b9448467eefa: 21300000
    - 8712e38bbe2d8408b94744e68c45ef80: 21300000
    - 751d0c8b08d94478e9f8c558893730b5: 21300000
    - 52f1399be6bbe4bc5beb7972e53e643d: 21300000
    - 1d256c9b15fd542eaaafad6b07b98b9f: 21300000
    - 1c1460abbddd743359dbd7fa00f65642: 21300000
    - 828766ab45b96440db28d921f3d88a6e: 21300000
    - af7db7ab761e94237884115025391229: 21300000
    - c9db2dabe865c904a9811629a69802d2: 21300000
    - 776923bba1e3e4867a0a8730c1f9431c: 21300000
    - 78b002cbeb353486683063013cef601c: 21300000
    - cfb953db67e8044448cb68a22400ce94: 21300000
    - 2e5af4db1f31744d9bd6f3f328b0cb7a: 21300000
    - 00aefbdb3454e4f3289d81368f525619: 21300000
    - 768a2beb0cf114721b1e637825a6ab87: 21300000
    - 886581fba3f7845ca9c6a8ebfde81f3b: 21300000
    - 1a0ce3fb748c0487a9349174f80b762d: 21300000
    - 013abefb91afc4c77a6d8404a4242935: 21300000
    - 4fc92e0c478f0bc438c41ade09770310: 21300000
    - 326a521c5eb2f4894897290f39a511d9: 21300000
    - a2e7272c67d564159a33b5a642fbbdfd: 21300000
    - 5e2d9e2c603224eca8533b456cddb11b: 21300000
    - e8a6513c8d89d45cca172dff4c91d34f: 21300000
    - 8741ac3c9b95246d6ba2006354c5d3b6: 21300000
    - 0e8a2d4c2adfb4a0ca427edcc7f185d5: 21300000
    - 92a33f4c96b54428f874dbdf1bf0579d: 21300000
    - d129b75ce6e32426eb498a510a964d19: 21300000
    - 71d53d5c4d04e44c3885b378fafd77f2: 21300000
    - 402fdf5cada5e4153861cc3135a5ad87: 21300000
    - 564dd26c596ec4a57a28c723f9139cdc: 21300000
    - 8e1e887cab0f24167ba9450a836527db: 21300000
    - 37d42b7c51eee43f48885c2b42c9c691: 21300000
    - c1735e7c412f844d9b0b60dbf2f4fc4e: 21300000
    - 34227a8c46bbd430f827ab2bead04316: 21300000
    - f156cc8c203cf45688a2696b2231fd7b: 21300000
    - deb5ac9c274d2400097baaa9b6566d69: 21300000
    - df2befac78ba04bd69b93cf15d60dcd3: 21300000
    - 8a3652cc2b58a4246a227b0a74ccba6c: 21300000
    - f74705cc5c3f86240b9da2aa1415fe86: 21300000
    - 093e58cc26b764cf7a22c1fff8ef4f13: 21300000
    - deff91dc119ae4e248df870d7d05fac4: 21300000
    - c9fb46dc0361d443aad923b24aeee01a: 21300000
    - 0e46a6dc0f5d74180856fedd052fa940: 21300000
    - 093006ec9fcf64feba2e38bc6a408bc0: 21300000
    - 325637ecc32c707488b24a330266039c: 21300000
    - c56c98ecbd6894e7db3b1daf443b4f4e: 21300000
    - 0305bcfce57d44b248eecd6e3d6f3045: 21300000
    - 67e6fb0d5187b43d991c7e857fe84a35: 21300000
    - 52b3a01dd49084a68bab66eba8cadbc5: 21300000
    - f78e461d58ab54d26a4237b02f57f221: 21300000
    - ac89533dd9ef84b1da4d4db0a1946745: 21300000
    - ec60993d7b4264be69dc8f43d3d42fcb: 21300000
    - c651bd3ddcd224d85a74f414f356ccea: 21300000
    - 649b9b4d7f8dc416a913bfe410fc37a7: 21300000
    - 02652e4d06bc44193a3b9fd3992b74ae: 21300000
    - 0354007de53ed49b2b1f3e7625bd4655: 21300000
    - 01ec867d17a9fcf44a4c8be0f7bab907: 21300000
    - 3f9a8f7d8e2b44e14b7260e115875ef9: 21300000
    - 84e8628dc987c48adb2f241f85c0c0db: 21300000
    - cbf1c38d38278456ba2be9b738479ff1: 21300000
    - 6f6cc68dc64434c08aa52f3f37ac85a2: 21300000
    - 3c170b8d0967a427b90d73340773ac80: 21300000
    - 95ffdf8dc55084fbf86936f60ecbe587: 21300000
    - 117d2e9d107554075a72a71d649f310e: 21300000
    - 9bcc3fad082e7462cbaafd585208ccf5: 21300000
    - dddd48bdf865346d394bf2f1447c459f: 21300000
    - c73f9bbd6bd284697916aa64528e97e9: 21300000
    - 664e61cda6ced434aaf0fb221127a230: 21300000
    - deb824cd1489b43dda3885a4a9dc9f30: 21300000
    - 6e6eeacd22d7f4d97999740611f818e6: 21300000
    - 6e627ccd84525456585a782448162b5b: 21300000
    - 4d4d72dd25f88e740b1f1f9ca4ed44ab: 21300000
    - 025f8bdd2a59144bfb57b74dd4f044f5: 21300000
    - ae5312edd144c483396cbd9f41789fa8: 21300000
    - 2dc24afd7a5eb44de8ca8db2af1aa779: 21300000
    - 34ec3cfdde06b49c28c6907f2744e847: 21300000
    - a5442e1e34ce044c3a378b55f206d8f3: 21300000
    - 917d242e41f404c1fb584a7b162ba450: 21300000
    - 6f006b2ec2e9746ed86303d01e6a67f3: 21300000
    - a21edb2e8df6d4d8e96c58d0f76767c8: 21300000
    - ff467e3e1ea80432c9a223f25e246054: 21300000
    - fd0be94e913c74c43bd6a87cc5e527b4: 21300000
    - 6cbb4f5e3f8774693a0b16a9d9dabd80: 21300000
    - 67ebab6ee1b5c8e409c97a314b95a6bc: 21300000
    - 58db418ef5cc8460d924f66524aa5ba3: 21300000
    - 56df298ee5c684471b1cd6ee58f3ee17: 21300000
    - cb11898e5f0ed46ae82bc85bfc016280: 21300000
    - dc80cf8eec89741cfacf22409d7838d9: 21300000
    - f5ad6b9efb2144821866bee51a6db555: 21300000
    - 36785c9e57fa5487bbef14c0f85b781b: 21300000
    - cbc44e9eb57e0410ba3b651e81548219: 21300000
    - 3753e8ce9e71b4345bc5dce5f91fb604: 21300000
    - 110d5fce3df814d6abd1afe78ef10003: 21300000
    - 376400ee33ec84f598aa990aed07fefe: 21300000
    - da2c561f31dd04dc9b18f1311293feae: 21300000
    - 3da8f61f132dd4e279fec7a4c4cc0396: 21300000
    - 54e04d1fa54674c8981e4bb390f0a710: 21300000
    - b8c9202f1ddc645f7b34b1619a42a2c4: 21300000
    - ee2d012f4dbd44f5387b647b9b774e29: 21300000
    - 88ec6e2f34b074569864c95f93bd6eee: 21300000
    - b252d73fa30e6274ea2bce26c014a377: 21300000
    - 014ba83f14b424e8ebaaf2975ffb243c: 21300000
    - 57d4437fc18f5254fa702449dd1da67a: 21300000
    - 6648697f576f241d4a1be2310abeb750: 21300000
    - 9fedd28f58e44479c88adfa2329249b8: 21300000
    - 17f91c8fdafdf4a93af129ddb58c0dd4: 21300000
    - a5fb1c8f1e0ae2b43839bb0c0df0dee6: 21300000
    - 548a8b9fecd6045c88caa0418e46a1ed: 21300000
    - bca0f4afa89b545cda6afe3660ab0dea: 21300000
    - bf4c08aff9ff247a49ee54e0c93ef627: 21300000
    - 4d9592dfad2682e4595720ba6752cf0d: 21300000
    - f2bb33df7648746399b73899238e02ba: 21300000
    - 198646ef488944599abe32de89fcc99c: 21300000
    - ae949aff8fba4bf47bdb91da04205a66: 21300000
  m_MasterAtlas: {fileID: 0}
  m_PackedSprites:
  - {fileID: 21300000, guid: 6d8401004e5b944739068474157b7bab, type: 3}
  - {fileID: 21300000, guid: 834091002437ee64e9e7572e4a21db89, type: 3}
  - {fileID: 21300000, guid: 3ba12b00ac6304f0ea6d93a514e4b6c4, type: 3}
  - {fileID: 21300000, guid: b93160207b75945558258093b8a24926, type: 3}
  - {fileID: 21300000, guid: 90c9482002e894368a6e3a8d75120e01, type: 3}
  - {fileID: 21300000, guid: 58936820ff24f4e1b8dae6d9363e7590, type: 3}
  - {fileID: 21300000, guid: 1b03aa209e153401eb71896cbff3382e, type: 3}
  - {fileID: 21300000, guid: 45db623021e35436ab19a807597c0cfa, type: 3}
  - {fileID: 21300000, guid: 7c1144305435a44cabf9023322d16bac, type: 3}
  - {fileID: 21300000, guid: cefd1530e076cad499f192f7925616e0, type: 3}
  - {fileID: 21300000, guid: df4d11406f54a47caba52d95cfbc3a99, type: 3}
  - {fileID: 21300000, guid: 5d97b140d35024b9b908981e0d6bbbe4, type: 3}
  - {fileID: 21300000, guid: 40f9d6405d3da4f359ba43f6f8af76f7, type: 3}
  - {fileID: 21300000, guid: b7f9d8409b0579347aa84a5bf9013c63, type: 3}
  - {fileID: 21300000, guid: 2373735031a749c45945944befcfe0f8, type: 3}
  - {fileID: 21300000, guid: 9a562860ca9c94690819289e97bb1b0b, type: 3}
  - {fileID: 21300000, guid: 93320f60e0e9549ec9b00fae59d6b522, type: 3}
  - {fileID: 21300000, guid: 7950f1702ffb84efbb9c8f8a60d87e49, type: 3}
  - {fileID: 21300000, guid: ef0d73809ee31cc4dbaab7aa2f7cef28, type: 3}
  - {fileID: 21300000, guid: 016d1a80954bd465081eb4e2b2e98b05, type: 3}
  - {fileID: 21300000, guid: 8f19af80c6b444950979e96faa830ba8, type: 3}
  - {fileID: 21300000, guid: 6765b2906f6e44050b49abbec5c54680, type: 3}
  - {fileID: 21300000, guid: cc194490b8d144d098bee20c449ca989, type: 3}
  - {fileID: 21300000, guid: 9fc400a03eeece546b2ca9ac0ef3cf10, type: 3}
  - {fileID: 21300000, guid: 79a552a0cbddd40cd98d5040f064eedd, type: 3}
  - {fileID: 21300000, guid: 82bf95a0ef64543508f48bc578658fd8, type: 3}
  - {fileID: 21300000, guid: 4637dec06513a4894ab700b4d2b2bd17, type: 3}
  - {fileID: 21300000, guid: 90ef8fc06a9fe4ae6bc0178781dad378, type: 3}
  - {fileID: 21300000, guid: 121114d0e511348609f636c8ba6b49a6, type: 3}
  - {fileID: 21300000, guid: 3548d4d0e3db54013ba55b3ed7d1a026, type: 3}
  - {fileID: 21300000, guid: b9d22bd0c693742b7afe9d74e14d6b8b, type: 3}
  - {fileID: 21300000, guid: 9c494cd04a965cf4d9f7129cb913a51d, type: 3}
  - {fileID: 21300000, guid: 0fee66e0ad7209c45a81630ba8d5cc65, type: 3}
  - {fileID: 21300000, guid: cacc88e0c4bf048a79eaa05d8287395a, type: 3}
  - {fileID: 21300000, guid: 2db880f04fe8f44e7baa2f97eb2d1073, type: 3}
  - {fileID: 21300000, guid: 502b69f020f344c2ca23c5824f397768, type: 3}
  - {fileID: 21300000, guid: 4e9f8cf005a1c4c73ae409af3063a8de, type: 3}
  - {fileID: 21300000, guid: 79f42ef0ad81c4cea91becdfcf4eb6a7, type: 3}
  - {fileID: 21300000, guid: a93845018319c4ad4a7cd93dabb9274d, type: 3}
  - {fileID: 21300000, guid: a756960124ecf4ba6a849f3b170c281f, type: 3}
  - {fileID: 21300000, guid: 88124711f5bf242a8858ff145c00c0a7, type: 3}
  - {fileID: 21300000, guid: 1743bc11c85018d468df05936dda8c14, type: 3}
  - {fileID: 21300000, guid: fb226f1130483417881dad6755bbd480, type: 3}
  - {fileID: 21300000, guid: 1c30bc319e6fa491e9ead7f8710f5107, type: 3}
  - {fileID: 21300000, guid: 3ed29241a827e4115a1dcad8e25664f9, type: 3}
  - {fileID: 21300000, guid: f13d3251d939d4076b146cb9e419735c, type: 3}
  - {fileID: 21300000, guid: 4ca891619353b4ba7802c6aeea12d515, type: 3}
  - {fileID: 21300000, guid: 7aad91616bd16489d9d7c32ad0f23271, type: 3}
  - {fileID: 21300000, guid: 09992271d1d184a7580da7a79c30c0bc, type: 3}
  - {fileID: 21300000, guid: 049ab671b786e48ab9435af59e757181, type: 3}
  - {fileID: 21300000, guid: 663df081f4ad446948ac8175ef554091, type: 3}
  - {fileID: 21300000, guid: fc89ee812ae5b40fdaf2b15c65d47d34, type: 3}
  - {fileID: 21300000, guid: 8e4fe191b64644b83ac3de50c06b3e1e, type: 3}
  - {fileID: 21300000, guid: 8dbe44a1ca0a14cedac1ebfc2e6dc5a3, type: 3}
  - {fileID: 21300000, guid: 9a72c7a1677f6481f88aacde58313876, type: 3}
  - {fileID: 21300000, guid: a71db9a131d2845a780b13eccb6f994a, type: 3}
  - {fileID: 21300000, guid: 329adeb1bc12c421ba5c96d90fdd716f, type: 3}
  - {fileID: 21300000, guid: a31435c1bd0cc4c278b4e2d7ca306b34, type: 3}
  - {fileID: 21300000, guid: b0eef5c11f8314238834b8d9215b0712, type: 3}
  - {fileID: 21300000, guid: 953c16c159a8347a7b5481737c59f0ae, type: 3}
  - {fileID: 21300000, guid: aca6a9d16c19e43baa7cfa8fd2e90477, type: 3}
  - {fileID: 21300000, guid: 658390f10100a4fd4b1a58bda6f07499, type: 3}
  - {fileID: 21300000, guid: 4e8007f1bbd8b433999560d5d5d61230, type: 3}
  - {fileID: 21300000, guid: bb3cfef138bc943d6acfabbcbeabf958, type: 3}
  - {fileID: 21300000, guid: a88791027226ce444a30cf61e21e5425, type: 3}
  - {fileID: 21300000, guid: f4e68202c40374a2d93af09c811b3dda, type: 3}
  - {fileID: 21300000, guid: 1ce3d402bf352496ba2f32331317a0d4, type: 3}
  - {fileID: 21300000, guid: 8b35a702573ff4030a0ef3c0eed99868, type: 3}
  - {fileID: 21300000, guid: 57fda012baf804c5ba846bb8e3aaf3dd, type: 3}
  - {fileID: 21300000, guid: 0173dc12cbc9f4307b593bf98a80cf4c, type: 3}
  - {fileID: 21300000, guid: 79fdde1205e3b40ea9e81e97901ffd9f, type: 3}
  - {fileID: 21300000, guid: be7b20226211f42b1b57004b5110fffe, type: 3}
  - {fileID: 21300000, guid: af943122a39f1445aa888dd69df075c4, type: 3}
  - {fileID: 21300000, guid: 52e9e122f84f24011a1cb93d3687fcd3, type: 3}
  - {fileID: 21300000, guid: 1e27bb220364f4110ae8f151ad31b021, type: 3}
  - {fileID: 21300000, guid: 470710320afe4406c8a54380e4461abd, type: 3}
  - {fileID: 21300000, guid: bcb6e03212a9b4836b9c3feab141b0b5, type: 3}
  - {fileID: 21300000, guid: 9710a132818c74cc88a8c5d8d43716bf, type: 3}
  - {fileID: 21300000, guid: 36bb59327a34049ffa7b8ddad7dce4dd, type: 3}
  - {fileID: 21300000, guid: b8a0fc32caea640caafd3cc98cef0845, type: 3}
  - {fileID: 21300000, guid: 13cff2426144d4ae0b76249d56f117bd, type: 3}
  - {fileID: 21300000, guid: b77a81523edb54d3295661747c754815, type: 3}
  - {fileID: 21300000, guid: 16d19a520967840c9b5a3ca79e9c976f, type: 3}
  - {fileID: 21300000, guid: ef2f5062080f644e6ab9a3e48c5ef8ee, type: 3}
  - {fileID: 21300000, guid: 3674ed62661de4613a91dc2a54f84744, type: 3}
  - {fileID: 21300000, guid: f2b28572a1fbc4bcd81cfca2176cfd2b, type: 3}
  - {fileID: 21300000, guid: b386d772cb38b45ed89b432ae584f96a, type: 3}
  - {fileID: 21300000, guid: 43e72a72dd7aa48b18d361ce60c79a79, type: 3}
  - {fileID: 21300000, guid: f7376e92d7e9148dbb85125adf6b8f85, type: 3}
  - {fileID: 21300000, guid: d2f516a26b23849b2b57e52d9cede271, type: 3}
  - {fileID: 21300000, guid: 51e7b6a2e336c04429602ddbd5965a7c, type: 3}
  - {fileID: 21300000, guid: a00feaa2c4f4e4ba8862bb9f7b32d2e1, type: 3}
  - {fileID: 21300000, guid: f143e2b2efb104adc96fa43c97e88438, type: 3}
  - {fileID: 21300000, guid: bd39c3b2b2b394269ac3cc7c0c4c6d3f, type: 3}
  - {fileID: 21300000, guid: e9dc25b2aa619402c95a17d99d7f2972, type: 3}
  - {fileID: 21300000, guid: 29b369c283ace4deb8cc589ec21712e7, type: 3}
  - {fileID: 21300000, guid: cec9bcc2114d8434ea8ba0c528a540d5, type: 3}
  - {fileID: 21300000, guid: b79c60d2a73b242d6a211b71c52e8f90, type: 3}
  - {fileID: 21300000, guid: 2a9778d2478624b4287590c143220b9c, type: 3}
  - {fileID: 21300000, guid: 4909ecd29eb434c129a2fd4c11065ce4, type: 3}
  - {fileID: 21300000, guid: 85fa31e2a5bc544d8b5f27d1e815ac43, type: 3}
  - {fileID: 21300000, guid: e62a2de2f642e47428ad626f32c75cf2, type: 3}
  - {fileID: 21300000, guid: 424901f284aad4ac79611454a976ad6f, type: 3}
  - {fileID: 21300000, guid: 35a953f276a67441ca175cd5ea629400, type: 3}
  - {fileID: 21300000, guid: 05cf38f2ac54440e49ab101ed7d1b599, type: 3}
  - {fileID: 21300000, guid: d59846031672e48fab8df4c18a3daf73, type: 3}
  - {fileID: 21300000, guid: 705984139be6b4c90bb778c7f6d9a0b0, type: 3}
  - {fileID: 21300000, guid: a0c64c13714143e43be37c89cb10693b, type: 3}
  - {fileID: 21300000, guid: 11e6a523b4f814d0e89ba0ac8d051d84, type: 3}
  - {fileID: 21300000, guid: 2b4cf62360b4c4669983cabf7361fcaa, type: 3}
  - {fileID: 21300000, guid: b5d2ae2311ab546db88d040469639c95, type: 3}
  - {fileID: 21300000, guid: df27be238c1cd4f4683f1e213882b1b4, type: 3}
  - {fileID: 21300000, guid: 85dd2a434bfa443c2acaf4b3bf9a39a7, type: 3}
  - {fileID: 21300000, guid: ad6024536f1024db7a0fa62b115168f9, type: 3}
  - {fileID: 21300000, guid: eab35f538a168499c8657aeac057f2cf, type: 3}
  - {fileID: 21300000, guid: abca10633bc7bdd4793cc29741a88045, type: 3}
  - {fileID: 21300000, guid: daef1f83a6d72475bb638609224bae08, type: 3}
  - {fileID: 21300000, guid: eed9b293622214baab25741e000b75f8, type: 3}
  - {fileID: 21300000, guid: df89e293d2c844249b2960865dd6543d, type: 3}
  - {fileID: 21300000, guid: 37eb53a3ccd254c96975d3deca4b54ab, type: 3}
  - {fileID: 21300000, guid: a3d795a3410b34b5d85b8f92ec6680b4, type: 3}
  - {fileID: 21300000, guid: 0f75d7a389f2b4798878d875ea45e137, type: 3}
  - {fileID: 21300000, guid: 024768a3c136340a2b1af34d66b4643f, type: 3}
  - {fileID: 21300000, guid: a00c0da388e294222ae7f9ef75be6556, type: 3}
  - {fileID: 21300000, guid: fa81afb3bfb0544a799062f14f656fe9, type: 3}
  - {fileID: 21300000, guid: 144fffb3aff84483a992c6719488e0f4, type: 3}
  - {fileID: 21300000, guid: f01116c359fd647448efc400f71e2251, type: 3}
  - {fileID: 21300000, guid: e9946cc37630e4befbce876573d53b38, type: 3}
  - {fileID: 21300000, guid: 03b79dc324cae41fe92a47a7fcfde0a3, type: 3}
  - {fileID: 21300000, guid: ca6283d3b1fd7445da4d490e43f31762, type: 3}
  - {fileID: 21300000, guid: 929700e37718443fea9bca0966e7e9d6, type: 3}
  - {fileID: 21300000, guid: 9ca191e36b2564e87a1e7bc60b80a775, type: 3}
  - {fileID: 21300000, guid: 821cd1e3ab1943149a99f31d4692fd51, type: 3}
  - {fileID: 21300000, guid: 183e42e3835db4ff5bb281e046fb53b9, type: 3}
  - {fileID: 21300000, guid: 91dd86e3a3427402f9434d18a565c1cd, type: 3}
  - {fileID: 21300000, guid: a0c247e3f083848c1ac6a4ce1dd17322, type: 3}
  - {fileID: 21300000, guid: 0b4467f31f1c947bdbc86626f96c780d, type: 3}
  - {fileID: 21300000, guid: 756ea3143d566462eb049d3784aeb267, type: 3}
  - {fileID: 21300000, guid: fd888614c7c42450c962194ea7b9a64a, type: 3}
  - {fileID: 21300000, guid: 8cf3dc14d4c7e41f7840bdd9a9c2586f, type: 3}
  - {fileID: 21300000, guid: a12251244e373404cbcc7fabfe4432ce, type: 3}
  - {fileID: 21300000, guid: e34da23411a9b419b8a2130ed24fce17, type: 3}
  - {fileID: 21300000, guid: 2b600b34f1ff940c7aa49be37de87d83, type: 3}
  - {fileID: 21300000, guid: 416ce34459b014404a545d6e169a83bb, type: 3}
  - {fileID: 21300000, guid: a5dd7554840f04be0a941a838f943288, type: 3}
  - {fileID: 21300000, guid: a361a854dea1243e58d932fc57fdbe07, type: 3}
  - {fileID: 21300000, guid: 1d5f4d543e4de401599360429c57d253, type: 3}
  - {fileID: 21300000, guid: 564287644cd0a473ba85b0b8d609e6da, type: 3}
  - {fileID: 21300000, guid: 50f52d64a05a349299720f3552e46a0b, type: 3}
  - {fileID: 21300000, guid: a8bfe674dc9c946d4935c18e78acf90c, type: 3}
  - {fileID: 21300000, guid: e524b38413e424462a2ef9e5529f03f2, type: 3}
  - {fileID: 21300000, guid: 8d7224840ba9743899307ad2fad9638d, type: 3}
  - {fileID: 21300000, guid: 6ea5e19456de19b4a8a15ed3f49f7265, type: 3}
  - {fileID: 21300000, guid: e3c3a994f46d94b09ac9ca560d104e89, type: 3}
  - {fileID: 21300000, guid: 96931d940b6f746aaac58a17c221fee6, type: 3}
  - {fileID: 21300000, guid: f95ed6a447bcc4955a5a36d8c7df9f39, type: 3}
  - {fileID: 21300000, guid: 2e28e7b48a9714d0a875ab3e55699d4a, type: 3}
  - {fileID: 21300000, guid: 245431c4a54994e56af2acd05b13a6ea, type: 3}
  - {fileID: 21300000, guid: 375ccec424f9d4e7f890081738ddecd9, type: 3}
  - {fileID: 21300000, guid: 308050d4272d645fdb0be45680596f9a, type: 3}
  - {fileID: 21300000, guid: 085aeed437e974c44897e39b4f6ed368, type: 3}
  - {fileID: 21300000, guid: 9f9c25e4084b04f66aa1683109244d75, type: 3}
  - {fileID: 21300000, guid: f3f357e44e97143b5b0936bbfaa02043, type: 3}
  - {fileID: 21300000, guid: 7d6a0ee49b4174d28b5430318e801f31, type: 3}
  - {fileID: 21300000, guid: d4ccbfe440a9f46f49a4efc38d443517, type: 3}
  - {fileID: 21300000, guid: 61cc43f4e83a544e5b9640f5375d498b, type: 3}
  - {fileID: 21300000, guid: 172754f46e84d4b1db0eacccfe40f5ef, type: 3}
  - {fileID: 21300000, guid: d991e205dd1244f568df4aa7eedbdbcf, type: 3}
  - {fileID: 21300000, guid: 236bce058fb3a41e4aba626ee16acd6e, type: 3}
  - {fileID: 21300000, guid: 9af4b61546d8448379f50ae17178940b, type: 3}
  - {fileID: 21300000, guid: e0bf3c15383e746d9a07c900d0e4a0eb, type: 3}
  - {fileID: 21300000, guid: c2cb3525b71624fc38be5143afb6e00e, type: 3}
  - {fileID: 21300000, guid: 1f4c2d251c12941ff97d7223a8cc5dbb, type: 3}
  - {fileID: 21300000, guid: cfde0945de22845889327c0ade43ee02, type: 3}
  - {fileID: 21300000, guid: 5164a155e59d241c490ba928f8feeac9, type: 3}
  - {fileID: 21300000, guid: 237fd5555cf4cbb49bdb9e8cd3565c71, type: 3}
  - {fileID: 21300000, guid: f5d6b685285634a5089f2d3e99c64961, type: 3}
  - {fileID: 21300000, guid: 3630dc9590f3c49d8a4de6c692234317, type: 3}
  - {fileID: 21300000, guid: 8ea911b57d7da45d29c4deccf8576ed3, type: 3}
  - {fileID: 21300000, guid: 300595b51d4a04d719f1bf31c3743f5e, type: 3}
  - {fileID: 21300000, guid: 0b76c6b5939274a94a3ad49f03394456, type: 3}
  - {fileID: 21300000, guid: 79cc71d5f76b841eabb9f23047d487ac, type: 3}
  - {fileID: 21300000, guid: abb47bd56e43a493684bcc666956719a, type: 3}
  - {fileID: 21300000, guid: 8e7e87e5a813e494fb1289e638182d51, type: 3}
  - {fileID: 21300000, guid: 29c748f578a944442bae7fa6142bc19d, type: 3}
  - {fileID: 21300000, guid: 43ed2cf54eab047d58b4ddbd90d1b4d4, type: 3}
  - {fileID: 21300000, guid: a2726306ee3b640ab9a84f070a51afb5, type: 3}
  - {fileID: 21300000, guid: e9968406a50474743861102fdfc719eb, type: 3}
  - {fileID: 21300000, guid: 960dc506f02394852b827783207503a2, type: 3}
  - {fileID: 21300000, guid: 6f76cf064b16a4c92a1e6abd438af9a1, type: 3}
  - {fileID: 21300000, guid: 5725d716aa28e446da1d60b57a47ec2b, type: 3}
  - {fileID: 21300000, guid: b3abdb16664ae4f57b71659158525841, type: 3}
  - {fileID: 21300000, guid: c8540c16cb40443eda3badc61db951f3, type: 3}
  - {fileID: 21300000, guid: cfecb526354614e7aa03ecdbb27bb26e, type: 3}
  - {fileID: 21300000, guid: 71c9df2663d03b941a84871e16e19ae4, type: 3}
  - {fileID: 21300000, guid: 86bc34362267942ec8c8fc9a17b050ca, type: 3}
  - {fileID: 21300000, guid: 746f2636fd27a4b3ea44d6eada8e48d3, type: 3}
  - {fileID: 21300000, guid: b2d6b34603b4c4940be81d89cc7b9018, type: 3}
  - {fileID: 21300000, guid: c19f8446eb0464f3aaa90ed825c07230, type: 3}
  - {fileID: 21300000, guid: e33e6c46f52e54edc87a6fe2562d77f8, type: 3}
  - {fileID: 21300000, guid: 98d97f46651b94379938f3c87764e926, type: 3}
  - {fileID: 21300000, guid: 4c26f05686b04ab41bd11da0b0b3c78e, type: 3}
  - {fileID: 21300000, guid: 1eb4b856cf8cb4015a951244bd9cc42a, type: 3}
  - {fileID: 21300000, guid: 2464ab56bd0df4f4a9fbe5230512d368, type: 3}
  - {fileID: 21300000, guid: 4364f8669c1f94b98b49be88526ec756, type: 3}
  - {fileID: 21300000, guid: c8b71c66b091e401c8c1c2fa78117d03, type: 3}
  - {fileID: 21300000, guid: fa53f276fe2f34bbf9c4ba5f74b771b4, type: 3}
  - {fileID: 21300000, guid: 8284d976b3f254341ac745181e991005, type: 3}
  - {fileID: 21300000, guid: 2f8b23862d00143c99d56d56999eaa45, type: 3}
  - {fileID: 21300000, guid: 61a7a096b2533814fb875ae45c6f664f, type: 3}
  - {fileID: 21300000, guid: a3d30596f774a4c0aadfb0482ecccd22, type: 3}
  - {fileID: 21300000, guid: f74ca5967918642079d07a495c1a08d9, type: 3}
  - {fileID: 21300000, guid: 08f54b962cbff4eb4bb70a5c63334de7, type: 3}
  - {fileID: 21300000, guid: 3d4ebc96c43d94a11bf15cb08a6c0f53, type: 3}
  - {fileID: 21300000, guid: e5f8d5a6b5d094ab1ba6871fefd1b058, type: 3}
  - {fileID: 21300000, guid: c6da23b6aad694f5fbacdfdcaacf98e9, type: 3}
  - {fileID: 21300000, guid: 213592c67361b4c2bb5aedebcfaf7e79, type: 3}
  - {fileID: 21300000, guid: e721d2c64f7c946639e33e430bfb42d6, type: 3}
  - {fileID: 21300000, guid: 1e5fc1d6f84934474b196c671537a14b, type: 3}
  - {fileID: 21300000, guid: 386827d680d0c49e08a2a487ceecb461, type: 3}
  - {fileID: 21300000, guid: ee731cd603929412b82dbbf28205b9a0, type: 3}
  - {fileID: 21300000, guid: 783095e68106642dfa4621c1d21c0187, type: 3}
  - {fileID: 21300000, guid: 51cc47e6955914c3aa2f6c08f3e00f81, type: 3}
  - {fileID: 21300000, guid: a8bdd9e6a98e84443839af89d6d5a4e8, type: 3}
  - {fileID: 21300000, guid: 87f98ee6bda05ef4bb30fdb56e2f08ec, type: 3}
  - {fileID: 21300000, guid: c0894fe6fdf40e04ea1d33d88229edee, type: 3}
  - {fileID: 21300000, guid: 96fc84f68b65d05499f6dc200b957656, type: 3}
  - {fileID: 21300000, guid: 36a37bf69341a4ccb857a6b632bbb3e5, type: 3}
  - {fileID: 21300000, guid: e4d95d0718a9249d3a2eef8757900f24, type: 3}
  - {fileID: 21300000, guid: 2e5a6e076c50d415ea8caf5bdf4b36d1, type: 3}
  - {fileID: 21300000, guid: c2f0a017854624258bed048c173d7bdf, type: 3}
  - {fileID: 21300000, guid: 8e4ad7176686640bbb595822b80a62ae, type: 3}
  - {fileID: 21300000, guid: 87282627a78a54b4a8321db120e8ef59, type: 3}
  - {fileID: 21300000, guid: e1e336278643f4396bf4a2f007e457b5, type: 3}
  - {fileID: 21300000, guid: ff991727a45857142bb524b58d92e628, type: 3}
  - {fileID: 21300000, guid: ca1a99277817e415a93d6314bec6d939, type: 3}
  - {fileID: 21300000, guid: 0cba8d27ef3e54a14b54377da6af3ba6, type: 3}
  - {fileID: 21300000, guid: 143cd5671eed84d5d83200fd44f9fd18, type: 3}
  - {fileID: 21300000, guid: f28b08676b410e54d921afbc2a6d6f29, type: 3}
  - {fileID: 21300000, guid: 89e6ba677bed441b1b0196842401b6a0, type: 3}
  - {fileID: 21300000, guid: 36c6d6775f0015f44b28b3cfaaa87d10, type: 3}
  - {fileID: 21300000, guid: ff83497730f4b4b4ca63b5b855c4be33, type: 3}
  - {fileID: 21300000, guid: 6476ad77751bf4429bd7439268fb73a0, type: 3}
  - {fileID: 21300000, guid: c2ca4b8779adc4d7aba40844553a9805, type: 3}
  - {fileID: 21300000, guid: 0dc06c873c20149b69811e636e6eae9c, type: 3}
  - {fileID: 21300000, guid: 1a6e7697019644104b5fc523c612ee5a, type: 3}
  - {fileID: 21300000, guid: 81bc2897ef05c40859ce44fbac8408dc, type: 3}
  - {fileID: 21300000, guid: 58ecc5a780e1c4544896ba6cccd83a32, type: 3}
  - {fileID: 21300000, guid: 49029ac7b6f0b47ef87764f9ca3c002c, type: 3}
  - {fileID: 21300000, guid: 232feac72a8df415fbbff9540a38ec62, type: 3}
  - {fileID: 21300000, guid: 6eeb50d7cc2d34e87b8bc120eeeb91f4, type: 3}
  - {fileID: 21300000, guid: f7d037d70edd542cfa58af92f0857275, type: 3}
  - {fileID: 21300000, guid: 8f2dc7d76a1f64d7a9277871fc5716d9, type: 3}
  - {fileID: 21300000, guid: c3028ce72590d464d81173a56176d17e, type: 3}
  - {fileID: 21300000, guid: 2fea39f786d944bac953530eac477cdd, type: 3}
  - {fileID: 21300000, guid: b51de9f709bf24c0ebea11b4295d084e, type: 3}
  - {fileID: 21300000, guid: 5e65d0080d0a14818bb805b41e77ae70, type: 3}
  - {fileID: 21300000, guid: 3fb00728b987046e19e670eed60282dc, type: 3}
  - {fileID: 21300000, guid: 12de3b2858b584dc991a8a96da582a4e, type: 3}
  - {fileID: 21300000, guid: 114be558b5bfd4a8c9856176460c3180, type: 3}
  - {fileID: 21300000, guid: 6afed958b4b49ad46aa5f222480290d6, type: 3}
  - {fileID: 21300000, guid: 1e410b587bf364572a0417fc4a06d7f9, type: 3}
  - {fileID: 21300000, guid: 2e873368eb97440df851df669c271da8, type: 3}
  - {fileID: 21300000, guid: 8e3a6f685fa8b46c9b2c1a6431aa741d, type: 3}
  - {fileID: 21300000, guid: ee390478f999949d9878260f4ff34db0, type: 3}
  - {fileID: 21300000, guid: b6334c78dc430461a9a63569108ee428, type: 3}
  - {fileID: 21300000, guid: d04d9c78a02674bd487b8af87f9ad6b2, type: 3}
  - {fileID: 21300000, guid: f24a218870b104c3a94d023ec7e5438c, type: 3}
  - {fileID: 21300000, guid: aa98da88989be44fd85d0eb1654f16a3, type: 3}
  - {fileID: 21300000, guid: 94b3db88fd1774eaf9601f9523fef35a, type: 3}
  - {fileID: 21300000, guid: de020d98269e246a5af2459972c9868c, type: 3}
  - {fileID: 21300000, guid: ca9a37a897465442bb66bf55112fc35a, type: 3}
  - {fileID: 21300000, guid: 53249ea885676400081b35d5cec369f6, type: 3}
  - {fileID: 21300000, guid: 70eb92b8787a443bc944e1854206afaf, type: 3}
  - {fileID: 21300000, guid: a7c1d4c816c030649b8a72a51c35e7a7, type: 3}
  - {fileID: 21300000, guid: 664e19c8536a4412c8878ad8dd5ca14a, type: 3}
  - {fileID: 21300000, guid: 0efbdbc8e9ff243539d13c0079b88600, type: 3}
  - {fileID: 21300000, guid: 2b9fd3d8b4d0d4390a13ab4dbb2b27c2, type: 3}
  - {fileID: 21300000, guid: a97772e8197b63b48957a6b5f60d8edf, type: 3}
  - {fileID: 21300000, guid: 1b18f4e8dcab54a4198e68b78d1615bc, type: 3}
  - {fileID: 21300000, guid: 9de8c6e8c607d4c2a9f32e87109f298b, type: 3}
  - {fileID: 21300000, guid: 40c4eae8b946b4ea68eee9a2d13e9b46, type: 3}
  - {fileID: 21300000, guid: 2a576fe8ad1724a8384a870d1a18972e, type: 3}
  - {fileID: 21300000, guid: 8186c5f86f7816047859e50e411b7243, type: 3}
  - {fileID: 21300000, guid: 380469f8244f6407b860213fd3733e28, type: 3}
  - {fileID: 21300000, guid: 307fd419eb5e14e568ea82214d6d3f39, type: 3}
  - {fileID: 21300000, guid: ec1d5d19fa2334ad39a1084e3b8370fb, type: 3}
  - {fileID: 21300000, guid: cfb5b4291748a4d638842f5f27cc64a7, type: 3}
  - {fileID: 21300000, guid: 80100829751a547dd890a383b2dd9d4c, type: 3}
  - {fileID: 21300000, guid: a0c15939247a81046badd346053000f8, type: 3}
  - {fileID: 21300000, guid: 8a847a391a00448d59a2a4684d99071b, type: 3}
  - {fileID: 21300000, guid: d4b3c349672c64216984a22040d31c43, type: 3}
  - {fileID: 21300000, guid: 712a8e696390521468e2dbfc3d085bf8, type: 3}
  - {fileID: 21300000, guid: fddfff693f67f447ea7bfda19a8fef99, type: 3}
  - {fileID: 21300000, guid: a2da80890950040529f78b26e7cc1399, type: 3}
  - {fileID: 21300000, guid: 8bd12289d5b054941b6bcced035b3692, type: 3}
  - {fileID: 21300000, guid: ff8bc5891148a47898e52c9c94104130, type: 3}
  - {fileID: 21300000, guid: ffd129899adec4a2eb39331ddd35bdff, type: 3}
  - {fileID: 21300000, guid: f422f2991b95e441485a9cde7b1030a0, type: 3}
  - {fileID: 21300000, guid: a09398999c8fd423dae769b53db052b8, type: 3}
  - {fileID: 21300000, guid: 02172d99707a24568a1e0a2336d1bf4f, type: 3}
  - {fileID: 21300000, guid: 1e82fd9958d944ca0a27b7196d7cb5e1, type: 3}
  - {fileID: 21300000, guid: bc4ee6b94b6bd46759bd266c5aedcd85, type: 3}
  - {fileID: 21300000, guid: 759447b948ea849ab8843bb976000c7e, type: 3}
  - {fileID: 21300000, guid: b83ec7b9e65aa48b1915a332216bddf4, type: 3}
  - {fileID: 21300000, guid: 0b2e0db9af7514d93a789408cc7a3edd, type: 3}
  - {fileID: 21300000, guid: 5d2aafd9fc365463e93bb4104c3e3b27, type: 3}
  - {fileID: 21300000, guid: 882bf7e9b2f084d5e8959ded7277f27c, type: 3}
  - {fileID: 21300000, guid: 49f268e9044d24d04b506dcb35878f21, type: 3}
  - {fileID: 21300000, guid: 3490abe9635934632a7f9096f636d621, type: 3}
  - {fileID: 21300000, guid: 97fe41f9d77274bc6a8275faff7233fe, type: 3}
  - {fileID: 21300000, guid: b29468f94af384d3caa7d1e10adf0b04, type: 3}
  - {fileID: 21300000, guid: 33238af9442e049d5ace2443a280ab9b, type: 3}
  - {fileID: 21300000, guid: ef08610aef0794a7ab9e0cbf476012ad, type: 3}
  - {fileID: 21300000, guid: ef72850a84de74a4f99cf394c7e84e52, type: 3}
  - {fileID: 21300000, guid: f592d90a7e7284c2894ec99ede0c04e4, type: 3}
  - {fileID: 21300000, guid: 687ede0a6b1afc8468e06a8511fcf220, type: 3}
  - {fileID: 21300000, guid: 7bf6d81af44154ee18bff6b639ea9206, type: 3}
  - {fileID: 21300000, guid: 336e5e1a6cfed463db2cfc5a63781141, type: 3}
  - {fileID: 21300000, guid: d7b1a32a42e054148ab60701a940766d, type: 3}
  - {fileID: 21300000, guid: 5b5cf83a43fdfd54395589ec3aabda66, type: 3}
  - {fileID: 21300000, guid: 46a5393ae24e14741b63b870913aac59, type: 3}
  - {fileID: 21300000, guid: 3c1e4e3a2efe044cc820d32383d3388f, type: 3}
  - {fileID: 21300000, guid: 0a24d14a33d6f4e44ba8bf666be65f59, type: 3}
  - {fileID: 21300000, guid: ec3f444ae8fa4439dab7e8efdd7d0600, type: 3}
  - {fileID: 21300000, guid: 12dab64a114f34de68c2d61e27c66b23, type: 3}
  - {fileID: 21300000, guid: 73d47c4ab05074251bb3ebb3fcabe3d2, type: 3}
  - {fileID: 21300000, guid: 30c71e5a0528b456fb035ddbf1fa3b4f, type: 3}
  - {fileID: 21300000, guid: d60f507a04fe84ae99c2feae742cf580, type: 3}
  - {fileID: 21300000, guid: 37a8c77adfa2a004d97906b9b6c0fa84, type: 3}
  - {fileID: 21300000, guid: 933daa7a80e6a474197e3a0e5b5b72a9, type: 3}
  - {fileID: 21300000, guid: 05b2bc7a3f9fd424c8e05b0cc4ba0849, type: 3}
  - {fileID: 21300000, guid: 6a715e8a4cfeb4c52bdd5a842209c0a2, type: 3}
  - {fileID: 21300000, guid: e0e1cd9a5746f41f884e32b0d0ea8681, type: 3}
  - {fileID: 21300000, guid: 658ba1ca686274e2e90906eb2a36a128, type: 3}
  - {fileID: 21300000, guid: 7cee28caca5274d27af4700caacee682, type: 3}
  - {fileID: 21300000, guid: be365bda2aa9844d5b0cc2aac40bae67, type: 3}
  - {fileID: 21300000, guid: 1fca50ea502a841978bfcb63c3c29ae1, type: 3}
  - {fileID: 21300000, guid: b25987ea5cdb04b1b9d6384ba8c9ec8c, type: 3}
  - {fileID: 21300000, guid: fc1ae1fadad6e40e48175d2e84a271c0, type: 3}
  - {fileID: 21300000, guid: 201bd9fa3cc124594ad3d7365a2581df, type: 3}
  - {fileID: 21300000, guid: 4837bcfa820b54c569a4276a0509cbe4, type: 3}
  - {fileID: 21300000, guid: da07802b9877f4274929bfa7f082a156, type: 3}
  - {fileID: 21300000, guid: a8db143b276ea47f4954d517f442f02f, type: 3}
  - {fileID: 21300000, guid: dfc9c93bec793403e9b8292e46168328, type: 3}
  - {fileID: 21300000, guid: 010c434b39c0343d989efabd915083ea, type: 3}
  - {fileID: 21300000, guid: a230164bbd026452380680e3d57ddbe2, type: 3}
  - {fileID: 21300000, guid: 764fbe4bce6ef6f43b59cc77718a2600, type: 3}
  - {fileID: 21300000, guid: b593356ba1cb04cfd84c19bb542e78a0, type: 3}
  - {fileID: 21300000, guid: 9029457b41a4d41ca9426e75056b7c17, type: 3}
  - {fileID: 21300000, guid: 3b52dc7ba685942c3bcfb81b6bd5a0e1, type: 3}
  - {fileID: 21300000, guid: ab5fbe7b4ddde43238e95b947b1c1aec, type: 3}
  - {fileID: 21300000, guid: 0610f18b31c48dd4db66b9448467eefa, type: 3}
  - {fileID: 21300000, guid: 8712e38bbe2d8408b94744e68c45ef80, type: 3}
  - {fileID: 21300000, guid: 751d0c8b08d94478e9f8c558893730b5, type: 3}
  - {fileID: 21300000, guid: 52f1399be6bbe4bc5beb7972e53e643d, type: 3}
  - {fileID: 21300000, guid: 1d256c9b15fd542eaaafad6b07b98b9f, type: 3}
  - {fileID: 21300000, guid: 1c1460abbddd743359dbd7fa00f65642, type: 3}
  - {fileID: 21300000, guid: 828766ab45b96440db28d921f3d88a6e, type: 3}
  - {fileID: 21300000, guid: af7db7ab761e94237884115025391229, type: 3}
  - {fileID: 21300000, guid: c9db2dabe865c904a9811629a69802d2, type: 3}
  - {fileID: 21300000, guid: 776923bba1e3e4867a0a8730c1f9431c, type: 3}
  - {fileID: 21300000, guid: 78b002cbeb353486683063013cef601c, type: 3}
  - {fileID: 21300000, guid: cfb953db67e8044448cb68a22400ce94, type: 3}
  - {fileID: 21300000, guid: 2e5af4db1f31744d9bd6f3f328b0cb7a, type: 3}
  - {fileID: 21300000, guid: 00aefbdb3454e4f3289d81368f525619, type: 3}
  - {fileID: 21300000, guid: 768a2beb0cf114721b1e637825a6ab87, type: 3}
  - {fileID: 21300000, guid: 886581fba3f7845ca9c6a8ebfde81f3b, type: 3}
  - {fileID: 21300000, guid: 1a0ce3fb748c0487a9349174f80b762d, type: 3}
  - {fileID: 21300000, guid: 013abefb91afc4c77a6d8404a4242935, type: 3}
  - {fileID: 21300000, guid: 4fc92e0c478f0bc438c41ade09770310, type: 3}
  - {fileID: 21300000, guid: 326a521c5eb2f4894897290f39a511d9, type: 3}
  - {fileID: 21300000, guid: a2e7272c67d564159a33b5a642fbbdfd, type: 3}
  - {fileID: 21300000, guid: 5e2d9e2c603224eca8533b456cddb11b, type: 3}
  - {fileID: 21300000, guid: e8a6513c8d89d45cca172dff4c91d34f, type: 3}
  - {fileID: 21300000, guid: 8741ac3c9b95246d6ba2006354c5d3b6, type: 3}
  - {fileID: 21300000, guid: 0e8a2d4c2adfb4a0ca427edcc7f185d5, type: 3}
  - {fileID: 21300000, guid: 92a33f4c96b54428f874dbdf1bf0579d, type: 3}
  - {fileID: 21300000, guid: d129b75ce6e32426eb498a510a964d19, type: 3}
  - {fileID: 21300000, guid: 71d53d5c4d04e44c3885b378fafd77f2, type: 3}
  - {fileID: 21300000, guid: 402fdf5cada5e4153861cc3135a5ad87, type: 3}
  - {fileID: 21300000, guid: 564dd26c596ec4a57a28c723f9139cdc, type: 3}
  - {fileID: 21300000, guid: 8e1e887cab0f24167ba9450a836527db, type: 3}
  - {fileID: 21300000, guid: 37d42b7c51eee43f48885c2b42c9c691, type: 3}
  - {fileID: 21300000, guid: c1735e7c412f844d9b0b60dbf2f4fc4e, type: 3}
  - {fileID: 21300000, guid: 34227a8c46bbd430f827ab2bead04316, type: 3}
  - {fileID: 21300000, guid: f156cc8c203cf45688a2696b2231fd7b, type: 3}
  - {fileID: 21300000, guid: deb5ac9c274d2400097baaa9b6566d69, type: 3}
  - {fileID: 21300000, guid: df2befac78ba04bd69b93cf15d60dcd3, type: 3}
  - {fileID: 21300000, guid: 8a3652cc2b58a4246a227b0a74ccba6c, type: 3}
  - {fileID: 21300000, guid: f74705cc5c3f86240b9da2aa1415fe86, type: 3}
  - {fileID: 21300000, guid: 093e58cc26b764cf7a22c1fff8ef4f13, type: 3}
  - {fileID: 21300000, guid: deff91dc119ae4e248df870d7d05fac4, type: 3}
  - {fileID: 21300000, guid: c9fb46dc0361d443aad923b24aeee01a, type: 3}
  - {fileID: 21300000, guid: 0e46a6dc0f5d74180856fedd052fa940, type: 3}
  - {fileID: 21300000, guid: 093006ec9fcf64feba2e38bc6a408bc0, type: 3}
  - {fileID: 21300000, guid: 325637ecc32c707488b24a330266039c, type: 3}
  - {fileID: 21300000, guid: c56c98ecbd6894e7db3b1daf443b4f4e, type: 3}
  - {fileID: 21300000, guid: 0305bcfce57d44b248eecd6e3d6f3045, type: 3}
  - {fileID: 21300000, guid: 67e6fb0d5187b43d991c7e857fe84a35, type: 3}
  - {fileID: 21300000, guid: 52b3a01dd49084a68bab66eba8cadbc5, type: 3}
  - {fileID: 21300000, guid: f78e461d58ab54d26a4237b02f57f221, type: 3}
  - {fileID: 21300000, guid: ac89533dd9ef84b1da4d4db0a1946745, type: 3}
  - {fileID: 21300000, guid: ec60993d7b4264be69dc8f43d3d42fcb, type: 3}
  - {fileID: 21300000, guid: c651bd3ddcd224d85a74f414f356ccea, type: 3}
  - {fileID: 21300000, guid: 649b9b4d7f8dc416a913bfe410fc37a7, type: 3}
  - {fileID: 21300000, guid: 02652e4d06bc44193a3b9fd3992b74ae, type: 3}
  - {fileID: 21300000, guid: 0354007de53ed49b2b1f3e7625bd4655, type: 3}
  - {fileID: 21300000, guid: 01ec867d17a9fcf44a4c8be0f7bab907, type: 3}
  - {fileID: 21300000, guid: 3f9a8f7d8e2b44e14b7260e115875ef9, type: 3}
  - {fileID: 21300000, guid: 84e8628dc987c48adb2f241f85c0c0db, type: 3}
  - {fileID: 21300000, guid: cbf1c38d38278456ba2be9b738479ff1, type: 3}
  - {fileID: 21300000, guid: 6f6cc68dc64434c08aa52f3f37ac85a2, type: 3}
  - {fileID: 21300000, guid: 3c170b8d0967a427b90d73340773ac80, type: 3}
  - {fileID: 21300000, guid: 95ffdf8dc55084fbf86936f60ecbe587, type: 3}
  - {fileID: 21300000, guid: 117d2e9d107554075a72a71d649f310e, type: 3}
  - {fileID: 21300000, guid: 9bcc3fad082e7462cbaafd585208ccf5, type: 3}
  - {fileID: 21300000, guid: dddd48bdf865346d394bf2f1447c459f, type: 3}
  - {fileID: 21300000, guid: c73f9bbd6bd284697916aa64528e97e9, type: 3}
  - {fileID: 21300000, guid: 664e61cda6ced434aaf0fb221127a230, type: 3}
  - {fileID: 21300000, guid: deb824cd1489b43dda3885a4a9dc9f30, type: 3}
  - {fileID: 21300000, guid: 6e6eeacd22d7f4d97999740611f818e6, type: 3}
  - {fileID: 21300000, guid: 6e627ccd84525456585a782448162b5b, type: 3}
  - {fileID: 21300000, guid: 4d4d72dd25f88e740b1f1f9ca4ed44ab, type: 3}
  - {fileID: 21300000, guid: 025f8bdd2a59144bfb57b74dd4f044f5, type: 3}
  - {fileID: 21300000, guid: ae5312edd144c483396cbd9f41789fa8, type: 3}
  - {fileID: 21300000, guid: 2dc24afd7a5eb44de8ca8db2af1aa779, type: 3}
  - {fileID: 21300000, guid: 34ec3cfdde06b49c28c6907f2744e847, type: 3}
  - {fileID: 21300000, guid: a5442e1e34ce044c3a378b55f206d8f3, type: 3}
  - {fileID: 21300000, guid: 917d242e41f404c1fb584a7b162ba450, type: 3}
  - {fileID: 21300000, guid: 6f006b2ec2e9746ed86303d01e6a67f3, type: 3}
  - {fileID: 21300000, guid: a21edb2e8df6d4d8e96c58d0f76767c8, type: 3}
  - {fileID: 21300000, guid: ff467e3e1ea80432c9a223f25e246054, type: 3}
  - {fileID: 21300000, guid: fd0be94e913c74c43bd6a87cc5e527b4, type: 3}
  - {fileID: 21300000, guid: 6cbb4f5e3f8774693a0b16a9d9dabd80, type: 3}
  - {fileID: 21300000, guid: 67ebab6ee1b5c8e409c97a314b95a6bc, type: 3}
  - {fileID: 21300000, guid: 58db418ef5cc8460d924f66524aa5ba3, type: 3}
  - {fileID: 21300000, guid: 56df298ee5c684471b1cd6ee58f3ee17, type: 3}
  - {fileID: 21300000, guid: cb11898e5f0ed46ae82bc85bfc016280, type: 3}
  - {fileID: 21300000, guid: dc80cf8eec89741cfacf22409d7838d9, type: 3}
  - {fileID: 21300000, guid: f5ad6b9efb2144821866bee51a6db555, type: 3}
  - {fileID: 21300000, guid: 36785c9e57fa5487bbef14c0f85b781b, type: 3}
  - {fileID: 21300000, guid: cbc44e9eb57e0410ba3b651e81548219, type: 3}
  - {fileID: 21300000, guid: 3753e8ce9e71b4345bc5dce5f91fb604, type: 3}
  - {fileID: 21300000, guid: 110d5fce3df814d6abd1afe78ef10003, type: 3}
  - {fileID: 21300000, guid: 376400ee33ec84f598aa990aed07fefe, type: 3}
  - {fileID: 21300000, guid: da2c561f31dd04dc9b18f1311293feae, type: 3}
  - {fileID: 21300000, guid: 3da8f61f132dd4e279fec7a4c4cc0396, type: 3}
  - {fileID: 21300000, guid: 54e04d1fa54674c8981e4bb390f0a710, type: 3}
  - {fileID: 21300000, guid: b8c9202f1ddc645f7b34b1619a42a2c4, type: 3}
  - {fileID: 21300000, guid: ee2d012f4dbd44f5387b647b9b774e29, type: 3}
  - {fileID: 21300000, guid: 88ec6e2f34b074569864c95f93bd6eee, type: 3}
  - {fileID: 21300000, guid: b252d73fa30e6274ea2bce26c014a377, type: 3}
  - {fileID: 21300000, guid: 014ba83f14b424e8ebaaf2975ffb243c, type: 3}
  - {fileID: 21300000, guid: 57d4437fc18f5254fa702449dd1da67a, type: 3}
  - {fileID: 21300000, guid: 6648697f576f241d4a1be2310abeb750, type: 3}
  - {fileID: 21300000, guid: 9fedd28f58e44479c88adfa2329249b8, type: 3}
  - {fileID: 21300000, guid: 17f91c8fdafdf4a93af129ddb58c0dd4, type: 3}
  - {fileID: 21300000, guid: a5fb1c8f1e0ae2b43839bb0c0df0dee6, type: 3}
  - {fileID: 21300000, guid: 548a8b9fecd6045c88caa0418e46a1ed, type: 3}
  - {fileID: 21300000, guid: bca0f4afa89b545cda6afe3660ab0dea, type: 3}
  - {fileID: 21300000, guid: bf4c08aff9ff247a49ee54e0c93ef627, type: 3}
  - {fileID: 21300000, guid: 4d9592dfad2682e4595720ba6752cf0d, type: 3}
  - {fileID: 21300000, guid: f2bb33df7648746399b73899238e02ba, type: 3}
  - {fileID: 21300000, guid: 198646ef488944599abe32de89fcc99c, type: 3}
  - {fileID: 21300000, guid: ae949aff8fba4bf47bdb91da04205a66, type: 3}
  m_PackedSpriteNamesToIndex:
  - interior_15
  - square_in_bl
  - interior_10
  - 22tl_joinedleft
  - square_r1
  - interior_6
  - interior_14
  - row_center_2
  - square_r1
  - square_r3
  - cloud_3
  - row_left
  - interior_3
  - interior_3
  - interior_9
  - interior_11
  - square_r2
  - square_l3
  - pillar_middle_2
  - square_b1
  - square_in_tl
  - row_center_1
  - cloudleft
  - row_right
  - square_in_tr
  - square_l1
  - pillar_middle_3
  - interior_3
  - interior_26
  - 22bl_joinedright
  - interior_27
  - square_l3
  - square_t1
  - square_tl
  - interior_7
  - cloud_1
  - interior_5
  - 22tr_joined
  - interior_4
  - interior_23
  - square_in_br
  - row_center_2
  - pillar_middle_2
  - square_b1
  - square_l4
  - square_t4
  - interior_48
  - interior_4
  - square_r4
  - row_right
  - square_l2
  - square_in_br
  - interior_24
  - interior_14
  - square_in_br
  - interior_6
  - square_r3
  - 22tr_joinedleft
  - 45bl_joined
  - square_br
  - square_2
  - square_in_bl
  - interior_29
  - interior_12
  - square_l2
  - square_b2
  - interior_36
  - curvebl3plus1_outside
  - interior_25
  - square_l3
  - interior_7
  - 45tr_joined
  - square_l2
  - interior_13
  - 45tl_joinedright
  - square_r4
  - 45bl_joinedleft
  - square_r2
  - square_tr
  - pillar_middle_3
  - row_center_1
  - 45br_joined
  - square_bl
  - interior_40
  - interior_16
  - interior_13
  - interior_41
  - square_br
  - 45bl_joinedright
  - interior_13
  - interior_7
  - interior_15
  - square_l1
  - pillar_middle_2
  - interior_30
  - 45br
  - interior_24
  - interior_2
  - pillar_top
  - interior_5
  - square_l3
  - interior_16
  - square_t3
  - 22bl_joined
  - square_r3
  - square_t2
  - 22br_joined
  - square_l4
  - square_bl
  - square_l3
  - interior_22
  - interior_3
  - square_tl
  - square_3
  - interior_21
  - square_in_tr
  - cloudright
  - interior_8
  - square_bl
  - interior_46
  - interior_18
  - square_t4
  - interior_9
  - interior_9
  - square_in_bl
  - interior_10
  - 22br_joinedleft
  - square_in_tr
  - square_l2
  - interior_6
  - 22tr_joinedright
  - square_r2
  - interior_2
  - row_center_2
  - square_r4
  - square_r1
  - square_b4
  - interior_4
  - interior_14
  - interior_31
  - interior_14
  - square_b1
  - square_b2
  - interior_50
  - interior_9
  - square_tl
  - square_t4
  - square_tl
  - interior_11
  - interior_11
  - interior_11
  - square_b3
  - square_r2
  - 22tl_joinedright
  - interior_3
  - pillar_middle_1
  - square_t2
  - square_r4
  - interior_32
  - pillar_bottom
  - pillar_middle_1
  - square_b2
  - interior_3
  - square_in_bl
  - pillar_bottom
  - square_1
  - square_l2
  - square_in_bl
  - row_right
  - square_in_bl
  - pillar_middle_3
  - square_l1
  - 45bl
  - interior_10
  - square_b1
  - square_3
  - square_tr
  - interior_2
  - square_3
  - square_r1
  - interior_23
  - square_tr
  - interior_52
  - square_t1
  - square_b2
  - pillar_top
  - interior_2
  - square_bl
  - square_t1
  - square_tl
  - curvetr3plus1_outside
  - interior_8
  - square_t3
  - square_l4
  - square_br
  - square_b3
  - square_in_br
  - interior_14
  - square_in_bl
  - square_r1
  - curveouttl3
  - square_b4
  - interior_10
  - curvebr3plus1
  - interior_42
  - square_in_tr
  - interior_15
  - square_br
  - square_b3
  - square_b2
  - square_l1
  - interior_49
  - square_l1
  - square_r2
  - interior_2
  - square_r1
  - interior_20
  - square_tl
  - pillar_middle_2
  - interior_44
  - curvetl3plus1
  - square_in_tl
  - curvebl3plus1
  - square_in_br
  - square_t4
  - square_t2
  - square_b3
  - square_2
  - interior_56
  - square_1
  - square_t4
  - square_1
  - interior_16
  - square_l2
  - interior_4
  - square_t4
  - interior_21
  - 45tl_joined
  - interior_15
  - interior_54
  - square_b1
  - interior_2
  - square_3
  - interior_18
  - 22tl_joined
  - interior_19
  - 45tr
  - square_br
  - square_b4
  - 45tl_joinedleft
  - pillar_top
  - 45tr_joinedright
  - row_left
  - square_r3
  - 45br_joinedright
  - square_t1
  - row_center_1
  - row_center_3
  - curvetl3plus1_outside
  - interior_1
  - interior_12
  - interior_22
  - interior_12
  - interior_18
  - row_center_3
  - interior_39
  - square_b2
  - row_left
  - square_l1
  - interior_45
  - square_r3
  - interior_15
  - row_right
  - square_in_tr
  - interior_5
  - interior_5
  - square_in_tl
  - interior_22
  - pillar_top
  - interior_34
  - row_left
  - square_t4
  - cloud_2
  - interior_1
  - square_bl
  - interior_5
  - interior_10
  - square_t1
  - square_b1
  - square_tl
  - square_in_tl
  - interior_6
  - interior_10
  - interior_17
  - pillar_middle_3
  - 22tl
  - square_l2
  - interior_16
  - square_r3
  - interior_8
  - square_t3
  - interior_16
  - square_r3
  - interior_43
  - curvebr3plus1_outside
  - curveoutbr3
  - curveoutbl3
  - interior_25
  - interior_3
  - square_tr
  - interior_13
  - square_tr
  - interior_1
  - interior_14
  - square_in_tr
  - interior_5
  - square_in_tl
  - interior_47
  - square_t1
  - interior_16
  - square_2
  - interior_10
  - interior_37
  - square_in_tr
  - pillar_middle_2
  - 22tr
  - interior_13
  - interior_9
  - square_tr
  - interior_11
  - interior_8
  - interior_13
  - interior_23
  - square_b4
  - interior_19
  - interior_17
  - interior_15
  - square_2
  - square_b4
  - square_3
  - interior_35
  - square_t1
  - interior_12
  - 45tl
  - interior_8
  - row_center_3
  - interior_7
  - pillar_bottom
  - interior_24
  - interior_1
  - square_br
  - interior_11
  - row_center_3
  - curvetr3plus1
  - row_center_2
  - square_2
  - interior_15
  - square_b3
  - pillar_top
  - interior_1
  - square_r1
  - square_b4
  - interior_7
  - square_b4
  - interior_12
  - interior_12
  - square_t3
  - square_t2
  - 22br_joinedright
  - square_t2
  - pillar_middle_3
  - interior_20
  - interior_19
  - square_br
  - interior_8
  - square_bl
  - square_b2
  - pillar_middle_1
  - square_l4
  - square_b3
  - square_l4
  - pillar_bottom
  - interior_1
  - square_t3
  - pillar_middle_1
  - interior_51
  - interior_4
  - square_r2
  - 22bl_joinedleft
  - pillar_top
  - pillar_middle_1
  - interior_7
  - 45br_joinedleft
  - row_left
  - square_1
  - interior_25
  - square_l1
  - interior_38
  - row_center_3
  - interior_21
  - 22br
  - square_1
  - square_in_tl
  - interior_7
  - interior
  - interior_20
  - square_b3
  - interior_11
  - interior_6
  - square_in_tl
  - interior_14
  - square_2
  - interior_13
  - 22bl
  - square_r4
  - interior_16
  - pillar_bottom
  - interior_2
  - interior_4
  - square_tr
  - row_right
  - row_center_2
  - square_bl
  - square_1
  - interior_17
  - 45tr_joinedleft
  - pillar_bottom
  - row_center_2
  - pillar_middle_1
  - square_t2
  - row_center_1
  - interior_9
  - row_center_3
  - interior_33
  - interior_28
  - square_in_br
  - square_l3
  - interior_55
  - interior_6
  - interior_5
  - square_l3
  - row_right
  - square_r2
  - square_l4
  - curveouttr3
  - pillar_middle_2
  - square_b1
  - square_t3
  - interior_1
  - square_t2
  - interior_6
  - row_center_1
  - square_r4
  - square_l4
  - interior_8
  - interior_12
  - pillar_middle_3
  - interior_4
  - row_left
  - interior_9
  - square_in_br
  - interior_53
  - row_center_1
  - square_3
  - square_r4
  - square_t3
  m_RenderDataMap: {}
  m_Tag: Tiles - Tombstone Hill
  m_IsVariant: 0
