%YAML 1.1
%TAG !u! tag:unity3d.com,2011:
--- !u!687078895 &4343727234628468602
SpriteAtlas:
  m_ObjectHideFlags: 0
  m_CorrespondingSourceObject: {fileID: 0}
  m_PrefabInstance: {fileID: 0}
  m_PrefabAsset: {fileID: 0}
  m_Name: Transition Art - Molten Fortress
  m_EditorData:
    serializedVersion: 2
    textureSettings:
      serializedVersion: 2
      anisoLevel: 1
      compressionQuality: 50
      maxTextureSize: 2048
      textureCompression: 0
      filterMode: 1
      generateMipMaps: 0
      readable: 0
      crunchedCompression: 0
      sRGB: 1
    platformSettings:
    - serializedVersion: 3
      m_BuildTarget: DefaultTexturePlatform
      m_MaxTextureSize: 4096
      m_ResizeAlgorithm: 0
      m_TextureFormat: -1
      m_TextureCompression: 1
      m_CompressionQuality: 50
      m_CrunchedCompression: 0
      m_AllowsAlphaSplitting: 0
      m_Overridden: 0
      m_IgnorePlatformSupport: 0
      m_AndroidETC2FallbackOverride: 0
      m_ForceMaximumCompressionQuality_BC6H_BC7: 0
    packingSettings:
      serializedVersion: 2
      padding: 4
      blockOffset: 1
      allowAlphaSplitting: 0
      enableRotation: 1
      enableTightPacking: 0
      enableAlphaDilation: 0
    secondaryTextureSettings: {}
    variantMultiplier: 1
    packables:
    - {fileID: 102900000, guid: 66682c8d77c3141148fa1d82746d83db, type: 3}
    bindAsDefault: 1
    isAtlasV2: 0
    cachedData: {fileID: 0}
    packedSpriteRenderDataKeys:
    - 33632c61704aa41ee9f6ffe37ab3b38a: 21300000
    - 57ca4e0324fc24096b85f75ddf492562: 21300000
    - fbb776251b18d465da73f92b409afdb5: 21300000
    - a115fda81b49846b4ae83f19174a79dd: 21300000
    - 3969ff3cbdcc149f9abac40d5a50e132: 21300000
    - a77721cebdd9d466dac7e5bad28e47ee: 21300000
    - d7550e3fa13a149fa9798d7e60535d56: 21300000
    - fdc3214f116954f0294c92e89725d1ab: 21300000
  m_MasterAtlas: {fileID: 0}
  m_PackedSprites:
  - {fileID: 21300000, guid: 33632c61704aa41ee9f6ffe37ab3b38a, type: 3}
  - {fileID: 21300000, guid: 57ca4e0324fc24096b85f75ddf492562, type: 3}
  - {fileID: 21300000, guid: fbb776251b18d465da73f92b409afdb5, type: 3}
  - {fileID: 21300000, guid: a115fda81b49846b4ae83f19174a79dd, type: 3}
  - {fileID: 21300000, guid: 3969ff3cbdcc149f9abac40d5a50e132, type: 3}
  - {fileID: 21300000, guid: a77721cebdd9d466dac7e5bad28e47ee, type: 3}
  - {fileID: 21300000, guid: d7550e3fa13a149fa9798d7e60535d56, type: 3}
  - {fileID: 21300000, guid: fdc3214f116954f0294c92e89725d1ab, type: 3}
  m_PackedSpriteNamesToIndex:
  - back_layer_3
  - front_layer_1
  - back_layer_6
  - back_layer_7
  - back_layer_4
  - back_layer_2
  - back_layer_1
  - back_layer_5
  m_RenderDataMap: {}
  m_Tag: Transition Art - Molten Fortress
  m_IsVariant: 0
