%YAML 1.1
%TAG !u! tag:unity3d.com,2011:
--- !u!687078895 &4343727234628468602
SpriteAtlas:
  m_ObjectHideFlags: 0
  m_CorrespondingSourceObject: {fileID: 0}
  m_PrefabInstance: {fileID: 0}
  m_PrefabAsset: {fileID: 0}
  m_Name: Transition Art - Training Stage
  m_EditorData:
    serializedVersion: 2
    textureSettings:
      serializedVersion: 2
      anisoLevel: 1
      compressionQuality: 50
      maxTextureSize: 2048
      textureCompression: 0
      filterMode: 1
      generateMipMaps: 0
      readable: 0
      crunchedCompression: 0
      sRGB: 1
    platformSettings:
    - serializedVersion: 3
      m_BuildTarget: DefaultTexturePlatform
      m_MaxTextureSize: 4096
      m_ResizeAlgorithm: 0
      m_TextureFormat: -1
      m_TextureCompression: 1
      m_CompressionQuality: 50
      m_CrunchedCompression: 0
      m_AllowsAlphaSplitting: 0
      m_Overridden: 0
      m_IgnorePlatformSupport: 0
      m_AndroidETC2FallbackOverride: 0
      m_ForceMaximumCompressionQuality_BC6H_BC7: 0
    packingSettings:
      serializedVersion: 2
      padding: 4
      blockOffset: 1
      allowAlphaSplitting: 0
      enableRotation: 1
      enableTightPacking: 0
      enableAlphaDilation: 0
    secondaryTextureSettings: {}
    variantMultiplier: 1
    packables:
    - {fileID: 102900000, guid: c84078edf20664d469793bcd2f0805e5, type: 3}
    bindAsDefault: 1
    isAtlasV2: 0
    cachedData: {fileID: 0}
    packedSpriteRenderDataKeys:
    - d927766099349ce458e52c74b5959447: 21300000
    - d74f4e33bfdd1644097ffd13f7264806: 21300000
    - 225ba5252020f7e49ae7897506f3b031: 21300000
    - 786f9128f8208d34bb26e72d3d0b9a6f: 21300000
    - eb334e688809a744e87d3b55d7dffcec: 21300000
    - 3cdfe7892f9cbdb4f8cc0df020bbbfa7: 21300000
    - b7c81e3b59be86d4e9aca932d5fab111: 21300000
    - 0c86934d35e29f347a468b556c2d4b4d: 21300000
    - 4644b7ad0242d3e428bfcea0d09f2a04: 21300000
  m_MasterAtlas: {fileID: 0}
  m_PackedSprites:
  - {fileID: 21300000, guid: d927766099349ce458e52c74b5959447, type: 3}
  - {fileID: 21300000, guid: d74f4e33bfdd1644097ffd13f7264806, type: 3}
  - {fileID: 21300000, guid: 225ba5252020f7e49ae7897506f3b031, type: 3}
  - {fileID: 21300000, guid: 786f9128f8208d34bb26e72d3d0b9a6f, type: 3}
  - {fileID: 21300000, guid: eb334e688809a744e87d3b55d7dffcec, type: 3}
  - {fileID: 21300000, guid: 3cdfe7892f9cbdb4f8cc0df020bbbfa7, type: 3}
  - {fileID: 21300000, guid: b7c81e3b59be86d4e9aca932d5fab111, type: 3}
  - {fileID: 21300000, guid: 0c86934d35e29f347a468b556c2d4b4d, type: 3}
  - {fileID: 21300000, guid: 4644b7ad0242d3e428bfcea0d09f2a04, type: 3}
  m_PackedSpriteNamesToIndex:
  - back_layer_2
  - back_layer_3
  - back_layer_5
  - front_layer_1
  - front_layer_2
  - back_layer_4
  - blank
  - back_layer_7
  - back_layer_6
  m_RenderDataMap: {}
  m_Tag: Transition Art - Training Stage
  m_IsVariant: 0
