%YAML 1.1
%TAG !u! tag:unity3d.com,2011:
--- !u!687078895 &4343727234628468602
SpriteAtlas:
  m_ObjectHideFlags: 0
  m_CorrespondingSourceObject: {fileID: 0}
  m_PrefabInstance: {fileID: 0}
  m_PrefabAsset: {fileID: 0}
  m_Name: Trophies - Drop effect
  m_EditorData:
    serializedVersion: 2
    textureSettings:
      serializedVersion: 2
      anisoLevel: 1
      compressionQuality: 50
      maxTextureSize: 2048
      textureCompression: 0
      filterMode: 1
      generateMipMaps: 0
      readable: 0
      crunchedCompression: 0
      sRGB: 1
    platformSettings: []
    packingSettings:
      serializedVersion: 2
      padding: 4
      blockOffset: 1
      allowAlphaSplitting: 0
      enableRotation: 1
      enableTightPacking: 1
      enableAlphaDilation: 0
    secondaryTextureSettings: {}
    variantMultiplier: 1
    packables:
    - {fileID: 102900000, guid: d3956d594f1901b4dbeb53fbe7a9eda2, type: 3}
    bindAsDefault: 1
    isAtlasV2: 0
    cachedData: {fileID: 0}
    packedSpriteRenderDataKeys:
    - b81fed90950463c4c87de4c9322e234f: 21300000
    - a17d56a15c6e30848a8251f7d2307538: 21300000
    - f6dcb682a5b8d974d8a4fd1dccfc2414: 21300000
    - 9d97edb2bfa3ec34dbb6fb09a973085e: 21300000
    - 432692e2dbe99a449b8b233d0a0d8046: 21300000
    - 26186713878ac4948859a588d126a265: 21300000
    - 684c7de32ce0bac45ad42375d09b6888: 21300000
    - 1b6eb534e2a2e694685fb674912dc7e9: 21300000
    - 43f550b40ec26034c880ae8332eed756: 21300000
    - 30969118f5c0d45459ed0a6118fbfb95: 21300000
    - 6be10bc8479028b43810df4056cfaa03: 21300000
    - 67842009537e48d4fa2f24cd3de30a8b: 21300000
    - e55c289cb75cc6e4db6cdac575d21fc9: 21300000
    - 788f375dd7d016d4087c1e2bed4cb86a: 21300000
    - 4b5fdf4e4a28f964fadb04305752f19b: 21300000
    - d30bc38eb8175274ea54b783fd68cfcd: 21300000
    - c6a70aeed31a81e4a8fc79c1f9a1e5f3: 21300000
    - d5212adfa83c4fc4e847d07b56bb5fb4: 21300000
  m_MasterAtlas: {fileID: 0}
  m_PackedSprites:
  - {fileID: 21300000, guid: b81fed90950463c4c87de4c9322e234f, type: 3}
  - {fileID: 21300000, guid: a17d56a15c6e30848a8251f7d2307538, type: 3}
  - {fileID: 21300000, guid: f6dcb682a5b8d974d8a4fd1dccfc2414, type: 3}
  - {fileID: 21300000, guid: 9d97edb2bfa3ec34dbb6fb09a973085e, type: 3}
  - {fileID: 21300000, guid: 432692e2dbe99a449b8b233d0a0d8046, type: 3}
  - {fileID: 21300000, guid: 26186713878ac4948859a588d126a265, type: 3}
  - {fileID: 21300000, guid: 684c7de32ce0bac45ad42375d09b6888, type: 3}
  - {fileID: 21300000, guid: 1b6eb534e2a2e694685fb674912dc7e9, type: 3}
  - {fileID: 21300000, guid: 43f550b40ec26034c880ae8332eed756, type: 3}
  - {fileID: 21300000, guid: 30969118f5c0d45459ed0a6118fbfb95, type: 3}
  - {fileID: 21300000, guid: 6be10bc8479028b43810df4056cfaa03, type: 3}
  - {fileID: 21300000, guid: 67842009537e48d4fa2f24cd3de30a8b, type: 3}
  - {fileID: 21300000, guid: e55c289cb75cc6e4db6cdac575d21fc9, type: 3}
  - {fileID: 21300000, guid: 788f375dd7d016d4087c1e2bed4cb86a, type: 3}
  - {fileID: 21300000, guid: 4b5fdf4e4a28f964fadb04305752f19b, type: 3}
  - {fileID: 21300000, guid: d30bc38eb8175274ea54b783fd68cfcd, type: 3}
  - {fileID: 21300000, guid: c6a70aeed31a81e4a8fc79c1f9a1e5f3, type: 3}
  - {fileID: 21300000, guid: d5212adfa83c4fc4e847d07b56bb5fb4, type: 3}
  m_PackedSpriteNamesToIndex:
  - trophy_appear_02
  - trophy_appear_06
  - trophy_appear_09
  - trophy_appear_07
  - trophy_sparkle_04
  - trophy_appear_10
  - trophy_sparkle_01
  - trophy_sparkle_02
  - trophy_appear_08
  - white_line
  - trophy_sparkle_05
  - trophy_appear_05
  - trophy_sparkle_03
  - trophy_appear_01
  - trophy_sparkle_06
  - trophy_appear_03
  - trophy_sparkle_07
  - trophy_appear_04
  m_RenderDataMap: {}
  m_Tag: Trophies - Drop effect
  m_IsVariant: 0
