%YAML 1.1
%TAG !u! tag:unity3d.com,2011:
--- !u!687078895 &4343727234628468602
SpriteAtlas:
  m_ObjectHideFlags: 0
  m_CorrespondingSourceObject: {fileID: 0}
  m_PrefabInstance: {fileID: 0}
  m_PrefabAsset: {fileID: 0}
  m_Name: Trophies - Gold - Multiplayer
  m_EditorData:
    serializedVersion: 2
    textureSettings:
      serializedVersion: 2
      anisoLevel: 1
      compressionQuality: 50
      maxTextureSize: 2048
      textureCompression: 0
      filterMode: 1
      generateMipMaps: 0
      readable: 0
      crunchedCompression: 0
      sRGB: 1
    platformSettings: []
    packingSettings:
      serializedVersion: 2
      padding: 4
      blockOffset: 1
      allowAlphaSplitting: 0
      enableRotation: 1
      enableTightPacking: 1
      enableAlphaDilation: 0
    secondaryTextureSettings: {}
    variantMultiplier: 1
    packables:
    - {fileID: 102900000, guid: 6d3a385d8f74e06439ebdbc2b54d8cb6, type: 3}
    bindAsDefault: 1
    isAtlasV2: 0
    cachedData: {fileID: 0}
    packedSpriteRenderDataKeys:
    - e06cae01fdea7b84e9a72d1bae6475f6: 21300000
    - 2b38b5219c4ed1f43a12d3ded6a82996: 21300000
    - a9b6a591f2ce8a545aab6b89a9b97f8d: 21300000
    - 549437b26cc628e499ef07bae5717874: 21300000
    - 0c75f8b2ef8c06c409421e62e4efe01e: 21300000
    - 5f5edbc2d6fcef643acc5ce3e8a50e1d: 21300000
    - 4c2724f21e8e8fc45bcb6fd4829b4164: 21300000
    - 2aa1bed3e7d8bff45aad8406a98c3e0b: 21300000
    - e3180bc49b0b902459e726e9bb409805: 21300000
    - 85111ee423a8e404a9bbb1607b5aa6bd: 21300000
    - a58363e509cede0419fe90a2d35620ae: 21300000
    - 34d19286b6a593045b39c7af9660e7b8: 21300000
    - e0fd9996a7651654b8fd6cf3e5985cf9: 21300000
    - 4725e4b69ad5c2b4b9583a88c7653c1f: 21300000
    - 70b583d6f0eb1ba449bbe7c339c0174d: 21300000
    - eba1ce87f796c64418cbb3f88abe0ff4: 21300000
    - ca7f2b978d74c2d4c91d59df49f890a9: 21300000
    - eef939f7833dfc543a980b4b62287e34: 21300000
    - b2b4b52891193004e8b1d197689c0986: 21300000
    - 60958f488a5327f4db9d0c497fea558d: 21300000
    - 24ca2368fce9fd540928f212e4ab7462: 21300000
    - 7c3d33882c90fd740972b4584e218f8d: 21300000
    - 8fd9f6b82953b194f87bce578fe09d77: 21300000
    - c86a996994249ed46849b40086341fc6: 21300000
    - 271e4299eae59234fb520ef4224cad77: 21300000
    - 9c0addb9e66375242bced1dfba60492a: 21300000
    - 5672dbe966664cd49b605eaa625927ba: 21300000
    - 2ff2bf2ac4840684a8f535f821ee6298: 21300000
    - 4efe4a5a08f6a7346aace0edf7b5c558: 21300000
    - 323f30ca8aaa05b4baaab1dfaa1489bf: 21300000
    - e8f1c12b3e0e9014ebe82bf10dd22261: 21300000
    - 5852949bb0ec8db4a82f0c3fd607561b: 21300000
    - 0842869b9225bab489adbee71183ecd4: 21300000
    - 88d1c12c38ff0de46a71226a41c59363: 21300000
    - f7027d2cac40c674ba8205a375885115: 21300000
    - 956bd63c911721047835848cfea4bfa9: 21300000
    - 10790d2db29604a488225e1fdbf1c682: 21300000
    - 3ceaa15d0a298844090a16509e291912: 21300000
    - 8c54776dd64813843bdc1e7f2e58d4a9: 21300000
    - 62fa4bad744fef9478400cad16b1cb56: 21300000
    - b353322f888a3474da57e48e372f990f: 21300000
    - 14c2d0ef523d76a45b241e460eb2ee40: 21300000
  m_MasterAtlas: {fileID: 0}
  m_PackedSprites:
  - {fileID: 21300000, guid: e06cae01fdea7b84e9a72d1bae6475f6, type: 3}
  - {fileID: 21300000, guid: 2b38b5219c4ed1f43a12d3ded6a82996, type: 3}
  - {fileID: 21300000, guid: a9b6a591f2ce8a545aab6b89a9b97f8d, type: 3}
  - {fileID: 21300000, guid: 549437b26cc628e499ef07bae5717874, type: 3}
  - {fileID: 21300000, guid: 0c75f8b2ef8c06c409421e62e4efe01e, type: 3}
  - {fileID: 21300000, guid: 5f5edbc2d6fcef643acc5ce3e8a50e1d, type: 3}
  - {fileID: 21300000, guid: 4c2724f21e8e8fc45bcb6fd4829b4164, type: 3}
  - {fileID: 21300000, guid: 2aa1bed3e7d8bff45aad8406a98c3e0b, type: 3}
  - {fileID: 21300000, guid: e3180bc49b0b902459e726e9bb409805, type: 3}
  - {fileID: 21300000, guid: 85111ee423a8e404a9bbb1607b5aa6bd, type: 3}
  - {fileID: 21300000, guid: a58363e509cede0419fe90a2d35620ae, type: 3}
  - {fileID: 21300000, guid: 34d19286b6a593045b39c7af9660e7b8, type: 3}
  - {fileID: 21300000, guid: e0fd9996a7651654b8fd6cf3e5985cf9, type: 3}
  - {fileID: 21300000, guid: 4725e4b69ad5c2b4b9583a88c7653c1f, type: 3}
  - {fileID: 21300000, guid: 70b583d6f0eb1ba449bbe7c339c0174d, type: 3}
  - {fileID: 21300000, guid: eba1ce87f796c64418cbb3f88abe0ff4, type: 3}
  - {fileID: 21300000, guid: ca7f2b978d74c2d4c91d59df49f890a9, type: 3}
  - {fileID: 21300000, guid: eef939f7833dfc543a980b4b62287e34, type: 3}
  - {fileID: 21300000, guid: b2b4b52891193004e8b1d197689c0986, type: 3}
  - {fileID: 21300000, guid: 60958f488a5327f4db9d0c497fea558d, type: 3}
  - {fileID: 21300000, guid: 24ca2368fce9fd540928f212e4ab7462, type: 3}
  - {fileID: 21300000, guid: 7c3d33882c90fd740972b4584e218f8d, type: 3}
  - {fileID: 21300000, guid: 8fd9f6b82953b194f87bce578fe09d77, type: 3}
  - {fileID: 21300000, guid: c86a996994249ed46849b40086341fc6, type: 3}
  - {fileID: 21300000, guid: 271e4299eae59234fb520ef4224cad77, type: 3}
  - {fileID: 21300000, guid: 9c0addb9e66375242bced1dfba60492a, type: 3}
  - {fileID: 21300000, guid: 5672dbe966664cd49b605eaa625927ba, type: 3}
  - {fileID: 21300000, guid: 2ff2bf2ac4840684a8f535f821ee6298, type: 3}
  - {fileID: 21300000, guid: 4efe4a5a08f6a7346aace0edf7b5c558, type: 3}
  - {fileID: 21300000, guid: 323f30ca8aaa05b4baaab1dfaa1489bf, type: 3}
  - {fileID: 21300000, guid: e8f1c12b3e0e9014ebe82bf10dd22261, type: 3}
  - {fileID: 21300000, guid: 5852949bb0ec8db4a82f0c3fd607561b, type: 3}
  - {fileID: 21300000, guid: 0842869b9225bab489adbee71183ecd4, type: 3}
  - {fileID: 21300000, guid: 88d1c12c38ff0de46a71226a41c59363, type: 3}
  - {fileID: 21300000, guid: f7027d2cac40c674ba8205a375885115, type: 3}
  - {fileID: 21300000, guid: 956bd63c911721047835848cfea4bfa9, type: 3}
  - {fileID: 21300000, guid: 10790d2db29604a488225e1fdbf1c682, type: 3}
  - {fileID: 21300000, guid: 3ceaa15d0a298844090a16509e291912, type: 3}
  - {fileID: 21300000, guid: 8c54776dd64813843bdc1e7f2e58d4a9, type: 3}
  - {fileID: 21300000, guid: 62fa4bad744fef9478400cad16b1cb56, type: 3}
  - {fileID: 21300000, guid: b353322f888a3474da57e48e372f990f, type: 3}
  - {fileID: 21300000, guid: 14c2d0ef523d76a45b241e460eb2ee40, type: 3}
  m_PackedSpriteNamesToIndex:
  - winner_cup_lid_wobble.002
  - Winner-Cup-lid_0003_Layer-13-copy-3
  - trash_lid_wobble.009
  - trash_lid_wobble.005
  - trash_lid_wobble.011
  - fly_idle.001
  - trash_lid_wobble.006
  - winner_cup_pole_grow.004
  - trash_lid_wobble.010
  - winner_cup_pole_grow.003
  - winner_cup_lid_wobble.004
  - winner_cup_lid_wobble.012
  - winner_cup_pole_grow.001
  - fly_idle.002
  - Winner-Cup-lid_0000_Layer-2
  - trash_lid_wobble.004
  - Winner-Cup-lid_0002_Layer-1
  - winner_cup_pole_grow.002
  - winner_cup_lid_wobble.010
  - trash_lid_idle 3
  - trash_lid_wobble.012
  - trash_lid_wobble.003
  - trash_lid_idle 5
  - winner_cup_lid_wobble.001
  - winner_cup_pole_grow.006
  - trash_lid_idle 2
  - winner_cup_lid_wobble.003
  - trash_lid_idle 4
  - winner_cup_lid_wobble.009
  - trash_lid_wobble.007
  - winner_cup_lid_wobble.005
  - winner_cup_lid_wobble.007
  - winner_cup_lid_wobble.008
  - trash_lid_wobble.001
  - winner_cup_pole_grow.005
  - Winner-Cup-lid_0001_Layer-13-copy-2
  - trash_lid_wobble.008
  - winner_cup_lid_wobble.006
  - winner_cup_lid_wobble.011
  - trash_lid_wobble.002
  - fly_idle.003
  - fly_idle.004
  m_RenderDataMap: {}
  m_Tag: Trophies - Gold - Multiplayer
  m_IsVariant: 0
