%YAML 1.1
%TAG !u! tag:unity3d.com,2011:
--- !u!687078895 &4343727234628468602
SpriteAtlas:
  m_ObjectHideFlags: 0
  m_CorrespondingSourceObject: {fileID: 0}
  m_PrefabInstance: {fileID: 0}
  m_PrefabAsset: {fileID: 0}
  m_Name: Trophies - Gold
  m_EditorData:
    serializedVersion: 2
    textureSettings:
      serializedVersion: 2
      anisoLevel: 1
      compressionQuality: 50
      maxTextureSize: 2048
      textureCompression: 0
      filterMode: 1
      generateMipMaps: 0
      readable: 0
      crunchedCompression: 0
      sRGB: 1
    platformSettings: []
    packingSettings:
      serializedVersion: 2
      padding: 4
      blockOffset: 1
      allowAlphaSplitting: 0
      enableRotation: 1
      enableTightPacking: 1
      enableAlphaDilation: 0
    secondaryTextureSettings: {}
    variantMultiplier: 1
    packables:
    - {fileID: 102900000, guid: cf697e9b4049d364e8842ae891394db1, type: 3}
    bindAsDefault: 1
    isAtlasV2: 0
    cachedData: {fileID: 0}
    packedSpriteRenderDataKeys:
    - b9bfac10f4aa61f42b5d0e68e86c5c5e: 21300000
    - 64c0d620b3e13ec41a8467b5847ec598: 21300000
    - 6d2a4530acb6ce748a5acde8532acc9d: 21300000
    - 7f7ea6407e10b034ba18f87d4764bf32: 21300000
    - 00283d40c43ba1b498101a686cc7ba14: 21300000
    - 83bf3250a9dc2e74a8d0135054fb4f59: 21300000
    - 72036950f630c5b47a04909b61613653: 21300000
    - fb1b4ba05bb69414e9a7537da363acfc: 21300000
    - 19cd40b003031064da6ae5388ab109d4: 21300000
    - 3ef92bb0979bb46438b98e40993226fa: 21300000
    - 058f2db03cc689744989c763d3f34f09: 21300000
    - a1d4aac0e4f1485448bc066da0e19bca: 21300000
    - 4de52401e6d5a8a46abb2f901939d40b: 21300000
    - f9cbca0112edff448bdd106a8204ebf8: 21300000
    - 897d2d0140062394dbeaba0f6ab3bfd6: 21300000
    - f072d611054491148a27703756706d77: 21300000
    - 4d7f5f219b80b9a488b1ca844bb404ff: 21300000
    - 97237031ecf3b394b8bc296dbdf5e595: 21300000
    - 280af041ee5160c4d8a6ba91032c10b5: 21300000
    - 7390038171a62f946b151990d679f2b1: 21300000
    - 12f7bda1e257b9a448bb62d693f6f9de: 21300000
    - 007d42b18a7e7874298c2bc179c743e9: 21300000
    - 782c15b1bd2178a4d98a112dd34f0d85: 21300000
    - 256799b1962e409438171cfbb9fe481f: 21300000
    - cc5e3602e3fda954d84569a7497f6ceb: 21300000
    - ec2033723fbbd8e4682577b1c0e17a3c: 21300000
    - 0f7e7572eec09df47af28533dac31d08: 21300000
    - cf2c5082b566c5542ac4b826a9bce876: 21300000
    - 8eb3ee92c69b1344086cc8049c1b94a7: 21300000
    - c14677038320e6e458c8d8aa70cad667: 21300000
    - 89e01623b51337043bae18ba920324c2: 21300000
    - 0bd142331bd58c743aa9617825e5cc1a: 21300000
    - f4227a4398d818842975ba07bfaaebc5: 21300000
    - c19d8f537c528694ebca16bdf30b060f: 21300000
    - a78cfe7379d78a141a89a43ad9a38575: 21300000
    - 2b042983437aba349b3cddf19ceb45cb: 21300000
    - db6471a320ec2464f8163aaf5d8beae5: 21300000
    - 269263043e80e63449b2dad4f6888e0a: 21300000
    - 498655044679d6740a6d61c11197264d: 21300000
    - d1fa3944bbba59948a656a2d4b26f429: 21300000
    - d9308964630f0394cbd16b08272b337a: 21300000
    - 32c698b4214a13542aa66a6d954ed8da: 21300000
    - d2b429d43548f8942be8502d1c0645d1: 21300000
    - 3e575de4a7be45440a1092f73d7302af: 21300000
    - e0bc00f472eafb34d8aad70fbbb6ccdc: 21300000
    - d08db6f40f9bf6046ac8940f924f27ed: 21300000
    - 6ba1af458d6f1c641ada42eee05aa5a1: 21300000
    - 62a13d7511e45bd43b4572429b08c8bb: 21300000
    - 64360a85036bc014b91a11ea1e7110ca: 21300000
    - b9211c859fc5ecc4da70afe1cf27f421: 21300000
    - 47d34e9577092554eab3595cbd61dd62: 21300000
    - 9611f8c52dc8d3148bf6cd1a37be11f3: 21300000
    - a8d111d5c1bc4514488f695ea6f7651e: 21300000
    - fdbdfae55c873344ba12221371ca7fd4: 21300000
    - 73c04af5b0ea3854ea3f45f355a2c4c8: 21300000
    - 66266ff53ee5a774aac99325384300d6: 21300000
    - 1d99aa16ac550b34e827f63a9c89a5aa: 21300000
    - e8bc0b16740834c48b25590d9b250fbb: 21300000
    - cd8da566facebc7488aa72472bffa284: 21300000
    - 478a6666f2df26845b642e548ee87ce9: 21300000
    - 7c19b396597992d43955bbe7cc636a19: 21300000
    - 034e03b62deae1a46bac623b3987e48e: 21300000
    - 0984acc611a0d174aabdd73b4cad3b6e: 21300000
    - 965283d6b1cbb44448e405b007366e54: 21300000
    - 208c2d079ff4ecc4db43d4749e803209: 21300000
    - 2af628473a0a7b94f9a0d8fd3937120b: 21300000
    - 1a9e0947231118d4f8e46ea40fb5bbef: 21300000
    - 05c4aa57f06fc6d4aae943a9a651da69: 21300000
    - 26a123b7376ee224e9f71c34cbe6301c: 21300000
    - 375a1ab708fc7c94cabc04ee330c6f9a: 21300000
    - bfeb6bb733f8be647b8e5b6fd0a2d3a0: 21300000
    - 7bf1f6d7f6c46f64b85d5b8bf4c13e4d: 21300000
    - 4ea5f0f79396c5d4fbf022599f854742: 21300000
    - 5ccc0ef79fe11ff419a2e9d18917f6aa: 21300000
    - 0b0465287c814034d9651bbb307ba7f7: 21300000
    - df382b2865795fb44b5fb72a2e4bfef9: 21300000
    - 3b713b4834b308642a3bce8a804bbf7a: 21300000
    - 0c5c6f585a512ca4a8d88b82a0e09400: 21300000
    - 3fb5876833a6c2149a590b5387a1a027: 21300000
    - 89c6608890598944cb3c75ae73981d69: 21300000
    - 242851a8cf2390e40bc9a20f8371f919: 21300000
    - 08abc4b85fd5cdf48a2d9715ed5f99c3: 21300000
    - d2ad4209f035b9b48bfb3e48455b8e1d: 21300000
    - b469960965ef25f439875e8e1e27ff61: 21300000
    - 29a0171936ebe1747865f40f3ec1d2ca: 21300000
    - 1b0e2289e2e09ba4bbf7c4f3e91683ee: 21300000
    - 1697c89984a4e8144aa2a4658b2f03b1: 21300000
    - 5e0417c9706255945919ce6433b113b7: 21300000
    - b9ce49f9304934246abf2da6042e8c6c: 21300000
    - 0002121ad0088cf4386ecd29915c8a42: 21300000
    - 17fb345aa28aa504193ca0068404fee0: 21300000
    - 262a185aa26dcdd46ab8801787637a1c: 21300000
    - f276107a477a54b4fbd55ca49b3ea593: 21300000
    - 4252837abdbdb4f4f9a90984fd1ab90e: 21300000
    - 15498d9a193fba94586280e666322f76: 21300000
    - c66703aac60c3ad428a4a6dde9c0f441: 21300000
    - 2070aeba45f3e434bbb48ee857d2453e: 21300000
    - 88b019ea29aeac847bacb86692bde023: 21300000
    - 168c06fa32123df40bb2e793a7902f35: 21300000
    - 63d4690b4a0ca3342b534abfd18fb29d: 21300000
    - 55fd0f0ba11fe6244a23d254af7e81d1: 21300000
    - 26d4333b2986814488a1abcc378d8609: 21300000
    - 5dde0a4b51aa0614f8d7593af696a9aa: 21300000
    - 9a0f456b371c2504bb73beb7e7ad11d1: 21300000
    - 4110286b5fe4484478b9416ff940f294: 21300000
    - 5709048b6a4696e4f8b3f97d11ca3c60: 21300000
    - 407f98ab755c33a40bf93f6e02132539: 21300000
    - c3d40bbb26a758f4683ab4717665d4e0: 21300000
    - c476a2eb6a98d1e4bbe62e42a40d60ad: 21300000
    - a2d7b3eb1b5df5744850bf15d0ee2038: 21300000
    - d98eaa3cd865dd145901ba52bf0fef91: 21300000
    - 30cefe3caf1107b4a8005d579048be3a: 21300000
    - ebd9d56c167f9a44ab9c94355b84443e: 21300000
    - e67c918c9e5b25242a905b8bd322b0fb: 21300000
    - 67fdb38c8d7d0524380d1bf80da3bef8: 21300000
    - 7fabc89c6d4061a4eae6c11e36c33edc: 21300000
    - f7f338bc9c6796a429f66ad0748159ec: 21300000
    - ecfe39bcc0363584e8dd1f5ee408c8c7: 21300000
    - 2b274dbcded3f23418384c896b91dbc0: 21300000
    - 8c39afbcfc2a61141811b398b33936a1: 21300000
    - d45e7fcc51548154c8fda47bb7ee0775: 21300000
    - e6a13aec2b8a7024daa8ef838b59ad3c: 21300000
    - ab5a7dec08b393148a1e8904166d8dd0: 21300000
    - f2dcdffc0a93bc0439a74d2ebc713fe6: 21300000
    - 61faac0dcb088d24db8cfe13a4ac81cb: 21300000
    - dd5f841d00f9fe84b983dc63dae23896: 21300000
    - 905c402d372d9ae44adbd2ebf3c0016a: 21300000
    - a2adfe3d5806cc649b197a38a8836c93: 21300000
    - f741dd4dea47a5d4e955c3265bf8a78c: 21300000
    - 7d66485d6d6e2c44e93ce246eb6b8e96: 21300000
    - 302d708dd2264a040939d616ea9ee982: 21300000
    - c52bc8ddd1bad0f4689ee6ef1da2b599: 21300000
    - b3443cfda79383a4d97afd17f4231de4: 21300000
    - 9435e42e6146b7c438ae3aaeb5311001: 21300000
    - 81ffe42edf8dce549b289d563b3de219: 21300000
    - a857073e4d582c74988e2d3570212c8f: 21300000
    - fee7314eba129df4782f8eb1f31665b5: 21300000
    - 5c5d037ee48cf9741b098262246543b0: 21300000
    - 3e69738e3273aab4ca9a5061807ce1e2: 21300000
    - 19a7148ebf8513a488e9ef56a4cdaee1: 21300000
    - 62f591ae8aae16f4db2d8a7028dccfce: 21300000
    - 45d408aed159fc944905370f70e0409b: 21300000
    - fe3826de8729ff04cbc37402358e0d6e: 21300000
    - 9c7f671f2f06b464ebd6c14a94a97bdc: 21300000
    - ccfa392f0c66f584185d04aa43031f74: 21300000
    - 983dd35fa69b4dd4fb2cf463ef158dd6: 21300000
    - 448aa76f6df783d40a526ee61f92909e: 21300000
    - c099e28f48f73d9498bb44ca30fe3fe2: 21300000
    - eddc0daffe228f244976898367959db5: 21300000
    - 90f51dafcc2d5b9408c00cc575c50e9b: 21300000
    - 539739bf25d16e94ca4c28e9134c6c75: 21300000
    - 9b3df8df300168f46b6e6639baa903da: 21300000
    - 73b29adf2a76e3d418990a4750a0cd4a: 21300000
    - 6b08e0ffe63e36543a1a2030a6d88c4b: 21300000
  m_MasterAtlas: {fileID: 0}
  m_PackedSprites:
  - {fileID: 21300000, guid: b9bfac10f4aa61f42b5d0e68e86c5c5e, type: 3}
  - {fileID: 21300000, guid: 64c0d620b3e13ec41a8467b5847ec598, type: 3}
  - {fileID: 21300000, guid: 6d2a4530acb6ce748a5acde8532acc9d, type: 3}
  - {fileID: 21300000, guid: 7f7ea6407e10b034ba18f87d4764bf32, type: 3}
  - {fileID: 21300000, guid: 00283d40c43ba1b498101a686cc7ba14, type: 3}
  - {fileID: 21300000, guid: 83bf3250a9dc2e74a8d0135054fb4f59, type: 3}
  - {fileID: 21300000, guid: 72036950f630c5b47a04909b61613653, type: 3}
  - {fileID: 21300000, guid: fb1b4ba05bb69414e9a7537da363acfc, type: 3}
  - {fileID: 21300000, guid: 19cd40b003031064da6ae5388ab109d4, type: 3}
  - {fileID: 21300000, guid: 3ef92bb0979bb46438b98e40993226fa, type: 3}
  - {fileID: 21300000, guid: 058f2db03cc689744989c763d3f34f09, type: 3}
  - {fileID: 21300000, guid: a1d4aac0e4f1485448bc066da0e19bca, type: 3}
  - {fileID: 21300000, guid: 4de52401e6d5a8a46abb2f901939d40b, type: 3}
  - {fileID: 21300000, guid: f9cbca0112edff448bdd106a8204ebf8, type: 3}
  - {fileID: 21300000, guid: 897d2d0140062394dbeaba0f6ab3bfd6, type: 3}
  - {fileID: 21300000, guid: f072d611054491148a27703756706d77, type: 3}
  - {fileID: 21300000, guid: 4d7f5f219b80b9a488b1ca844bb404ff, type: 3}
  - {fileID: 21300000, guid: 97237031ecf3b394b8bc296dbdf5e595, type: 3}
  - {fileID: 21300000, guid: 280af041ee5160c4d8a6ba91032c10b5, type: 3}
  - {fileID: 21300000, guid: 7390038171a62f946b151990d679f2b1, type: 3}
  - {fileID: 21300000, guid: 12f7bda1e257b9a448bb62d693f6f9de, type: 3}
  - {fileID: 21300000, guid: 007d42b18a7e7874298c2bc179c743e9, type: 3}
  - {fileID: 21300000, guid: 782c15b1bd2178a4d98a112dd34f0d85, type: 3}
  - {fileID: 21300000, guid: 256799b1962e409438171cfbb9fe481f, type: 3}
  - {fileID: 21300000, guid: cc5e3602e3fda954d84569a7497f6ceb, type: 3}
  - {fileID: 21300000, guid: ec2033723fbbd8e4682577b1c0e17a3c, type: 3}
  - {fileID: 21300000, guid: 0f7e7572eec09df47af28533dac31d08, type: 3}
  - {fileID: 21300000, guid: cf2c5082b566c5542ac4b826a9bce876, type: 3}
  - {fileID: 21300000, guid: 8eb3ee92c69b1344086cc8049c1b94a7, type: 3}
  - {fileID: 21300000, guid: c14677038320e6e458c8d8aa70cad667, type: 3}
  - {fileID: 21300000, guid: 89e01623b51337043bae18ba920324c2, type: 3}
  - {fileID: 21300000, guid: 0bd142331bd58c743aa9617825e5cc1a, type: 3}
  - {fileID: 21300000, guid: f4227a4398d818842975ba07bfaaebc5, type: 3}
  - {fileID: 21300000, guid: c19d8f537c528694ebca16bdf30b060f, type: 3}
  - {fileID: 21300000, guid: a78cfe7379d78a141a89a43ad9a38575, type: 3}
  - {fileID: 21300000, guid: 2b042983437aba349b3cddf19ceb45cb, type: 3}
  - {fileID: 21300000, guid: db6471a320ec2464f8163aaf5d8beae5, type: 3}
  - {fileID: 21300000, guid: 269263043e80e63449b2dad4f6888e0a, type: 3}
  - {fileID: 21300000, guid: 498655044679d6740a6d61c11197264d, type: 3}
  - {fileID: 21300000, guid: d1fa3944bbba59948a656a2d4b26f429, type: 3}
  - {fileID: 21300000, guid: d9308964630f0394cbd16b08272b337a, type: 3}
  - {fileID: 21300000, guid: 32c698b4214a13542aa66a6d954ed8da, type: 3}
  - {fileID: 21300000, guid: d2b429d43548f8942be8502d1c0645d1, type: 3}
  - {fileID: 21300000, guid: 3e575de4a7be45440a1092f73d7302af, type: 3}
  - {fileID: 21300000, guid: e0bc00f472eafb34d8aad70fbbb6ccdc, type: 3}
  - {fileID: 21300000, guid: d08db6f40f9bf6046ac8940f924f27ed, type: 3}
  - {fileID: 21300000, guid: 6ba1af458d6f1c641ada42eee05aa5a1, type: 3}
  - {fileID: 21300000, guid: 62a13d7511e45bd43b4572429b08c8bb, type: 3}
  - {fileID: 21300000, guid: 64360a85036bc014b91a11ea1e7110ca, type: 3}
  - {fileID: 21300000, guid: b9211c859fc5ecc4da70afe1cf27f421, type: 3}
  - {fileID: 21300000, guid: 47d34e9577092554eab3595cbd61dd62, type: 3}
  - {fileID: 21300000, guid: 9611f8c52dc8d3148bf6cd1a37be11f3, type: 3}
  - {fileID: 21300000, guid: a8d111d5c1bc4514488f695ea6f7651e, type: 3}
  - {fileID: 21300000, guid: fdbdfae55c873344ba12221371ca7fd4, type: 3}
  - {fileID: 21300000, guid: 73c04af5b0ea3854ea3f45f355a2c4c8, type: 3}
  - {fileID: 21300000, guid: 66266ff53ee5a774aac99325384300d6, type: 3}
  - {fileID: 21300000, guid: 1d99aa16ac550b34e827f63a9c89a5aa, type: 3}
  - {fileID: 21300000, guid: e8bc0b16740834c48b25590d9b250fbb, type: 3}
  - {fileID: 21300000, guid: cd8da566facebc7488aa72472bffa284, type: 3}
  - {fileID: 21300000, guid: 478a6666f2df26845b642e548ee87ce9, type: 3}
  - {fileID: 21300000, guid: 7c19b396597992d43955bbe7cc636a19, type: 3}
  - {fileID: 21300000, guid: 034e03b62deae1a46bac623b3987e48e, type: 3}
  - {fileID: 21300000, guid: 0984acc611a0d174aabdd73b4cad3b6e, type: 3}
  - {fileID: 21300000, guid: 965283d6b1cbb44448e405b007366e54, type: 3}
  - {fileID: 21300000, guid: 208c2d079ff4ecc4db43d4749e803209, type: 3}
  - {fileID: 21300000, guid: 2af628473a0a7b94f9a0d8fd3937120b, type: 3}
  - {fileID: 21300000, guid: 1a9e0947231118d4f8e46ea40fb5bbef, type: 3}
  - {fileID: 21300000, guid: 05c4aa57f06fc6d4aae943a9a651da69, type: 3}
  - {fileID: 21300000, guid: 26a123b7376ee224e9f71c34cbe6301c, type: 3}
  - {fileID: 21300000, guid: 375a1ab708fc7c94cabc04ee330c6f9a, type: 3}
  - {fileID: 21300000, guid: bfeb6bb733f8be647b8e5b6fd0a2d3a0, type: 3}
  - {fileID: 21300000, guid: 7bf1f6d7f6c46f64b85d5b8bf4c13e4d, type: 3}
  - {fileID: 21300000, guid: 4ea5f0f79396c5d4fbf022599f854742, type: 3}
  - {fileID: 21300000, guid: 5ccc0ef79fe11ff419a2e9d18917f6aa, type: 3}
  - {fileID: 21300000, guid: 0b0465287c814034d9651bbb307ba7f7, type: 3}
  - {fileID: 21300000, guid: df382b2865795fb44b5fb72a2e4bfef9, type: 3}
  - {fileID: 21300000, guid: 3b713b4834b308642a3bce8a804bbf7a, type: 3}
  - {fileID: 21300000, guid: 0c5c6f585a512ca4a8d88b82a0e09400, type: 3}
  - {fileID: 21300000, guid: 3fb5876833a6c2149a590b5387a1a027, type: 3}
  - {fileID: 21300000, guid: 89c6608890598944cb3c75ae73981d69, type: 3}
  - {fileID: 21300000, guid: 242851a8cf2390e40bc9a20f8371f919, type: 3}
  - {fileID: 21300000, guid: 08abc4b85fd5cdf48a2d9715ed5f99c3, type: 3}
  - {fileID: 21300000, guid: d2ad4209f035b9b48bfb3e48455b8e1d, type: 3}
  - {fileID: 21300000, guid: b469960965ef25f439875e8e1e27ff61, type: 3}
  - {fileID: 21300000, guid: 29a0171936ebe1747865f40f3ec1d2ca, type: 3}
  - {fileID: 21300000, guid: 1b0e2289e2e09ba4bbf7c4f3e91683ee, type: 3}
  - {fileID: 21300000, guid: 1697c89984a4e8144aa2a4658b2f03b1, type: 3}
  - {fileID: 21300000, guid: 5e0417c9706255945919ce6433b113b7, type: 3}
  - {fileID: 21300000, guid: b9ce49f9304934246abf2da6042e8c6c, type: 3}
  - {fileID: 21300000, guid: 0002121ad0088cf4386ecd29915c8a42, type: 3}
  - {fileID: 21300000, guid: 17fb345aa28aa504193ca0068404fee0, type: 3}
  - {fileID: 21300000, guid: 262a185aa26dcdd46ab8801787637a1c, type: 3}
  - {fileID: 21300000, guid: f276107a477a54b4fbd55ca49b3ea593, type: 3}
  - {fileID: 21300000, guid: 4252837abdbdb4f4f9a90984fd1ab90e, type: 3}
  - {fileID: 21300000, guid: 15498d9a193fba94586280e666322f76, type: 3}
  - {fileID: 21300000, guid: c66703aac60c3ad428a4a6dde9c0f441, type: 3}
  - {fileID: 21300000, guid: 2070aeba45f3e434bbb48ee857d2453e, type: 3}
  - {fileID: 21300000, guid: 88b019ea29aeac847bacb86692bde023, type: 3}
  - {fileID: 21300000, guid: 168c06fa32123df40bb2e793a7902f35, type: 3}
  - {fileID: 21300000, guid: 63d4690b4a0ca3342b534abfd18fb29d, type: 3}
  - {fileID: 21300000, guid: 55fd0f0ba11fe6244a23d254af7e81d1, type: 3}
  - {fileID: 21300000, guid: 26d4333b2986814488a1abcc378d8609, type: 3}
  - {fileID: 21300000, guid: 5dde0a4b51aa0614f8d7593af696a9aa, type: 3}
  - {fileID: 21300000, guid: 9a0f456b371c2504bb73beb7e7ad11d1, type: 3}
  - {fileID: 21300000, guid: 4110286b5fe4484478b9416ff940f294, type: 3}
  - {fileID: 21300000, guid: 5709048b6a4696e4f8b3f97d11ca3c60, type: 3}
  - {fileID: 21300000, guid: 407f98ab755c33a40bf93f6e02132539, type: 3}
  - {fileID: 21300000, guid: c3d40bbb26a758f4683ab4717665d4e0, type: 3}
  - {fileID: 21300000, guid: c476a2eb6a98d1e4bbe62e42a40d60ad, type: 3}
  - {fileID: 21300000, guid: a2d7b3eb1b5df5744850bf15d0ee2038, type: 3}
  - {fileID: 21300000, guid: d98eaa3cd865dd145901ba52bf0fef91, type: 3}
  - {fileID: 21300000, guid: 30cefe3caf1107b4a8005d579048be3a, type: 3}
  - {fileID: 21300000, guid: ebd9d56c167f9a44ab9c94355b84443e, type: 3}
  - {fileID: 21300000, guid: e67c918c9e5b25242a905b8bd322b0fb, type: 3}
  - {fileID: 21300000, guid: 67fdb38c8d7d0524380d1bf80da3bef8, type: 3}
  - {fileID: 21300000, guid: 7fabc89c6d4061a4eae6c11e36c33edc, type: 3}
  - {fileID: 21300000, guid: f7f338bc9c6796a429f66ad0748159ec, type: 3}
  - {fileID: 21300000, guid: ecfe39bcc0363584e8dd1f5ee408c8c7, type: 3}
  - {fileID: 21300000, guid: 2b274dbcded3f23418384c896b91dbc0, type: 3}
  - {fileID: 21300000, guid: 8c39afbcfc2a61141811b398b33936a1, type: 3}
  - {fileID: 21300000, guid: d45e7fcc51548154c8fda47bb7ee0775, type: 3}
  - {fileID: 21300000, guid: e6a13aec2b8a7024daa8ef838b59ad3c, type: 3}
  - {fileID: 21300000, guid: ab5a7dec08b393148a1e8904166d8dd0, type: 3}
  - {fileID: 21300000, guid: f2dcdffc0a93bc0439a74d2ebc713fe6, type: 3}
  - {fileID: 21300000, guid: 61faac0dcb088d24db8cfe13a4ac81cb, type: 3}
  - {fileID: 21300000, guid: dd5f841d00f9fe84b983dc63dae23896, type: 3}
  - {fileID: 21300000, guid: 905c402d372d9ae44adbd2ebf3c0016a, type: 3}
  - {fileID: 21300000, guid: a2adfe3d5806cc649b197a38a8836c93, type: 3}
  - {fileID: 21300000, guid: f741dd4dea47a5d4e955c3265bf8a78c, type: 3}
  - {fileID: 21300000, guid: 7d66485d6d6e2c44e93ce246eb6b8e96, type: 3}
  - {fileID: 21300000, guid: 302d708dd2264a040939d616ea9ee982, type: 3}
  - {fileID: 21300000, guid: c52bc8ddd1bad0f4689ee6ef1da2b599, type: 3}
  - {fileID: 21300000, guid: b3443cfda79383a4d97afd17f4231de4, type: 3}
  - {fileID: 21300000, guid: 9435e42e6146b7c438ae3aaeb5311001, type: 3}
  - {fileID: 21300000, guid: 81ffe42edf8dce549b289d563b3de219, type: 3}
  - {fileID: 21300000, guid: a857073e4d582c74988e2d3570212c8f, type: 3}
  - {fileID: 21300000, guid: fee7314eba129df4782f8eb1f31665b5, type: 3}
  - {fileID: 21300000, guid: 5c5d037ee48cf9741b098262246543b0, type: 3}
  - {fileID: 21300000, guid: 3e69738e3273aab4ca9a5061807ce1e2, type: 3}
  - {fileID: 21300000, guid: 19a7148ebf8513a488e9ef56a4cdaee1, type: 3}
  - {fileID: 21300000, guid: 62f591ae8aae16f4db2d8a7028dccfce, type: 3}
  - {fileID: 21300000, guid: 45d408aed159fc944905370f70e0409b, type: 3}
  - {fileID: 21300000, guid: fe3826de8729ff04cbc37402358e0d6e, type: 3}
  - {fileID: 21300000, guid: 9c7f671f2f06b464ebd6c14a94a97bdc, type: 3}
  - {fileID: 21300000, guid: ccfa392f0c66f584185d04aa43031f74, type: 3}
  - {fileID: 21300000, guid: 983dd35fa69b4dd4fb2cf463ef158dd6, type: 3}
  - {fileID: 21300000, guid: 448aa76f6df783d40a526ee61f92909e, type: 3}
  - {fileID: 21300000, guid: c099e28f48f73d9498bb44ca30fe3fe2, type: 3}
  - {fileID: 21300000, guid: eddc0daffe228f244976898367959db5, type: 3}
  - {fileID: 21300000, guid: 90f51dafcc2d5b9408c00cc575c50e9b, type: 3}
  - {fileID: 21300000, guid: 539739bf25d16e94ca4c28e9134c6c75, type: 3}
  - {fileID: 21300000, guid: 9b3df8df300168f46b6e6639baa903da, type: 3}
  - {fileID: 21300000, guid: 73b29adf2a76e3d418990a4750a0cd4a, type: 3}
  - {fileID: 21300000, guid: 6b08e0ffe63e36543a1a2030a6d88c4b, type: 3}
  m_PackedSpriteNamesToIndex:
  - troph_can.008
  - gold_wobble_01
  - troph_can.002
  - juicesplash.007
  - gold_wobble_03
  - juicesplash.002
  - gold_shine.011
  - star_effect_07
  - Juice_idle.003
  - gold_lid_shine_2.001
  - corona_shot_10
  - blender_podium_mask
  - arrow.001
  - gold_wobble_06
  - gold_wobble_04
  - corona_shot_09
  - troph_can.011
  - troph_can.022
  - podium_juice_top.005
  - troph_can.028
  - gold_wobble_10
  - lid_wobble_09
  - troph_can.029
  - gold_lid_shine_2.011
  - arrow.004
  - arrow.002
  - blender_podium
  - arrow.007
  - podium_juice_top.002
  - death_body2_07
  - X
  - troph_can.009
  - gold_lid_shine_2.009
  - lid_wobble_08
  - troph_can.010
  - gold_wobble_12
  - bottom_04
  - gold_shine.009
  - gold_shine.004
  - bottom_11
  - arrow.013
  - gold_shine.010
  - bottom_06
  - troph_can.017
  - Juice_idle.006
  - star_effect_06
  - arrow.008
  - bottom_02
  - troph_can.005
  - troph_can.006
  - gold_shine.008
  - Background
  - gold_lid_shine_2.006
  - bottom_09
  - gold_wobble_07
  - bottom_03
  - editor_trophy_with_base
  - lid_wobble_01
  - troph_can.027
  - gold_shine.012
  - bottom_07
  - corona_shot_04
  - gold_shine.006
  - troph_can.015
  - gold_lid_shine_2.010
  - corona_shot_02
  - troph_can.025
  - corona_shot_01
  - juicesplash.001
  - Background2
  - corona_shot_03
  - troph_can.018
  - bottom_14
  - corona_shot_06
  - gold_shine.001
  - star_effect_09
  - arrow.003
  - juicesplash.003
  - arrow.011
  - gold_wobble_02
  - lid_wobble_05
  - arrow.006
  - gold_shine.007
  - arrow.010
  - lid_wobble_10
  - troph_can.003
  - bottom_12
  - gold_wobble_11
  - bottom_13
  - gold_shine.005
  - Juice_idle.005
  - troph_can.012
  - troph_can.020
  - bottom_05
  - juicesplash.005
  - Juice_idle.004
  - arrow.005
  - star_effect_05
  - lid_wobble_06
  - lid_wobble_12
  - lid_wobble_07
  - arrow.009
  - gold_shine.003
  - podium_juice_top.003
  - lid_wobble_04
  - juicesplash.004
  - troph_can.024
  - star_effect_01
  - star_effect_04
  - corona_shot_07
  - trophy_bottom
  - Juice_idle.001
  - lid_wobble_11
  - troph_can.016
  - gold_lid_shine_2.008
  - troph_can.007
  - gold_lid_shine_2.012
  - bottom_10
  - bottom_08
  - lid_wobble_03
  - gold_wobble_05
  - troph_can.019
  - juicesplash.006
  - star_effect_02
  - gold_lid_shine_2.013
  - gold_lid_shine_2.002
  - troph_can.001
  - bottom_01
  - troph_can.004
  - corona_shot_05
  - troph_can.021
  - corona_shot_08
  - troph_can.014
  - star_effect_03
  - gold_lid_shine_2.004
  - death_body2_05
  - podium_juice_top.001
  - Juice_idle.002
  - gold_lid_shine_2.005
  - gold_wobble_08
  - star_line
  - death_body2_06
  - gold_shine.013
  - gold_wobble_09
  - arrow.012
  - lid_wobble_02
  - gold_shine.002
  - gold_lid_shine_2.003
  - gold_lid_shine_2.007
  - troph_can.023
  - troph_can.013
  - troph_can.026
  - star_effect_08
  - podium_juice_top.004
  m_RenderDataMap: {}
  m_Tag: Trophies - Gold
  m_IsVariant: 0
