%YAML 1.1
%TAG !u! tag:unity3d.com,2011:
--- !u!687078895 &4343727234628468602
SpriteAtlas:
  m_ObjectHideFlags: 0
  m_CorrespondingSourceObject: {fileID: 0}
  m_PrefabInstance: {fileID: 0}
  m_PrefabAsset: {fileID: 0}
  m_Name: UI - Input Type Prompt Symbols
  m_EditorData:
    serializedVersion: 2
    textureSettings:
      serializedVersion: 2
      anisoLevel: 1
      compressionQuality: 50
      maxTextureSize: 2048
      textureCompression: 0
      filterMode: 1
      generateMipMaps: 0
      readable: 0
      crunchedCompression: 0
      sRGB: 1
    platformSettings: []
    packingSettings:
      serializedVersion: 2
      padding: 4
      blockOffset: 1
      allowAlphaSplitting: 0
      enableRotation: 0
      enableTightPacking: 0
      enableAlphaDilation: 0
    secondaryTextureSettings: {}
    variantMultiplier: 1
    packables:
    - {fileID: 2800000, guid: 0c23b1b2880e7492d80e83742f15fa64, type: 3}
    - {fileID: 2800000, guid: 60fb8f1e4887d4b47802748a56c298f0, type: 3}
    - {fileID: 2800000, guid: 669e6e0898353eb48be66a7ba65cfcb5, type: 3}
    - {fileID: 2800000, guid: 2411bba3088a048029e83e51a5f32543, type: 3}
    - {fileID: 2800000, guid: b7b91dd96662841719d5d7dff2c2df30, type: 3}
    - {fileID: 2800000, guid: ee767921bf0cf4e229c85838d40e1e6d, type: 3}
    - {fileID: 2800000, guid: b692f515095d8452991f741d07bbf4be, type: 3}
    - {fileID: 2800000, guid: 71b33939db380472da0cb73894d977be, type: 3}
    - {fileID: 2800000, guid: ddb66d88ef09748098a2f2381d0bbd03, type: 3}
    - {fileID: 2800000, guid: 5924fcb1ecbca46ff8470f7a5b3e59e3, type: 3}
    - {fileID: 2800000, guid: ffcff9ae173e343edb4c8851537b02fb, type: 3}
    - {fileID: 2800000, guid: cbeeaa645d0444eca8035bab8571098f, type: 3}
    - {fileID: 2800000, guid: 6a580547b530448a78ade7247d863ee1, type: 3}
    - {fileID: 2800000, guid: 9d1ab1083a86d40af9aa56c38fc0c55f, type: 3}
    - {fileID: 2800000, guid: 59c6f929dbc2f4bae91dba694b98b1ab, type: 3}
    - {fileID: 2800000, guid: d3a70c1753ce34fdab0c3196a20b013d, type: 3}
    - {fileID: 2800000, guid: b9c82b974f56e4774bec067c52742d9f, type: 3}
    - {fileID: 2800000, guid: 9e5098ecbc4394c53a2bd7f84235b682, type: 3}
    bindAsDefault: 1
    isAtlasV2: 0
    cachedData: {fileID: 0}
    packedSpriteRenderDataKeys:
    - ee767921bf0cf4e229c85838d40e1e6d: 21300000
    - 5924fcb1ecbca46ff8470f7a5b3e59e3: 21300000
    - 0c23b1b2880e7492d80e83742f15fa64: 21300000
    - 2411bba3088a048029e83e51a5f32543: 21300000
    - cbeeaa645d0444eca8035bab8571098f: 21300000
    - b692f515095d8452991f741d07bbf4be: 21300000
    - d3a70c1753ce34fdab0c3196a20b013d: 21300000
    - 6a580547b530448a78ade7247d863ee1: 21300000
    - b9c82b974f56e4774bec067c52742d9f: 21300000
    - 9d1ab1083a86d40af9aa56c38fc0c55f: 21300000
    - 669e6e0898353eb48be66a7ba65cfcb5: 21300000
    - ddb66d88ef09748098a2f2381d0bbd03: 21300000
    - 59c6f929dbc2f4bae91dba694b98b1ab: 21300000
    - 71b33939db380472da0cb73894d977be: 21300000
    - b7b91dd96662841719d5d7dff2c2df30: 21300000
    - 9e5098ecbc4394c53a2bd7f84235b682: 21300000
    - 60fb8f1e4887d4b47802748a56c298f0: 21300000
    - ffcff9ae173e343edb4c8851537b02fb: 21300000
  m_MasterAtlas: {fileID: 0}
  m_PackedSprites:
  - {fileID: 21300000, guid: ee767921bf0cf4e229c85838d40e1e6d, type: 3}
  - {fileID: 21300000, guid: 5924fcb1ecbca46ff8470f7a5b3e59e3, type: 3}
  - {fileID: 21300000, guid: 0c23b1b2880e7492d80e83742f15fa64, type: 3}
  - {fileID: 21300000, guid: 2411bba3088a048029e83e51a5f32543, type: 3}
  - {fileID: 21300000, guid: cbeeaa645d0444eca8035bab8571098f, type: 3}
  - {fileID: 21300000, guid: b692f515095d8452991f741d07bbf4be, type: 3}
  - {fileID: 21300000, guid: d3a70c1753ce34fdab0c3196a20b013d, type: 3}
  - {fileID: 21300000, guid: 6a580547b530448a78ade7247d863ee1, type: 3}
  - {fileID: 21300000, guid: b9c82b974f56e4774bec067c52742d9f, type: 3}
  - {fileID: 21300000, guid: 9d1ab1083a86d40af9aa56c38fc0c55f, type: 3}
  - {fileID: 21300000, guid: 669e6e0898353eb48be66a7ba65cfcb5, type: 3}
  - {fileID: 21300000, guid: ddb66d88ef09748098a2f2381d0bbd03, type: 3}
  - {fileID: 21300000, guid: 59c6f929dbc2f4bae91dba694b98b1ab, type: 3}
  - {fileID: 21300000, guid: 71b33939db380472da0cb73894d977be, type: 3}
  - {fileID: 21300000, guid: b7b91dd96662841719d5d7dff2c2df30, type: 3}
  - {fileID: 21300000, guid: 9e5098ecbc4394c53a2bd7f84235b682, type: 3}
  - {fileID: 21300000, guid: 60fb8f1e4887d4b47802748a56c298f0, type: 3}
  - {fileID: 21300000, guid: ffcff9ae173e343edb4c8851537b02fb, type: 3}
  m_PackedSpriteNamesToIndex:
  - controller_icon_pressed
  - keyboard_icon_shadow_pressed
  - controller_icon_shadow
  - controler options backplate
  - siriremote_icon_pressed
  - keyboard_icon
  - touch_icon_pressed
  - siriremote_icon_shadow
  - touch_icon_shadow
  - siriremote_icon_shadow_pressed
  - controler options backplate single
  - keyboard_icon_shadow
  - touch_icon
  - keyboard_icon_pressed
  - controller_icon
  - touch_icon_shadow_pressed
  - controler options backplate single tall
  - siriremote_icon
  m_RenderDataMap: {}
  m_Tag: UI - Input Type Prompt Symbols
  m_IsVariant: 0
