%YAML 1.1
%TAG !u! tag:unity3d.com,2011:
--- !u!114 &11400000
MonoBehaviour:
  m_ObjectHideFlags: 0
  m_CorrespondingSourceObject: {fileID: 0}
  m_PrefabInstance: {fileID: 0}
  m_PrefabAsset: {fileID: 0}
  m_GameObject: {fileID: 0}
  m_Enabled: 1
  m_EditorHideFlags: 0
  m_Script: {fileID: 11500000, guid: deada51ddafa6304c894ffaffa3f8d7c, type: 3}
  m_Name: TilesetRacingNormal
  m_EditorClassIdentifier: 
  type: 0
  flowIntoSlopes: 0
  singleSquare:
  - {fileID: 21300000, guid: a93d80f819f2dcb41a9cf3bde9b9b164, type: 3}
  - {fileID: 21300000, guid: 9d1641874105aac4a88eafdd14d8ea28, type: 3}
  - {fileID: 21300000, guid: 001d0eaadf6240545875b90003e3cc1c, type: 3}
  interior:
  - {fileID: 21300000, guid: 81da1cdd02cd5524d98b1dac7e9d095d, type: 3}
  - {fileID: 21300000, guid: ec5d8de412f419844ae2811f74a4e1bb, type: 3}
  - {fileID: 21300000, guid: 861bbeca5ed8e2d4b84a47c2811337cd, type: 3}
  - {fileID: 21300000, guid: c2df594eb4434574b948e9afa309db90, type: 3}
  - {fileID: 21300000, guid: d2ce75aef5f0f7f4b97cf75927956e51, type: 3}
  - {fileID: 21300000, guid: 42f483a795ae81c4689512de791775e9, type: 3}
  - {fileID: 21300000, guid: 93a6ad38e1cb3b04a82c39d3203783b3, type: 3}
  - {fileID: 21300000, guid: 81201e63b3ad8224bbefeb6066c1742a, type: 3}
  - {fileID: 21300000, guid: ef7671197e3f1b849a8875d8766d990b, type: 3}
  - {fileID: 21300000, guid: 84d992f1cdaec87488b238e90c2fb54d, type: 3}
  - {fileID: 21300000, guid: 69d6f185d2561c44aa61173831c365d8, type: 3}
  - {fileID: 21300000, guid: beff4c0d96906c144b4c859f2ed1ee81, type: 3}
  - {fileID: 21300000, guid: 49013031cd9fe89498696e33cd840ab2, type: 3}
  - {fileID: 21300000, guid: 663df4a7e63b5804e949559e4ee7994e, type: 3}
  - {fileID: 21300000, guid: cd7041ced7b0ecb45939837049de56db, type: 3}
  - {fileID: 21300000, guid: 4d0a219554071c1438defeab0f664beb, type: 3}
  interiorStyle: 1
  interiorGridColumns: 4
  interiorGridRows: 4
  interiorUnderneathEdges: 0
  bottom:
  - {fileID: 21300000, guid: 82a375811faf3e448913e655194bd1fc, type: 3}
  - {fileID: 21300000, guid: 9a0c00af75771a04ab3c9fafc1b97f20, type: 3}
  - {fileID: 21300000, guid: e5d617317d56ea24f9b6ad3c485654c5, type: 3}
  - {fileID: 21300000, guid: 650eab7325b5f1f40af4342bb5ab3774, type: 3}
  left:
  - {fileID: 21300000, guid: 9ec11bc748788c547aec903ad047dbb5, type: 3}
  - {fileID: 21300000, guid: 8883830d24b1d2149b17fc446334c36f, type: 3}
  - {fileID: 21300000, guid: 9fd76027e198d6d47994290d1a7f5859, type: 3}
  - {fileID: 21300000, guid: ef28a5bb54e5a1245ad315ea45f1f3b0, type: 3}
  right:
  - {fileID: 21300000, guid: 0a63cc1c963d1f241b8681747371c39c, type: 3}
  - {fileID: 21300000, guid: dfe61cd7c052a07489aa5420145f83e4, type: 3}
  - {fileID: 21300000, guid: 0ff6f6739480bc54c9e83a38e646750d, type: 3}
  - {fileID: 21300000, guid: 1ff6baa7b44709f46953ed4a025b5496, type: 3}
  top:
  - {fileID: 21300000, guid: 11f064a510d63da4eaf413ce203088c2, type: 3}
  - {fileID: 21300000, guid: 3bcecf6183361ba4f8395ae7afec827d, type: 3}
  - {fileID: 21300000, guid: 28d72e1be0bb71b4d8c60d60a5b5030d, type: 3}
  - {fileID: 21300000, guid: 4935665aa4307ff4caca7be6ca6659f6, type: 3}
  bottomLeft: {fileID: 21300000, guid: bcefcef310ccccc4c999bc34fc1ea939, type: 3}
  bottomRight: {fileID: 21300000, guid: bce3a4069b75d3b4e8b1a59f85db0c74, type: 3}
  topLeft: {fileID: 21300000, guid: 827747475968de7418a3cad225aad2da, type: 3}
  topRight: {fileID: 21300000, guid: 977ae7ae2a3ed33479dc0c6120818b16, type: 3}
  insideBottomLeft: {fileID: 21300000, guid: 2bb7c98f86a315c49b64f27a888198e7, type: 3}
  insideBottomRight: {fileID: 21300000, guid: 877a7d5add83a6545a8341774ef7cd8b, type: 3}
  insideTopLeft: {fileID: 21300000, guid: 5ca8fc141a8135f469113b7706e39fa5, type: 3}
  insideTopRight: {fileID: 21300000, guid: 87e92d82178817945a29912d6b78db59, type: 3}
  slope22BottomLeft: {fileID: 21300000, guid: 48ba69bedd576e64bbb6a49f9d2a4fc4, type: 3}
  slope22BottomRight: {fileID: 21300000, guid: b21784d9145c79e45a38da5e3699fa8e, type: 3}
  slope22TopLeft: {fileID: 21300000, guid: 329046675bbaba648b748819f3370935, type: 3}
  slope22TopRight: {fileID: 21300000, guid: 6022e54ee53b3b14789e96357bb99dbc, type: 3}
  slope45BottomLeft: {fileID: 21300000, guid: f5f8e5de287e24a42a69a43d77d8a14f, type: 3}
  slope45BottomRight: {fileID: 21300000, guid: d744b7549971751458223d8fcdc1ff5f, type: 3}
  slope45TopLeft: {fileID: 21300000, guid: 4d3110d202631fd4184b5855eadf8d9d, type: 3}
  slope45TopRight: {fileID: 21300000, guid: 4ef17f38536679a43b96d7bc4d133964, type: 3}
  slopeJoined22BottomLeft: {fileID: 21300000, guid: 82f37019e6720a44094a7518ce0ed31d,
    type: 3}
  slopeJoined22BottomRight: {fileID: 21300000, guid: 8b63494889daa79408fff8ea6ab7a851,
    type: 3}
  slopeJoined22TopLeft: {fileID: 21300000, guid: bd10a61875bcad64c99d632a167bdaf2,
    type: 3}
  slopeJoined22TopRight: {fileID: 21300000, guid: a51ee700dbe0c5b47a4416b9678461d5,
    type: 3}
  slopeJoined45BottomLeft: {fileID: 21300000, guid: 2c31e234c3aaef6499cd386be60e9920,
    type: 3}
  slopeJoined45BottomRight: {fileID: 21300000, guid: 0c349fe9a85fc5247a9b0e65a04582b3,
    type: 3}
  slopeJoined45TopLeft: {fileID: 21300000, guid: 475e38ca2df17c94ab4f9331d731311f,
    type: 3}
  slopeJoined45TopRight: {fileID: 21300000, guid: 9646dbcf3dbd3e841867ec101a3d5bb8,
    type: 3}
  slopeJoinedLeft22BottomLeft: {fileID: 21300000, guid: 011783d585c12314286c5af7a8e6e1b5,
    type: 3}
  slopeJoinedLeft22BottomRight: {fileID: 21300000, guid: 46503593045216346822a4715e42a5d8,
    type: 3}
  slopeJoinedLeft22TopLeft: {fileID: 21300000, guid: 20d4f7d142671a34ea332aa5dc887d9e,
    type: 3}
  slopeJoinedLeft22TopRight: {fileID: 21300000, guid: 26cf6fa80e2f0684c8248e3d5481cfef,
    type: 3}
  slopeJoinedLeft45BottomLeft: {fileID: 21300000, guid: c0c07b59fd5c8df47a5dce1bf3844113,
    type: 3}
  slopeJoinedLeft45BottomRight: {fileID: 21300000, guid: 3138e37011457dc4790ab1e84152b001,
    type: 3}
  slopeJoinedLeft45TopLeft: {fileID: 21300000, guid: a1da4f5d6b74a7f40957a25317bc4d6b,
    type: 3}
  slopeJoinedLeft45TopRight: {fileID: 21300000, guid: 6a7dbe3363a14b342817245edada018a,
    type: 3}
  slopeJoinedRight22BottomLeft: {fileID: 21300000, guid: 45f354a52478a1042a7cda31b33c32a8,
    type: 3}
  slopeJoinedRight22BottomRight: {fileID: 21300000, guid: c8e8ad8ec97c92141b96acd05b9784b1,
    type: 3}
  slopeJoinedRight22TopLeft: {fileID: 21300000, guid: 8a67a81b122442d4d8580db2f485faa3,
    type: 3}
  slopeJoinedRight22TopRight: {fileID: 21300000, guid: 6b95dba843a46834db823c2fcc6a84a8,
    type: 3}
  slopeJoinedRight45BottomLeft: {fileID: 21300000, guid: a84830446b03908459419166b29e2c2d,
    type: 3}
  slopeJoinedRight45BottomRight: {fileID: 21300000, guid: d254dd81f3a6a13469d4d273a64e55a6,
    type: 3}
  slopeJoinedRight45TopLeft: {fileID: 21300000, guid: 52c0e46fa5749b54597cca5a0f4aa191,
    type: 3}
  slopeJoinedRight45TopRight: {fileID: 21300000, guid: 5b57f59f03b9f5840810ea3e88ee0471,
    type: 3}
  curve3Plus1BottomLeft: {fileID: 21300000, guid: b05563404a1246d4a90bfaf8bf0b7cdb,
    type: 3}
  curve3Plus1BottomRight: {fileID: 21300000, guid: 61171051432a30048bf106e631872421,
    type: 3}
  curve3Plus1TopLeft: {fileID: 21300000, guid: 01898a889b8f8ca4e9531eeef9acc3db, type: 3}
  curve3Plus1TopRight: {fileID: 21300000, guid: a8da2fa991040994da7685aea6db4b7b,
    type: 3}
  curve3Plus1BottomLeftWithOutside: {fileID: 21300000, guid: 5d0c80f745405b94c8b4bc2caddf3e1a,
    type: 3}
  curve3Plus1BottomRightWithOutside: {fileID: 21300000, guid: e25fbc5ce8be6814f96c933259c0048f,
    type: 3}
  curve3Plus1TopLeftWithOutside: {fileID: 21300000, guid: b1109bffe4725bb4bb71a56b60e951b7,
    type: 3}
  curve3Plus1TopRightWithOutside: {fileID: 21300000, guid: ab70cbb4092fbca4b845568e7cfe0b2f,
    type: 3}
  curveOut3Plus1BottomLeft: {fileID: 21300000, guid: ebe5145a16b267845a46fc42cba869bf,
    type: 3}
  curveOut3Plus1BottomRight: {fileID: 21300000, guid: 72cf31bbafc62c345a39c80c2386ddb9,
    type: 3}
  curveOut3Plus1TopLeft: {fileID: 21300000, guid: e24a681fc8b66ef4b8d7436171fc1800,
    type: 3}
  curveOut3Plus1TopRight: {fileID: 21300000, guid: 5a578e52126507e428b935319ed18b3a,
    type: 3}
  singleRowLeft: {fileID: 21300000, guid: 5d9ad79cf7a5b3b4cbf5510b23d78db0, type: 3}
  singleRowMiddle:
  - {fileID: 21300000, guid: c37e205bd7af491438efa3877fe87e1a, type: 3}
  - {fileID: 21300000, guid: f9deb4d2d3290f74caaf0c9dffb2b197, type: 3}
  - {fileID: 21300000, guid: d5628f4ecaf7a7c4999a1c4886e88bd2, type: 3}
  singleRowRight: {fileID: 21300000, guid: 461fc1f8b4a9f5a48928384d7f2ef1d6, type: 3}
  pillar1WideTop: {fileID: 21300000, guid: a232660517177ed4f85cb314ce9081b9, type: 3}
  pillar1WideMiddle:
  - {fileID: 21300000, guid: 226b7b911c51d2141b9ff4acd5db7415, type: 3}
  - {fileID: 21300000, guid: 796cdd2d5ad6f064f8ced372c886c13e, type: 3}
  - {fileID: 21300000, guid: d8e1eee6d4137b647b9f00de0a89e03d, type: 3}
  pillar1WideBottom: {fileID: 21300000, guid: 9c3e3f92b9772c54da12778f14ab16d9, type: 3}
  pillar2WideTop: {fileID: 0}
  pillar2WideMiddle: []
  pillar2WideBottom: {fileID: 0}
