%YAML 1.1
%TAG !u! tag:unity3d.com,2011:
--- !u!114 &11400000
MonoBehaviour:
  m_ObjectHideFlags: 0
  m_CorrespondingSourceObject: {fileID: 0}
  m_PrefabInstance: {fileID: 0}
  m_PrefabAsset: {fileID: 0}
  m_GameObject: {fileID: 0}
  m_Enabled: 1
  m_EditorHideFlags: 0
  m_Script: {fileID: 11500000, guid: deada51ddafa6304c894ffaffa3f8d7c, type: 3}
  m_Name: TilesetRacingSecondary
  m_EditorClassIdentifier: 
  type: 1
  flowIntoSlopes: 0
  singleSquare:
  - {fileID: 21300000, guid: 41eefae5598ab1e4e94866f3395dcf9d, type: 3}
  - {fileID: 21300000, guid: add8382b317601d419af52eed35e581d, type: 3}
  - {fileID: 21300000, guid: 124ea7ac9b4fa44418738a2eec3e380c, type: 3}
  interior:
  - {fileID: 21300000, guid: 7d01a11d707ca574baab4acfb6296b9e, type: 3}
  - {fileID: 21300000, guid: 9e4a916e2a67c7242a4fa1b107ce50d7, type: 3}
  - {fileID: 21300000, guid: b8f487c86d952bd49a327fe81f4ea118, type: 3}
  - {fileID: 21300000, guid: 4b2877f0ed0c42b46884c5200e3db338, type: 3}
  - {fileID: 21300000, guid: b215b757c087ced49a99b8a2fe80c10c, type: 3}
  - {fileID: 21300000, guid: ece8e75b989c50e42a11dc0d1d7e1700, type: 3}
  - {fileID: 21300000, guid: 58bc7117b9734144abf3cd2053d24dd0, type: 3}
  - {fileID: 21300000, guid: 060d6e01cc5aff146bd89774cff3f776, type: 3}
  - {fileID: 21300000, guid: ea166121a179af04da710cce6a09a6f7, type: 3}
  - {fileID: 21300000, guid: b2c0e6c66504d024e8b7f2eb4a1d201c, type: 3}
  - {fileID: 21300000, guid: 08a6f34b3990dd24a9cf1e8e7d1312b2, type: 3}
  - {fileID: 21300000, guid: 182c1b61d60afef4d930e1ac8b990ffb, type: 3}
  - {fileID: 21300000, guid: d1baaba097ad9274d9673f244334c6cf, type: 3}
  - {fileID: 21300000, guid: 8a0ccf317f33e974bb7ba239e9803d24, type: 3}
  - {fileID: 21300000, guid: 82ed08343ec49934794f40209d75261a, type: 3}
  - {fileID: 21300000, guid: ddc1a1025e9588a498fcb8dccb10dc20, type: 3}
  - {fileID: 21300000, guid: 52c2850e49e2a4b408aa258bcef82649, type: 3}
  - {fileID: 21300000, guid: 024e15fc64491c544aca35d27efd0acc, type: 3}
  - {fileID: 21300000, guid: a8152f1b2e516e84092f01cc23dc5198, type: 3}
  - {fileID: 21300000, guid: 09569106d93f56e458be9485f08adef7, type: 3}
  - {fileID: 21300000, guid: 46c55ee5b2bcaf34cb2575fc605d7dbe, type: 3}
  - {fileID: 21300000, guid: 27bd1285d6052074cbab90917b7c78c6, type: 3}
  - {fileID: 21300000, guid: 9fe1bbdaae8b42a4880fc26a219cf614, type: 3}
  - {fileID: 21300000, guid: 44f479b5610e42d4597d31a184f2fb2d, type: 3}
  - {fileID: 21300000, guid: d6546da59a451f940becb21d1892cf4c, type: 3}
  interiorStyle: 1
  interiorGridColumns: 5
  interiorGridRows: 5
  interiorUnderneathEdges: 1
  bottom:
  - {fileID: 21300000, guid: d24fc7ca72ddd6e4fa9ef2acc1b41217, type: 3}
  - {fileID: 21300000, guid: a3f6e93681e772b439b7461a5e9c0517, type: 3}
  - {fileID: 21300000, guid: 3bb57893ba9691647a2554db2b8f7095, type: 3}
  - {fileID: 21300000, guid: 5fbfac4ae62370f44986b32b56bdd0b6, type: 3}
  left:
  - {fileID: 21300000, guid: 2d1a2c27e708f0a4b8d56112959bc01f, type: 3}
  - {fileID: 21300000, guid: fe9a532084449574cb72597649b259cf, type: 3}
  - {fileID: 21300000, guid: a64bc71648dd1ef439a2e051115bf5a9, type: 3}
  - {fileID: 21300000, guid: 999a4b78ecceb314c9a4a4e976981b41, type: 3}
  right:
  - {fileID: 21300000, guid: ae94cb0ba9efaa746a4232e779ea4e2e, type: 3}
  - {fileID: 21300000, guid: 3e93a53ba7fd1f445853a851194f6199, type: 3}
  - {fileID: 21300000, guid: 5cdf2ed7b0a752f43bf6d302e8c35c8b, type: 3}
  - {fileID: 21300000, guid: 28a03ede383affb448a54670552ec7c6, type: 3}
  top:
  - {fileID: 21300000, guid: 7a2d09f7b4433a243a8a20edd7a8f973, type: 3}
  - {fileID: 21300000, guid: 8501caf96b8d15242b1877627e3cb08d, type: 3}
  - {fileID: 21300000, guid: 884274da6f2ac764aaaf84e67637f10d, type: 3}
  - {fileID: 21300000, guid: c0a04989f6730eb4ba8a48ae654eab25, type: 3}
  bottomLeft: {fileID: 21300000, guid: 4570e5f115bb6de4d8b9d7cc4695241b, type: 3}
  bottomRight: {fileID: 21300000, guid: 70df42818dc5607459d59ebef21f92c0, type: 3}
  topLeft: {fileID: 21300000, guid: 882e62ab9d1ac304a99f3fd4243201dd, type: 3}
  topRight: {fileID: 21300000, guid: 9526da787481adb45aa40c778bedbef6, type: 3}
  insideBottomLeft: {fileID: 21300000, guid: 8f9e43b493fa8404e9a411d51eeb28f5, type: 3}
  insideBottomRight: {fileID: 21300000, guid: cf0c58c3afff67d4f8bb7856f5bb0fb2, type: 3}
  insideTopLeft: {fileID: 21300000, guid: 2a05a21c677a52346a018f0e05979b66, type: 3}
  insideTopRight: {fileID: 21300000, guid: d55ac2798824fc5469157a4e20a34d14, type: 3}
  slope22BottomLeft: {fileID: 0}
  slope22BottomRight: {fileID: 0}
  slope22TopLeft: {fileID: 0}
  slope22TopRight: {fileID: 0}
  slope45BottomLeft: {fileID: 0}
  slope45BottomRight: {fileID: 0}
  slope45TopLeft: {fileID: 0}
  slope45TopRight: {fileID: 0}
  slopeJoined22BottomLeft: {fileID: 0}
  slopeJoined22BottomRight: {fileID: 0}
  slopeJoined22TopLeft: {fileID: 0}
  slopeJoined22TopRight: {fileID: 0}
  slopeJoined45BottomLeft: {fileID: 0}
  slopeJoined45BottomRight: {fileID: 0}
  slopeJoined45TopLeft: {fileID: 0}
  slopeJoined45TopRight: {fileID: 0}
  slopeJoinedLeft22BottomLeft: {fileID: 0}
  slopeJoinedLeft22BottomRight: {fileID: 0}
  slopeJoinedLeft22TopLeft: {fileID: 0}
  slopeJoinedLeft22TopRight: {fileID: 0}
  slopeJoinedLeft45BottomLeft: {fileID: 0}
  slopeJoinedLeft45BottomRight: {fileID: 0}
  slopeJoinedLeft45TopLeft: {fileID: 0}
  slopeJoinedLeft45TopRight: {fileID: 0}
  slopeJoinedRight22BottomLeft: {fileID: 0}
  slopeJoinedRight22BottomRight: {fileID: 0}
  slopeJoinedRight22TopLeft: {fileID: 0}
  slopeJoinedRight22TopRight: {fileID: 0}
  slopeJoinedRight45BottomLeft: {fileID: 0}
  slopeJoinedRight45BottomRight: {fileID: 0}
  slopeJoinedRight45TopLeft: {fileID: 0}
  slopeJoinedRight45TopRight: {fileID: 0}
  curve3Plus1BottomLeft: {fileID: 0}
  curve3Plus1BottomRight: {fileID: 0}
  curve3Plus1TopLeft: {fileID: 0}
  curve3Plus1TopRight: {fileID: 0}
  curve3Plus1BottomLeftWithOutside: {fileID: 0}
  curve3Plus1BottomRightWithOutside: {fileID: 0}
  curve3Plus1TopLeftWithOutside: {fileID: 0}
  curve3Plus1TopRightWithOutside: {fileID: 0}
  curveOut3Plus1BottomLeft: {fileID: 0}
  curveOut3Plus1BottomRight: {fileID: 0}
  curveOut3Plus1TopLeft: {fileID: 0}
  curveOut3Plus1TopRight: {fileID: 0}
  singleRowLeft: {fileID: 21300000, guid: 82d4e12219ee718409016405a5472378, type: 3}
  singleRowMiddle:
  - {fileID: 21300000, guid: 79382246f067c1847a6c25e3d350fa6f, type: 3}
  - {fileID: 21300000, guid: d8266b458a6ae964099bb3e2ea4f1e09, type: 3}
  - {fileID: 21300000, guid: de4f6525d8cd90f479b21de6fea1ede0, type: 3}
  singleRowRight: {fileID: 21300000, guid: c193af0025485fa44a5a22b1875ff7ea, type: 3}
  pillar1WideTop: {fileID: 21300000, guid: 42d27f02e5291e04199ff40fcf9bd602, type: 3}
  pillar1WideMiddle:
  - {fileID: 21300000, guid: 7d62a342b8b14454e8e19ce2ac5cec14, type: 3}
  - {fileID: 21300000, guid: 1b3393b4dd98c124db561c9d3966640b, type: 3}
  - {fileID: 21300000, guid: f9975571746e15344a2c99b89a372234, type: 3}
  pillar1WideBottom: {fileID: 21300000, guid: ac5674b13e2a85947ae3c798bd5b5be2, type: 3}
  pillar2WideTop: {fileID: 0}
  pillar2WideMiddle: []
  pillar2WideBottom: {fileID: 0}
