%YAML 1.1
%TAG !u! tag:unity3d.com,2011:
--- !u!1 &1220301496003163469
GameObject:
  m_ObjectHideFlags: 0
  m_CorrespondingSourceObject: {fileID: 0}
  m_PrefabInstance: {fileID: 0}
  m_PrefabAsset: {fileID: 0}
  serializedVersion: 6
  m_Component:
  - component: {fileID: 1220301496003163472}
  - component: {fileID: 1220301496003163471}
  - component: {fileID: 2954239654369365879}
  - component: {fileID: 5920721835878941488}
  m_Layer: 0
  m_Name: Gate Key
  m_TagString: Untagged
  m_Icon: {fileID: 0}
  m_NavMeshLayer: 0
  m_StaticEditorFlags: 0
  m_IsActive: 1
--- !u!4 &1220301496003163472
Transform:
  m_ObjectHideFlags: 0
  m_CorrespondingSourceObject: {fileID: 0}
  m_PrefabInstance: {fileID: 0}
  m_PrefabAsset: {fileID: 0}
  m_GameObject: {fileID: 1220301496003163469}
  m_LocalRotation: {x: 0, y: 0, z: 0, w: 1}
  m_LocalPosition: {x: 0, y: 0, z: 0}
  m_LocalScale: {x: 1, y: 1, z: 1}
  m_Children: []
  m_Father: {fileID: 0}
  m_RootOrder: 0
  m_LocalEulerAnglesHint: {x: 0, y: 0, z: 0}
--- !u!212 &1220301496003163471
SpriteRenderer:
  m_ObjectHideFlags: 0
  m_CorrespondingSourceObject: {fileID: 0}
  m_PrefabInstance: {fileID: 0}
  m_PrefabAsset: {fileID: 0}
  m_GameObject: {fileID: 1220301496003163469}
  m_Enabled: 1
  m_CastShadows: 0
  m_ReceiveShadows: 0
  m_DynamicOccludee: 1
  m_MotionVectors: 1
  m_LightProbeUsage: 1
  m_ReflectionProbeUsage: 1
  m_RayTracingMode: 0
  m_RenderingLayerMask: 1
  m_RendererPriority: 0
  m_Materials:
  - {fileID: 10754, guid: 0000000000000000f000000000000000, type: 0}
  m_StaticBatchInfo:
    firstSubMesh: 0
    subMeshCount: 0
  m_StaticBatchRoot: {fileID: 0}
  m_ProbeAnchor: {fileID: 0}
  m_LightProbeVolumeOverride: {fileID: 0}
  m_ScaleInLightmap: 1
  m_ReceiveGI: 1
  m_PreserveUVs: 0
  m_IgnoreNormalsForChartDetection: 0
  m_ImportantGI: 0
  m_StitchLightmapSeams: 1
  m_SelectedEditorRenderState: 0
  m_MinimumChartSize: 4
  m_AutoUVMaxDistance: 0.5
  m_AutoUVMaxAngle: 89
  m_LightmapParameters: {fileID: 0}
  m_SortingLayerID: 2001696327
  m_SortingLayer: -3
  m_SortingOrder: 0
  m_Sprite: {fileID: 21300000, guid: 55b6a40cc4de19b47bffbb9a3f25e3d8, type: 3}
  m_Color: {r: 1, g: 1, b: 1, a: 1}
  m_FlipX: 0
  m_FlipY: 0
  m_DrawMode: 0
  m_Size: {x: 1, y: 1}
  m_AdaptiveModeThreshold: 0.5
  m_SpriteTileMode: 0
  m_WasSpriteAssigned: 1
  m_MaskInteraction: 0
  m_SpriteSortPoint: 0
--- !u!114 &2954239654369365879
MonoBehaviour:
  m_ObjectHideFlags: 0
  m_CorrespondingSourceObject: {fileID: 0}
  m_PrefabInstance: {fileID: 0}
  m_PrefabAsset: {fileID: 0}
  m_GameObject: {fileID: 1220301496003163469}
  m_Enabled: 1
  m_EditorHideFlags: 0
  m_Script: {fileID: 11500000, guid: 6608c5c4b7cce694590d1caafbf07d64, type: 3}
  m_Name: 
  m_EditorClassIdentifier: 
  chunk: {fileID: 0}
  animationNormal:
    sprites:
    - {fileID: 21300000, guid: 95dc96c12ec7605449dc6e485015be99, type: 3}
    - {fileID: 21300000, guid: ead743003890f5c42bdaf057e3e0521c, type: 3}
    - {fileID: 21300000, guid: d96bb6b780487d8449b09172627f1a0d, type: 3}
    - {fileID: 21300000, guid: b182712affc3fd742b710e0b4ec06e10, type: 3}
    - {fileID: 21300000, guid: fd6f41883e2f9c340b21c151dc7cf49e, type: 3}
    - {fileID: 21300000, guid: 8dc4491f285e53c46adf9928c6bb3e84, type: 3}
    - {fileID: 21300000, guid: 66ac371745260fa4380dc2b6249a9094, type: 3}
    - {fileID: 21300000, guid: 1fc41b24c279a0b46a60649deefdaed0, type: 3}
    - {fileID: 21300000, guid: 80c86b8ec8e056e4580ac0a08dcb72ca, type: 3}
    fps: 15
  animationCollect:
    sprites:
    - {fileID: 21300000, guid: 95dc96c12ec7605449dc6e485015be99, type: 3}
    - {fileID: 21300000, guid: ead743003890f5c42bdaf057e3e0521c, type: 3}
    - {fileID: 21300000, guid: d96bb6b780487d8449b09172627f1a0d, type: 3}
    - {fileID: 21300000, guid: b182712affc3fd742b710e0b4ec06e10, type: 3}
    - {fileID: 21300000, guid: fd6f41883e2f9c340b21c151dc7cf49e, type: 3}
    - {fileID: 21300000, guid: 8dc4491f285e53c46adf9928c6bb3e84, type: 3}
    - {fileID: 21300000, guid: 66ac371745260fa4380dc2b6249a9094, type: 3}
    - {fileID: 21300000, guid: 1fc41b24c279a0b46a60649deefdaed0, type: 3}
    - {fileID: 21300000, guid: 80c86b8ec8e056e4580ac0a08dcb72ca, type: 3}
    fps: 15
  animationOpenGate:
    sprites:
    - {fileID: 21300000, guid: 23be843cce1640c4b9836a974ff4c629, type: 3}
    - {fileID: 21300000, guid: 6adb6ade1b4d93b49bf7c2f61b682a8e, type: 3}
    - {fileID: 21300000, guid: 04b03eceae402a74982963bdb24456d4, type: 3}
    - {fileID: 21300000, guid: a274c3554ae060b46a4da6c127f1dc30, type: 3}
    - {fileID: 21300000, guid: 69e9604556721074d8c28c8664cb4e5f, type: 3}
    - {fileID: 21300000, guid: 614214ce68f2d724889cf3065ce0920e, type: 3}
    - {fileID: 21300000, guid: 87f759f33c3f226489ea3b0c972b0830, type: 3}
    - {fileID: 21300000, guid: eb67150e6c1b1c444b7e588d48a7373a, type: 3}
    - {fileID: 21300000, guid: 9b59e43b1e338884fb6ed87594497e22, type: 3}
    - {fileID: 21300000, guid: 3886e85e3e210aa45a555736c4e26bd5, type: 3}
    - {fileID: 21300000, guid: 7d168060819798844856c3de4e62714e, type: 3}
    - {fileID: 21300000, guid: ead72f41716e7234da8410077feceff3, type: 3}
    - {fileID: 21300000, guid: 08de4f107c2156740a6a044faca265da, type: 3}
    - {fileID: 21300000, guid: a21b4379aa3a0664b9ba39e4dd1a7d57, type: 3}
    - {fileID: 21300000, guid: e20dd0e3d967c6a428599a68085c0020, type: 3}
    fps: 30
--- !u!114 &5920721835878941488
MonoBehaviour:
  m_ObjectHideFlags: 0
  m_CorrespondingSourceObject: {fileID: 0}
  m_PrefabInstance: {fileID: 0}
  m_PrefabAsset: {fileID: 0}
  m_GameObject: {fileID: 1220301496003163469}
  m_Enabled: 1
  m_EditorHideFlags: 0
  m_Script: {fileID: 11500000, guid: a2cedcea314d944e09159c2372cec04f, type: 3}
  m_Name: 
  m_EditorClassIdentifier: 
