
flower plant 2.png
size: 634,358
format: RGBA8888
filter: Linear,Linear
repeat: none
Layer 1 copy
  rotate: true
  xy: 2, 4
  size: 93, 234
  orig: 93, 234
  offset: 0, 0
  index: -1
Layer 2
  rotate: true
  xy: 276, 164
  size: 192, 117
  orig: 192, 117
  offset: 0, 0
  index: -1
Layer 3
  rotate: true
  xy: 276, 2
  size: 160, 177
  orig: 161, 179
  offset: 0, 0
  index: -1
Layer 4
  rotate: false
  xy: 129, 110
  size: 145, 246
  orig: 148, 246
  offset: 0, 0
  index: -1
Layer 5
  rotate: false
  xy: 2, 99
  size: 125, 257
  orig: 125, 257
  offset: 0, 0
  index: -1
Layer 6
  rotate: false
  xy: 455, 35
  size: 177, 132
  orig: 189, 139
  offset: 0, 0
  index: -1
Layer 7
  rotate: false
  xy: 395, 169
  size: 168, 187
  orig: 169, 187
  offset: 0, 0
  index: -1
