%YAML 1.1
%TAG !u! tag:unity3d.com,2011:
--- !u!114 &11400000
MonoBehaviour:
  m_ObjectHideFlags: 0
  m_CorrespondingSourceObject: {fileID: 0}
  m_PrefabInstance: {fileID: 0}
  m_PrefabAsset: {fileID: 0}
  m_GameObject: {fileID: 0}
  m_Enabled: 1
  m_EditorHideFlags: 0
  m_Script: {fileID: 11500000, guid: f797d1eb1fd55d5428733c65a41e6738, type: 3}
  m_Name: Assets For Gravity Galaxy
  m_EditorClassIdentifier: 
  tileThemeExterior: {fileID: 11400000, guid: 8ae9ab469fbc8ad4788310a54b8a9d81, type: 2}
  tileThemeInterior: {fileID: 11400000, guid: eed24307bc49fa648b14778562be7526, type: 2}
  background: {fileID: -5033453808951222838, guid: 1e06e2a08bfd0554386e446540a836ac,
    type: 3}
  outsideBoundary: {fileID: 1534866303965465544, guid: 65a3477ad8fc5d8428cd5672677c4ca9,
    type: 3}
  music: {fileID: 8300000, guid: 4d9b1c6fe291dec4fbee0544bb29a8a4, type: 3}
  gravityOnStart: {fileID: 5185645756330292951, guid: 0c5adfab98c5722459454e0a428f4c09,
    type: 3}
  gravityButton: {fileID: 7860436684829038579, guid: a263e0906bd503e4c95af97d43514481,
    type: 3}
  gravityArea: {fileID: 1975133679229610472, guid: cbe4c27fdcb3e1f448dc50df27d42ed4,
    type: 3}
  gravityDisplay: {fileID: 3772608203639879765, guid: 0d5d7b3000ee2df4ca4c93bc1143f3e3,
    type: 3}
  gravityAtmosphereFlat: {fileID: 6161842406351505024, guid: e0d1866048104b34d9b893fc6e60a5a5,
    type: 3}
  gravityAtmosphereCurveBR3Plus1: {fileID: 4526917975058252469, guid: 31d84d7975b27d94984777093e12a154,
    type: 3}
  gravityAtmosphereCurveOutBR3: {fileID: 1905638745665060359, guid: 93055e4cf00fc89459b833ba159b4dbe,
    type: 3}
  gravityAtmosphereCorner: {fileID: 225875291168038454, guid: d96bc6c341f54af40aee8eabff1887e7,
    type: 3}
  spaceBooster: {fileID: 684633810806564090, guid: e6d3cb5a615554d448c0681fc2566e78,
    type: 3}
  alienSquid: {fileID: 7302593488130057556, guid: 7276350fe80b10f4486477fedeea19be,
    type: 3}
  alienSquidBullet: {fileID: 1499340828898878701, guid: 7fa98235ab4d15b4fbd23ffa8d338e1f,
    type: 3}
  alienSkull: {fileID: 3559743031174957030, guid: 344a474307583e24cb592afc70b6937e,
    type: 3}
  portal: {fileID: 1509384472114188, guid: afb5a22d18e7a40ceb24682c18f9e006, type: 3}
  gravityGuardian: {fileID: 948315843747896220, guid: 692626d4bd20dca43b18c550a044d45b,
    type: 3}
  laserCannon: {fileID: 4447948656735287245, guid: 736e0e0ce22b20d47a8b271488e607e8,
    type: 3}
  airlock: {fileID: 3355826430558125359, guid: a6d81de38f8bb52458292e28e1709868, type: 3}
  airlockAndCannon: {fileID: 8091749870311998408, guid: a7d681ca0b59f2944973189fe135544c,
    type: 3}
  airlockPeg: {fileID: 1203269529276565929, guid: 17253dd355184be4caadd2acbf62bbe7,
    type: 3}
  rocket: {fileID: 6755441239464962981, guid: 945758525031e4e82a86d023e76e6ba7, type: 3}
  sfxRocketFlying: {fileID: 8300000, guid: 07f3b88de968ae04a9255e3bf6982961, type: 3}
