{
"skeleton": {
	"hash": "lrXvItKmhDJCGxMOK9PEWoo9tpM",
	"spine": "3.8.99",
	"x": 11.78,
	"y": -1391,
	"width": 981.33,
	"height": 1392,
	"images": "./images/",
	"audio": "C:/Users/mat/OneDrive/Desktop/animated foliage/palm tree 1"
},
"bones": [
	{ "name": "root" }
],
"slots": [
	{ "name": "Layer 7", "bone": "root", "attachment": "Layer 7" },
	{ "name": "Layer 15", "bone": "root", "attachment": "Layer 15" },
	{ "name": "Layer 14", "bone": "root", "attachment": "Layer 14" },
	{ "name": "Layer 13", "bone": "root", "attachment": "Layer 13" },
	{ "name": "Layer 12", "bone": "root", "attachment": "Layer 12" },
	{ "name": "Layer 11", "bone": "root", "attachment": "Layer 11" },
	{ "name": "Layer 10", "bone": "root", "attachment": "Layer 10" },
	{ "name": "Layer 9", "bone": "root", "attachment": "Layer 9" },
	{ "name": "Layer 8", "bone": "root", "attachment": "Layer 8" },
	{ "name": "Layer 6", "bone": "root", "attachment": "Layer 6" },
	{ "name": "Layer 5", "bone": "root", "attachment": "Layer 5" },
	{ "name": "Layer 4", "bone": "root", "attachment": "Layer 4" },
	{ "name": "Layer 3", "bone": "root", "attachment": "Layer 3" },
	{ "name": "Layer 2", "bone": "root", "attachment": "Layer 2" }
],
"skins": [
	{
		"name": "default",
		"attachments": {
			"Layer 2": {
				"Layer 2": {
					"type": "mesh",
					"uvs": [ 0.80096, 0.0092, 0.80022, 0.05274, 0.81832, 0.16993, 0.81926, 0.46961, 0.67045, 0.62376, 0.15504, 0.87124, 1, 0.69308, 1, 0.7211, 0.91698, 0.8387, 0.76218, 0.91761, 0.29834, 0.99305, 0.13657, 0.97234, 0.10987, 0.92685, 0.02731, 0.7615, 0.01665, 0.64942, 0.29116, 0.37989, 0.77374, 0.00833 ],
					"triangles": [ 1, 16, 0, 2, 15, 16, 2, 16, 1, 15, 2, 3, 4, 15, 3, 5, 13, 14, 7, 8, 6, 15, 5, 14, 5, 15, 4, 6, 9, 5, 8, 9, 6, 12, 13, 5, 11, 12, 5, 10, 5, 9, 11, 5, 10 ],
					"vertices": [ 321.11, -625.99, 321.02, -630.7, 323.01, -643.35, 323.12, -675.72, 306.75, -692.37, 250.05, -719.09, 343, -699.85, 343, -702.88, 333.87, -715.58, 316.84, -724.1, 265.82, -732.25, 248.02, -730.01, 245.09, -725.1, 236, -707.24, 234.83, -695.14, 265.03, -666.03, 318.11, -625.9 ],
					"hull": 17,
					"edges": [ 0, 32, 0, 2, 2, 4, 4, 6, 10, 12, 12, 14, 14, 16, 16, 18, 18, 20, 20, 22, 22, 24, 24, 26, 26, 28, 28, 30, 30, 32, 6, 8, 8, 10 ],
					"width": 110,
					"height": 108
				}
			},
			"Layer 3": {
				"Layer 3": {
					"type": "mesh",
					"uvs": [ 0.57186, 0.11592, 0.8339, 0.34215, 0.97153, 0.56158, 0.98802, 0.66775, 1, 0.74485, 1, 0.74968, 0.78107, 0.7853, 0.70053, 0.84807, 0.4506, 1, 0.37561, 1, 0.3757, 0.77906, 0.36177, 0.70811, 0.02361, 0.8792, 0.13335, 0.59417, 0.31891, 0.40652, 0.63633, 0.37021, 0.57963, 0.29402, 0.42321, 0.14467, 0.20646, 0.05676, 0, 0.09181, 0, 0.07685, 0.10822, 0.00433, 0.34742, 0.00324, 0.71116, 0.42745, 0.83412, 0.5384, 0.47434, 0.66784, 0.65651, 0.67709, 0.81135, 0.71407 ],
					"triangles": [ 18, 21, 22, 18, 19, 20, 18, 20, 21, 17, 22, 0, 18, 22, 17, 1, 16, 0, 17, 0, 16, 15, 16, 1, 23, 15, 1, 2, 24, 1, 23, 1, 24, 23, 25, 14, 23, 14, 15, 26, 25, 23, 13, 14, 25, 24, 26, 23, 11, 13, 25, 27, 26, 24, 3, 27, 24, 3, 24, 2, 27, 3, 4, 27, 4, 5, 10, 11, 25, 6, 26, 27, 6, 27, 5, 7, 26, 6, 12, 13, 11, 10, 25, 26, 10, 26, 7, 8, 9, 10, 7, 8, 10 ],
					"vertices": [ 140.78, -592.89, 181.92, -645.38, 203.53, -696.29, 206.12, -720.92, 208, -738.81, 208, -739.93, 173.63, -748.19, 160.98, -762.75, 121.74, -798, 109.97, -798, 109.99, -746.74, 107.8, -730.28, 54.71, -769.97, 71.94, -703.85, 101.07, -660.31, 150.9, -651.89, 142, -634.21, 117.44, -599.56, 83.41, -579.17, 51, -587.3, 51, -583.83, 67.99, -567.01, 105.54, -566.75, 162.65, -665.17, 181.96, -690.91, 125.47, -720.94, 154.07, -723.08, 178.38, -731.66 ],
					"hull": 23,
					"edges": [ 0, 44, 0, 2, 2, 4, 8, 10, 10, 12, 12, 14, 14, 16, 16, 18, 18, 20, 20, 22, 22, 24, 24, 26, 26, 28, 28, 30, 30, 32, 32, 34, 34, 36, 36, 38, 38, 40, 40, 42, 42, 44, 4, 6, 6, 8 ],
					"width": 157,
					"height": 232
				}
			},
			"Layer 4": {
				"Layer 4": {
					"type": "mesh",
					"uvs": [ 0.90335, 0.00738, 0.49482, 0.23702, 0.30148, 0.43723, 0.20416, 0.57621, 0.3859, 0.41562, 0.51301, 0.37359, 0.67605, 0.35776, 0.86284, 0.37493, 1, 0.396, 1, 0.40194, 0.53611, 0.4767, 0.3464, 0.54938, 0.25987, 0.62092, 0.45995, 0.53869, 0.66307, 0.54304, 0.8444, 0.63522, 0.4866, 0.62777, 0.30534, 0.65753, 0.19437, 0.73011, 0.29821, 0.75733, 0.46141, 0.73639, 0.50357, 0.67503, 0.54076, 0.65096, 0.59746, 0.70288, 0.59767, 0.77813, 0.5416, 0.83204, 0.71467, 0.84073, 0.80607, 0.93306, 0.70203, 0.9231, 0.5603, 0.9103, 0.6264, 0.95204, 0.60635, 0.99438, 0.45221, 0.96526, 0.04784, 0.78481, 0, 0.72098, 0, 0.67023, 0.20907, 0.42303, 0.44954, 0.13871, 0.68353, 0.04294, 0.8543, 0.0083 ],
					"triangles": [ 1, 37, 38, 0, 1, 38, 0, 38, 39, 7, 8, 9, 1, 36, 37, 36, 1, 2, 10, 5, 6, 4, 5, 10, 10, 6, 7, 10, 7, 9, 10, 11, 4, 3, 36, 2, 11, 3, 4, 12, 3, 11, 16, 13, 14, 12, 13, 16, 16, 14, 15, 17, 12, 16, 3, 35, 36, 35, 3, 12, 21, 22, 23, 35, 18, 34, 12, 18, 35, 12, 17, 18, 20, 21, 23, 20, 23, 24, 33, 34, 18, 25, 20, 24, 29, 25, 26, 28, 29, 26, 28, 26, 27, 25, 32, 19, 25, 19, 20, 32, 25, 29, 32, 29, 30, 33, 18, 19, 32, 33, 19, 31, 32, 30 ],
					"vertices": [ 472.53, -734.81, 419.83, -791.31, 394.89, -840.56, 382.34, -874.75, 405.78, -835.24, 422.18, -824.9, 443.21, -821.01, 467.31, -825.23, 485, -830.42, 485, -831.88, 425.16, -850.27, 400.68, -868.15, 389.52, -885.75, 415.33, -865.52, 441.54, -866.59, 464.93, -889.26, 418.77, -887.43, 395.39, -894.75, 381.07, -912.61, 394.47, -919.3, 415.52, -914.15, 420.96, -899.06, 425.76, -893.14, 433.07, -905.91, 433.1, -924.42, 425.87, -937.68, 448.19, -939.82, 459.98, -962.53, 446.56, -960.08, 428.28, -956.93, 436.81, -967.2, 434.22, -977.62, 414.33, -970.45, 362.17, -926.06, 356, -910.36, 356, -897.88, 382.97, -837.07, 413.99, -767.12, 444.18, -743.56, 466.21, -735.04 ],
					"hull": 40,
					"edges": [ 0, 78, 0, 2, 2, 4, 4, 6, 14, 16, 16, 18, 18, 20, 20, 22, 30, 32, 50, 52, 52, 54, 62, 64, 64, 66, 66, 68, 68, 70, 74, 76, 76, 78, 6, 8, 12, 14, 8, 10, 10, 12, 22, 24, 24, 26, 26, 28, 28, 30, 48, 50, 54, 56, 56, 58, 58, 60, 60, 62, 32, 34, 34, 36, 36, 38, 38, 40, 40, 42, 42, 44, 44, 46, 46, 48, 70, 72, 72, 74 ],
					"width": 129,
					"height": 246
				}
			},
			"Layer 5": {
				"Layer 5": {
					"type": "mesh",
					"uvs": [ 0.4393, 0.23861, 0.44146, 0.70259, 0.70298, 0.75556, 0.98259, 0.34663, 0.98833, 0.68078, 0.92212, 0.81859, 0.72813, 0.96526, 0.44428, 0.99965, 0.17129, 0.95792, 0.09505, 0.63466, 0.22665, 0.38067, 0.22678, 0.22554, 0.03834, 0, 0.0657, 0, 0.23562, 0.05023 ],
					"triangles": [ 11, 13, 14, 12, 13, 11, 11, 14, 0, 10, 11, 0, 10, 0, 1, 9, 10, 1, 4, 2, 3, 5, 2, 4, 8, 9, 1, 6, 2, 5, 7, 1, 2, 7, 2, 6, 8, 1, 7 ],
					"vertices": [ 562.99, -1001.61, 563.14, -1037.8, 580.4, -1041.93, 598.85, -1010.04, 599.23, -1036.1, 594.86, -1046.85, 582.06, -1058.29, 563.32, -1060.97, 545.3, -1057.72, 540.27, -1032.5, 548.96, -1012.69, 548.97, -1000.59, 536.53, -983, 538.34, -983, 549.55, -986.92 ],
					"hull": 15,
					"edges": [ 0, 28, 0, 2, 2, 4, 4, 6, 6, 8, 8, 10, 10, 12, 12, 14, 14, 16, 16, 18, 18, 20, 20, 22, 22, 24, 24, 26, 26, 28 ],
					"width": 66,
					"height": 78
				}
			},
			"Layer 6": {
				"Layer 6": {
					"type": "mesh",
					"uvs": [ 0.34832, 0, 0.47307, 0.02755, 0.61374, 0.15345, 0.68755, 0.28299, 0.73102, 0.25591, 0.86944, 0.24784, 0.93186, 0.3009, 0.97093, 0.46716, 1, 0.60096, 1, 0.67803, 0.73519, 1, 0.69804, 0.9891, 0.59641, 0.34433, 0.57446, 0.29355, 0.45296, 0.22048, 0.37314, 0.19386, 0.22288, 0.205, 0.12782, 0.26413, 0.00272, 0.39793, 0.00124, 0.36902, 0.05082, 0.24181, 0.14782, 0.09034, 0.29331, 0, 0.6475, 0.3222 ],
					"triangles": [ 15, 0, 1, 16, 21, 22, 15, 16, 22, 15, 22, 0, 14, 15, 1, 13, 14, 1, 17, 20, 21, 17, 21, 16, 2, 13, 1, 23, 13, 2, 3, 23, 2, 12, 13, 23, 18, 19, 20, 18, 20, 17, 7, 8, 9, 10, 11, 3, 23, 3, 11, 12, 23, 11, 3, 4, 10, 4, 5, 7, 7, 5, 6, 7, 10, 4, 10, 7, 9 ],
					"vertices": [ 585.1, -750, 633.13, -754.99, 687.29, -777.77, 715.71, -801.22, 732.44, -796.32, 785.74, -794.86, 809.77, -804.46, 824.81, -834.56, 836, -858.77, 836, -872.72, 734.05, -931, 719.75, -929.03, 680.62, -812.32, 672.17, -803.13, 625.39, -789.91, 594.66, -785.09, 536.81, -787.11, 500.21, -797.81, 452.05, -822.03, 451.48, -816.79, 470.57, -793.77, 507.91, -766.35, 563.92, -750, 700.29, -808.32 ],
					"hull": 23,
					"edges": [ 0, 44, 0, 2, 2, 4, 4, 6, 6, 8, 8, 10, 10, 12, 12, 14, 14, 16, 16, 18, 18, 20, 20, 22, 22, 24, 24, 26, 26, 28, 28, 30, 30, 32, 32, 34, 34, 36, 36, 38, 38, 40, 40, 42, 42, 44 ],
					"width": 385,
					"height": 181
				}
			},
			"Layer 7": {
				"Layer 7": {
					"type": "mesh",
					"uvs": [ 0.49492, 0.00211, 0.52835, 0.04802, 0.52799, 0.09238, 0.51544, 0.13825, 0.45044, 0.21245, 0.36359, 0.2384, 0.34512, 0.22997, 0.3292, 0.22953, 0.29496, 0.2648, 0.27224, 0.33749, 0.27921, 0.34895, 0.2895, 0.38764, 0.31806, 0.409, 0.37774, 0.42973, 0.41844, 0.46005, 0.44078, 0.4867, 0.45783, 0.59327, 0.48364, 0.59416, 0.55225, 0.67028, 0.58916, 0.65847, 0.66405, 0.67725, 0.70093, 0.71092, 0.73008, 0.73229, 0.76072, 0.73234, 0.7989, 0.72633, 0.82722, 0.70534, 0.83731, 0.68432, 0.79935, 0.66577, 0.78472, 0.60142, 0.79616, 0.54807, 0.86604, 0.44871, 0.93686, 0.44335, 0.96125, 0.46423, 0.99244, 0.52494, 1, 0.55205, 1, 0.56274, 0.97735, 0.63359, 0.87365, 0.75236, 0.81506, 0.77557, 0.72845, 0.77946, 0.68265, 0.7594, 0.65339, 0.77081, 0.62844, 0.79521, 0.57471, 0.79127, 0.57694, 0.82374, 0.55578, 0.85758, 0.47673, 0.87245, 0.46715, 0.8719, 0.43618, 0.90225, 0.40958, 0.91113, 0.39035, 0.91357, 0.33691, 0.96001, 0.21484, 1, 0.1934, 1, 0.1712, 0.99762, 0.10563, 0.95363, 0.02954, 0.93631, 0.03267, 0.88438, 0.01547, 0.6406, 0.03607, 0.60677, 0.10042, 0.52002, 0.08866, 0.52439, 0.07258, 0.50633, 0.11062, 0.48043, 0.13411, 0.48105, 0.15959, 0.44686, 0.21554, 0.40644, 0.21652, 0.40366, 0.21187, 0.31033, 0.22659, 0.25837, 0.23805, 0.242, 0.24695, 0.21779, 0.26536, 0.19825, 0.25781, 0.15351, 0.27193, 0.13854, 0.27978, 0.12853, 0.29917, 0.06533, 0.34863, 0.03111, 0.40566, 0.00139 ],
					"triangles": [ 1, 78, 0, 78, 1, 2, 72, 73, 74, 2, 77, 78, 3, 77, 2, 3, 76, 77, 3, 75, 76, 4, 75, 3, 6, 7, 74, 7, 72, 74, 6, 74, 75, 4, 6, 75, 5, 6, 4, 7, 71, 72, 8, 71, 7, 70, 71, 8, 69, 70, 8, 8, 68, 69, 9, 68, 8, 67, 68, 9, 67, 9, 10, 67, 10, 11, 60, 62, 63, 60, 63, 64, 61, 62, 60, 33, 34, 35, 30, 31, 32, 29, 32, 33, 35, 27, 33, 28, 29, 33, 33, 27, 28, 32, 29, 30, 35, 36, 27, 26, 27, 36, 37, 26, 36, 25, 26, 37, 24, 25, 37, 21, 41, 20, 40, 21, 22, 20, 18, 19, 40, 41, 21, 41, 18, 20, 38, 24, 37, 39, 40, 22, 39, 22, 23, 38, 39, 23, 38, 23, 24, 43, 18, 41, 42, 43, 41, 43, 47, 18, 43, 46, 47, 18, 47, 16, 18, 16, 17, 46, 43, 44, 45, 46, 44, 47, 57, 58, 66, 67, 11, 12, 66, 11, 65, 66, 12, 64, 65, 12, 13, 64, 12, 14, 64, 13, 64, 14, 15, 16, 60, 64, 16, 64, 15, 59, 60, 16, 47, 58, 16, 16, 58, 59, 57, 47, 50, 48, 49, 47, 49, 50, 47, 55, 56, 57, 50, 55, 57, 51, 55, 50, 53, 54, 55, 55, 52, 53, 51, 52, 55 ],
					"vertices": [ 407.81, -268.37, 435.42, -320.02, 435.12, -369.93, 424.75, -421.53, 371.06, -505.01, 299.32, -534.19, 284.07, -524.71, 270.92, -524.22, 242.64, -563.9, 223.87, -645.68, 229.62, -658.57, 238.13, -702.1, 261.72, -726.12, 311.01, -749.45, 344.63, -783.56, 363.08, -813.54, 377.17, -933.43, 398.48, -934.43, 455.16, -1020.07, 485.65, -1006.78, 547.5, -1027.9, 577.97, -1065.79, 602.05, -1089.83, 627.36, -1089.89, 658.89, -1083.12, 682.28, -1059.51, 690.62, -1035.86, 659.26, -1014.99, 647.18, -942.59, 656.63, -882.58, 714.35, -770.8, 772.85, -764.77, 792.99, -788.26, 818.75, -856.56, 825, -887.05, 825, -899.08, 806.29, -978.79, 720.63, -1112.4, 672.24, -1138.52, 600.7, -1142.89, 562.87, -1120.33, 538.7, -1133.16, 518.09, -1160.61, 473.71, -1156.18, 475.55, -1192.71, 458.07, -1230.78, 392.78, -1247.5, 384.86, -1246.88, 359.28, -1281.03, 337.32, -1291.02, 321.43, -1293.76, 277.28, -1346.01, 176.46, -1391, 158.75, -1391, 140.41, -1388.32, 86.25, -1338.84, 23.4, -1319.35, 25.99, -1260.92, 11.78, -986.67, 28.8, -948.62, 81.95, -851.02, 72.23, -855.94, 58.95, -835.63, 90.37, -806.49, 109.77, -807.18, 130.82, -768.72, 177.03, -723.24, 177.85, -720.12, 174, -615.12, 186.17, -556.67, 195.63, -538.25, 202.98, -511.01, 218.19, -489.03, 211.96, -438.7, 223.61, -421.86, 230.1, -410.6, 246.12, -339.5, 286.97, -301, 334.07, -267.56 ],
					"hull": 79,
					"edges": [ 0, 156, 0, 2, 2, 4, 4, 6, 6, 8, 8, 10, 10, 12, 12, 14, 14, 16, 16, 18, 18, 20, 20, 22, 22, 24, 24, 26, 26, 28, 28, 30, 30, 32, 32, 34, 34, 36, 36, 38, 38, 40, 40, 42, 42, 44, 44, 46, 46, 48, 48, 50, 50, 52, 52, 54, 54, 56, 56, 58, 58, 60, 60, 62, 62, 64, 64, 66, 66, 68, 68, 70, 70, 72, 72, 74, 74, 76, 76, 78, 78, 80, 80, 82, 82, 84, 84, 86, 86, 88, 88, 90, 90, 92, 92, 94, 94, 96, 96, 98, 98, 100, 100, 102, 102, 104, 104, 106, 106, 108, 108, 110, 110, 112, 112, 114, 114, 116, 116, 118, 118, 120, 120, 122, 122, 124, 124, 126, 126, 128, 128, 130, 130, 132, 132, 134, 134, 136, 136, 138, 138, 140, 142, 144, 144, 146, 146, 148, 148, 150, 150, 152, 152, 154, 154, 156, 140, 142 ],
					"width": 826,
					"height": 1125
				}
			},
			"Layer 8": {
				"Layer 8": {
					"type": "mesh",
					"uvs": [ 0.84084, 0, 0.95564, 0.11255, 0.99777, 0.24636, 0.99804, 0.29305, 0.99793, 0.31822, 0.93068, 0.22026, 0.84205, 0.15463, 0.72258, 0.18389, 0.63546, 0.27319, 0.78213, 0.46006, 0.86519, 0.68952, 0.88404, 0.89536, 0.87526, 0.997, 0.86757, 0.99348, 0.82341, 0.83412, 0.79557, 0.75996, 0.72513, 0.63531, 0.67224, 0.56757, 0.51697, 0.47513, 0.41371, 0.23352, 0.35991, 0.28163, 0.00629, 0.70808, 0, 0.66783, 0, 0.59052, 0.02018, 0.42401, 0.12471, 0.25506, 0.24545, 0.18213, 0.462, 0.16143, 0.48311, 0.14526, 0.61185, 0.02371, 0.75086, 0 ],
					"triangles": [ 6, 0, 1, 7, 29, 30, 6, 7, 30, 6, 30, 0, 5, 6, 1, 19, 26, 27, 5, 1, 2, 8, 29, 7, 28, 29, 8, 20, 26, 19, 3, 5, 2, 4, 5, 3, 18, 28, 8, 27, 28, 18, 19, 27, 18, 17, 8, 9, 18, 8, 17, 16, 17, 9, 21, 22, 23, 16, 9, 10, 21, 23, 20, 25, 23, 24, 25, 20, 23, 20, 25, 26, 15, 16, 10, 14, 15, 10, 14, 10, 11, 13, 14, 11, 12, 13, 11 ],
					"vertices": [ 921.9, -770, 973.9, -801.85, 992.99, -839.72, 993.11, -852.93, 993.06, -860.06, 962.6, -832.33, 922.45, -813.76, 868.33, -822.04, 828.86, -847.31, 895.31, -900.2, 932.93, -965.13, 941.47, -1023.39, 937.49, -1052.15, 934.01, -1051.15, 914, -1006.06, 901.39, -985.07, 869.49, -949.79, 845.52, -930.62, 775.19, -904.46, 728.41, -836.08, 704.04, -849.7, 543.85, -970.39, 541, -959, 541, -937.12, 550.14, -890, 597.5, -842.18, 652.19, -821.54, 750.29, -815.69, 759.85, -811.11, 818.17, -776.71, 881.14, -770 ],
					"hull": 31,
					"edges": [ 0, 60, 0, 2, 2, 4, 4, 6, 6, 8, 8, 10, 10, 12, 12, 14, 14, 16, 16, 18, 18, 20, 20, 22, 22, 24, 24, 26, 26, 28, 28, 30, 30, 32, 32, 34, 34, 36, 36, 38, 38, 40, 40, 42, 42, 44, 44, 46, 46, 48, 48, 50, 50, 52, 52, 54, 54, 56, 56, 58, 58, 60 ],
					"width": 453,
					"height": 283
				}
			},
			"Layer 9": {
				"Layer 9": {
					"type": "mesh",
					"uvs": [ 0.46693, 0, 0.60579, 0.01206, 0.80356, 0.14746, 0.87448, 0.24114, 0.95859, 0.4418, 1, 0.62219, 1, 0.7505, 0.90795, 1, 0.86652, 0.998, 0.72551, 0.52297, 0.6969, 0.42886, 0.5935, 0.21359, 0.53034, 0.14437, 0.22445, 0.33543, 0.04723, 0.46196, 0.00937, 0.36517, 0.0407, 0.22103, 0.16019, 0.08432, 0.3768, 0 ],
					"triangles": [ 12, 0, 1, 11, 12, 1, 2, 11, 1, 13, 17, 18, 16, 17, 13, 12, 13, 18, 12, 18, 0, 15, 16, 13, 10, 11, 2, 10, 2, 3, 10, 3, 4, 14, 15, 13, 9, 10, 4, 9, 4, 5, 9, 5, 6, 8, 9, 6, 7, 8, 6 ],
					"vertices": [ 746.41, -822, 784.59, -825.1, 838.98, -859.9, 858.48, -883.97, 881.61, -935.54, 893, -981.9, 893, -1014.88, 867.69, -1079, 856.29, -1078.49, 817.52, -956.4, 809.65, -932.22, 781.21, -876.89, 763.84, -859.1, 679.72, -908.21, 630.99, -940.72, 620.58, -915.85, 629.19, -878.8, 662.05, -843.67, 721.62, -822 ],
					"hull": 19,
					"edges": [ 0, 36, 0, 2, 2, 4, 4, 6, 6, 8, 8, 10, 10, 12, 12, 14, 14, 16, 16, 18, 18, 20, 20, 22, 22, 24, 24, 26, 26, 28, 28, 30, 30, 32, 32, 34, 34, 36 ],
					"width": 275,
					"height": 257
				}
			},
			"Layer 10": {
				"Layer 10": {
					"type": "mesh",
					"uvs": [ 0.23821, 0, 0.28175, 0.0244, 0.21595, 0.18296, 0.2851, 0.25956, 0.41913, 0.17614, 0.72367, 0.21956, 0.87108, 0.33651, 0.96646, 0.48664, 0.99837, 0.62542, 0.9978, 0.68475, 0.83906, 0.42265, 0.72852, 0.35298, 0.62934, 0.3853, 0.61041, 0.40237, 0.531, 0.77557, 0.41344, 0.96893, 0.37297, 1, 0.36684, 1, 0.26908, 0.64863, 0.33922, 0.29659, 0.28342, 0.26022, 0.15485, 0.18283, 0.13968, 0.15247, 0.014, 0.22661, 0.0052, 0.21067, 0.00478, 0.0347, 0.21154, 0 ],
					"triangles": [ 22, 25, 26, 2, 21, 22, 2, 26, 0, 2, 0, 1, 2, 22, 26, 24, 25, 22, 23, 24, 22, 20, 2, 3, 21, 2, 20, 19, 3, 4, 20, 3, 19, 11, 5, 6, 12, 4, 5, 12, 5, 11, 13, 4, 12, 19, 4, 13, 10, 11, 6, 10, 6, 7, 18, 19, 13, 8, 10, 7, 9, 10, 8, 14, 18, 13, 15, 18, 14, 17, 18, 15, 16, 17, 15 ],
					"vertices": [ 705.18, -769, 721.12, -776.05, 697.04, -821.88, 722.35, -844.01, 771.4, -819.9, 882.86, -832.45, 936.82, -866.25, 971.72, -909.64, 983.4, -949.75, 983.2, -966.89, 925.1, -891.15, 884.64, -871.01, 848.34, -880.35, 841.41, -885.29, 812.34, -993.14, 769.32, -1049.02, 754.51, -1058, 752.26, -1058, 716.48, -956.45, 742.16, -854.72, 721.73, -844.2, 674.67, -821.84, 669.12, -813.06, 623.12, -834.49, 619.9, -829.88, 619.75, -779.03, 695.42, -769 ],
					"hull": 27,
					"edges": [ 0, 52, 0, 2, 2, 4, 4, 6, 6, 8, 8, 10, 10, 12, 12, 14, 14, 16, 16, 18, 18, 20, 20, 22, 22, 24, 24, 26, 26, 28, 28, 30, 30, 32, 32, 34, 34, 36, 36, 38, 38, 40, 40, 42, 42, 44, 44, 46, 46, 48, 48, 50, 50, 52 ],
					"width": 366,
					"height": 289
				}
			},
			"Layer 11": {
				"Layer 11": {
					"type": "mesh",
					"uvs": [ 0.14387, 0, 0.15204, 0.01375, 0.33548, 0.29956, 0.35534, 0.44786, 0.33871, 0.65056, 0.36972, 0.75218, 0.46192, 0.69017, 0.61199, 0.58925, 0.72858, 0.6054, 0.87166, 0.6146, 1, 0.57658, 1, 0.58969, 0.96187, 0.67004, 0.82, 0.83442, 0.41208, 1, 0.31037, 0.99146, 0.21843, 0.94213, 0.16768, 0.77392, 0.14055, 0.74359, 0.03294, 0.6527, 0, 0.43259, 0, 0.42805, 0.08089, 0.39039, 0.08589, 0.35714, 0.10072, 0.16642, 0.1339, 0, 0.46013, 0.91858, 0.46581, 0.84247, 0.41191, 0.78462, 0.30694, 0.77853, 0.25588, 0.81811, 0.23426, 0.87562, 0.21708, 0.77973, 0.27721, 0.7281, 0.3047, 0.66172, 0.46277, 0.76867, 0.46792, 0.80739, 0.52462, 0.77604, 0.51259, 0.88299, 0.5796, 0.89037 ],
					"triangles": [ 25, 0, 1, 24, 25, 1, 24, 1, 2, 23, 24, 2, 20, 21, 22, 23, 2, 3, 22, 23, 3, 11, 9, 10, 3, 34, 22, 19, 20, 22, 34, 19, 22, 3, 4, 34, 12, 9, 11, 34, 18, 19, 33, 18, 34, 37, 35, 6, 28, 5, 6, 32, 17, 18, 7, 37, 6, 34, 5, 33, 5, 34, 4, 29, 33, 5, 33, 32, 18, 30, 32, 33, 35, 28, 6, 36, 35, 37, 28, 35, 36, 29, 30, 33, 13, 8, 9, 13, 9, 12, 27, 28, 36, 31, 32, 30, 37, 27, 36, 38, 27, 37, 8, 39, 37, 8, 37, 7, 39, 8, 13, 38, 37, 39, 26, 28, 27, 26, 27, 38, 31, 17, 32, 16, 17, 31, 28, 15, 29, 28, 29, 5, 15, 28, 26, 30, 29, 15, 31, 30, 15, 16, 31, 15, 14, 15, 26, 39, 14, 26, 39, 26, 38, 14, 39, 13 ],
					"vertices": [ 304.48, 1, 307.24, -3.32, 369.06, -93.06, 375.75, -139.63, 370.14, -203.28, 380.59, -235.18, 411.67, -215.71, 462.24, -184.03, 501.53, -189.1, 549.75, -191.99, 593, -180.05, 593, -184.16, 580.15, -209.39, 532.34, -261.01, 394.87, -313, 360.59, -310.32, 329.61, -294.83, 312.51, -242.01, 303.36, -232.49, 267.1, -203.95, 256, -134.83, 256, -133.41, 283.26, -121.58, 284.95, -111.14, 289.94, -51.26, 301.13, 1, 411.06, -287.44, 412.98, -263.54, 394.81, -245.37, 359.44, -243.46, 342.23, -255.89, 334.95, -273.94, 329.16, -243.84, 349.42, -227.62, 358.68, -206.78, 411.95, -240.36, 413.69, -252.52, 432.8, -242.68, 428.74, -276.26, 451.32, -278.58 ],
					"hull": 26,
					"edges": [ 0, 50, 0, 2, 2, 4, 4, 6, 6, 8, 8, 10, 14, 16, 16, 18, 18, 20, 20, 22, 22, 24, 24, 26, 26, 28, 28, 30, 30, 32, 32, 34, 34, 36, 36, 38, 38, 40, 40, 42, 42, 44, 44, 46, 46, 48, 48, 50, 10, 12, 12, 14 ],
					"width": 337,
					"height": 314
				}
			},
			"Layer 12": {
				"Layer 12": {
					"type": "mesh",
					"uvs": [ 0.51257, 0, 0.51528, 0, 0.51304, 0.20487, 0.51504, 0.2168, 0.53821, 0.5909, 0.54412, 0.61404, 0.78043, 0.59215, 0.87663, 0.63942, 0.92622, 0.71999, 0.97078, 0.82334, 0.97072, 0.96388, 0.9571, 0.99985, 0.93287, 0.93358, 0.90685, 0.8836, 0.86341, 0.84423, 0.85262, 0.83805, 0.55194, 0.79147, 0.5324, 0.7931, 0.49757, 0.82546, 0.42274, 0.77621, 0.41268, 0.77919, 0.23636, 0.88534, 0.20715, 0.81695, 0.16709, 0.66143, 0.18763, 0.55131, 0.26396, 0.49338, 0.21423, 0.49122, 0.15545, 0.50082, 0.08423, 0.63645, 0.04543, 0.73709, 0.02715, 0.66811, 0, 0.44741, 0, 0.40191, 0.01169, 0.33859, 0.07749, 0.27387, 0.19635, 0.19904, 0.28076, 0.25427, 0.33839, 0.39838, 0.40109, 0.14326, 0.4905, 0.01288, 0.32324, 0.51944, 0.49524, 0.52234 ],
					"triangles": [ 1, 39, 0, 2, 39, 1, 38, 39, 2, 3, 37, 38, 3, 38, 2, 27, 31, 32, 26, 35, 36, 25, 26, 36, 27, 34, 35, 37, 25, 36, 26, 27, 35, 32, 33, 34, 34, 27, 32, 40, 25, 37, 41, 37, 3, 40, 37, 41, 41, 3, 4, 28, 31, 27, 30, 31, 28, 29, 30, 28, 19, 40, 41, 19, 41, 4, 19, 4, 5, 20, 40, 19, 16, 5, 6, 17, 19, 5, 16, 17, 5, 24, 40, 23, 40, 24, 25, 22, 40, 20, 22, 23, 40, 18, 19, 17, 15, 6, 7, 15, 7, 8, 14, 15, 8, 16, 6, 15, 8, 13, 14, 9, 13, 8, 21, 22, 20, 12, 13, 9, 10, 12, 9, 11, 12, 10 ],
					"vertices": [ 405.01, -73, 406.3, -73, 405.23, -140.61, 406.19, -144.55, 417.26, -268, 420.09, -275.63, 533.04, -268.41, 579.03, -284.01, 602.73, -310.6, 624.03, -344.7, 624, -391.08, 617.49, -402.95, 605.91, -381.08, 593.48, -364.59, 572.71, -351.6, 567.55, -349.56, 423.83, -334.19, 414.49, -334.72, 397.84, -345.4, 362.07, -329.15, 357.26, -330.13, 272.98, -365.16, 259.02, -342.59, 239.87, -291.27, 249.69, -254.93, 286.17, -235.81, 262.4, -235.1, 234.3, -238.27, 200.26, -283.03, 181.72, -316.24, 172.98, -293.48, 160, -220.65, 160, -205.63, 165.59, -184.74, 197.04, -163.38, 253.86, -138.68, 294.2, -156.91, 321.75, -204.47, 351.72, -120.28, 394.46, -77.25, 314.51, -244.42, 396.72, -245.37 ],
					"hull": 40,
					"edges": [ 0, 78, 0, 2, 2, 4, 4, 6, 6, 8, 8, 10, 10, 12, 12, 14, 14, 16, 16, 18, 18, 20, 20, 22, 22, 24, 24, 26, 26, 28, 28, 30, 30, 32, 32, 34, 34, 36, 36, 38, 38, 40, 40, 42, 52, 54, 54, 56, 56, 58, 58, 60, 60, 62, 62, 64, 64, 66, 66, 68, 68, 70, 70, 72, 72, 74, 74, 76, 76, 78, 50, 52, 46, 48, 48, 50, 42, 44, 44, 46 ],
					"width": 478,
					"height": 330
				}
			},
			"Layer 13": {
				"Layer 13": {
					"type": "mesh",
					"uvs": [ 0.35538, 0, 0.47062, 0.01079, 0.6684, 0.11918, 0.79687, 0.23314, 0.82626, 0.30137, 0.74572, 0.39493, 0.75726, 0.47641, 0.92512, 0.57715, 0.985, 0.64276, 1, 0.71804, 1, 0.75101, 0.91817, 0.8953, 0.81475, 0.97761, 0.79065, 0.97844, 0.75098, 0.67052, 0.6655, 0.56551, 0.55594, 0.76132, 0.30959, 1, 0.29322, 1, 0.2601, 0.98584, 0.28928, 0.89781, 0.3676, 0.71802, 0.45359, 0.59026, 0.53968, 0.48991, 0.24824, 0.75764, 0.19499, 0.79165, 0.19339, 0.77698, 0.27004, 0.56208, 0.31282, 0.50055, 0.69911, 0.32196, 0.5741, 0.26205, 0.33558, 0.20321, 0.27123, 0.19922, 0.08723, 0.23686, 0, 0.26222, 0, 0.25043, 0.02631, 0.20191, 0.07439, 0.13256, 0.19169, 0.03025, 0.32559, 0 ],
					"triangles": [ 32, 38, 39, 37, 38, 32, 31, 39, 0, 31, 0, 1, 32, 39, 31, 33, 37, 32, 36, 37, 33, 35, 36, 33, 30, 1, 2, 29, 30, 2, 31, 1, 30, 34, 35, 33, 3, 29, 2, 29, 3, 4, 5, 29, 4, 23, 29, 5, 23, 5, 6, 29, 23, 28, 15, 23, 6, 28, 23, 27, 23, 24, 27, 14, 15, 6, 14, 6, 7, 9, 14, 8, 15, 22, 23, 16, 22, 15, 21, 22, 16, 24, 26, 27, 25, 26, 24, 14, 9, 11, 8, 14, 7, 10, 11, 9, 11, 13, 14, 11, 12, 13, 20, 17, 18, 16, 20, 21, 19, 20, 18, 16, 17, 20 ],
					"vertices": [ 207.27, -120, 250.48, -124.39, 324.65, -168.51, 372.83, -214.89, 383.85, -242.66, 353.64, -280.74, 357.97, -313.9, 420.92, -354.9, 443.38, -381.6, 449, -412.24, 449, -425.66, 418.31, -484.39, 379.53, -517.89, 370.49, -518.22, 355.62, -392.9, 323.56, -350.16, 282.48, -429.86, 190.1, -527, 183.96, -527, 171.54, -521.24, 182.48, -485.41, 211.85, -412.24, 244.1, -360.24, 276.38, -319.39, 167.09, -428.36, 147.12, -442.2, 146.52, -436.23, 175.27, -348.77, 191.31, -323.72, 336.17, -251.04, 289.29, -226.65, 199.84, -202.7, 175.71, -201.08, 106.71, -216.4, 74, -226.72, 74, -221.92, 83.87, -202.18, 101.9, -173.95, 145.88, -132.31, 196.1, -120 ],
					"hull": 40,
					"edges": [ 0, 78, 0, 2, 2, 4, 4, 6, 6, 8, 8, 10, 10, 12, 12, 14, 14, 16, 16, 18, 18, 20, 20, 22, 22, 24, 24, 26, 26, 28, 28, 30, 30, 32, 32, 34, 34, 36, 36, 38, 46, 48, 48, 50, 50, 52, 52, 54, 54, 56, 56, 58, 58, 60, 60, 62, 62, 64, 64, 66, 66, 68, 68, 70, 70, 72, 72, 74, 74, 76, 76, 78, 44, 46, 42, 44, 38, 40, 40, 42 ],
					"width": 375,
					"height": 407
				}
			},
			"Layer 14": {
				"Layer 14": {
					"type": "mesh",
					"uvs": [ 0.22624, 0.00543, 0.43075, 0.06107, 0.56055, 0.14547, 0.62717, 0.29136, 0.64186, 0.46073, 0.64149, 0.49954, 0.87542, 0.47553, 0.96099, 0.54708, 1, 0.667, 1, 0.67404, 0.99627, 0.7708, 0.9711, 0.88413, 0.91558, 0.99087, 0.89735, 1, 0.89471, 1, 0.83459, 0.72704, 0.80751, 0.72429, 0.79057, 0.65496, 0.70817, 0.62299, 0.5861, 0.61498, 0.55643, 0.51219, 0.5279, 0.47434, 0.48371, 0.43107, 0.42955, 0.41642, 0.29398, 0.47858, 0.28077, 0.48831, 0.17489, 0.60109, 0.12908, 0.6276, 0.2179, 0.24328, 0.33122, 0.19033, 0.14604, 0.19887, 0.02059, 0.2442, 0.01777, 0.24859, 0.03124, 0.17391, 0.10004, 0.0467 ],
					"triangles": [ 29, 0, 1, 30, 34, 0, 30, 0, 29, 33, 34, 30, 31, 33, 30, 31, 32, 33, 23, 29, 1, 23, 1, 2, 22, 23, 2, 3, 22, 2, 21, 22, 3, 4, 21, 3, 24, 28, 29, 24, 29, 23, 25, 28, 24, 4, 20, 21, 5, 20, 4, 26, 28, 25, 19, 20, 5, 18, 5, 6, 19, 5, 18, 28, 26, 27, 17, 18, 6, 6, 7, 15, 17, 15, 16, 6, 15, 17, 7, 8, 15, 9, 15, 8, 10, 15, 9, 11, 15, 10, 11, 14, 15, 12, 14, 11, 13, 14, 12 ],
					"vertices": [ 158.76, -189.75, 259.79, -207.67, 323.91, -234.84, 356.82, -281.82, 364.08, -336.35, 363.9, -348.85, 479.46, -341.12, 521.73, -364.16, 541, -402.77, 541, -405.04, 539.16, -436.2, 526.72, -472.69, 499.3, -507.06, 490.29, -510, 488.99, -510, 459.29, -422.11, 445.91, -421.22, 437.54, -398.9, 396.83, -388.6, 336.54, -386.02, 321.88, -352.93, 307.78, -340.74, 285.95, -326.8, 259.2, -322.09, 192.23, -342.1, 185.7, -345.23, 133.4, -381.55, 110.77, -390.09, 154.64, -266.34, 210.62, -249.28, 119.14, -252.04, 57.17, -266.63, 55.78, -268.04, 62.43, -244, 96.42, -203.04 ],
					"hull": 35,
					"edges": [ 0, 68, 0, 2, 2, 4, 4, 6, 6, 8, 8, 10, 10, 12, 12, 14, 14, 16, 16, 18, 18, 20, 20, 22, 22, 24, 24, 26, 26, 28, 28, 30, 30, 32, 32, 34, 34, 36, 36, 38, 38, 40, 40, 42, 42, 44, 44, 46, 46, 48, 48, 50, 50, 52, 52, 54, 58, 60, 60, 62, 62, 64, 64, 66, 66, 68, 54, 56, 56, 58 ],
					"width": 494,
					"height": 322
				}
			},
			"Layer 15": {
				"Layer 15": {
					"type": "mesh",
					"uvs": [ 0.77579, 0.03274, 0.88459, 0.12499, 0.8922, 0.3108, 0.87215, 0.51096, 0.93015, 0.63614, 0.96487, 0.70872, 1, 0.85042, 1, 0.88461, 0.97748, 1, 0.94517, 0.84761, 0.88555, 0.99063, 0.87147, 0.86236, 0.78917, 0.6479, 0.7599, 0.84544, 0.72647, 0.87529, 0.6906, 0.78002, 0.66965, 0.67943, 0.66232, 0.62853, 0.56154, 0.45607, 0.48743, 0.39477, 0.31826, 0.65963, 0.27038, 0.7503, 0.27623, 0.64103, 0.30894, 0.32414, 0.26999, 0.30823, 0.19188, 0.29141, 0.14147, 0.30095, 0.14121, 0.30138, 0.032, 0.31463, 0.08376, 0.20594, 0.10389, 0.18394, 0.16477, 0.11881, 0.30657, 0.06009, 0.48343, 0.0757, 0.50904, 0.0749, 0.66754, 0.02449 ],
					"triangles": [ 24, 25, 31, 26, 30, 31, 25, 26, 31, 29, 30, 26, 27, 29, 26, 32, 24, 31, 28, 29, 27, 23, 32, 33, 24, 32, 23, 19, 33, 34, 23, 33, 19, 18, 34, 35, 19, 34, 18, 18, 0, 2, 2, 0, 1, 18, 2, 17, 0, 18, 35, 3, 17, 2, 20, 22, 23, 12, 17, 3, 12, 3, 4, 19, 20, 23, 16, 17, 12, 21, 22, 20, 15, 16, 12, 13, 15, 12, 5, 11, 4, 9, 5, 6, 11, 12, 4, 9, 11, 5, 14, 15, 13, 9, 6, 7, 10, 11, 9, 8, 9, 7 ],
					"vertices": [ 477.67, -212.8, 538.48, -243.25, 542.74, -304.56, 531.53, -370.62, 563.96, -411.93, 583.36, -435.88, 603, -482.64, 603, -493.92, 590.41, -532, 572.35, -481.71, 539.02, -528.91, 531.15, -486.58, 485.14, -415.81, 468.78, -481, 450.1, -490.84, 430.05, -459.41, 418.34, -426.21, 414.24, -409.41, 357.9, -352.5, 316.47, -332.27, 221.91, -419.68, 195.14, -449.6, 198.42, -413.54, 216.7, -308.97, 194.92, -303.72, 151.26, -298.17, 123.08, -301.31, 122.94, -301.45, 61.89, -305.83, 90.82, -269.96, 102.07, -262.7, 136.11, -241.21, 215.37, -221.83, 314.24, -226.98, 328.55, -226.72, 417.16, -210.08 ],
					"hull": 36,
					"edges": [ 0, 70, 0, 2, 2, 4, 4, 6, 6, 8, 10, 12, 12, 14, 16, 18, 20, 22, 22, 24, 24, 26, 26, 28, 28, 30, 30, 32, 32, 34, 34, 36, 36, 38, 38, 40, 40, 42, 42, 44, 44, 46, 46, 48, 48, 50, 50, 52, 54, 56, 58, 60, 60, 62, 62, 64, 64, 66, 66, 68, 68, 70, 56, 58, 8, 10, 52, 54, 14, 16, 18, 20 ],
					"width": 559,
					"height": 330
				}
			}
		}
	}
],
"animations": {
	"animation": {
		"deform": {
			"default": {
				"Layer 2": {
					"Layer 2": [
						{
							"offset": 4,
							"vertices": [ -4.31409 ]
						},
						{
							"time": 1.6667,
							"vertices": [ 18.10773, -20.19012, 15.88785, -19.58899, 5.85025, -16.97461, 0.54684, -13.50836, 0.92438, -5.7912, 0, 0, -0.31467, 3.02545, -0.72751, 3.05353, -2.37421, 4.4176, -0.31848, 6.28369, 0, 0, 0, 0, 0, 0, 0, 0, 0, 0, 6.33084, 1.81506, 18.5101, -18.78192 ]
						},
						{
							"time": 3.3333,
							"offset": 4,
							"vertices": [ -4.31409 ]
						}
					]
				},
				"Layer 3": {
					"Layer 3": [
						{
							"vertices": [ -2.87598, -1.43799 ],
							"curve": 0.25,
							"c3": 0.75
						},
						{
							"time": 1.6667,
							"vertices": [ -9.77151, -2.43237, -1.78784, 1.38074, 0, 0, 0, 0, 0, 0, 0, 0, 0, 0, -3.33499, 0.54755, -7.64256, 2.66705, -7.5396, 4.22058, 0, 0, 9.31906, -3.0575, 28.97363, -15.78357, 3.78834, -13.01532, -2.86528, -5.36499, 0, 0, -2.95871, -4.32312, -7.57149, -8.10632, -10.09367, -13.07599, -8.6342, -17.53802, -9.12051, -17.57196, -11.64579, -15.35706, -12.05177, -10.09753, 2.14798, 2.68506, 1.80391, 7.11591, 2.5069, -2.91547, 2.80499, 1.12201, 4.48798, 3.36597 ],
							"curve": 0.25,
							"c3": 0.75
						},
						{
							"time": 3.3333,
							"vertices": [ -2.87598, -1.43799 ]
						}
					]
				},
				"Layer 4": {
					"Layer 4": [
						{
							"offset": 16,
							"vertices": [ -2.8761, 0, 0, 0, 0, 0, 0, 0, 0, 0, 0, 0, -1.013, -1.01306 ],
							"curve": 0.25,
							"c3": 0.75
						},
						{
							"time": 1.6667,
							"vertices": [ -30.29816, 18.86127, -11.66656, 6.01385, -3.94397, 1.85571, 0, 0, 7.30496, -5.3764, 9.01721, -8.7998, 9.37219, -13.00842, 8.07263, -17.66003, 3.88925, -20.47076, 6.42212, -21.00726, 3.97504, -8.89075, 0.93921, -3.73364, 0, 0, -8.04028, 6.25952, -9.2041, 10.78058, -4.06039, 17.6264, -3.35187, 7.53357, -1.19702, 2.61859, 0, 0, 0, 0, -3.63657, -0.37622, -7.82758, 0.52521, -9.56625, 1.58429, -6.4455, 3.97687, -1.54477, 4.6449, 0, 0, 0.90576, -4.2655, -3.2944, -5.99194, -2.6503, -3.6582, 0, 0, -2.67603, -0.44598, -4.01401, -4.01404, 0, 0, 0, 0, 0, 0, 0, 0, 0, 0, -18.42404, 3.28351, -26.54669, 11.01984, -29.96103, 17.03815 ],
							"curve": 0.25,
							"c3": 0.75
						},
						{
							"time": 3.3333,
							"offset": 16,
							"vertices": [ -2.8761, 0, 0, 0, 0, 0, 0, 0, 0, 0, 0, 0, -1.013, -1.01306 ]
						}
					]
				},
				"Layer 5": {
					"Layer 5": [
						{
							"offset": 1,
							"vertices": [ 1.013, 0, 0, 0, 0, 0, 0, 0, 0, 0, 0, 0, 0, 0, 0, 0, 0, 0, 0, 0, 0, 0, 0, 0.96893, -0.96899 ],
							"curve": 0.25,
							"c3": 0.75
						},
						{
							"time": 1.6667,
							"vertices": [ 15.38947, -6.3667, -1.35168, 1.13232, 3.19006, -6.35449, 22.49487, -33.35492, 4.95099, -19.92957, -2.58881, -14.00513, -6.57172, -6.75891, -1.13696, -1.99353, 0, 0, 0, 0, 7.36938, -0.86407, 16.88757, -0.91589, 38.01031, 1.15265, 37.48132, 1.05945, 28.89514, -0.85223 ],
							"curve": 0.25,
							"c3": 0.75
						},
						{
							"time": 3.3333,
							"offset": 1,
							"vertices": [ 1.013, 0, 0, 0, 0, 0, 0, 0, 0, 0, 0, 0, 0, 0, 0, 0, 0, 0, 0, 0, 0, 0, 0, 0.96893, -0.96899 ]
						}
					]
				},
				"Layer 6": {
					"Layer 6": [
						{
							"vertices": [ 24.49084, -4.1817, 20.56268, -3.47113, 19.117, -6.64062, 17.67731, -8.28375, 17.93842, -9.28412, 17.93134, -12.44537, 17.32007, -13.85254, 15.50995, -14.69092, 14.05518, -15.31183, 13.22821, -15.28741, 9.95367, -9.1427, 10.09589, -8.29877, 17.08099, -6.18469, 17.64069, -5.70001, 18.50659, -2.95056, 18.84644, -1.13818, 18.82843, 2.29401, 18.25851, 4.48163, 16.90793, 7.37872, 17.21906, 7.40326, 18.55005, 6.23138, 20.10941, 3.97015, 20.97986, 0.62158, 17.28394, -7.3573 ],
							"curve": 0.25,
							"c3": 0.75
						},
						{
							"time": 1.6667,
							"vertices": [ 46.08105, 4.12225, 41.24658, -0.75769, 36.05933, -10.44, 31.19763, -15.31976, 33.95764, -19.51599, 22.01929, -27.72424, 20.25787, -31.30322, 26.98425, -47.09265, 23.12994, -48.52557, 20.98511, -48.35999, 13.24036, -31.99951, 13.71356, -29.82477, 30.61078, -13.25653, 31.60376, -7.18231, 34.88245, 1.29358, 36.31641, 6.92871, 41.87463, 1.94464, 49.50064, -6.13025, 58.68253, -19.15033, 57.17755, -19.54572, 49.61407, -14.97174, 39.96909, -5.25323, 38.89771, 3.94653, 30.81079, -14.40936 ],
							"curve": 0.25,
							"c3": 0.75
						},
						{
							"time": 3.3333,
							"vertices": [ 24.49084, -4.1817, 20.56268, -3.47113, 19.117, -6.64062, 17.67731, -8.28375, 17.93842, -9.28412, 17.93134, -12.44537, 17.32007, -13.85254, 15.50995, -14.69092, 14.05518, -15.31183, 13.22821, -15.28741, 9.95367, -9.1427, 10.09589, -8.29877, 17.08099, -6.18469, 17.64069, -5.70001, 18.50659, -2.95056, 18.84644, -1.13818, 18.82843, 2.29401, 18.25851, 4.48163, 16.90793, 7.37872, 17.21906, 7.40326, 18.55005, 6.23138, 20.10941, 3.97015, 20.97986, 0.62158, 17.28394, -7.3573 ]
						}
					]
				},
				"Layer 7": {
					"Layer 7": [
						{
							"offset": 16,
							"vertices": [ 1.43799, 0, 0, 0, 0, 0, 0, 0, 0, 0, 0, 0, 0, 0, 0, 0, 0, 0, 0, 0, 0, 0, 0, 0, 0, 0, 0, 0, 1.013, 0, 0, 0, 0, 0, 0, 0, 0, 0, 0, 0, 0, 0, 0, 0, 0, 0, 1.01294, 1.01294 ],
							"curve": 0.25,
							"c3": 0.75
						},
						{
							"time": 1.6667,
							"vertices": [ 17.08221, -7.42084, 15.22083, -8.37363, 13.43924, -8.33127, 11.60373, -7.92798, 8.65762, -5.95825, 7.66153, -3.37872, 8.0098, -2.83997, 8.03574, -2.37115, 8.07414, -1.38745, 3.72972, -0.61389, 3.26569, -0.81122, 1.70639, -1.0871, 0, 0, 0, 0, 0, 0, 0, 0, 0, 0, 0, 0, 0, 0, 5.89926, 5.71198, 0, 0, 0, 0, 1.013, 0, 0, 0, 1.07019, -4.4209, 2.42847, -5.84888, 3.8158, -6.38416, 5.10773, -4.56287, 9.41949, -3.97418, 12.95978, -4.6394, 19.48297, -8.25696, 20.80835, -10.78345, 18.30994, -12.88684, 14.2168, -14.29358, 12.39838, -14.61023, 11.68579, -14.58911, 6.99487, -13.34009, -0.77344, -8.02905, -2.23645, -5.11499, 0, 0, 0, 0, 0, 0, 0, 0, 0, 0, 0, 0, 0, 0, 0, 0, 0, 0, 0, 0, 0, 0, 0, 0, 0, 0, 0, 0, 0, 0, 0, 0, 0, 0, 0, 0, 0, 0, 0, 0, 0, 0, 0, 0, 8.24399, 10.992, 15.80099, 14.427, 7.55704, 7.55701, 0, 0, 0, 0, 0, 0, 0, 0, 4.85242, 1.14685, 6.93121, 0.67523, 7.5827, 0.32581, 8.55051, 0.04593, 9.32561, -0.51089, 11.1263, -0.3204, 11.72021, -0.74722, 12.11804, -0.98605, 14.64607, -1.6033, 15.99448, -3.08606, 17.15805, -4.78903 ],
							"curve": 0.25,
							"c3": 0.75
						},
						{
							"time": 3.3333,
							"offset": 16,
							"vertices": [ 1.43799, 0, 0, 0, 0, 0, 0, 0, 0, 0, 0, 0, 0, 0, 0, 0, 0, 0, 0, 0, 0, 0, 0, 0, 0, 0, 0, 0, 1.013, 0, 0, 0, 0, 0, 0, 0, 0, 0, 0, 0, 0, 0, 0, 0, 0, 0, 1.01294, 1.01294 ]
						}
					]
				},
				"Layer 8": {
					"Layer 8": [
						{
							"vertices": [ -1.013, 1.013, 0, 0, 0, 0, 0, 0, 0, 0, 0, 0, 0, 0, 0, 0, 0, 0, 0, 0, 0, 0, -1.013, 3.03906, 0, 0, 0, 0, 0, 0, 0, 0, 0, 0, 0, 0, 0, 0, 0, 0, 0, 0, 2.02594, 1.013 ],
							"curve": 0.25,
							"c3": 0.75
						},
						{
							"time": 1.6667,
							"vertices": [ 23.53583, -32.42065, 11.58875, -48.38519, -1.23151, -52.4577, -5.37543, -51.83032, -7.60474, -51.45728, 2.61133, -43.31116, 10.44739, -31.6698, 14.67175, -20.0368, 14.7467, -14.90887, 10.91394, -23.86847, -4.50903, -36.5177, -27.59888, -32.05713, -38.72687, -31.43579, -38.06494, -30.15906, -18.9408, -25.92871, -9.78021, -22.67596, 3.53607, -19.26514, 6.79834, -15.78174, 11.45422, -11.62726, 15.58887, -8.97534, 17.18494, -8.4444, 42.80255, -24.43433, 38.74292, -26.67487, 34.23529, -27.1441, 24.33008, -26.27161, 13.46216, -17.54041, 16.82031, -9.12628, 16.75946, -10.30762, 17.01392, -10.8822, 18.94995, -14.39935, 21.6825, -22.28369 ],
							"curve": 0.25,
							"c3": 0.75
						},
						{
							"time": 3.3333,
							"vertices": [ -1.013, 1.013, 0, 0, 0, 0, 0, 0, 0, 0, 0, 0, 0, 0, 0, 0, 0, 0, 0, 0, 0, 0, -1.013, 3.03906, 0, 0, 0, 0, 0, 0, 0, 0, 0, 0, 0, 0, 0, 0, 0, 0, 0, 0, 2.02594, 1.013 ]
						}
					]
				},
				"Layer 9": {
					"Layer 9": [
						{
							"offset": 17,
							"vertices": [ 1.01294, 0, 0, 0, 0, 0, 0, 0, 0, 0, 0, 0, 1.013 ],
							"curve": 0.25,
							"c3": 0.75
						},
						{
							"time": 1.6667,
							"vertices": [ 10.56421, -7.98267, 16.1413, -12.3244, 13.98328, -15.48633, 13.20325, -20.646, 3.88019, -23.88342, -10.30731, -26.79083, -18.48914, -25.10138, -33.82074, -16.66028, -33.06897, -12.82776, 1.22827, -12.41553, 5.55585, -11.41528, 13.07764, -12.03302, 14.16235, -11.03485, 25.71472, -17.81049, 31.58612, -24.41284, 27.78833, -27.47253, 21.55334, -26.55847, 15.30054, -21.61499, 10.9046, -12.07617 ],
							"curve": 0.25,
							"c3": 0.75
						},
						{
							"time": 3.3333,
							"offset": 17,
							"vertices": [ 1.01294, 0, 0, 0, 0, 0, 0, 0, 0, 0, 0, 0, 1.013 ]
						}
					]
				},
				"Layer 10": {
					"Layer 10": [
						{
							"offset": 12,
							"vertices": [ -3.039, 0, 0, 0, 0, 0, 0, 0, 0, 0, 0, 0, 0, 0, 0, 0, -1.01306, -1.013, 0, 0, 0, 0, 0, 0, 0, 0, 0, 0, 0, 0, 0, 0, 0, 0, 0, 0, 0, 0, 2.026, -1.013 ]
						},
						{
							"time": 1.6667,
							"vertices": [ 27.99481, -6.41583, 25.28125, -10.71631, 13.07837, -1.81403, 15.1297, -8.60211, 16.47241, -11.55157, 17.12598, -22.65906, 5.70111, -36.20801, -7.12836, -46.0647, -20.56812, -47.69336, -26.04071, -46.72662, 1.23468, -32.12439, 9.25482, -22.21509, 12.75452, -16.00519, 12.47437, -15.58588, 27.21039, -13.60059, 30.52307, -14.27454, 30.90594, -14.8772, 30.9082, -14.97034, 26.74823, -16.53339, 14.46057, -9.7572, 15.11957, -8.56537, 14.04156, 4.63989, 16.81085, 5.86938, 12.58356, 20.05914, 14.05054, 20.79333, 30.3847, 17.11749, 28.41034, -3.59918 ]
						},
						{
							"time": 3.3333,
							"offset": 12,
							"vertices": [ -3.039, 0, 0, 0, 0, 0, 0, 0, 0, 0, 0, 0, 0, 0, 0, 0, -1.01306, -1.013, 0, 0, 0, 0, 0, 0, 0, 0, 0, 0, 0, 0, 0, 0, 0, 0, 0, 0, 0, 0, 2.026, -1.013 ]
						}
					]
				},
				"Layer 11": {
					"Layer 11": [
						{
							"offset": 19,
							"vertices": [ -3.91202 ]
						},
						{
							"time": 1.6667,
							"vertices": [ 107.8844, -14.94758, 104.74646, -15.73686, 45.87509, -21.43701, 32.1918, -12.77927, 21.12604, 1.93829, 15.30829, -11.43074, 21.92749, -2.50447, 24.599, -20.31006, 28.8111, -27.06352, 33.08911, -50.93495, 34.86414, -72.59908, 32.6637, -71.96176, 21.16644, -61.1848, 13.36182, -31.86328, 15.49719, -6.9306, 15.61481, -5.70865, 16.18747, -4.61249, 16.81192, 0.62846, 17.51859, 0.813, 22.87238, 6.53929, 34.73152, 7.4213, 34.97304, 7.40081, 36.58075, 2.61557, 44.75589, 8.36629, 79.46219, 4.19714, 108.55487, -12.93401, 13.42358, -12.48511, 14.27557, -12.56854, 14.08749, -9.81166, 15.02634, -10.67004, 14.59363, -10.04782, 16.92969, -8.78415, 16.73618, -2.08461, 17.72604, -3.24248, 18.88828, -1.46622, 20.62338, -2.92273, 20.18829, -6.793, 23.49542, -9.17728, 19.33115, -7.73926, 20.50607, -10.23996 ]
						},
						{
							"time": 3.3333,
							"offset": 19,
							"vertices": [ -3.91202 ]
						}
					]
				},
				"Layer 12": {
					"Layer 12": [
						{
							"offset": 4,
							"vertices": [ -0.97803, 0, 0, 0, 0, 0, 0, 0, 0, 0, 0, 0, 0, 0, 0, 0, 0, 0, -1.95605 ]
						},
						{
							"time": 1.6667,
							"vertices": [ 60.16098, -24.04907, 60.11618, -24.38589, 41.61148, -21.52243, 41.49741, -21.89012, 17.08945, -7.75858, 16.81503, -7.85468, 20.53815, -20.38675, 20.55792, -34.27127, 10.96649, -40.38776, -0.8725, -45.36438, -15.4928, -42.98923, -20.75922, -39.71487, -11.4176, -37.79611, -5.58417, -34.71567, -0.42859, -28.83139, 0.47791, -27.30872, 14.72238, -7.95081, 14.70926, -7.61697, 14.33856, -7.01596, 14.9415, -5.74945, 14.90952, -5.57703, 36.19208, -22.13962, 32.36859, -25.01123, 23.47063, -29.28055, 16.79034, -28.10852, 16.43311, 2.97539, 17.19293, 8.26932, 9.61064, 22.21669, -16.51241, 46.8596, -31.4314, 61.99121, -17.85811, 63.1264, 23.23187, 58.72321, 31.28624, 56.38022, 41.62238, 50.12207, 41.14871, 30.77866, 38.9565, 7.74069, 33.86389, -0.8145, 19.41833, -4.38936, 49.69226, -8.54886, 59.41794, -21.15637, 13.79437, -3.13925, 17.91028, -7.03993 ]
						},
						{
							"time": 3.3333,
							"offset": 4,
							"vertices": [ -0.97803, 0, 0, 0, 0, 0, 0, 0, 0, 0, 0, 0, 0, 0, 0, 0, 0, 0, -1.95605 ]
						}
					]
				},
				"Layer 13": {
					"Layer 13": [
						{
							"offset": 50,
							"vertices": [ 0.97803, 2.93396, 0, 0, 0, 0, 0, 0, 0, 0, 0, 0, 0, 0, 0, 0, 0, 0, 0, 0, 0, 0, 0, 0, 0, 0, -0.97797, -2.93402 ]
						},
						{
							"time": 1.6667,
							"vertices": [ 53.21074, 28.58035, 61.96631, 22.14, 43.61121, 0.4379, 25.92953, -12.69786, 18.0155, -6.58182, 16.6752, -5.47946, 15.48859, -5.61273, 13.41876, -11.58301, 10.76715, -13.60495, 9.31787, -1.19534, 11.27866, -1.05136, 20.18979, -4.90552, 25.50214, -10.2135, 25.64807, -11.53009, 10.08899, -5.17526, 14.21591, -4.3613, 19.10983, -4.55872, 38.96013, -14.22662, 39.05084, -15.27814, 38.24739, -17.49072, 31.94772, -16.1463, 18.35767, -7.90775, 15.87051, -6.4455, 15.34448, -2.69644, -2.48004, 12.95972, -3.10034, 19.33722, -3.53049, 16.6301, 11.14177, 10.35233, 15.22493, 7.2059, 17.74661, -4.87439, 26.63919, 15.08061, 39.39578, 31.01056, 40.01317, 35.04956, 43.78336, 34.14084, 43.65741, 34.54916, 43.71693, 34.54829, 43.96214, 34.42413, 44.3122, 34.19739, 43.81285, 30.72496, 53.37022, 30.46089 ]
						},
						{
							"time": 3.3333,
							"offset": 50,
							"vertices": [ 0.97803, 2.93396, 0, 0, 0, 0, 0, 0, 0, 0, 0, 0, 0, 0, 0, 0, 0, 0, 0, 0, 0, 0, 0, 0, 0, 0, -0.97797, -2.93402 ]
						}
					]
				},
				"Layer 14": {
					"Layer 14": [
						{
							"offset": 54,
							"vertices": [ -0.97797 ]
						},
						{
							"time": 1.6667,
							"vertices": [ 29.95966, 11.42593, 19.34357, -2.17538, 18.33264, -4.44736, 16.63464, -5.59219, 14.68301, -5.81647, 14.237, -5.80194, 17.21194, -26.48956, 11.70435, -34.53293, 3.09491, -29.38705, 2.96527, -29.38336, 1.18732, -29.22711, -0.87842, -28.45691, -2.79855, -26.83286, -2.9516, -26.31317, -2.94955, -26.23865, 1.31226, -20.76736, 1.76492, -18.09033, 6.43292, -16.8623, 9.34106, -8.87366, 12.92746, -4.80151, 14.11829, -4.29935, 14.56244, -3.80377, 15.07376, -3.03351, 15.25922, -2.08151, 5.31514, 9.81705, 4.85211, 11.06555, -0.91466, 21.25946, -3.05682, 25.72791, 20.05959, 26.86215, 17.65511, 2.62918, 24.20108, 11.81311, 37.34976, -2.70325, 37.81524, -3.04495, 30.60999, -2.14703, 23.46612, 11.46533 ]
						},
						{
							"time": 3.3333,
							"offset": 54,
							"vertices": [ -0.97797 ]
						}
					]
				},
				"Layer 15": {
					"Layer 15": [
						{
							"offset": 28,
							"vertices": [ 1.95599, 1.95602, 0, 0, 0, 0, 0, 0, 0, 0, 0, 0, 0, 0, 0, 0, 0, 0, 0, 0, 0, 0, 0, 0, 0, 0, 0, 0, 6.84595, 3.91202 ]
						},
						{
							"time": 1.6667,
							"vertices": [ 19.02133, -9.95044, 17.89587, -12.10196, 15.7041, -12.2149, 6.06482, -26.38174, -4.31122, -32.73444, -10.34436, -36.55789, -21.63159, -39.82175, -24.22821, -39.51877, -32.65375, -35.59998, -20.59589, -32.79272, -30.5625, -23.85669, -20.61066, -23.18137, 11.76938, -10.08786, -13.46555, -12.97479, -12.92493, -6.72223, -7.06677, -4.21802, 1.33978, -2.36865, 5.53992, -1.87564, 14.11057, -5.5856, 14.8591, -4.11945, -6.18488, 9.29901, -11.83615, 15.53925, -4.38835, 14.06372, 15.75476, -0.57242, 21.983, -4.52301, 27.61885, -11.96771, 33.92741, -20.15976, 33.99267, -20.20514, 45.27315, -37.30972, 24.28194, -35.15076, 20.57928, -31.35162, 13.05974, -18.02313, 18.86629, -0.5809, 18.61935, -4.10669, 18.6196, -4.61798, 19.15707, -7.79172 ]
						},
						{
							"time": 3.3333,
							"offset": 28,
							"vertices": [ 1.95599, 1.95602, 0, 0, 0, 0, 0, 0, 0, 0, 0, 0, 0, 0, 0, 0, 0, 0, 0, 0, 0, 0, 0, 0, 0, 0, 0, 0, 6.84595, 3.91202 ]
						}
					]
				}
			}
		}
	}
}
}