%YAML 1.1
%TAG !u! tag:unity3d.com,2011:
--- !u!114 &11400000
MonoBehaviour:
  m_ObjectHideFlags: 0
  m_CorrespondingSourceObject: {fileID: 0}
  m_PrefabInstance: {fileID: 0}
  m_PrefabAsset: {fileID: 0}
  m_GameObject: {fileID: 0}
  m_Enabled: 1
  m_EditorHideFlags: 0
  m_Script: {fileID: 11500000, guid: deada51ddafa6304c894ffaffa3f8d7c, type: 3}
  m_Name: TilesetWindyNormal
  m_EditorClassIdentifier: 
  type: 0
  flowIntoSlopes: 0
  flowIntoOutside: 0
  singleSquare:
  - {fileID: 21300000, guid: a9f2c1c5454f9434b9dbd32c96ec26de, type: 3}
  - {fileID: 21300000, guid: 55b0d11d03c3343a183c3f8b4410aa35, type: 3}
  - {fileID: 21300000, guid: a53e4499eac7440f585cf42738d51c5e, type: 3}
  interior:
  - {fileID: 21300000, guid: b79bae2373e3d4edfbc1f8d2c925786c, type: 3}
  - {fileID: 21300000, guid: 269d9cff43ed942699e838e17a753ecd, type: 3}
  - {fileID: 21300000, guid: 1328eb18862ff4c539f7204b2d3a11d4, type: 3}
  - {fileID: 21300000, guid: 102fd96dc3dc84b308d9b37ba626fbc6, type: 3}
  - {fileID: 21300000, guid: 451609b2ccf87423d86e6abf482d7ca2, type: 3}
  - {fileID: 21300000, guid: 80179a77f7bbc4582b22a30d969d53cb, type: 3}
  - {fileID: 21300000, guid: dd4b97d0bd8b24c7eaf14aa6e1cd4276, type: 3}
  - {fileID: 21300000, guid: fa75ea5aa1fea487a86aada251ea770f, type: 3}
  - {fileID: 21300000, guid: 50e758e445a9348c085e2aeae043011d, type: 3}
  - {fileID: 21300000, guid: 75fd9248cd5f342468a4f733e3083d9c, type: 3}
  - {fileID: 21300000, guid: dd334e65fa0ed4a27a8ae398f29988e6, type: 3}
  - {fileID: 21300000, guid: 992da174fe0ac4ba285f61f3605a8ccb, type: 3}
  - {fileID: 21300000, guid: f852f1fdb8f07429cac7520f047e6e8d, type: 3}
  - {fileID: 21300000, guid: d48dc28f4058f45d38333d4f23a91bd7, type: 3}
  - {fileID: 21300000, guid: 98eea9bb43ab744fdbf7967d3d22bef9, type: 3}
  - {fileID: 21300000, guid: f18c6505738d8468ba051c296729e08e, type: 3}
  - {fileID: 21300000, guid: 2bcbd09642d6f4322896600ea6536e4d, type: 3}
  - {fileID: 21300000, guid: e23ead5fa176e4924a1525e8ac01dc0e, type: 3}
  - {fileID: 21300000, guid: dc3a18fb5be1d43a7a5456ac16de04c1, type: 3}
  - {fileID: 21300000, guid: 4d6006d3efa604a5086fb414530cd302, type: 3}
  - {fileID: 21300000, guid: 558874113c6654305919d02ccb568df4, type: 3}
  - {fileID: 21300000, guid: 4617b15b36a574b7bac9da068158f147, type: 3}
  - {fileID: 21300000, guid: afc7f608c48b1469488bdc8a8a92adfc, type: 3}
  - {fileID: 21300000, guid: 7ea18b09c3ccb463baf14a2247adc814, type: 3}
  - {fileID: 21300000, guid: 92ba37038f4aa448787bb120d18c59b7, type: 3}
  - {fileID: 21300000, guid: e11d2e516c8d0466ba89b8662ef3e02f, type: 3}
  - {fileID: 21300000, guid: 8b584e598f886486f90e84bfdbaa07d0, type: 3}
  - {fileID: 21300000, guid: 882e26c2e973f4dc38781201b70a5364, type: 3}
  - {fileID: 21300000, guid: b01a90f9b5fe54402bfa084e7d638657, type: 3}
  - {fileID: 21300000, guid: 5ceccd4bde267460ba5dddd03d96095c, type: 3}
  - {fileID: 21300000, guid: 4d8543830725641e9a7b71aef0177e7d, type: 3}
  - {fileID: 21300000, guid: 385b39e4e38534ae496a152443dc3094, type: 3}
  - {fileID: 21300000, guid: 09235730391d743ab8aabe6766c7ea19, type: 3}
  - {fileID: 21300000, guid: 476e0895a485d4f72a80b36c0c2eb801, type: 3}
  - {fileID: 21300000, guid: 8c714c79988f843409c65d1202bbbb3c, type: 3}
  - {fileID: 21300000, guid: b447875ea241047e290ec496859c9f12, type: 3}
  - {fileID: 21300000, guid: 7d1fe175f78a94deea53786c587e1362, type: 3}
  - {fileID: 21300000, guid: 6cf4b273794914990bf906270b64f80b, type: 3}
  - {fileID: 21300000, guid: 7c7ab57fd9e7149ad9f665ba77c56f3e, type: 3}
  - {fileID: 21300000, guid: abe1deb8ded0f40dcadf79fbf4dfc142, type: 3}
  - {fileID: 21300000, guid: 5e7add2253e724477bf8d38b221ed227, type: 3}
  - {fileID: 21300000, guid: fda0040220c5d4c4dabbf129e663f189, type: 3}
  - {fileID: 21300000, guid: 9e7ad3d3317de47d29e13508ea3d38bc, type: 3}
  - {fileID: 21300000, guid: 2d2e46ae238e849308ed0bb47b4edaa2, type: 3}
  - {fileID: 21300000, guid: d173f6d95d8984a539067359ab4f6e42, type: 3}
  - {fileID: 21300000, guid: 2a51557574208450394cce3fc31d7e1a, type: 3}
  - {fileID: 21300000, guid: f3acb8636be704e15be68dad92212d41, type: 3}
  - {fileID: 21300000, guid: 3f2b660e8be4442b297ce751082da69a, type: 3}
  interiorStyle: 1
  interiorGridColumns: 8
  interiorGridRows: 6
  interiorUnderneathEdges: 0
  interiorUnderneathJoinedSlopes: 0
  interiorUnderneathAllCurves: 0
  bottom:
  - {fileID: 21300000, guid: 746654ac90ef140289c0e533b0441999, type: 3}
  - {fileID: 21300000, guid: ace51de90b72c4e4a955c124089ad556, type: 3}
  - {fileID: 21300000, guid: 7553c91e154404323b8ba8248cf77575, type: 3}
  - {fileID: 21300000, guid: 7c1292abe9293456c9438e4a3f2fe8d0, type: 3}
  left:
  - {fileID: 21300000, guid: 42ee20b3997544171bb70e338679017f, type: 3}
  - {fileID: 21300000, guid: b1de9f5d15a7545ca9aa431d117c8e98, type: 3}
  - {fileID: 21300000, guid: 7163284299146480ba357af52d9d9002, type: 3}
  - {fileID: 21300000, guid: a2a799f882e3547b0a1b7d061da77062, type: 3}
  right:
  - {fileID: 21300000, guid: 9bbdcbf5fadef4fedb64d58ed356622e, type: 3}
  - {fileID: 21300000, guid: 700d1c43a47ef4385a9ac3b5e0a2fbff, type: 3}
  - {fileID: 21300000, guid: 5079d9e32a5ab4412aee96c779a62d2c, type: 3}
  - {fileID: 21300000, guid: 12b4ed253cbef4bf4a95978147c4b8b8, type: 3}
  top:
  - {fileID: 21300000, guid: 553c5fb02ba8246648bd8eca49dd7627, type: 3}
  - {fileID: 21300000, guid: d4a134c3faceb42598650a5a51989694, type: 3}
  - {fileID: 21300000, guid: c54fc9dd3e27f40deb35f46e52249e81, type: 3}
  - {fileID: 21300000, guid: 024de6086140d4574a8ce17dde08997e, type: 3}
  bottomLeft: {fileID: 21300000, guid: a6924ce87ca514a65b805442dc3895ef, type: 3}
  bottomRight: {fileID: 21300000, guid: 3897c24abaf8544abb02a5a5cb27fd41, type: 3}
  topLeft: {fileID: 21300000, guid: a05624e436a74400baa4482f17b7fd3d, type: 3}
  topRight: {fileID: 21300000, guid: 1317551b6c633489a9ed8e37118fdd44, type: 3}
  insideBottomLeft: {fileID: 21300000, guid: dca372b0103f74ce4a9d98649f953b20, type: 3}
  insideBottomRight: {fileID: 21300000, guid: 78ce80b272d25407a9c88dc6ae1e758c, type: 3}
  insideTopLeft: {fileID: 21300000, guid: fdb092c6d165448988f8b430c6e9ca01, type: 3}
  insideTopRight: {fileID: 21300000, guid: 013d67870060448b48119d0c12a36e85, type: 3}
  slope22BottomLeft: {fileID: 21300000, guid: 8a3dbf4fe9ea34ee5b81aadf2aeef112, type: 3}
  slope22BottomRight: {fileID: 21300000, guid: 089e6ee225d0a4704bfd5a86f94e7741, type: 3}
  slope22TopLeft: {fileID: 21300000, guid: f464afa6cdde443b1a44dd8a3a6e11ed, type: 3}
  slope22TopRight: {fileID: 21300000, guid: a42c21a824288466c9f32a29647cf703, type: 3}
  slope45BottomLeft: {fileID: 21300000, guid: 8f359ddff858c43bca9d1b2e95a20ed4, type: 3}
  slope45BottomRight: {fileID: 21300000, guid: 36b043d87f7084823a3e1f16558c4497, type: 3}
  slope45TopLeft: {fileID: 21300000, guid: 4870e3b5e59ad40958112f060f5cee02, type: 3}
  slope45TopRight: {fileID: 21300000, guid: db309e8dfb3ed408a9e878fcbccdc431, type: 3}
  slopeJoined22BottomLeft: {fileID: 21300000, guid: e8b6399a839134710b493d17a80aca3d,
    type: 3}
  slopeJoined22BottomRight: {fileID: 21300000, guid: 2ba1651555d7a4cf4912677c22092f55,
    type: 3}
  slopeJoined22TopLeft: {fileID: 21300000, guid: 863227b4f92124220977fa232a142dc2,
    type: 3}
  slopeJoined22TopRight: {fileID: 21300000, guid: 1e699048cce324c86a262023399a3f20,
    type: 3}
  slopeJoined45BottomLeft: {fileID: 21300000, guid: 787d38aa79bc6443a9a86c0291f1209d,
    type: 3}
  slopeJoined45BottomRight: {fileID: 21300000, guid: 32f29007bcc8d4974bd2c7a27c375df1,
    type: 3}
  slopeJoined45TopLeft: {fileID: 21300000, guid: 7e3efe3c547c14f20b4c52f0be30b714,
    type: 3}
  slopeJoined45TopRight: {fileID: 21300000, guid: dfcd18d14569b42cea84d2480254d502,
    type: 3}
  slopeJoinedLeft22BottomLeft: {fileID: 21300000, guid: 08974b754433f4c43bedadf7288888f6,
    type: 3}
  slopeJoinedLeft22BottomRight: {fileID: 21300000, guid: a1c25b0a623a34fcab13024c2d1af807,
    type: 3}
  slopeJoinedLeft22TopLeft: {fileID: 21300000, guid: c40d3c76707464004bce8b3ddfd7a2dd,
    type: 3}
  slopeJoinedLeft22TopRight: {fileID: 21300000, guid: cdc2544d688f541dfb9ef74127937644,
    type: 3}
  slopeJoinedLeft45BottomLeft: {fileID: 21300000, guid: 5656919c5af114e0f8be24e6dbf888d1,
    type: 3}
  slopeJoinedLeft45BottomRight: {fileID: 21300000, guid: fdecfab1254044913a8cfa499d9014cf,
    type: 3}
  slopeJoinedLeft45TopLeft: {fileID: 21300000, guid: d1f3b8f1f855f42f098888581d30690f,
    type: 3}
  slopeJoinedLeft45TopRight: {fileID: 21300000, guid: 8911c358958cd4f73b56a7de047f4106,
    type: 3}
  slopeJoinedRight22BottomLeft: {fileID: 21300000, guid: 02a69ed7077024848aeb931c656c3b43,
    type: 3}
  slopeJoinedRight22BottomRight: {fileID: 21300000, guid: b0305935305884d3ca466df89edc5c1d,
    type: 3}
  slopeJoinedRight22TopLeft: {fileID: 21300000, guid: c3c4ca1ab14a3494d8deb2cda34f213c,
    type: 3}
  slopeJoinedRight22TopRight: {fileID: 21300000, guid: 62382728fa5a24bb188d02502ddb4d0a,
    type: 3}
  slopeJoinedRight45BottomLeft: {fileID: 21300000, guid: 0fcd91e49851a455995f5a88090c2ecb,
    type: 3}
  slopeJoinedRight45BottomRight: {fileID: 21300000, guid: c534909a7d9a945a0a3f454d15c921bd,
    type: 3}
  slopeJoinedRight45TopLeft: {fileID: 21300000, guid: 141223697469a47f78a0cfebd5a59d48,
    type: 3}
  slopeJoinedRight45TopRight: {fileID: 21300000, guid: 9537b9aefa04a4e22bc3eacf3020aae2,
    type: 3}
  curve3Plus1BottomLeft: {fileID: 21300000, guid: 07bbb85e372664821a3543418444a1d3,
    type: 3}
  curve3Plus1BottomRight: {fileID: 21300000, guid: 98608c62b769944368f49ab3db0378db,
    type: 3}
  curve3Plus1TopLeft: {fileID: 21300000, guid: 3def497193c7b4af7b1d7e85330fac3e, type: 3}
  curve3Plus1TopRight: {fileID: 21300000, guid: 167d83653c6834259a4f9de26992aa8b,
    type: 3}
  curve3Plus1BottomLeftWithOutside: {fileID: 21300000, guid: ac17e0c08e8e446528f7fe62b2a3d868,
    type: 3}
  curve3Plus1BottomRightWithOutside: {fileID: 21300000, guid: e124ab28c567c44fc87c303d5afa08af,
    type: 3}
  curve3Plus1TopLeftWithOutside: {fileID: 21300000, guid: 3f9aceb0eca3544b9a85065805e8c57d,
    type: 3}
  curve3Plus1TopRightWithOutside: {fileID: 21300000, guid: 1b59fc4e1661e4036b93187a0ecf05d7,
    type: 3}
  curve3Plus1BottomLeftJoined: {fileID: 0}
  curve3Plus1BottomRightJoined: {fileID: 0}
  curve3Plus1TopLeftJoined: {fileID: 0}
  curve3Plus1TopRightJoined: {fileID: 0}
  curveOut3Plus1BottomLeft: {fileID: 21300000, guid: cf78d225591b74d76986bac7208e2592,
    type: 3}
  curveOut3Plus1BottomRight: {fileID: 21300000, guid: 05151eb959524463db6e4ff1c249c3b5,
    type: 3}
  curveOut3Plus1TopLeft: {fileID: 21300000, guid: 70ccc516a1131484b875c7cd966cb234,
    type: 3}
  curveOut3Plus1TopRight: {fileID: 21300000, guid: ddcb442afa6a145cfab5b1aeb41626ce,
    type: 3}
  singleRowLeft: {fileID: 21300000, guid: d08500b9ed1bd4b30a84f757158d77e4, type: 3}
  singleRowMiddle:
  - {fileID: 21300000, guid: e225f8d3ba8234ad5ade2fa88f0e1dc3, type: 3}
  - {fileID: 21300000, guid: ffcf5a606fde6494c8b75e2a220eb362, type: 3}
  - {fileID: 21300000, guid: 96c7b5bb88f2c4bdabe104edc407a9ca, type: 3}
  singleRowRight: {fileID: 21300000, guid: da59fcf350fcb401d852ae5648d06bb0, type: 3}
  pillar1WideTop: {fileID: 21300000, guid: d5b92133748de4899a591ffb30f60a4a, type: 3}
  pillar1WideMiddle:
  - {fileID: 21300000, guid: c3f1f42acaaaa44dfae2e19f21615b93, type: 3}
  - {fileID: 21300000, guid: 11ed949eee96a4604adaddeafd7d174c, type: 3}
  - {fileID: 21300000, guid: c8fdb56625e63490cb946b819111e384, type: 3}
  pillar1WideBottom: {fileID: 21300000, guid: 251ea0be3195f4dc38176068b8b5170e, type: 3}
  pillar2WideTop: {fileID: 0}
  pillar2WideMiddle: []
  pillar2WideBottom: {fileID: 0}
  bottomLeftWithoutRoundedCorner: {fileID: 21300000, guid: 5065eefc3f0323e42b2a157ecb0e9d01,
    type: 3}
  bottomRightWithoutRoundedCorner: {fileID: 21300000, guid: 30c7836ea77e38e4abdb55a14fcf9a02,
    type: 3}
