%YAML 1.1
%TAG !u! tag:unity3d.com,2011:
--- !u!114 &11400000
MonoBehaviour:
  m_ObjectHideFlags: 0
  m_CorrespondingSourceObject: {fileID: 0}
  m_PrefabInstance: {fileID: 0}
  m_PrefabAsset: {fileID: 0}
  m_GameObject: {fileID: 0}
  m_Enabled: 1
  m_EditorHideFlags: 0
  m_Script: {fileID: 11500000, guid: deada51ddafa6304c894ffaffa3f8d7c, type: 3}
  m_Name: TilesetWindyBack
  m_EditorClassIdentifier: 
  type: 3
  flowIntoSlopes: 0
  flowIntoOutside: 0
  singleSquare:
  - {fileID: 21300000, guid: 6751a342663d644998a968645f0e459c, type: 3}
  - {fileID: 21300000, guid: 5c4e4f4b829f943c89d85f0e66b7eaf4, type: 3}
  - {fileID: 21300000, guid: 6a83466ff83a3477d9ce0e453cdae491, type: 3}
  interior:
  - {fileID: 21300000, guid: 26808167166fb4064944c680e9deb828, type: 3}
  - {fileID: 21300000, guid: c291dee406e204fee8e3f18491f83df6, type: 3}
  - {fileID: 21300000, guid: e5087462eb8074bbda903dc5993d230f, type: 3}
  - {fileID: 21300000, guid: 98a9777c6e3e440479b5f838d4d0b5e5, type: 3}
  - {fileID: 21300000, guid: 85bd8f89e3e7241a599e261e0716c52e, type: 3}
  - {fileID: 21300000, guid: 95b584f402d56474db68651c04db5cb5, type: 3}
  - {fileID: 21300000, guid: 68e8b60cfe18546b7be34303ec5e87a3, type: 3}
  - {fileID: 21300000, guid: 192d49c61ee8e4f1f8111961e6cb00e7, type: 3}
  - {fileID: 21300000, guid: 27dbaa12cfd1c4b6b8e169e0054b1ded, type: 3}
  - {fileID: 21300000, guid: bd7d49a916f2c4bbb95105f74367629c, type: 3}
  - {fileID: 21300000, guid: 070f5a6c1c39f4217972dd6762adc384, type: 3}
  - {fileID: 21300000, guid: 85c8b7551a183474ea8a31790211326f, type: 3}
  - {fileID: 21300000, guid: c76bbb8ca318d42b0bf165d6170105cd, type: 3}
  - {fileID: 21300000, guid: 177a8cff354ec431abe1efc6efff8ddc, type: 3}
  - {fileID: 21300000, guid: b03bd1c61e0b84f3fbf19b365319e3d3, type: 3}
  - {fileID: 21300000, guid: a5f6e43805e324ebcada86b18196539a, type: 3}
  interiorStyle: 1
  interiorGridColumns: 4
  interiorGridRows: 4
  interiorUnderneathEdges: 0
  interiorUnderneathJoinedSlopes: 0
  interiorUnderneathAllCurves: 0
  bottom:
  - {fileID: 21300000, guid: 3956bce28dd834515bcad3abb9aa3271, type: 3}
  - {fileID: 21300000, guid: 3b30493c8e5f345e7aa497f636dd9178, type: 3}
  - {fileID: 21300000, guid: f2dd7246158654695bd84ae2cee732a1, type: 3}
  - {fileID: 21300000, guid: d1ed8e85d80234059bb6a49bfb39b137, type: 3}
  left:
  - {fileID: 21300000, guid: 22bf73ac3332448a88536a48bce25506, type: 3}
  - {fileID: 21300000, guid: 9a0eff9e5b79543d591bede162e948e0, type: 3}
  - {fileID: 21300000, guid: 533a9cd3b748c4812a857a703b6612e8, type: 3}
  - {fileID: 21300000, guid: d383e64c695a2470d9055a9eda47bade, type: 3}
  right:
  - {fileID: 21300000, guid: 97cd4dd633d0f4c7cb7322aa6dff68c5, type: 3}
  - {fileID: 21300000, guid: f1a55d99b8a84462a8712837ccfb5192, type: 3}
  - {fileID: 21300000, guid: 63ee083bd18f6463c9f52f68d5e5134f, type: 3}
  - {fileID: 21300000, guid: 3ce530daae59648e691169e897455423, type: 3}
  top:
  - {fileID: 21300000, guid: 44431c06283c84ebcb75fee0043044b8, type: 3}
  - {fileID: 21300000, guid: cb7a45895d8994a52b6bfd0bb8ac00b2, type: 3}
  - {fileID: 21300000, guid: 1ad493c267cfa4ec8b295719d6f9cbc7, type: 3}
  - {fileID: 21300000, guid: 2972be39ac1f24271b4430b419d47bd8, type: 3}
  bottomLeft: {fileID: 21300000, guid: 4eee3e1ffc4e44213bd5eef565b8b2fe, type: 3}
  bottomRight: {fileID: 21300000, guid: 346733025f98e43959bc9449510a4109, type: 3}
  topLeft: {fileID: 21300000, guid: 679fc1715291149b58fbb47fd5156296, type: 3}
  topRight: {fileID: 21300000, guid: f831adc480a81421e8dca430a5c3c020, type: 3}
  insideBottomLeft: {fileID: 21300000, guid: 0b9f7c8d4a0724e3cbc34ba933fe9c09, type: 3}
  insideBottomRight: {fileID: 21300000, guid: cca1d94a60c4142b58ad2c8451a7f680, type: 3}
  insideTopLeft: {fileID: 21300000, guid: 70039d154c94d4753814ef8e8f5aa077, type: 3}
  insideTopRight: {fileID: 21300000, guid: 9e6b80cd1418b45429dc1c7568ff1d58, type: 3}
  slope22BottomLeft: {fileID: 0}
  slope22BottomRight: {fileID: 0}
  slope22TopLeft: {fileID: 0}
  slope22TopRight: {fileID: 0}
  slope45BottomLeft: {fileID: 0}
  slope45BottomRight: {fileID: 0}
  slope45TopLeft: {fileID: 0}
  slope45TopRight: {fileID: 0}
  slopeJoined22BottomLeft: {fileID: 0}
  slopeJoined22BottomRight: {fileID: 0}
  slopeJoined22TopLeft: {fileID: 0}
  slopeJoined22TopRight: {fileID: 0}
  slopeJoined45BottomLeft: {fileID: 0}
  slopeJoined45BottomRight: {fileID: 0}
  slopeJoined45TopLeft: {fileID: 0}
  slopeJoined45TopRight: {fileID: 0}
  slopeJoinedLeft22BottomLeft: {fileID: 0}
  slopeJoinedLeft22BottomRight: {fileID: 0}
  slopeJoinedLeft22TopLeft: {fileID: 0}
  slopeJoinedLeft22TopRight: {fileID: 0}
  slopeJoinedLeft45BottomLeft: {fileID: 0}
  slopeJoinedLeft45BottomRight: {fileID: 0}
  slopeJoinedLeft45TopLeft: {fileID: 0}
  slopeJoinedLeft45TopRight: {fileID: 0}
  slopeJoinedRight22BottomLeft: {fileID: 0}
  slopeJoinedRight22BottomRight: {fileID: 0}
  slopeJoinedRight22TopLeft: {fileID: 0}
  slopeJoinedRight22TopRight: {fileID: 0}
  slopeJoinedRight45BottomLeft: {fileID: 0}
  slopeJoinedRight45BottomRight: {fileID: 0}
  slopeJoinedRight45TopLeft: {fileID: 0}
  slopeJoinedRight45TopRight: {fileID: 0}
  curve3Plus1BottomLeft: {fileID: 0}
  curve3Plus1BottomRight: {fileID: 0}
  curve3Plus1TopLeft: {fileID: 0}
  curve3Plus1TopRight: {fileID: 0}
  curve3Plus1BottomLeftWithOutside: {fileID: 0}
  curve3Plus1BottomRightWithOutside: {fileID: 0}
  curve3Plus1TopLeftWithOutside: {fileID: 0}
  curve3Plus1TopRightWithOutside: {fileID: 0}
  curve3Plus1BottomLeftJoined: {fileID: 0}
  curve3Plus1BottomRightJoined: {fileID: 0}
  curve3Plus1TopLeftJoined: {fileID: 0}
  curve3Plus1TopRightJoined: {fileID: 0}
  curveOut3Plus1BottomLeft: {fileID: 0}
  curveOut3Plus1BottomRight: {fileID: 0}
  curveOut3Plus1TopLeft: {fileID: 0}
  curveOut3Plus1TopRight: {fileID: 0}
  singleRowLeft: {fileID: 21300000, guid: e6cd2e6f0901f493e91d7cbcaa5e2c86, type: 3}
  singleRowMiddle:
  - {fileID: 21300000, guid: a8c25ce7a57c34631833236876435a04, type: 3}
  - {fileID: 21300000, guid: acd9ccd95ebde44a1b915d4705f6a44a, type: 3}
  - {fileID: 21300000, guid: 520953a6d492145b18b9c23879fd8317, type: 3}
  singleRowRight: {fileID: 21300000, guid: 6a775ebe2fdef43b28787d3ec0099b3e, type: 3}
  pillar1WideTop: {fileID: 21300000, guid: a234145bb625c49ea9dad21937391be6, type: 3}
  pillar1WideMiddle:
  - {fileID: 21300000, guid: 4b4a03490d0c4487480870050926555e, type: 3}
  - {fileID: 21300000, guid: efe18aa35020b4e0387cb4e05011026f, type: 3}
  - {fileID: 21300000, guid: 41e41d442de594a6aa7c64e1cdb7facf, type: 3}
  pillar1WideBottom: {fileID: 21300000, guid: 0d14a89722abb401291ff6d7415f94bd, type: 3}
  pillar2WideTop: {fileID: 0}
  pillar2WideMiddle: []
  pillar2WideBottom: {fileID: 0}
  bottomLeftWithoutRoundedCorner: {fileID: 0}
  bottomRightWithoutRoundedCorner: {fileID: 0}
