%YAML 1.1
%TAG !u! tag:unity3d.com,2011:
--- !u!1 &1928692458721872
GameObject:
  m_ObjectHideFlags: 0
  m_CorrespondingSourceObject: {fileID: 0}
  m_PrefabInstance: {fileID: 0}
  m_PrefabAsset: {fileID: 0}
  serializedVersion: 6
  m_Component:
  - component: {fileID: 4907830717484454}
  - component: {fileID: 212638083658075246}
  - component: {fileID: 114219616465315382}
  - component: {fileID: 114100122188756144}
  m_Layer: 0
  m_Name: Spring Yellow 1
  m_TagString: Untagged
  m_Icon: {fileID: 0}
  m_NavMeshLayer: 0
  m_StaticEditorFlags: 0
  m_IsActive: 1
--- !u!4 &4907830717484454
Transform:
  m_ObjectHideFlags: 0
  m_CorrespondingSourceObject: {fileID: 0}
  m_PrefabInstance: {fileID: 0}
  m_PrefabAsset: {fileID: 0}
  m_GameObject: {fileID: 1928692458721872}
  m_LocalRotation: {x: 0, y: 0, z: 0, w: 1}
  m_LocalPosition: {x: 106.78611, y: 337.2594, z: 0}
  m_LocalScale: {x: 1, y: 1, z: 1}
  m_Children: []
  m_Father: {fileID: 0}
  m_RootOrder: 0
  m_LocalEulerAnglesHint: {x: 0, y: 0, z: 0}
--- !u!212 &212638083658075246
SpriteRenderer:
  m_ObjectHideFlags: 0
  m_CorrespondingSourceObject: {fileID: 0}
  m_PrefabInstance: {fileID: 0}
  m_PrefabAsset: {fileID: 0}
  m_GameObject: {fileID: 1928692458721872}
  m_Enabled: 1
  m_CastShadows: 0
  m_ReceiveShadows: 0
  m_DynamicOccludee: 1
  m_MotionVectors: 1
  m_LightProbeUsage: 1
  m_ReflectionProbeUsage: 1
  m_RayTracingMode: 0
  m_RenderingLayerMask: 1
  m_RendererPriority: 0
  m_Materials:
  - {fileID: 10754, guid: 0000000000000000f000000000000000, type: 0}
  m_StaticBatchInfo:
    firstSubMesh: 0
    subMeshCount: 0
  m_StaticBatchRoot: {fileID: 0}
  m_ProbeAnchor: {fileID: 0}
  m_LightProbeVolumeOverride: {fileID: 0}
  m_ScaleInLightmap: 1
  m_ReceiveGI: 1
  m_PreserveUVs: 0
  m_IgnoreNormalsForChartDetection: 0
  m_ImportantGI: 0
  m_StitchLightmapSeams: 0
  m_SelectedEditorRenderState: 0
  m_MinimumChartSize: 4
  m_AutoUVMaxDistance: 0.5
  m_AutoUVMaxAngle: 89
  m_LightmapParameters: {fileID: 0}
  m_SortingLayerID: 115992415
  m_SortingLayer: -12
  m_SortingOrder: 0
  m_Sprite: {fileID: 21300000, guid: 5187a2fa58e06424ebdad95bbd4a5fd1, type: 3}
  m_Color: {r: 1, g: 1, b: 1, a: 1}
  m_FlipX: 0
  m_FlipY: 0
  m_DrawMode: 0
  m_Size: {x: 35.555557, y: 71.111115}
  m_AdaptiveModeThreshold: 0.5
  m_SpriteTileMode: 0
  m_WasSpriteAssigned: 1
  m_MaskInteraction: 0
  m_SpriteSortPoint: 0
--- !u!114 &114219616465315382
MonoBehaviour:
  m_ObjectHideFlags: 0
  m_CorrespondingSourceObject: {fileID: 0}
  m_PrefabInstance: {fileID: 0}
  m_PrefabAsset: {fileID: 0}
  m_GameObject: {fileID: 1928692458721872}
  m_Enabled: 1
  m_EditorHideFlags: 0
  m_Script: {fileID: 11500000, guid: c2d42615afcf84a1d93551b3edd33bcc, type: 3}
  m_Name: 
  m_EditorClassIdentifier: 
  animationStatic:
    sprites:
    - {fileID: 21300000, guid: 5187a2fa58e06424ebdad95bbd4a5fd1, type: 3}
    fps: 30
  animationBounce:
    sprites:
    - {fileID: 21300000, guid: 859938b07e53ef9448c31398dc249d6d, type: 3}
    - {fileID: 21300000, guid: 2f86228bfad169b4e934ac94767f3e8d, type: 3}
    - {fileID: 21300000, guid: 6a4cead3b5fadfe4484ccf600a0f1e8c, type: 3}
    - {fileID: 21300000, guid: 967fa039bbfbe804eb9853c06069e409, type: 3}
    - {fileID: 21300000, guid: c298604b1d022ca49ba03435ebcbe5a6, type: 3}
    - {fileID: 21300000, guid: f62b242279ca26643a7e33e7ba0fa02a, type: 3}
    - {fileID: 21300000, guid: dd11efdd990fc9b409b860b3ea422601, type: 3}
    - {fileID: 21300000, guid: e6668e458c423a940bd3f4015f6552fb, type: 3}
    - {fileID: 21300000, guid: ba4cfb3a90d285e4384450e9dff406a2, type: 3}
    - {fileID: 21300000, guid: 8089c9dabc8abbb4da8dba251e10383d, type: 3}
    - {fileID: 21300000, guid: c9aaefe3611c78c4db194146c17dd250, type: 3}
    - {fileID: 21300000, guid: d7a1a39b3e6e0204a898de7b9d9eef29, type: 3}
    - {fileID: 21300000, guid: 95039682cd33af84eb2809a45a79577a, type: 3}
    - {fileID: 21300000, guid: 39f876405e67f884492e9029494f8b6a, type: 3}
    - {fileID: 21300000, guid: 9f6ffdf5567072946aafc7411fd41d9b, type: 3}
    - {fileID: 21300000, guid: 707a9a658c3b9ab41aebf2ad16629535, type: 3}
    fps: 30
--- !u!114 &114100122188756144
MonoBehaviour:
  m_ObjectHideFlags: 0
  m_CorrespondingSourceObject: {fileID: 0}
  m_PrefabInstance: {fileID: 0}
  m_PrefabAsset: {fileID: 0}
  m_GameObject: {fileID: 1928692458721872}
  m_Enabled: 1
  m_EditorHideFlags: 0
  m_Script: {fileID: 11500000, guid: a2cedcea314d944e09159c2372cec04f, type: 3}
  m_Name: 
  m_EditorClassIdentifier: 
