{
"skeleton": {
	"hash": "ddHrq1ueRjC0GS2WQVb7r3Y70lI",
	"spine": "3.8.99",
	"x": 94,
	"y": -870.39,
	"width": 336.32,
	"height": 839.12,
	"images": "./images/",
	"audio": "C:/Users/mat/OneDrive/Desktop/Spine Fishing Day/Seaweed 1"
},
"bones": [
	{ "name": "root" }
],
"slots": [
	{ "name": "seaweed 1", "bone": "root" },
	{ "name": "back leaf 9", "bone": "root", "attachment": "back leaf 9" },
	{ "name": "back leaf 8", "bone": "root", "attachment": "back leaf 8" },
	{ "name": "back leaf 7", "bone": "root", "attachment": "back leaf 7" },
	{ "name": "back leaf 6", "bone": "root", "attachment": "back leaf 6" },
	{ "name": "back leaf 5", "bone": "root", "attachment": "back leaf 5" },
	{ "name": "back leaf 4", "bone": "root", "attachment": "back leaf 4" },
	{ "name": "back leaf 3", "bone": "root", "attachment": "back leaf 3" },
	{ "name": "back leaf 2", "bone": "root", "attachment": "back leaf 2" },
	{ "name": "back leaf 1", "bone": "root", "attachment": "back leaf 1" },
	{ "name": "stem", "bone": "root", "attachment": "stem" },
	{ "name": "front leaf 3", "bone": "root", "attachment": "front leaf 3" },
	{ "name": "front leaf 2", "bone": "root", "attachment": "front leaf 2" },
	{ "name": "front leaf 1", "bone": "root", "attachment": "front leaf 1" },
	{ "name": "top leaf", "bone": "root", "attachment": "top leaf" },
	{ "name": "Layer 1", "bone": "root" },
	{ "name": "Layer 1 copy", "bone": "root" },
	{ "name": "Layer 1 copy 2", "bone": "root" },
	{ "name": "Layer 1 copy 3", "bone": "root" }
],
"skins": [
	{
		"name": "default",
		"attachments": {
			"back leaf 1": {
				"back leaf 1": {
					"type": "mesh",
					"uvs": [ 0.74426, 0.00811, 0.98105, 0.36121, 0.98678, 0.5697, 0.89325, 0.69535, 0.69427, 0.69418, 0.68827, 0.50993, 0.57861, 0.68354, 0.48883, 0.86453, 0.36868, 0.9888, 0.18869, 0.98833, 0.0516, 0.89896, 0, 0.7682, 0, 0.73831, 0.04328, 0.45936, 0.10053, 0.31527, 0.22649, 0.1509, 0.37817, 0.03251, 0.47853, 0.16725, 0.49827, 0.01155, 0.57845, 0.01146, 0.71802, 0.01131, 0.76565, 0.48467, 0.86574, 0.47873, 0.84754, 0.57973, 0.73184, 0.56786, 0.76911, 0.61653, 0.26096, 0.53067, 0.4215, 0.32568, 0.5535, 0.23717, 0.72117, 0.18126 ],
					"triangles": [ 29, 20, 0, 19, 17, 18, 28, 17, 19, 19, 20, 29, 28, 19, 29, 27, 16, 17, 27, 17, 28, 15, 16, 27, 29, 0, 1, 22, 29, 1, 21, 29, 22, 5, 28, 29, 21, 5, 29, 26, 15, 27, 14, 15, 26, 13, 14, 26, 24, 5, 21, 22, 1, 2, 23, 21, 22, 23, 22, 2, 25, 24, 21, 23, 25, 21, 5, 27, 28, 6, 27, 5, 26, 27, 6, 24, 4, 5, 4, 24, 25, 3, 23, 2, 25, 23, 3, 4, 25, 3, 12, 13, 26, 10, 11, 12, 7, 26, 6, 26, 10, 12, 9, 10, 26, 26, 8, 9, 7, 8, 26 ],
					"vertices": [ 328.61, -163.69, 354.9, -193.7, 355.53, -211.42, 345.15, -222.1, 323.06, -222.01, 322.4, -206.34, 310.23, -221.1, 300.26, -236.49, 286.92, -247.05, 266.95, -247.01, 251.73, -239.41, 246, -228.3, 246, -225.76, 250.8, -202.05, 257.16, -189.8, 271.14, -175.83, 287.98, -165.76, 299.12, -177.22, 301.31, -163.98, 310.21, -163.97, 325.7, -163.96, 330.99, -204.2, 342.1, -203.69, 340.08, -212.28, 327.23, -211.27, 331.37, -215.4, 274.97, -208.11, 292.79, -190.68, 307.44, -183.16, 326.05, -178.41 ],
					"hull": 21,
					"edges": [ 0, 40, 0, 2, 2, 4, 4, 6, 6, 8, 8, 10, 10, 12, 12, 14, 14, 16, 16, 18, 18, 20, 20, 22, 22, 24, 24, 26, 26, 28, 28, 30, 30, 32, 32, 34, 34, 36, 36, 38, 38, 40 ],
					"width": 111,
					"height": 85
				}
			},
			"back leaf 2": {
				"back leaf 2": {
					"type": "mesh",
					"uvs": [ 0.33576, 0.01439, 0.46765, 0.01478, 0.63492, 0.12392, 0.78281, 0.09116, 0.83098, 0.11479, 0.91823, 0.26423, 0.95843, 0.40329, 0.9923, 0.56632, 0.99541, 0.74224, 0.98031, 0.86879, 0.95993, 0.9338, 0.91329, 0.98666, 0.89223, 0.98496, 0.82522, 0.74876, 0.79101, 0.66858, 0.72443, 0.55338, 0.67704, 0.49963, 0.55874, 0.41081, 0.46272, 0.38073, 0.37849, 0.38108, 0.18944, 0.43854, 0.15522, 0.45397, 0.09437, 0.49332, 0.03288, 0.4926, 0.00647, 0.46321, 0.00624, 0.39591, 0.03308, 0.33226, 0.08971, 0.23398, 0.19912, 0.10914, 0.92672, 0.72408, 0.89089, 0.5865, 0.85781, 0.47081, 0.8137, 0.37387, 0.75306, 0.26443, 0.68414, 0.18626 ],
					"triangles": [ 34, 2, 3, 33, 34, 3, 33, 3, 4, 33, 4, 5, 32, 33, 5, 1, 19, 0, 18, 1, 2, 17, 18, 2, 19, 28, 0, 1, 18, 19, 20, 27, 28, 32, 5, 6, 34, 17, 2, 17, 34, 33, 16, 17, 33, 19, 20, 28, 26, 27, 20, 26, 22, 25, 20, 21, 26, 23, 24, 25, 31, 32, 6, 25, 22, 23, 26, 21, 22, 32, 16, 33, 15, 16, 32, 31, 15, 32, 31, 6, 7, 30, 31, 7, 15, 31, 30, 14, 15, 30, 29, 30, 7, 14, 30, 29, 29, 7, 8, 13, 14, 29, 9, 29, 8, 9, 13, 29, 10, 13, 9, 12, 13, 10, 11, 12, 10 ],
					"vertices": [ 291.04, -315.93, 311.08, -315.98, 336.51, -330.61, 358.99, -326.22, 366.31, -329.38, 379.57, -349.41, 385.68, -368.04, 390.83, -389.89, 391.3, -413.46, 389.01, -430.42, 385.91, -439.13, 378.82, -446.21, 375.62, -445.98, 365.43, -414.33, 360.23, -403.59, 350.11, -388.15, 342.91, -380.95, 324.93, -369.05, 310.33, -365.02, 297.53, -365.06, 268.79, -372.76, 263.59, -374.83, 254.34, -380.1, 245, -380.01, 240.98, -376.07, 240.95, -367.05, 245.03, -358.52, 253.64, -345.35, 270.27, -328.63, 380.86, -411.03, 375.41, -392.59, 370.39, -377.09, 363.68, -364.1, 354.46, -349.43, 343.99, -338.96 ],
					"hull": 29,
					"edges": [ 0, 56, 0, 2, 2, 4, 6, 8, 8, 10, 10, 12, 12, 14, 14, 16, 16, 18, 18, 20, 20, 22, 22, 24, 24, 26, 26, 28, 28, 30, 30, 32, 32, 34, 34, 36, 36, 38, 38, 40, 40, 42, 42, 44, 44, 46, 46, 48, 48, 50, 50, 52, 52, 54, 54, 56, 4, 6 ],
					"width": 152,
					"height": 134
				}
			},
			"back leaf 3": {
				"back leaf 3": {
					"type": "mesh",
					"uvs": [ 0.63975, 0, 0.96014, 0.87906, 1, 0.96436, 1, 0.98285, 0.82553, 0.98358, 0.57813, 0.80802, 0.37414, 0.96587, 0.10308, 0.9646, 0, 0.75485, 0, 0.60028, 0.14758, 0.1358, 0.42301, 0 ],
					"triangles": [ 7, 8, 9, 5, 11, 0, 4, 5, 0, 10, 7, 9, 6, 10, 11, 6, 11, 5, 7, 10, 6, 1, 2, 3, 1, 4, 0, 4, 1, 3 ],
					"vertices": [ 325.21, -420, 362.38, -470.11, 367, -474.97, 367, -476.02, 346.76, -476.06, 318.06, -466.06, 294.4, -475.05, 262.96, -474.98, 251, -463.03, 251, -454.22, 268.12, -427.74, 300.07, -420 ],
					"hull": 12,
					"edges": [ 0, 22, 0, 2, 2, 4, 4, 6, 6, 8, 8, 10, 10, 12, 12, 14, 14, 16, 16, 18, 18, 20, 20, 22 ],
					"width": 116,
					"height": 57
				}
			},
			"back leaf 4": {
				"back leaf 4": {
					"type": "mesh",
					"uvs": [ 0.9794, 0.44922, 0.97868, 0.89513, 0.89903, 0.96702, 0.55216, 0.99973, 0.3858, 0.51548, 0.24598, 0.41862, 0, 0.43165, 0, 0.35871, 0.25053, 0.01426, 0.72983, 0.01372 ],
					"triangles": [ 5, 7, 8, 6, 7, 5, 4, 8, 9, 4, 9, 0, 5, 8, 4, 4, 0, 3, 1, 2, 0, 2, 3, 0 ],
					"vertices": [ 242.08, -465.45, 242.02, -496.66, 234.61, -501.69, 202.35, -503.98, 186.88, -470.08, 173.88, -463.3, 151, -464.22, 151, -459.11, 174.3, -435, 218.87, -434.96 ],
					"hull": 10,
					"edges": [ 0, 18, 0, 2, 2, 4, 4, 6, 6, 8, 8, 10, 10, 12, 12, 14, 14, 16, 16, 18 ],
					"width": 93,
					"height": 70
				}
			},
			"back leaf 5": {
				"back leaf 5": {
					"type": "mesh",
					"uvs": [ 0.60259, 0.01011, 0.65317, 0.0356, 0.69978, 0.11233, 0.76081, 0.08236, 0.85646, 0.0819, 0.90548, 0.14062, 0.95643, 0.27008, 0.9865, 0.54583, 0.98694, 0.78191, 0.96277, 0.82577, 0.91355, 0.87454, 0.77143, 0.85295, 0.66498, 0.79134, 0.60687, 0.61772, 0.48911, 0.58813, 0.39237, 0.90458, 0.26334, 1, 0.25109, 1, 0.13255, 0.96545, 0.02207, 0.79683, 0, 0.72143, 0, 0.70797, 0.14564, 0.73093, 0.19558, 0.69441, 0.17138, 0.34862, 0.20214, 0.2381, 0.2595, 0.14941, 0.33902, 0.06438, 0.44528, 0.01015, 0.72817, 0.24065, 0.76544, 0.37336, 0.78615, 0.50607, 0.84, 0.6451, 0.92284, 0.7399 ],
					"triangles": [ 29, 2, 3, 4, 29, 3, 5, 29, 4, 30, 5, 6, 5, 30, 29, 31, 30, 6, 31, 6, 7, 14, 28, 0, 0, 29, 14, 2, 0, 1, 29, 0, 2, 13, 14, 29, 30, 13, 29, 27, 28, 14, 26, 27, 14, 25, 26, 14, 24, 25, 14, 31, 13, 30, 32, 31, 7, 23, 24, 14, 22, 20, 21, 33, 32, 7, 33, 7, 8, 12, 13, 31, 12, 31, 32, 19, 20, 22, 9, 33, 8, 11, 12, 32, 11, 32, 33, 10, 11, 33, 10, 33, 9, 15, 23, 14, 18, 19, 22, 16, 17, 23, 22, 23, 17, 18, 22, 17, 15, 16, 23 ],
					"vertices": [ 183.18, -571.98, 190.67, -574.45, 197.57, -581.9, 206.6, -578.99, 220.76, -578.94, 228.01, -584.64, 235.55, -597.2, 240, -623.95, 240.07, -646.85, 236.49, -651.1, 229.21, -655.83, 208.17, -653.74, 192.42, -647.76, 183.82, -630.92, 166.39, -628.05, 152.07, -658.74, 132.97, -668, 131.16, -668, 113.62, -664.65, 97.27, -648.29, 94, -640.98, 94, -639.67, 115.55, -641.9, 122.95, -638.36, 119.36, -604.82, 123.92, -594.1, 132.41, -585.49, 144.18, -577.24, 159.9, -571.98, 201.77, -594.34, 207.29, -607.22, 210.35, -620.09, 218.32, -633.57, 230.58, -642.77 ],
					"hull": 29,
					"edges": [ 0, 56, 0, 2, 2, 4, 4, 6, 6, 8, 8, 10, 10, 12, 12, 14, 14, 16, 16, 18, 18, 20, 20, 22, 22, 24, 24, 26, 26, 28, 28, 30, 30, 32, 32, 34, 34, 36, 36, 38, 38, 40, 40, 42, 42, 44, 44, 46, 46, 48, 48, 50, 50, 52, 52, 54, 54, 56 ],
					"width": 148,
					"height": 97
				}
			},
			"back leaf 6": {
				"back leaf 6": {
					"type": "mesh",
					"uvs": [ 0.58955, 0, 0.80477, 0.3627, 1, 0.6673, 1, 0.69682, 0.47824, 0.98137, 0.01328, 0.97933, 0.01122, 0.17207, 0.44144, 0 ],
					"triangles": [ 1, 2, 3, 4, 5, 6, 4, 7, 0, 4, 0, 1, 4, 1, 3, 4, 6, 7 ],
					"vertices": [ 302.98, -591, 319.77, -607.68, 335, -621.7, 335, -623.05, 294.3, -636.14, 258.04, -636.05, 257.88, -598.92, 291.43, -591 ],
					"hull": 8,
					"edges": [ 0, 14, 0, 2, 2, 4, 4, 6, 6, 8, 8, 10, 10, 12, 12, 14 ],
					"width": 78,
					"height": 46
				}
			},
			"back leaf 7": {
				"back leaf 7": {
					"type": "mesh",
					"uvs": [ 0.46627, 0, 0.80601, 0.22024, 0.97591, 0.63156, 0.99007, 0.79168, 0.35935, 1, 0.33196, 1, 0.11353, 0.9222, 0, 0.8107, 0, 0.66686, 0.15868, 0.09737, 0.40567, 0 ],
					"triangles": [ 6, 7, 8, 9, 6, 8, 5, 9, 10, 6, 9, 5, 4, 5, 10, 4, 10, 0, 4, 0, 1, 4, 1, 2, 4, 2, 3 ],
					"vertices": [ 309.22, -648, 347.27, -660.77, 366.3, -684.63, 367.89, -693.92, 297.25, -706, 294.18, -706, 269.72, -701.49, 257, -695.02, 257, -686.68, 274.77, -653.65, 302.44, -648 ],
					"hull": 11,
					"edges": [ 0, 20, 0, 2, 2, 4, 4, 6, 6, 8, 8, 10, 10, 12, 12, 14, 14, 16, 16, 18, 18, 20 ],
					"width": 112,
					"height": 58
				}
			},
			"back leaf 8": {
				"back leaf 8": {
					"type": "mesh",
					"uvs": [ 0.68607, 0.03243, 0.81768, 0.1084, 0.94076, 0.26079, 0.98468, 0.38876, 0.99463, 0.50058, 0.99392, 0.55163, 0.97562, 0.57833, 0.92744, 0.5152, 0.8528, 0.46608, 0.67951, 0.42444, 0.62315, 0.46426, 0.51982, 0.76619, 0.45648, 0.89448, 0.36253, 0.97135, 0.28991, 0.99249, 0.17622, 0.99262, 0.08181, 0.93206, 0.03422, 0.85411, 0.01219, 0.77307, 0.01225, 0.57825, 0.03434, 0.45159, 0.07591, 0.31723, 0.11922, 0.24739, 0.23085, 0.1102, 0.32979, 0.04096, 0.46225, 0.00678, 0.54277, 0.0072 ],
					"triangles": [ 9, 26, 0, 9, 0, 1, 9, 1, 2, 8, 9, 2, 10, 26, 9, 3, 8, 2, 7, 8, 3, 4, 7, 3, 5, 7, 4, 6, 7, 5, 25, 10, 24, 10, 25, 26, 10, 23, 24, 10, 22, 23, 11, 22, 10, 21, 22, 11, 20, 21, 11, 19, 20, 11, 12, 18, 19, 16, 17, 15, 19, 11, 12, 18, 15, 17, 18, 12, 14, 12, 13, 14, 18, 14, 15 ],
					"vertices": [ 368.14, -713.28, 389.46, -723.31, 409.4, -743.42, 416.52, -760.32, 418.13, -775.08, 418.02, -781.82, 415.05, -785.34, 407.25, -777.01, 395.15, -770.52, 367.08, -765.03, 357.95, -770.28, 341.21, -810.14, 330.95, -827.07, 315.73, -837.22, 303.97, -840.01, 285.55, -840.03, 270.25, -832.03, 262.54, -821.74, 258.98, -811.05, 258.99, -785.33, 262.56, -768.61, 269.3, -750.87, 276.31, -741.66, 294.4, -723.55, 310.43, -714.41, 331.88, -709.89, 344.93, -709.95 ],
					"hull": 27,
					"edges": [ 0, 52, 0, 2, 2, 4, 4, 6, 6, 8, 8, 10, 10, 12, 12, 14, 14, 16, 16, 18, 18, 20, 20, 22, 22, 24, 24, 26, 26, 28, 28, 30, 30, 32, 32, 34, 34, 36, 36, 38, 38, 40, 40, 42, 42, 44, 44, 46, 46, 48, 48, 50, 50, 52 ],
					"width": 162,
					"height": 132
				}
			},
			"back leaf 9": {
				"back leaf 9": {
					"type": "mesh",
					"uvs": [ 0.51191, 0.03418, 0.65224, 0.09585, 0.78107, 0.18809, 0.84813, 0.25915, 0.91162, 0.36411, 0.95426, 0.46275, 0.99132, 0.63675, 0.99126, 0.78777, 0.97813, 0.84518, 0.94686, 0.9133, 0.85455, 0.97993, 0.80745, 0.99048, 0.64592, 0.99038, 0.48642, 0.90291, 0.43889, 0.85149, 0.3926, 0.76684, 0.36158, 0.64396, 0.32145, 0.48501, 0.24548, 0.3988, 0.1623, 0.3044, 0.03369, 0.40657, 0.00847, 0.37843, 0.00867, 0.27235, 0.05146, 0.17672, 0.11415, 0.09046, 0.20486, 0.03593, 0.30037, 0.00956, 0.40991, 0.00914 ],
					"triangles": [ 19, 24, 25, 23, 24, 19, 22, 23, 19, 21, 22, 19, 26, 19, 25, 18, 19, 26, 20, 21, 19, 27, 18, 26, 0, 18, 27, 0, 17, 18, 16, 17, 3, 1, 17, 0, 2, 17, 1, 15, 16, 5, 2, 3, 17, 4, 16, 3, 5, 16, 4, 15, 5, 6, 6, 14, 15, 6, 7, 14, 7, 13, 14, 13, 7, 12, 11, 7, 8, 9, 10, 8, 7, 11, 12, 8, 10, 11 ],
					"vertices": [ 195.85, -705.52, 211.7, -711.87, 226.26, -721.37, 233.84, -728.69, 241.01, -739.5, 245.83, -749.66, 250.02, -767.59, 250.01, -783.14, 248.53, -789.05, 245, -796.07, 234.56, -802.93, 229.24, -804.02, 210.99, -804.01, 192.96, -795, 187.59, -789.7, 182.36, -780.98, 178.86, -768.33, 174.32, -751.96, 165.74, -743.08, 156.34, -733.35, 141.81, -743.88, 138.96, -740.98, 138.98, -730.05, 143.82, -720.2, 150.9, -711.32, 161.15, -705.7, 171.94, -702.98, 184.32, -702.94 ],
					"hull": 28,
					"edges": [ 0, 54, 0, 2, 2, 4, 4, 6, 6, 8, 8, 10, 10, 12, 12, 14, 14, 16, 16, 18, 18, 20, 20, 22, 22, 24, 24, 26, 26, 28, 28, 30, 38, 40, 40, 42, 42, 44, 44, 46, 46, 48, 48, 50, 50, 52, 52, 54, 34, 36, 36, 38, 30, 32, 32, 34 ],
					"width": 113,
					"height": 103
				}
			},
			"front leaf 1": {
				"front leaf 1": {
					"type": "mesh",
					"uvs": [ 0.48289, 0, 0.58273, 0.12221, 0.60634, 0.12401, 0.73592, 0.05666, 0.86013, 0.0566, 0.89214, 0.07405, 0.95964, 0.1839, 0.99329, 0.29661, 0.99308, 0.54514, 0.95101, 0.75328, 0.93004, 0.7846, 0.87538, 0.82918, 0.72074, 0.75509, 0.59724, 0.67457, 0.48971, 0.50298, 0.3474, 0.57685, 0.30079, 0.76809, 0.30082, 0.98, 0.27678, 0.9952, 0.2619, 0.99137, 0.17527, 0.92119, 0.10448, 0.80701, 0.0473, 0.67369, 0.01551, 0.53898, 0.00337, 0.42105, 0.0153, 0.3407, 0.31467, 0.07292, 0.36962, 0.02952, 0.47186, 0, 0.59151, 0.41858, 0.71906, 0.39914, 0.83864, 0.39267, 0.86255, 0.5546 ],
					"triangles": [ 31, 3, 4, 31, 4, 5, 31, 5, 6, 31, 6, 7, 30, 2, 3, 30, 3, 31, 29, 1, 2, 29, 2, 30, 1, 28, 0, 14, 1, 29, 15, 23, 25, 24, 25, 23, 8, 31, 7, 32, 31, 8, 14, 15, 26, 15, 25, 26, 1, 27, 28, 14, 27, 1, 14, 26, 27, 22, 23, 15, 13, 29, 30, 14, 29, 13, 9, 32, 8, 32, 12, 30, 32, 30, 31, 32, 11, 12, 13, 30, 12, 16, 22, 15, 9, 10, 32, 21, 22, 16, 10, 11, 32, 20, 21, 16, 19, 20, 16, 17, 19, 16, 18, 19, 17 ],
					"vertices": [ 180.05, -268, 194.33, -278.75, 197.71, -278.91, 216.24, -272.99, 234, -272.98, 238.58, -274.52, 248.23, -284.18, 253.04, -294.1, 253.01, -315.97, 246.99, -334.29, 244, -337.04, 236.18, -340.97, 214.07, -334.45, 196.41, -327.36, 181.03, -312.26, 160.68, -318.76, 154.01, -335.59, 154.02, -354.24, 150.58, -355.58, 148.45, -355.24, 136.06, -349.06, 125.94, -339.02, 117.76, -327.28, 113.22, -315.43, 111.48, -305.05, 113.19, -297.98, 156, -274.42, 163.86, -270.6, 178.48, -268, 195.59, -304.83, 213.83, -303.12, 230.93, -302.55, 234.35, -316.8 ],
					"hull": 29,
					"edges": [ 0, 56, 0, 2, 2, 4, 4, 6, 6, 8, 8, 10, 10, 12, 12, 14, 14, 16, 16, 18, 18, 20, 20, 22, 22, 24, 24, 26, 26, 28, 28, 30, 30, 32, 32, 34, 34, 36, 36, 38, 38, 40, 40, 42, 42, 44, 44, 46, 46, 48, 48, 50, 50, 52, 52, 54, 54, 56 ],
					"width": 143,
					"height": 88
				}
			},
			"front leaf 2": {
				"front leaf 2": {
					"type": "mesh",
					"uvs": [ 0.3318, 0.04555, 0.51928, 0.25056, 0.58414, 0.27196, 0.7803, 0.21776, 0.84011, 0.22887, 0.90539, 0.26807, 0.95882, 0.36138, 0.98893, 0.4413, 0.99085, 0.5996, 0.97534, 0.70061, 0.90948, 0.83537, 0.83509, 0.91011, 0.72291, 0.99374, 0.70182, 0.99414, 0.6708, 0.93055, 0.62901, 0.87829, 0.61069, 0.85761, 0.44496, 0.71887, 0.35976, 0.54516, 0.33625, 0.54577, 0.18574, 0.53314, 0.0677, 0.49741, 0.0419, 0.48382, 0.01747, 0.42806, 0.0011, 0.24791, 0.02734, 0.11443, 0.07935, 0.05121, 0.12208, 0.00643, 0.24585, 0.00565, 0.72738, 0.8552, 0.73162, 0.65748, 0.69766, 0.54873, 0.59155, 0.35595, 0.34961, 0.40538, 0.29867, 0.26204, 0.22227, 0.19283, 0.12465, 0.17306, 0.08645, 0.26698, 0.0822, 0.38561, 0.27745, 0.3609 ],
					"triangles": [ 36, 27, 28, 26, 27, 36, 25, 26, 36, 35, 36, 28, 35, 28, 0, 37, 24, 25, 34, 35, 0, 1, 34, 0, 36, 37, 25, 32, 2, 3, 39, 35, 34, 38, 24, 37, 33, 34, 1, 39, 34, 33, 23, 24, 38, 22, 23, 38, 21, 22, 38, 37, 35, 39, 35, 37, 36, 39, 38, 37, 20, 38, 39, 21, 38, 20, 33, 32, 18, 1, 32, 33, 2, 32, 1, 19, 39, 33, 19, 33, 18, 20, 39, 19, 31, 32, 3, 18, 32, 31, 31, 8, 30, 4, 31, 3, 5, 31, 4, 6, 31, 5, 7, 31, 6, 8, 31, 7, 9, 30, 8, 17, 18, 31, 17, 31, 30, 10, 30, 9, 30, 16, 17, 29, 30, 10, 29, 16, 30, 15, 16, 29, 11, 29, 10, 14, 15, 29, 12, 14, 29, 12, 29, 11, 13, 14, 12 ],
					"vertices": [ 309.05, -480.2, 343.55, -512.59, 355.48, -515.97, 391.58, -507.41, 402.58, -509.16, 414.59, -515.35, 424.42, -530.1, 429.96, -542.73, 430.32, -567.74, 427.46, -583.7, 415.34, -604.99, 401.66, -616.8, 381.02, -630.01, 377.13, -630.07, 371.43, -620.03, 363.74, -611.77, 360.37, -608.5, 329.87, -586.58, 314.2, -559.14, 309.87, -559.23, 282.18, -557.24, 260.46, -551.59, 255.71, -549.44, 251.21, -540.63, 248.2, -512.17, 253.03, -491.08, 262.6, -481.09, 270.46, -474.02, 293.24, -473.89, 381.84, -608.12, 382.62, -576.88, 376.37, -559.7, 356.85, -529.24, 312.33, -537.05, 302.96, -514.4, 288.9, -503.47, 270.94, -500.34, 263.91, -515.18, 263.13, -533.93, 299.05, -530.02 ],
					"hull": 29,
					"edges": [ 0, 56, 0, 2, 2, 4, 4, 6, 6, 8, 8, 10, 10, 12, 12, 14, 14, 16, 16, 18, 18, 20, 20, 22, 22, 24, 24, 26, 26, 28, 28, 30, 30, 32, 32, 34, 34, 36, 36, 38, 38, 40, 40, 42, 42, 44, 44, 46, 46, 48, 48, 50, 50, 52, 52, 54, 54, 56 ],
					"width": 184,
					"height": 158
				}
			},
			"front leaf 3": {
				"front leaf 3": {
					"type": "mesh",
					"uvs": [ 0.74702, 0, 0.77461, 0, 0.83922, 0.04486, 0.94263, 0.20273, 0.99405, 0.33687, 0.99328, 0.51504, 0.97329, 0.59328, 0.94545, 0.66636, 0.87876, 0.75241, 0.61027, 0.75307, 0.48864, 0.69845, 0.42061, 0.6679, 0.34913, 0.8293, 0.3625, 0.96474, 0.36305, 0.98517, 0.34163, 0.99459, 0.29913, 0.97206, 0.2251, 0.92269, 0.14152, 0.81828, 0.05248, 0.67064, 0.0066, 0.54869, 0.00488, 0.4755, 0.07015, 0.27856, 0.20729, 0.04372, 0.28243, 0.04409, 0.41701, 0.17688, 0.49888, 0.14894, 0.20387, 0.6761, 0.18253, 0.51851, 0.32766, 0.32152, 0.38742, 0.25961, 0.51547, 0.56917, 0.63072, 0.43971, 0.76304, 0.26524, 0.84414, 0.38343, 0.86975, 0.5354, 0.85695, 0.62545 ],
					"triangles": [ 30, 24, 25, 33, 0, 1, 33, 1, 2, 33, 2, 3, 26, 0, 33, 29, 24, 30, 34, 33, 3, 34, 3, 4, 32, 26, 33, 32, 33, 34, 29, 22, 23, 29, 23, 24, 5, 34, 4, 28, 22, 29, 21, 22, 28, 35, 34, 5, 20, 21, 28, 26, 30, 25, 26, 32, 30, 31, 30, 32, 29, 30, 31, 11, 28, 29, 6, 35, 5, 35, 32, 34, 36, 35, 6, 36, 32, 35, 7, 36, 6, 31, 11, 29, 19, 20, 28, 27, 28, 11, 19, 28, 27, 10, 11, 31, 8, 36, 7, 9, 31, 32, 9, 32, 36, 9, 36, 8, 10, 31, 9, 18, 19, 27, 12, 27, 11, 17, 18, 27, 12, 17, 27, 16, 17, 12, 13, 16, 12, 15, 16, 13, 14, 15, 13 ],
					"vertices": [ 239.31, -758, 243.42, -758, 253.04, -763.07, 268.45, -780.91, 276.11, -796.07, 276, -816.2, 273.02, -825.04, 268.87, -833.3, 258.93, -843.02, 218.93, -843.1, 200.81, -836.92, 190.67, -833.47, 180.02, -851.71, 182.01, -867.02, 182.09, -869.32, 178.9, -870.39, 172.57, -867.84, 161.54, -862.26, 149.09, -850.47, 135.82, -833.78, 128.98, -820, 128.73, -811.73, 138.45, -789.48, 158.89, -762.94, 170.08, -762.98, 190.13, -777.99, 202.33, -774.83, 158.38, -834.4, 155.2, -816.59, 176.82, -794.33, 185.73, -787.34, 204.81, -822.32, 221.98, -807.69, 241.69, -787.97, 253.78, -801.33, 257.59, -818.5, 255.69, -828.68 ],
					"hull": 27,
					"edges": [ 0, 52, 0, 2, 2, 4, 4, 6, 6, 8, 8, 10, 10, 12, 12, 14, 14, 16, 16, 18, 22, 24, 24, 26, 26, 28, 28, 30, 30, 32, 32, 34, 34, 36, 36, 38, 38, 40, 40, 42, 42, 44, 44, 46, 46, 48, 48, 50, 50, 52, 18, 20, 20, 22 ],
					"width": 149,
					"height": 113
				}
			},
			"stem": {
				"stem": {
					"type": "mesh",
					"uvs": [ 0.22573, 0, 0.34249, 0, 0.56382, 0.00609, 0.58559, 0.04485, 0.60355, 0.07683, 0.62039, 0.10682, 0.63715, 0.13667, 0.65902, 0.17561, 0.67415, 0.20257, 0.69384, 0.23763, 0.7122, 0.27031, 0.73317, 0.30767, 0.75359, 0.34402, 0.77389, 0.38018, 0.79423, 0.41639, 0.81442, 0.45235, 0.83425, 0.48767, 0.85386, 0.52258, 0.8771, 0.56397, 0.90039, 0.60545, 0.92153, 0.6431, 0.94187, 0.67931, 0.96004, 0.71168, 0.94444, 0.75718, 0.93066, 0.79736, 0.91825, 0.83354, 0.90713, 0.86597, 0.89467, 0.9023, 0.884, 0.9334, 0.87473, 0.96043, 0.86664, 0.98401, 0.68983, 0.99615, 0.4175, 0.9999, 0.12328, 0.9908, 0.12032, 0.95918, 0.11789, 0.93323, 0.11474, 0.89961, 0.11183, 0.86853, 0.10868, 0.83484, 0.10528, 0.79857, 0.10164, 0.75971, 0.09728, 0.71307, 0.09438, 0.68206, 0.09073, 0.64317, 0.08734, 0.60691, 0.08334, 0.56417, 0.08031, 0.53183, 0.07667, 0.49288, 0.07303, 0.45402, 0.06964, 0.41783, 0.06649, 0.3842, 0.06272, 0.34396, 0.05921, 0.30644, 0.05582, 0.27021, 0.05291, 0.23911, 0.04988, 0.20672, 0.04721, 0.17827, 0.04393, 0.14324, 0.04042, 0.10573, 0.03763, 0.0759, 0.03485, 0.04617, 0.03172, 0.01276 ],
					"triangles": [ 1, 60, 61, 1, 61, 0, 1, 3, 60, 3, 1, 2, 59, 60, 3, 59, 3, 4, 58, 59, 4, 58, 4, 5, 6, 57, 58, 6, 58, 5, 57, 6, 7, 56, 57, 7, 56, 7, 8, 55, 56, 8, 55, 8, 9, 54, 55, 9, 53, 54, 9, 53, 9, 10, 52, 53, 10, 52, 10, 11, 51, 52, 11, 51, 11, 12, 13, 50, 51, 13, 51, 12, 50, 13, 14, 49, 50, 14, 15, 48, 49, 15, 49, 14, 16, 47, 48, 16, 48, 15, 47, 16, 17, 46, 47, 17, 46, 17, 18, 45, 46, 18, 44, 45, 18, 44, 18, 19, 43, 44, 19, 43, 19, 20, 21, 42, 43, 21, 43, 20, 42, 21, 22, 41, 42, 22, 23, 41, 22, 40, 41, 23, 24, 40, 23, 39, 40, 24, 25, 39, 24, 38, 39, 25, 26, 38, 25, 37, 38, 26, 27, 36, 37, 26, 27, 37, 35, 36, 27, 28, 35, 27, 34, 35, 28, 29, 34, 28, 29, 31, 34, 34, 32, 33, 29, 30, 31, 31, 32, 34 ],
					"vertices": [ 236.06, -140, 241.78, -140, 252.63, -144.36, 253.69, -172.07, 254.57, -194.93, 255.4, -216.38, 256.22, -237.72, 257.29, -265.56, 258.03, -284.84, 259, -309.91, 259.9, -333.27, 260.93, -359.98, 261.93, -385.98, 262.92, -411.83, 263.92, -437.72, 264.91, -463.43, 265.88, -488.68, 266.84, -513.65, 267.98, -543.24, 269.12, -572.9, 270.16, -599.82, 271.15, -625.71, 272.04, -648.85, 271.28, -681.38, 270.6, -710.11, 269.99, -735.98, 269.45, -759.17, 268.84, -785.14, 268.32, -807.38, 267.86, -826.7, 267.47, -843.57, 258.8, -852.25, 245.46, -854.93, 231.04, -848.42, 230.9, -825.81, 230.78, -807.26, 230.62, -783.22, 230.48, -761, 230.33, -736.91, 230.16, -710.97, 229.98, -683.19, 229.77, -649.84, 229.62, -627.67, 229.45, -599.86, 229.28, -573.94, 229.08, -543.38, 228.94, -520.26, 228.76, -492.41, 228.58, -464.62, 228.41, -438.75, 228.26, -414.7, 228.07, -385.93, 227.9, -359.1, 227.74, -333.2, 227.59, -310.96, 227.44, -287.8, 227.31, -267.46, 227.15, -242.42, 226.98, -215.6, 226.84, -194.27, 226.71, -173.01, 226.55, -149.12 ],
					"hull": 62,
					"edges": [ 0, 122, 0, 2, 2, 4, 60, 62, 62, 64, 64, 66, 80, 82, 44, 46, 78, 80, 46, 48, 76, 78, 48, 50, 74, 76, 50, 52, 72, 74, 52, 54, 70, 72, 54, 56, 66, 68, 68, 70, 56, 58, 58, 60, 82, 84, 42, 44, 84, 86, 40, 42, 86, 88, 38, 40, 88, 90, 36, 38, 90, 92, 34, 36, 92, 94, 32, 34, 94, 96, 30, 32, 96, 98, 28, 30, 98, 100, 26, 28, 100, 102, 24, 26, 102, 104, 22, 24, 104, 106, 20, 22, 106, 108, 18, 20, 108, 110, 16, 18, 110, 112, 14, 16, 112, 114, 12, 14, 114, 116, 10, 12, 116, 118, 8, 10, 118, 120, 120, 122, 4, 6, 6, 8 ],
					"width": 49,
					"height": 715
				}
			},
			"top leaf": {
				"top leaf": {
					"type": "mesh",
					"uvs": [ 0.92173, 0.04275, 0.97378, 0.15108, 0.99833, 0.24813, 0.98109, 0.38198, 0.91452, 0.50342, 0.78761, 0.63986, 0.76699, 0.67164, 0.75531, 0.96331, 0.72619, 0.98696, 0.69113, 0.99266, 0.60161, 0.99274, 0.48674, 0.84555, 0.39279, 0.79829, 0.26212, 0.79416, 0.16945, 0.82956, 0.112, 0.91861, 0.09541, 0.99313, 0.0562, 0.99286, 0.02825, 0.96339, 0.00686, 0.87627, 0.00698, 0.72627, 0.08208, 0.58641, 0.18043, 0.48444, 0.3189, 0.4293, 0.47035, 0.42943, 0.57552, 0.48348, 0.65874, 0.42221, 0.82846, 0.29726, 0.88007, 0.15853, 0.86231, 0.01488, 0.88934, 0.00941, 0.65684, 0.58839 ],
					"triangles": [ 0, 28, 29, 0, 29, 30, 28, 0, 1, 2, 28, 1, 2, 27, 28, 3, 27, 2, 4, 27, 3, 26, 27, 4, 31, 25, 26, 5, 31, 26, 4, 5, 26, 6, 31, 5, 13, 22, 23, 21, 22, 13, 14, 20, 21, 12, 23, 24, 12, 24, 25, 12, 25, 31, 13, 23, 12, 13, 14, 21, 11, 12, 31, 11, 31, 6, 19, 20, 14, 15, 19, 14, 7, 11, 6, 18, 19, 15, 7, 9, 11, 8, 9, 7, 10, 11, 9, 17, 18, 15, 16, 17, 15 ],
					"vertices": [ 274.89, -35.77, 282.28, -50.4, 285.76, -63.5, 283.31, -81.57, 273.86, -97.96, 255.84, -116.38, 252.91, -120.67, 251.25, -160.05, 247.12, -163.24, 242.14, -164.01, 229.43, -164.02, 213.12, -144.15, 199.78, -137.77, 181.22, -137.21, 168.06, -141.99, 159.9, -154.01, 157.55, -164.07, 151.98, -164.04, 148.01, -160.06, 144.97, -148.3, 144.99, -128.05, 155.66, -109.17, 169.62, -95.4, 189.28, -87.96, 210.79, -87.97, 225.72, -95.27, 237.54, -87, 261.64, -70.13, 268.97, -51.4, 266.45, -32.01, 270.29, -31.27, 237.27, -109.43 ],
					"hull": 31,
					"edges": [ 0, 60, 0, 2, 2, 4, 4, 6, 6, 8, 8, 10, 10, 12, 12, 14, 14, 16, 16, 18, 18, 20, 20, 22, 22, 24, 24, 26, 26, 28, 28, 30, 30, 32, 32, 34, 34, 36, 36, 38, 38, 40, 40, 42, 42, 44, 44, 46, 46, 48, 48, 50, 54, 56, 56, 58, 58, 60, 50, 52, 52, 54 ],
					"width": 142,
					"height": 135
				}
			}
		}
	}
],
"animations": {
	"animation": {
		"deform": {
			"default": {
				"back leaf 1": {
					"back leaf 1": [
						{
							"vertices": [ -41.77798, -27.2045, -31.33749, -12.77829, -23.68958, -10.73578, -18.00833, -14.18909, -15.85089, -23.80956, -22.59924, -25.65964, -14.96552, -29.48553, -7.27866, -32.28912, -1.35413, -37.0401, 0.61929, -45.73666, -1.17032, -53.1152, -5.43561, -56.71445, -6.54112, -56.96759, -17.33688, -57.23944, -23.29922, -55.69469, -30.77138, -51.00267, -36.82738, -44.67955, -32.95392, -38.69159, -38.93057, -39.05667, -39.44534, -35.96086, -41.36948, -28.44513, -24.38898, -22.13606, -25.71552, -17.35217, -21.77884, -17.37579, -20.93857, -23.0645, -19.55066, -20.85225, -17.10649, -46.12227, -26.46335, -40.10429, -31.19693, -34.47861, -35.11884, -26.85364 ]
						},
						{
							"time": 0.8667,
							"vertices": [ -6.85638, -35.64436, 4.79089, -17.99503, 13.75928, -15.18036, 26.276, -16.1861, 50.608, -28.04881, 15.81726, -32.82928, 25.06931, -36.97708, 34.33224, -39.90958, 41.60419, -45.24228, 44.39053, -55.45837, 42.64545, -64.30344, 37.76965, -68.7919, 36.47107, -69.1488, 23.67758, -70.02431, 16.52502, -68.49704, 7.42017, -63.31342, -0.0882, -56.12221, 4.20047, -48.82001, -2.8714, -49.55927, -3.68463, -45.75223, -6.30817, -37.09526, 13.5134, -28.74066, 11.69458, -23.13338, 23.08627, -22.39981, 27.17438, -30.22545, 28.70749, -25.84991, 23.38144, -56.82365, 11.97278, -50.16357, 6.069, -43.73196, 1.02567, -34.88693 ]
						},
						{
							"time": 1.6667,
							"vertices": [ 25.3202, -36.76869, 34.89625, -24.23982, 41.71366, -22.60886, 55.62287, -25.23718, 78.03001, -33.80334, 42.3335, -35.84497, 49.00248, -39.40834, 55.74216, -42.06808, 60.87672, -46.41077, 62.42228, -54.15494, 60.66734, -60.64511, 56.80836, -63.73245, 55.82383, -63.93094, 46.26096, -63.92187, 41.01871, -62.41637, 34.51279, -58.08997, 29.29823, -52.35251, 32.86567, -47.14146, 27.56657, -47.32631, 27.20246, -44.67297, 25.65321, -37.8764, 40.8307, -32.68431, 39.7671, -28.4189, 48.29136, -26.85094, 54.50352, -36.38602, 58.58338, -32.77989, 46.72218, -54.08598, 38.5785, -48.54228, 34.5185, -43.45271, 31.22321, -36.61214 ]
						},
						{
							"time": 2.4667,
							"vertices": [ 26.99692, -68.73795, 26.99692, -68.73795, 26.99692, -68.73795, 26.99692, -68.73795, 26.99692, -68.73795, 26.99692, -68.73795, 26.99692, -68.73795, 26.99692, -68.73795, 26.99692, -68.73795, 26.99692, -68.73795, 26.99692, -68.73795, 26.99692, -68.73795, 26.99692, -68.73795, 26.99692, -68.73795, 26.99692, -68.73795, 26.99692, -68.73795, 26.99692, -68.73795, 26.99692, -68.73795, 26.99692, -68.73795, 26.99692, -69.59995, 26.99692, -68.73795, 26.99692, -68.73795, 26.99692, -68.73795, 26.99692, -68.73795, 26.99692, -68.73795, 26.99692, -68.73795, 26.99692, -68.73795, 26.99692, -68.73795, 26.99692, -68.73795, 26.99692, -68.73795 ]
						},
						{
							"time": 3.3333,
							"vertices": [ 36.79697, -97.20937, 15.48236, -106.78049, 2.64877, -102.97723, -8.27124, -88.05209, 6.21225, -74.58035, 13.97684, -86.41318, 7.80035, -77.06628, 0.8945, -68.84686, -2.73297, -59.5668, 0.71527, -48.38589, 7.57961, -41.16693, 14.78554, -39.86597, 16.20822, -40.30154, 28.66241, -47.05847, 34.43152, -52.71761, 39.85718, -62.94371, 42.60522, -74.09764, 34.28125, -78.37155, 41.31628, -81.86819, 39.31143, -87.56766, 37.14432, -95.53116, 13.70578, -91.59155, 12.08313, -97.89963, 9.30197, -93.05615, 11.51013, -85.47739, 7.36383, -87.64471, 21.12415, -59.5495, 27.82523, -72.51683, 29.52576, -82.01218, 28.99469, -93.24988 ]
						},
						{
							"time": 4.2,
							"vertices": [ -0.4097, -127.30202, -27.59366, -137.17361, -39.73456, -132.94669, -44.22214, -123.12628, -38.35144, -108.22922, -27.59512, -111.89444, -34.36728, -99.79337, -42.14267, -89.01749, -45.77452, -77.23108, -40.4985, -63.74356, -31.36684, -55.45804, -22.35303, -54.50891, -20.63638, -55.17654, -5.87863, -64.65283, 0.72672, -72.16461, 6.49197, -85.28255, 8.86737, -99.30194, -1.79776, -103.8187, 6.56799, -108.77658, 3.65189, -115.42722, 0.17221, -125.26208, -28.40167, -118.26193, -30.97986, -125.90103, -36.24951, -122.2803, -32.19284, -113.86862, -36.0748, -115.57666, -16.32303, -79.38467, -9.23328, -96.00296, -7.99976, -107.87952, -9.67975, -121.703 ]
						},
						{
							"time": 5,
							"vertices": [ -54.5621, -80.69727, -61.99048, -85.84219, -65.99506, -85.53079, -68.13251, -82.92059, -67.54347, -77.95245, -64.00186, -78.20425, -67.01062, -75.08652, -70.21709, -72.4491, -72.25208, -69.17676, -71.73073, -64.68182, -69.63066, -61.4519, -66.98264, -60.44818, -66.41081, -60.51331, -61.19798, -62.20273, -58.6046, -63.94702, -55.81914, -67.45204, -53.98633, -71.49905, -56.84952, -73.71227, -53.92737, -74.54468, -54.34798, -77.38774, -54.54874, -80.03458, -63.73901, -80.19226, -63.91046, -82.70551, -65.79053, -82.03076, -65.23401, -79.16647, -66.27121, -79.99139, -63.18198, -67.48474, -59.71783, -71.94199, -58.40054, -75.43231, -57.80853, -79.74292 ]
						},
						{
							"time": 5.8667,
							"vertices": [ -71.04309, -37.54012, -61.25507, -24.56947, -54.24039, -22.84563, -49.12057, -26.09969, -47.32785, -34.91577, -53.51797, -36.48047, -46.6235, -40.11011, -39.66191, -42.80832, -34.34363, -47.25061, -32.70201, -55.22049, -34.4693, -61.91928, -38.42616, -65.12497, -39.43936, -65.33575, -49.29321, -65.38684, -54.70447, -63.86887, -61.43578, -59.45195, -66.84535, -53.57286, -63.20238, -48.18076, -68.66135, -48.40471, -69.05887, -45.64667, -70.69278, -38.67935, -55.08655, -33.23323, -56.20947, -28.84488, -52.61844, -28.93814, -51.95566, -34.14322, -50.64917, -32.15042, -48.8802, -55.24899, -57.30673, -49.58797, -61.52255, -44.36932, -64.96136, -37.34152 ]
						},
						{
							"time": 6.6667,
							"vertices": [ -41.77798, -27.2045, -31.33749, -12.77829, -23.68958, -10.73578, -18.00833, -14.18909, -15.85089, -23.80956, -22.59924, -25.65964, -14.96552, -29.48553, -7.27866, -32.28912, -1.35413, -37.0401, 0.61929, -45.73666, -1.17032, -53.1152, -5.43561, -56.71445, -6.54112, -56.96759, -17.33688, -57.23944, -23.29922, -55.69469, -30.77138, -51.00267, -36.82738, -44.67955, -32.95392, -38.69159, -38.93057, -39.05667, -39.44534, -35.96086, -41.36948, -28.44513, -24.38898, -22.13606, -25.71552, -17.35217, -21.77884, -17.37579, -20.93857, -23.0645, -19.55066, -20.85225, -17.10649, -46.12227, -26.46335, -40.10429, -31.19693, -34.47861, -35.11884, -26.85364 ]
						}
					]
				},
				"back leaf 2": {
					"back leaf 2": [
						{
							"vertices": [ 46.68848, 29.95096, 44.37547, 39.35077, 48.26444, 52.97076, 43.58656, 62.9924, 44.21702, 66.79266, 50.79798, 75.72751, 60.0734, 80.37772, 69.71064, 85.33743, 80.70203, 88.30743, 88.91584, 89.2088, 93.35917, 88.77328, 97.50471, 86.27686, 97.77155, 84.75024, 84.12751, 76.28738, 79.69935, 72.59778, 73.64472, 66.05579, 71.10996, 61.84067, 67.62937, 52.02667, 67.44239, 44.71744, 68.95646, 38.72348, 75.91514, 26.15552, 77.49033, 23.95923, 81.03922, 20.2399, 82.08381, 15.84851, 80.70676, 13.50873, 76.48475, 12.4407, 72.01212, 13.358, 64.83717, 15.85602, 55.05976, 21.69843, 80.77897, 83.1312, 72.77491, 78.42932, 66.09644, 74.26569, 60.79133, 69.6098, 54.99397, 63.58026, 51.30674, 57.4505 ]
						},
						{
							"time": 0.8667,
							"vertices": [ 90.67191, 0, 90.67191, 0, 85.63538, 2.92032, 79.33185, 8.40106, 79.96576, 10.98114, 77.2637, 23.19107, 87.68201, 33.19254, 95.06207, 45.85165, 113.59729, 55.47452, 127.96478, 60.30399, 136.09811, 61.2619, 144.5036, 58.41, 145.57944, 55.77841, 124.43927, 35.27414, 117.94727, 26.92911, 107.70425, 15.72385, 102.22598, 10.81888, 93.87924, 1.35312, 90.67191, 0, 90.67191, 0, 90.67191, 0, 90.67191, 0, 90.67191, 0, 90.67191, 0, 90.67191, 0, 90.67191, 0, 90.67191, 0, 90.67191, 0, 90.67191, 0, 115.2305, 45.16849, 103.78656, 31.49045, 92.91702, 24.59555, 90.39078, 16.5065, 87.20731, 8.20383, 87.20834, 4.65781 ]
						},
						{
							"time": 1.6667,
							"vertices": [ 66.09695, -14.35403, 65.52936, -19.039, 50.67923, -8.92493, 40.62296, 1.02148, 41.22232, 5.13263, 41.1582, 19.76392, 49.2905, 30.37766, 58.83615, 48.87476, 69.78763, 71.77939, 84.07706, 92.04446, 93.08368, 104.17941, 110.17316, 111.91989, 115.6333, 109.41196, 109.86649, 52.06924, 97.1514, 29.06378, 84.17841, 10.56073, 73.78238, 3.19437, 66.7811, -10.29532, 57.88254, -14.33441, 54.42975, -14.51071, 53.42596, -7.5795, 53.08682, -6.30624, 52.11044, -3.99786, 52.39209, -1.81531, 53.4238, -0.98621, 55.53314, -1.22794, 57.41412, -2.41791, 60.25443, -4.79523, 63.70425, -9.14642, 79.58096, 58.64517, 70.79413, 36.31509, 62.33887, 21.79761, 56.73709, 12.8299, 52.91171, 1.89655, 51.83743, -4.90701 ]
						},
						{
							"time": 2.4667,
							"vertices": [ 21.48904, -33.37164, 20.11072, -40.62473, 13.09235, -48.83685, 13.15695, -57.27124, 11.51398, -59.70688, 2.3284, -48.73947, -0.24777, -41.83035, 0.62515, -30.77802, 8.87509, -18.27951, 24.97369, -11.43631, 34.24603, -9.60568, 44.1734, -12.13376, 45.64636, -15.06555, 23.15915, -40.55139, 13.06805, -45.25931, 4.45364, -48.49185, 3.16714, -50.06543, -0.03851, -42.03796, 2.41034, -37.02789, 3.26187, -32.39053, 2.42334, -21.4664, 2.02765, -19.4433, 0.74638, -15.73788, 1.41524, -12.36078, 3.11272, -11.17499, 6.37967, -11.77383, 9.1906, -13.82904, 13.37405, -17.83804, 18.30145, -24.9921, 12.19232, -28.72443, 4.6011, -38.755, 1.85324, -44.68686, -0.59244, -46.27649, 5.0589, -54.05984, 9.56104, -50.97836 ]
						},
						{
							"time": 3.3333,
							"vertices": [ -27.15192, -35.27982, -29.35861, -44.37161, -38.76462, -54.31769, -39.22058, -64.99658, -41.45505, -67.97452, -52.39273, -70.56311, -56.03754, -62.82599, -58.18008, -53.58264, -52.48743, -52.76669, -48.31384, -52.81815, -46.11282, -53.30872, -44.18723, -54.81436, -44.14709, -55.59619, -51.50638, -59.00323, -53.95258, -60.58191, -58.32892, -58.08463, -57.34296, -57.21805, -54.94995, -44.87595, -51.53131, -38.69119, -50.15794, -32.87637, -50.52287, -18.99698, -50.89471, -16.41141, -52.28015, -11.64001, -51.21832, -7.40854, -48.99443, -6.01599, -44.89787, -6.98215, -41.47131, -9.76239, -36.43221, -15.103, -30.65195, -24.47134, -52.76584, -55.3667, -57.06699, -57.23386, -57.07431, -60.78378, -55.3479, -60.02939, -49.2648, -60.41595, -43.37042, -56.80301 ]
						},
						{
							"time": 4.2,
							"vertices": [ -52.70683, -29.58548, -52.93741, -32.56583, -55.39487, -36.18417, -54.99197, -39.5755, -55.54434, -40.62909, -59.44986, -41.32175, -61.50827, -43.07999, -64.81415, -43.60269, -68.32477, -43.41095, -70.82089, -42.88107, -72.08182, -42.32367, -73.05621, -41.19073, -72.98688, -40.71716, -68.16718, -39.55457, -66.51172, -38.90063, -64.10345, -37.56744, -62.95255, -36.57639, -60.98282, -34.03479, -60.22119, -31.90924, -60.08569, -30.00497, -60.91122, -25.64624, -61.16081, -24.84982, -61.84203, -23.41586, -61.72372, -22.02701, -61.09358, -21.474, -59.75217, -21.56897, -58.52914, -22.27051, -56.6665, -23.6969, -54.36394, -26.35562, -67.84686, -41.88547, -65.04483, -41.28043, -62.68353, -40.70511, -60.67758, -39.8526, -58.39438, -38.64493, -56.72025, -37.20374 ]
						},
						{
							"time": 5,
							"vertices": [ -67.23793, -11.49503, -68.8891, -3.47617, -65.16238, 7.90872, -68.79187, 16.52939, -68.13644, 19.7207, -62.45987, 27.17285, -53.62201, 20.63162, -53.02386, 10.2355, -60.2077, 11.20602, -65.2507, 12.70477, -67.75092, 14.0574, -69.5675, 16.54596, -69.34698, 17.5076, -59.25052, 19.10593, -55.74081, 20.17789, -50.46762, 15.86569, -51.40198, 14.79019, -48.82715, 6.48529, -49.22125, 0.3139, -48.13522, -4.80054, -42.66045, -15.64682, -41.40005, -17.55396, -38.52089, -20.81186, -37.77997, -24.55695, -39.01942, -26.48978, -42.62198, -27.25601, -46.3723, -26.33643, -52.35535, -23.99326, -60.42975, -18.73993, -58.97482, 14.26288, -53.11673, 15.04639, -52.20963, 18.58624, -53.95642, 17.52383, -59.13226, 16.65775, -62.44656, 11.59634 ]
						},
						{
							"time": 5.8667,
							"vertices": [ -14.31669, 3.25066, -19.17069, 16.34767, -15.82458, 36.50964, -24.17035, 50.11094, -23.88882, 55.66227, -15.36148, 69.29725, -0.98967, 72.43179, 12.13357, 72.18615, 15.9724, 74.05544, 20.3051, 74.04125, 22.59455, 73.55267, 24.60746, 72.00774, 24.6566, 71.19656, 17.04919, 67.59113, 14.52466, 65.92915, 13.57242, 57.54856, 10.96903, 53.05783, 12.09151, 38.32518, 13.01956, 27.81579, 16.17123, 19.47077, 28.20368, 2.59215, 30.82129, -0.29861, 36.51775, -5.04983, 38.73387, -11.17448, 37.14254, -14.75403, 31.26467, -16.97608, 24.70268, -16.39309, 14.00803, -13.98565, -0.96499, -7.21047, 15.70779, 71.35401, 11.26029, 69.37558, 5.46885, 66.08426, -0.0503, 61.08176, -7.91311, 52.82063, -12.19604, 43.42952 ]
						},
						{
							"time": 6.6667,
							"vertices": [ 46.68848, 29.95096, 44.37547, 39.35077, 48.26444, 52.97076, 43.58656, 62.9924, 44.21702, 66.79266, 50.79798, 75.72751, 60.0734, 80.37772, 69.71064, 85.33743, 80.70203, 88.30743, 88.91584, 89.2088, 93.35917, 88.77328, 97.50471, 86.27686, 97.77155, 84.75024, 84.12751, 76.28738, 79.69935, 72.59778, 73.64472, 66.05579, 71.10996, 61.84067, 67.62937, 52.02667, 67.44239, 44.71744, 68.95646, 38.72348, 75.91514, 26.15552, 77.49033, 23.95923, 81.03922, 20.2399, 82.08381, 15.84851, 80.70676, 13.50873, 76.48475, 12.4407, 72.01212, 13.358, 64.83717, 15.85602, 55.05976, 21.69843, 80.77897, 83.1312, 72.77491, 78.42932, 66.09644, 74.26569, 60.79133, 69.6098, 54.99397, 63.58026, 51.30674, 57.4505 ]
						}
					]
				},
				"back leaf 3": {
					"back leaf 3": [
						{
							"vertices": [ 79.11922, 27.55508, 95.83287, 46.21347, 97.37263, 48.42407, 97.78719, 48.50903, 99.43504, 40.55145, 97.81242, 28.45587, 103.25905, 19.87354, 105.7653, 7.49924, 102.0265, 1.83191, 98.56087, 1.1217, 87.22371, 4.65216, 81.14589, 17.66519 ]
						},
						{
							"time": 0.8667,
							"vertices": [ 74.76843, -3.40497, 80.80481, 23.30399, 82.58261, 26.15625, 83.09363, 26.28845, 85.65277, 16.47925, 84.40048, 1.3063, 74.97632, -2.27197, 74.97632, -2.27197, 74.97632, -2.27197, 74.97632, -2.27197, 74.97632, -3.435, 74.97632, -2.27197 ]
						},
						{
							"time": 1.6667,
							"vertices": [ 30.49463, -33.74265, 11.8588, -43.20581, 9.99347, -44.46011, 9.64526, -44.401, 10.76746, -37.71405, 15.68326, -28.79645, 14.03952, -20.47604, 15.82803, -10.09451, 20.448, -6.81604, 23.35812, -7.31046, 30.75797, -15.54868, 31.90573, -25.43839 ]
						},
						{
							"time": 2.4667,
							"vertices": [ -30.35355, -54.32925, -76.28641, -65.98853, -81.03723, -67.83493, -81.77759, -67.53052, -75.96765, -53.29742, -60.65573, -36.0173, -54.78218, -26.68057, -52.24675, -14.383, -46.61543, -10.65741, -43.16797, -11.35999, -34.62843, -21.23987, -23.09985, -36.66196 ]
						},
						{
							"time": 3.3333,
							"vertices": [ -74.45158, -53.96713, -124.65363, -64.86798, -93.45999, -40.82956, -93.73419, -40.7934, -123.83025, -51.13031, -106.59047, -32.98657, -90.98148, -21.93555, -89.87944, -13.75616, -86.35658, -11.05655, -84.06396, -11.36005, -78.06705, -17.84976, -77.12709, -28.69986 ]
						},
						{
							"time": 4.2,
							"vertices": [ -64.72809, -21.37454, -57.19171, -14.78455, -56.47351, -13.98245, -56.30496, -13.96884, -56.03772, -17.2056, -57.2688, -21.92505, -55.52498, -25.59412, -55.1317, -30.6246, -56.89011, -32.69119, -58.29941, -32.80469, -62.56879, -31.55524, -64.40434, -25.39618 ]
						},
						{
							"time": 5,
							"vertices": [ -24.80157, -8.89643, -1.58548, 35.83345, 0.3047, 41.04057, 1.08363, 41.42876, 8.56705, 26.48873, 11.41754, 1.17048, 10.69546, -14.82486, 13.55949, -28.00566, 9.65104, -34.11594, 5.9595, -34.92693, -6.22176, -31.24722, -16.8931, -21.51726 ]
						},
						{
							"time": 5.8667,
							"vertices": [ 41.32574, 5.61676, 32.46805, 73.58533, 31.85974, 83.82288, 32.89865, 85.05371, 56.58069, 65.15204, 68.22012, 18.18661, 66.01697, -2.03564, 69.48938, -16.47177, 65.33661, -23.29138, 61.29382, -24.2738, 47.7702, -20.40353, 40.12262, -5.57245 ]
						},
						{
							"time": 6.6667,
							"vertices": [ 79.11922, 27.55508, 95.83287, 46.21347, 97.37263, 48.42407, 97.78719, 48.50903, 99.43504, 40.55145, 97.81242, 28.45587, 103.25905, 19.87354, 105.7653, 7.49924, 102.0265, 1.83191, 98.56087, 1.1217, 87.22371, 4.65216, 81.14589, 17.66519 ]
						}
					]
				},
				"back leaf 4": {
					"back leaf 4": [
						{
							"vertices": [ 96.7707, 12.5661, 114.24058, 17.86798, 118.3224, 14.58533, 125.12083, -3.06577, 108.80747, -17.5177, 107.2393, -25.94998, 111.66221, -38.58923, 108.80668, -39.46259, 91.67255, -33.13361, 83.69001, -5.62991 ]
						},
						{
							"time": 0.8667,
							"vertices": [ 70.44022, 3.80753, 77.24805, 4.54407, 78.52359, 3.04993, 79.79913, -3.92899, 79.95978, -11.93866, 78.32692, -19.63382, 87.41666, -32.08588, 81.73424, -33.58157, 66.12782, -13.14328, 64.3515, -1.98694 ]
						},
						{
							"time": 1.6667,
							"vertices": [ 18.1759, 0, 18.1759, 0, 18.1759, 0, 18.1759, 0, 27.1982, -3.77853, 28.62325, -10.91388, 32.56116, -22.8667, 29.86276, -23.63803, 13.84181, -17.55585, 18.1759 ]
						},
						{
							"time": 2.4667,
							"vertices": [ -36.56496, -2.89853, -42.79311, -2.2572, -43.64842, -0.67755, -43.45639, 5.80643, -36.38007, 8.21225, -34.76541, 10.67087, -34.48714, 15.2547, -33.46822, 15.15204, -30.72873, 7.96997, -30.0141, 1.1203 ]
						},
						{
							"time": 3.3333,
							"vertices": [ -66.47137, -15.04062, -76.67278, -13.30353, -77.91101, -10.6051, -76.88689, 0.06735, -64.95404, 3.26297, -59.07613, 19.392, -47.3034, 45.72299, -42.483, 42.30017, -38.77281, 16.09677, -55.2292, -9.12775 ]
						},
						{
							"time": 4.2,
							"vertices": [ -34.07996, -36.35199, -34.07996, -36.35199, -34.07996, -36.35199, -34.07996, -36.35199, -41.32524, -30.02399, -35.65894, -24.10684, -32.57784, -11.69278, -29.83902, -12.48965, -22.77013, -30.09015, -34.07996, -36.35199 ]
						},
						{
							"time": 5,
							"vertices": [ 9.55746, -41.40479, 30.88651, -33.04315, 36.3175, -36.7453, 46.56926, -58.15271, 27.59305, -77.84619, 26.46619, -88.5499, 33.25018, -103.92291, 29.76434, -105.29791, 7.76567, -98.37848, -5.00446, -65.46185 ]
						},
						{
							"time": 5.8667,
							"vertices": [ 68.74036, -18.51126, 88.00357, -11.91049, 92.6832, -15.40796, 100.95929, -34.81378, 83.34747, -51.56799, 90.94592, -61.73978, 115.89993, -74.52618, 107.60626, -82.52625, 67.32983, -78.31738, 48.03076, -40.07193 ]
						},
						{
							"time": 6.6667,
							"vertices": [ 96.7707, 12.5661, 114.24058, 17.86798, 118.3224, 14.58533, 125.12083, -3.06577, 108.80747, -17.5177, 107.2393, -25.94998, 111.66221, -38.58923, 108.80668, -39.46259, 91.67255, -33.13361, 83.69001, -5.62991 ]
						}
					]
				},
				"back leaf 5": {
					"back leaf 5": [
						{
							"vertices": [ 95.948, 3.71893, 94.27237, 0.86292, 90.60764, -1.31342, 91.00494, -5.27814, 89.77472, -11.09528, 86.79608, -13.57166, 80.9743, -15.56073, 69.5986, -15.02924, 60.18948, -13.03644, 58.75845, -11.19196, 57.4585, -7.78387, 60.17331, 0.66852, 64.01663, 6.61023, 71.69051, 8.65656, 74.40617, 15.56024, 63.06451, 24.14661, 60.9482, 32.80438, 61.10808, 33.54846, 64.03143, 40.45685, 72.18985, 45.7287, 75.48123, 46.42468, 76.01717, 46.30939, 73.20178, 37.65546, 74.00438, 34.30817, 88.09331, 32.82025, 92.09383, 30.00555, 94.87741, 25.7608, 97.22641, 20.2005, 97.04422, 11.15863, 85.1261, -1.94049, 79.35355, -3.07062, 73.79733, -3.19403, 67.55676, -5.27686, 62.69995, -9.50006 ]
						},
						{
							"time": 0.8667,
							"vertices": [ 40.2728, 11.1825, 38.44273, 8.16309, 34.50214, 5.89838, 34.86537, 1.66486, 33.46509, -4.51874, 30.25139, -7.11426, 24.01381, -9.14612, 11.89261, -8.40668, 1.89067, -6.13818, 0.39276, -4.15015, -0.94148, -0.49609, 2.08171, 8.47455, 6.27023, 14.75146, 14.48366, 16.81647, 19.76579, 25.16174, 22.06528, 37.61658, 20.82538, 40.80829, 20.84889, 41.09985, 21.61616, 43.87775, 24.45951, 46.29443, 25.67842, 46.72412, 25.88826, 46.70728, 25.24946, 43.27008, 26.94489, 51.81134, 32.96024, 43.84412, 44.91391, 46.09583, 54.60849, 38.79199, 56.84909, 27.33795, 53.8103, 17.41949, 28.6479, 5.31256, 22.47581, 4.1955, 16.54964, 4.14899, 9.86409, 2.02313, 4.62109, -2.40601 ]
						},
						{
							"time": 1.6667,
							"vertices": [ 0.20583, 3.47253, -1.63956, 0.43726, -5.60728, -1.83575, -5.24779, -6.09564, -6.66515, -12.3147, -9.90196, -14.92108, -16.18018, -16.95654, -28.37379, -16.19556, -38.4332, -13.89966, -39.93735, -11.89709, -41.2746, -8.21942, -38.22044, 0.8017, -33.99782, 7.1106, -25.73177, 9.17664, -22.70276, 16.53668, -34.72437, 25.93768, -36.84902, 35.26001, -36.66505, 36.0556, -33.41312, 43.41724, -24.57305, 48.935, -21.03075, 49.62628, -20.45782, 49.49365, -23.62337, 40.25769, -22.81865, 36.65369, -7.73063, 34.82092, -3.48666, 31.73444, -0.5721, 27.13434, 1.85423, 21.13055, 1.54587, 11.60358, -11.49771, -2.4165, -17.70883, -3.53168, -23.67091, -3.57043, -30.40002, -5.69989, -35.68098, -10.14844 ]
						},
						{
							"time": 2.4667,
							"vertices": [ -36.1001, -1.90002, -36.1001, -1.90002, -36.1001, -1.90002, -36.1001, -1.90002, -36.1001, -1.90002, -36.1001, -1.90002, -36.1001, -1.90002, -36.1001, -1.90002, -36.1001, -1.90002, -36.1001, -1.90002, -36.1001, -1.90002, -36.1001, -1.90002, -36.1001, -1.90002, -36.1001, -1.90002, -38.43742, -5.80237, -48.38647, 1.26385, -50.42708, 8.6322, -50.30948, 9.27441, -47.9832, 15.27441, -41.12534, 20.00757, -38.32133, 20.69037, -37.85875, 20.60571, -40.04697, 13.11151, -39.27137, 10.26233, -36.1001, -1.90002, -36.1001, -1.90002, -36.1001, -1.90002, -36.1001, -1.90002, -36.1001, -4.22601, -36.1001, -1.90002, -36.1001, -1.90002, -36.1001, -1.90002, -36.1001, -1.90002, -36.1001, -1.90002 ]
						},
						{
							"time": 3.3333,
							"vertices": [ -37.43646, -23.74384, -37.10051, -22.25708, -35.79716, -20.79034, -36.52542, -19.10681, -36.79868, -16.38342, -35.83804, -14.88074, -33.56236, -13.19489, -28.49844, -11.83868, -24.0928, -11.39807, -23.20741, -12.00714, -22.1609, -13.32025, -22.17065, -17.40723, -23.02628, -20.55054, -26.1064, -22.52039, -26.33289, -25.92804, -25.0304, -31.61676, -26.26639, -28.43829, -26.24289, -28.14783, -25.47958, -25.38062, -22.64822, -22.97253, -21.43441, -22.5437, -21.22537, -22.56073, -21.86047, -25.98474, -24.44352, -25.38141, -29.92489, -35.41113, -32.07293, -34.73535, -33.88703, -33.26239, -35.69437, -31.15192, -36.5528, -30.50659, -33.48045, -19.74927, -31.10628, -18.44708, -28.68639, -17.61658, -26.24011, -15.83105, -24.69983, -13.29993 ]
						},
						{
							"time": 4.2,
							"vertices": [ 15.6886, -33.21619, 16.0768, -30.35443, 18.29427, -27.37091, 16.64151, -24.31403, 15.67572, -19.21906, 17.24014, -16.22485, 21.25641, -12.66687, 30.58942, -9.26978, 38.83121, -7.71008, 40.60303, -8.71326, 42.7951, -11.01898, 43.45218, -18.7334, 42.35686, -24.80707, 36.86949, -29.034, 37.00522, -35.5025, 49.01907, -38.599, 53.633, -44.8548, 53.75446, -45.50708, 53.72476, -52.04962, 48.93178, -59.03503, 46.51715, -60.70172, 46.0471, -60.78918, 45.40312, -52.87817, 43.63182, -50.45441, 31.79372, -53.99402, 27.62804, -53.0741, 23.96089, -50.59387, 20.20111, -46.90936, 18.08978, -43.76947, 22.49451, -25.02325, 26.75993, -22.17322, 31.18976, -20.20575, 35.51132, -16.43152, 38, -11.39996 ]
						},
						{
							"time": 5,
							"vertices": [ 87.04959, -6.50122, 86.3215, -8.08899, 84.51328, -9.42529, 84.93188, -11.48529, 84.59427, -14.60339, 83.16211, -16.06085, 80.21198, -17.41296, 74.21344, -17.73657, 69.16965, -17.18896, 68.32086, -16.29687, 67.45807, -14.57666, 68.43536, -9.99701, 70.13776, -6.67487, 74.05693, -5.1947, 75.11658, -1.42731, 82.31767, 3.52991, 85.18031, -0.8822, 85.23607, -1.32788, 84.95076, -5.74548, 81.43016, -10.26898, 79.73178, -11.297, 79.41077, -11.3374, 79.29657, -5.96783, 78.19841, -4.25885, 81.386, 8.35626, 83.63472, 7.09076, 85.32037, 5.01038, 86.84775, 2.21661, 87.1078, -3.64374, 81.66965, -10.04486, 78.69989, -10.94354, 75.79034, -11.30249, 72.6254, -12.7262, 70.29993, -15.19995 ]
						},
						{
							"time": 5.8667,
							"vertices": [ 118.86029, 3.12878, 116.18494, -0.6449, 110.82288, -3.23279, 110.8992, -8.79865, 108.4877, -16.74713, 104.04431, -19.83582, 95.70294, -21.90381, 79.93451, -19.79681, 67.07916, -15.89215, 65.30914, -13.15289, 63.90939, -8.25342, 68.70377, 3.18378, 74.76706, 10.99127, 85.69342, 12.91687, 90.30276, 22.19849, 86.1521, 46.36639, 83.10095, 50.79651, 83.10551, 50.92487, 83.3866, 52.15906, 84.30998, 44.3902, 81.91626, 42.74445, 81.45091, 42.65863, 84.99234, 51.96442, 85.22452, 51.43262, 111.42686, 44.57501, 116.65614, 40.17645, 120.01999, 33.93439, 122.62073, 25.91315, 121.55984, 14.26215, 103.11841, -3.44708, 94.94876, -4.32574, 87.20093, -3.82971, 78.26529, -5.97797, 70.99783, -11.27191 ]
						},
						{
							"time": 6.6667,
							"vertices": [ 95.948, 3.71893, 94.27237, 0.86292, 90.60764, -1.31342, 91.00494, -5.27814, 89.77472, -11.09528, 86.79608, -13.57166, 80.9743, -15.56073, 69.5986, -15.02924, 60.18948, -13.03644, 58.75845, -11.19196, 57.4585, -7.78387, 60.17331, 0.66852, 64.01663, 6.61023, 71.69051, 8.65656, 74.40617, 15.56024, 63.06451, 24.14661, 60.9482, 32.80438, 61.10808, 33.54846, 64.03143, 40.45685, 72.18985, 45.7287, 75.48123, 46.42468, 76.01717, 46.30939, 73.20178, 37.65546, 74.00438, 34.30817, 88.09331, 32.82025, 92.09383, 30.00555, 94.87741, 25.7608, 97.22641, 20.2005, 97.04422, 11.15863, 85.1261, -1.94049, 79.35355, -3.07062, 73.79733, -3.19403, 67.55676, -5.27686, 62.69995, -9.50006 ]
						}
					]
				},
				"back leaf 6": {
					"back leaf 6": [
						{
							"vertices": [ 62.84991, -17.21527, 57.39932, -21.3075, 52.77527, -25.06586, 52.38846, -25.00946, 50.34576, -12.86951, 51.87607, -2.53876, 62.91663, -6.59375, 63.32883, -13.92322 ]
						},
						{
							"time": 0.8667,
							"vertices": [ -1.9744, -23.8941, -8.96204, -28.75409, -14.90341, -33.23486, -15.38367, -33.14703, -17.3826, -17.90375, -15.0043, -5.08026, -1.59253, -10.01172, -1.22733, -19.80737 ]
						},
						{
							"time": 1.6667,
							"vertices": [ -50.911, -4.92224, -52.16144, -6.09259, -53.21448, -7.15698, -53.31268, -7.15332, -54.15266, -4.17609, -54.05092, -1.55383, -50.3735, -4.04346, -50.88074, -4.08685 ]
						},
						{
							"time": 2.4667,
							"vertices": [ -68.67834, 14.75311, -65.12961, 19.32867, -62.18298, 23.44562, -61.85345, 23.48621, -57.45721, 13.99591, -56.39459, 5.18713, -63.71355, 2.06299, -68.33261, 11.94812 ]
						},
						{
							"time": 3.3333,
							"vertices": [ -67.71881, 27.56598, -62.18048, 36.39343, -57.63849, 44.29114, -57.05557, 44.42273, -47.48947, 28.21265, -44.01468, 12.62799, -57.89822, 7.35883, -66.59914, 22.60474 ]
						},
						{
							"time": 4.2,
							"vertices": [ -7.81509, 21.12006, -2.22089, 30.10779, 2.36447, 38.14807, 2.95624, 38.28406, 12.73398, 21.85095, 16.32089, 6.03076, 2.20871, 0.65973, -6.65939, 16.08362 ]
						},
						{
							"time": 5,
							"vertices": [ 56.86194, 2.10602, 56.86194, 2.10602, 56.86194, 2.10602, 56.86194, 2.10602, 56.86194, 2.10602, 56.86194, 2.10602, 58.0249, -0.21997, 56.86194, 2.10602 ]
						},
						{
							"time": 5.8667,
							"vertices": [ 74.80298, -11.69513, 67.83752, -16.5448, 61.91531, -21.01611, 61.43637, -20.92896, 59.43527, -5.72961, 61.80011, 7.05872, 75.17856, 2.14117, 75.54572, -7.61945 ]
						},
						{
							"time": 6.6667,
							"vertices": [ 62.84991, -17.21527, 57.39932, -21.3075, 52.77527, -25.06586, 52.38846, -25.00946, 50.34576, -12.86951, 51.87607, -2.53876, 62.91663, -6.59375, 63.32883, -13.92322 ]
						}
					]
				},
				"back leaf 7": {
					"back leaf 7": [
						{
							"vertices": [ 36.17255, -23.18927, 31.51123, -34.97479, 19.04517, -41.3645, 15.5766, -41.30914, 15.9924, -14.92291, 16.20035, -13.81244, 19.492, -5.26392, 22.69473, -1.10022, 25.71429, -1.66608, 36.46411, -10.33765, 36.63266, -20.73279 ]
						},
						{
							"time": 0.8667,
							"vertices": [ -24.2041, -18.62524, -32.47198, -17.2713, -28.75482, -2.12585, -24.83221, -0.48224, -20.33636, -14.70117, -38.01785, -13.13794, -36.1545, -7.25488, -34.17133, -4.32391, -32.11786, -4.58075, -24.53418, -9.9715, -23.99518, -16.95453 ]
						},
						{
							"time": 1.6667,
							"vertices": [ -46.52902, 3.37445, -46.89825, 20.0108, -47.10764, 36.09674, -43.73779, 43.58075, -34.85065, 8.9151, -40.49037, 5.3678, -40.82448, 2.83038, -41.42166, 1.48987, -42.27879, 1.44574, -45.76646, -2.55914, -52.14906, 2.67725 ]
						},
						{
							"time": 2.4667,
							"vertices": [ -55.75716, 25.30054, -52.60562, 42.59186, -46.33276, 48.62335, -43.05704, 49.84009, -33.79449, 24.92535, -33.58359, 23.80737, -33.54532, 14.58051, -35.02783, 9.50134, -38.0685, 8.92792, -51.32927, 13.13293, -55.29033, 22.82684 ]
						},
						{
							"time": 3.3333,
							"vertices": [ -46.95804, 31.48395, -43.98877, 50.20715, -37.1105, 57.13068, -33.55673, 58.52155, -22.96857, 31.49176, -22.71689, 30.27496, -22.49971, 20.20056, -24.02197, 14.62634, -27.33127, 13.94171, -41.89145, 18.28174, -46.40115, 28.79175 ]
						},
						{
							"time": 4.2,
							"vertices": [ 18.64917, 16.03729, 25.80249, 9.41388, 18.5365, 26.37695, 36.035, 33.9801, 40.17117, 19.75891, 27.27603, 14.46301, 26.87949, 10.84375, 26.07172, 8.91846, 24.85385, 8.82922, 19.84244, 11.0694, 15.48984, 15.85486 ]
						},
						{
							"time": 5,
							"vertices": [ 48.16586, -8.40729, 48.55701, -11.13342, 50.66742, -6.05859, 47.12567, -4.56543, 41.34137, -6.56738, 41.36316, -6.20197, 42.07504, -3.31927, 42.93597, -1.85065, 43.92993, -1.91003, 47.73843, -4.26245, 48.2142, -7.59851 ]
						},
						{
							"time": 5.8667,
							"vertices": [ 51.77139, -21.61658, 45.46426, -35.49554, 31.0423, -42.24445, 26.9845, -42.04865, 28.46384, -11.18243, 28.74905, -9.89081, 32.92322, -0.00922, 36.82813, 4.74292, 40.34082, 3.96747, 52.59628, -6.58636, 52.40244, -18.75861 ]
						},
						{
							"time": 6.6667,
							"vertices": [ 36.17255, -23.18927, 31.51123, -34.97479, 19.04517, -41.3645, 15.5766, -41.30914, 15.9924, -14.92291, 16.20035, -13.81244, 19.492, -5.26392, 22.69473, -1.10022, 25.71429, -1.66608, 36.46411, -10.33765, 36.63266, -20.73279 ]
						}
					]
				},
				"back leaf 8": {
					"back leaf 8": [
						{
							"offset": 2,
							"vertices": [ -0.98196, -1.96399 ]
						},
						{
							"time": 1.6667,
							"vertices": [ -56.90419, 37.64807, -51.52968, 44.10501, -53.33044, 40.6936, -59.81659, 27.71115, -71.26187, 31.76157, -76.18584, 34.23727, -77.73007, 37.67197, -68.82149, 40.46478, -58.7616, 47.50104, -42.01837, 44.81726, -36.08273, 43.08975, -13.48082, 41.02286, -3.37856, 38.56824, 4.11201, 32.55634, 7.37222, 27.10941, 10.2984, 17.89206, 8.71931, 8.96967, 4.78958, 3.4808, 0, 0, -12.87511, -4.06833, -21.81102, -4.92508, -31.7561, -4.36334, -37.48251, -2.31152, -49.41193, 3.87262, -56.52618, 10.44885, -62.1837, 20.47574, -64.22177, 27.0145 ]
						},
						{
							"time": 3.3333,
							"vertices": [ -47.79739, 35.31104, -45.68958, 42.40948, -39.21973, 54.17334, -33.09717, 58.38751, -27.36859, 60.24091, -24.6832, 60.74957, -23.0401, 59.86237, -25.70724, 56.07764, -27.28784, 50.74304, -27.16241, 39.14368, -24.32416, 35.95062, -7.12241, 32.58038, 0.44559, 29.89819, 5.72641, 24.68848, 7.80176, 20.24652, 9.323, 12.93427, 7.40628, 6.20374, 3.95435, 2.29645, 0, 0, -10.21266, -2.11041, -17.14554, -2.06415, -24.74191, -0.84802, -28.97968, 1.17957, -37.65738, 6.87146, -42.60458, 12.48511, -46.16061, 20.6347, -47.21082, 25.81903 ]
						},
						{
							"time": 5,
							"vertices": [ 23.62083, -53.63495, 19.91823, -49.49014, 15.39362, -33.53455, 23.46225, -20.28873, 34.14063, -13.29703, 39.34828, -10.7562, 43.2038, -11.65219, 39.86458, -20.88184, 33.30542, -38.42365, 34.59741, -55.75537, 14.01041, -62.95871, -0.36766, -34.86514, -16.09856, -27.3653, -18.72301, -18.77747, -18.37595, -12.85233, -15.78619, -4.18942, -9.87022, 1.87433, -3.94485, 4.04752, 1.58826, 4.21704, 13.67886, 0.58524, 21.03525, -3.45554, 28.42497, -9.12354, 32.25223, -18.80341, 33.74574, -34.73383, 34.96504, -44.12061, 30.62407, -51.22, 37.15515, -54.49643 ]
						},
						{
							"time": 6.6667,
							"offset": 2,
							"vertices": [ -0.98196, -1.96399 ]
						}
					]
				},
				"back leaf 9": {
					"back leaf 9": [
						{},
						{
							"time": 1.6667,
							"vertices": [ -19.50575, -18.61511, -25.42761, -12.03082, -23.03273, -6.37787, -20.96106, -3.28723, -17.65042, -0.11908, -14.41945, 2.18964, -8.45055, 4.76276, -3.04297, 5.73047, -0.89513, 5.58331, 1.76421, 4.79242, 4.80052, 1.59467, 5.51001, -0.18774, 6.6447, -6.53314, 4.63712, -13.36029, 3.13087, -15.55743, 0.42609, -17.91949, -3.75482, -19.92743, -13.92601, -18.19458, -15.85139, -14.75745, -20.65416, -15.90375, -32.1877, 7.14142, -26.2281, 5.66766, -19.46365, -3.63544, -16.48421, -11.38556, -16.71906, -18.19885, -19.22392, -22.25165, -20.49507, -23.6037, -21.4808, -22.36285 ]
						},
						{
							"time": 3.3333,
							"vertices": [ -5.92738, -4.97791, -5.67741, -4.31458, -5.29561, -3.70227, -4.9984, -3.38116, -4.55589, -3.0741, -4.13846, -2.86548, -3.39827, -2.67621, -2.75269, -2.66321, -2.50598, -2.71948, -2.21182, -2.86035, -1.91792, -3.28735, -1.86835, -3.50726, -1.853, -4.26471, -2.21136, -5.02057, -2.4265, -5.24792, -2.78395, -5.47253, -3.30615, -5.62915, -3.98169, -5.83148, -4.34276, -6.19519, -4.73817, -6.59351, -4.28894, -7.18787, -4.40674, -7.30872, -4.86021, -7.31683, -5.27316, -7.12488, -5.64803, -6.83826, -5.89, -6.41772, -6.01201, -5.97229, -6.02457, -5.45886 ]
						},
						{
							"time": 5,
							"vertices": [ 55.29659, 9.77875, 53.51843, 0.92517, 47.31892, -4.81653, 44.26834, -20.77563, 33.86172, -22.53015, 24.7182, -22.75049, 10.01501, -19.93304, -1.54161, -14.78241, -5.44411, -11.72357, -9.48907, -6.77692, -11.13875, 3.24469, -10.1852, 7.55933, -4.1395, 21.1192, 8.5177, 31.53241, 14.22997, 33.77081, 22.4398, 34.77362, 30.78017, 23.08044, 39.03487, 23.28473, 44.68285, 21.66907, 51.33592, 20.26117, 67.23077, 18.95911, 66.01875, 15.89716, 57.92073, 12.33038, 49.04012, 12.68079, 53.16704, 20.63367, 53.59412, 19.77179, 57.43523, 17.44562, 56.77057, 13.40167 ]
						},
						{ "time": 6.6667 }
					]
				},
				"front leaf 1": {
					"front leaf 1": [
						{
							"vertices": [ 30.82214, -41.54514, 34.41228, -31.30136, 33.88129, -29.31821, 27.03491, -19.68961, 23.75662, -9.4129, 23.80115, -6.4812, 27.61456, 0.88638, 32.46634, 5.49985, 45.12625, 9.51569, 56.83392, 9.41199, 58.98175, 8.185, 62.69345, 4.38574, 62.99863, -9.61151, 62.15494, -21.13712, 56.25365, -32.81863, 63.7673, -43.39508, 74.73433, -44.14853, 85.52403, -40.7077, 86.93173, -42.45016, 87.12921, -43.74268, 85.83989, -52.05008, 81.89259, -59.76041, 76.61232, -66.655, 70.59132, -71.47125, 64.90662, -74.3898, 60.50079, -74.70667, 39.26585, -56.1861, 35.31216, -50.4386, 31.11301, -42.4577, 49.27142, -25.76569, 44.91837, -15.52695, 41.4353, -5.73764, 49.05005, -1.13098 ]
						},
						{
							"time": 0.8667,
							"vertices": [ 58.90324, -34.13068, 61.96561, -27.71735, 61.76019, -26.38892, 57.9859, -19.63702, 56.57977, -12.71582, 56.81653, -10.81082, 59.82043, -6.28534, 63.30505, -3.62595, 71.82971, -1.90857, 79.44299, -2.8053, 80.75403, -3.75598, 82.90085, -6.49191, 82.10818, -15.62405, 80.74289, -23.06619, 76.07434, -30.25186, 80.21606, -37.66803, 95.00517, -33.79913, 104.83978, -25.2616, 105.63263, -26.49554, 105.6696, -27.35077, 101.67412, -39.72873, 95.99072, -47.03577, 90.13956, -53.71768, 82.66937, -56.42603, 78.76256, -57.92303, 75.8725, -57.81723, 63.18359, -44.92148, 61.19595, -40.23752, 59.02786, -34.74533, 72.02917, -25.1666, 69.92105, -18.194, 68.34714, -11.57562, 73.62976, -9.11636 ]
						},
						{
							"time": 1.6667,
							"vertices": [ 54.94183, -17.1246, 57.08429, -13.43402, 57.02559, -12.62903, 55.09256, -8.40585, 54.58511, -4.19556, 54.81876, -3.06677, 56.83499, -0.50323, 59.04904, 0.92014, 64.23392, 1.53647, 68.74722, 0.63226, 69.48596, 0, 70.63873, -1.74097, 69.72354, -7.1684, 68.54709, -11.55673, 65.40622, -15.63202, 67.52698, -20.27063, 78.37814, -22.48297, 87.80249, -9.71866, 87.10548, -13.8313, 80.97031, -18.23712, 80.97124, -23.57379, 76.09798, -27.92764, 75.77422, -32.42429, 68.08974, -31.6156, 65.67926, -32.32303, 63.95461, -32.12012, 56.71991, -24.52338, 56.01941, -20.89026, 54.98685, -17.49847, 63.23056, -12.39322, 62.30539, -8.11829, 61.68295, -4.08109, 64.96329, -2.86426 ]
						},
						{
							"time": 2.4667,
							"vertices": [ 28.17004, -1.87799, 28.17004, -1.87799, 28.17004, -1.87799, 28.17004, -1.87799, 28.17004, -1.87799, 28.17004, -1.87799, 28.17004, -1.87799, 28.17004, -1.87799, 28.17004, -1.87799, 28.17004, -1.87799, 28.17004, -1.87799, 28.17004, -1.87799, 28.17004, -1.87799, 28.17004, -1.87799, 28.17004, -1.87799, 28.17004, -1.87799, 28.17004, -1.87799, 28.17004, -1.87799, 28.17004, -1.87799, 28.17004, -1.87799, 28.17004, -1.87799, 28.17004, -1.87799, 28.17004, -1.87799, 28.17004, -1.87799, 28.17004, -1.87799, 28.17004, -1.87799, 27.30804, -3.60199, 28.17004, -1.87799, 28.17004, -1.87799, 28.17004, -1.87799, 28.17004, -1.87799, 28.17004, -1.87799, 28.17004, -1.87799 ]
						},
						{
							"time": 3.3333,
							"vertices": [ 18.10419, 25.48299, 12.38443, 20.54489, 12.0172, 19.16371, 12.81041, 10.97734, 11.22499, 3.63712, 10.18137, 1.8829, 5.32446, -1.24161, 0.79544, -2.34384, -8.23889, -0.37704, -15.26996, 3.74597, -16.1409, 5.23145, -17.06349, 8.8121, -12.39322, 17.36688, -7.88675, 24.03134, -0.27313, 29.03589, -1.14038, 38.02591, -22.3555, 45.14502, -44.61241, 46.99127, -44.23824, 50.3829, -43.05243, 51.98288, -32.68625, 59.50104, -20.11429, 63.50421, -6.9941, 65.1911, 4.67333, 63.84718, 11.48952, 59.05589, 11.69078, 55.79312, 16.10503, 34.78336, 18.47832, 32.40858, 18.24513, 26.13492, 1.49527, 22.3569, 0.57179, 14.66696, -0.72086, 7.55002, -6.91495, 7.41028 ]
						},
						{
							"time": 4.2,
							"vertices": [ -1.05648, 12.75409, -10.47565, 6.30743, -11.26011, 4.29608, -11.45149, -8.12567, -15.07019, -18.8757, -16.93299, -21.33289, -24.75097, -25.20291, -31.73483, -26.09277, -44.96374, -21.61554, -54.8215, -14.23969, -55.87796, -11.86292, -56.65838, -6.33252, -48.20393, 5.71997, -40.31459, 14.96274, -28.04165, 21.18924, -36.81376, 38.68201, -47.56514, 59.6293, -81.96336, 79.47961, -88.34126, 83.76828, -85.68613, 85.51904, -66.02023, 91.11862, -47.53834, 88.31186, -32.71299, 81.7308, -21.72674, 74.6091, -11.42346, 65.01692, -5.5664, 59.33295, -1.76437, 27.77002, 0.67431, 23.08649, -0.7348, 13.70869, -26.51458, 10.86566, -29.19893, -0.52133, -32.34077, -10.9859, -41.66174, -10.15002 ]
						},
						{
							"time": 5,
							"vertices": [ -22.84404, -1.49105, -26.71379, -5.13973, -26.92944, -6.12223, -26.11938, -11.85405, -27.0078, -17.06438, -27.68761, -18.32997, -31.00662, -20.67682, -34.15706, -21.59138, -40.57039, -20.48696, -45.64143, -17.80451, -46.2996, -16.78677, -47.05875, -14.2975, -44.03846, -8.13813, -41.07515, -3.31307, -35.87582, 0.44056, -36.76281, 6.73525, -56.57377, 15.10943, -94.38719, 34.38209, -91.81065, 39.10437, -89.123, 40.72781, -67.09386, 38.71252, -48.92284, 36.49026, -37.62741, 35.2183, -29.9669, 33.07896, -27.84541, 25.07829, -28.28806, 19.62402, -24.84552, 4.50179, -22.79446, 3.3903, -22.765, -1.02839, -34.42642, -4.20114, -34.83877, -9.63699, -35.52836, -14.68119, -39.87943, -14.97034 ]
						},
						{
							"time": 5.8667,
							"vertices": [ -8.75198, -34.80618, -6.54311, -30.95889, -6.60819, -30.12231, -8.63855, -25.74149, -9.18697, -21.36716, -8.94962, -20.19254, -6.86623, -17.51758, -4.57166, -16.02686, 0.81546, -15.36044, 5.51176, -16.27802, 6.28296, -16.93164, 7.48999, -18.73596, 6.56544, -24.38281, 5.36417, -28.95053, 2.11911, -33.20255, 4.34677, -38.0144, -0.19917, -39.69357, -13.39847, -43.01016, -12.96326, -43.81564, -12.9807, -44.34988, -3.55614, -45.92319, -0.71497, -48.16974, 3.87553, -48.87714, 4.98806, -49.80566, 2.48563, -50.55304, 0.69174, -50.35071, -6.84143, -42.41629, -7.61327, -38.71545, -8.70345, -35.19464, -0.15868, -29.8465, -1.14169, -25.40689, -1.80869, -21.21298, 1.5955, -19.93173 ]
						},
						{
							"time": 6.6667,
							"vertices": [ 30.82214, -41.54514, 34.41228, -31.30136, 33.88129, -29.31821, 27.0349, -19.68961, 23.75665, -9.4129, 23.80115, -6.4812, 27.61456, 0.88638, 32.46634, 5.49985, 45.12622, 9.51569, 56.83392, 9.41199, 58.98175, 8.185, 62.69345, 4.38574, 62.99863, -9.61151, 62.15494, -21.13712, 56.25365, -32.81863, 63.7673, -43.39508, 74.73433, -44.14853, 85.52403, -40.7077, 86.93173, -42.45016, 87.12921, -43.74268, 85.83989, -52.05008, 81.89261, -59.76041, 76.6123, -66.655, 70.59134, -71.47125, 64.90662, -74.3898, 60.50079, -74.70667, 39.26585, -56.1861, 35.31216, -50.4386, 31.11301, -42.4577, 49.27142, -25.76569, 44.91837, -15.52695, 41.4353, -5.73764, 49.05005, -1.13098 ]
						}
					]
				},
				"front leaf 2": {
					"front leaf 2": [
						{
							"vertices": [ 96.38705, 0, 96.38705, 0, 96.38705, 0, 96.38705, 0, 96.38705, 0, 96.38705, 0, 96.38705, 0, 94.061, 0, 96.38705, 0, 96.38705, 0, 96.38705, 0, 96.38705, 0, 96.38705, 0, 96.38705, 0, 96.38705, 0, 96.38705, 0, 96.38705, 0, 96.38705, 0, 96.38705, 0, 96.38705, 0, 96.38705, 0, 96.38705, 0, 96.38705, 0, 96.38705, 0, 96.38705, 0, 96.38705, 0, 96.38705, 0, 96.38705, 0, 96.38705, 0, 96.38705, 0, 96.38705, 0, 96.38705, 0, 96.38705, 0, 96.38705, 0, 96.38705, 0, 96.38705, 0, 96.38705, 0, 96.38705, 0, 96.38705, 0, 96.38705 ]
						},
						{
							"time": 0.8667,
							"vertices": [ 41.65875, -37.98352, 17.76755, -35.68817, 9.69305, -35.60675, 18.02676, -40.57809, 17.68732, -42.05359, 16.73718, -43.62482, 14.64783, -44.82086, 10.58051, -45.14044, 9.49167, -45.2724, 7.35461, -44.73828, 4.58047, -42.89929, 3.10623, -40.935, -10.1702, -37.18134, -10.14297, -36.65479, -8.72858, -35.97375, -7.5383, -35.00763, -4.56232, -32.91296, 19.54053, -35.65405, 30.07727, -33.78241, 18.42825, -30.69299, 15.61813, -28.62567, 16.58389, -25.73395, 16.91867, -25.11041, 18.15436, -24.5824, 22.04025, -24.43671, 24.85437, -25.28586, 26.12003, -26.67511, 27.00653, -27.80615, 31.81689, -25.89014, -13.04898, -34.99261, -8.82153, -37.88879, -3.93301, -36.36652, 7.88184, -35.66907, 27.25006, -33.73322, 32.90839, -30.1698, 27.01431, -20.85919, 23.4335, -27.62714, 21.48706, -26.53748, 18.95367, -26.25879, 35.83139, -21.99048 ]
						},
						{
							"time": 1.6667,
							"vertices": [ -11.6543, -43.45142, -35.5455, -41.15607, -43.62, -41.07465, -35.28629, -46.04599, -35.62573, -47.52148, -36.57587, -49.09271, -38.66522, -50.28876, -42.73254, -50.60834, -43.82138, -50.7403, -45.95844, -50.20618, -48.73257, -48.36719, -50.20682, -46.40289, -63.48325, -42.64923, -63.45602, -42.12268, -62.04163, -41.44165, -60.85135, -40.47552, -57.87537, -38.38086, -33.77252, -41.12195, -23.23578, -39.25031, -34.8848, -36.16089, -37.69492, -34.09357, -36.72916, -31.20184, -36.39438, -30.57831, -35.15869, -30.05029, -31.2728, -29.9046, -28.45868, -30.75375, -27.19302, -32.14301, -26.30652, -33.27405, -21.49615, -31.35803, -66.36203, -40.46051, -62.13458, -43.35669, -57.24606, -41.83441, -45.43121, -41.13696, -26.06299, -39.20111, -20.40466, -35.6377, -26.29874, -26.32709, -29.87955, -33.09503, -31.82599, -32.00537, -34.35937, -31.72668, -17.48166, -27.45837 ]
						},
						{
							"time": 2.4667,
							"vertices": [ -51.18198, -17.22989, -70.0704, -12.67072, -77.63629, -11.87903, -70.57623, -9.28683, -70.51978, -8.88599, -70.30243, -8.44604, -69.77374, -8.07898, -71.64328, -7.95416, -68.41089, -7.84015, -67.82953, -7.93335, -67.04813, -8.35944, -66.6102, -8.84869, -77.7626, -10.76965, -77.75781, -10.91071, -78.11899, -11.12445, -78.41391, -11.40906, -76.35132, -9.4613, -55.44202, -13.58228, -49.85526, -13.02588, -61.78076, -12.7196, -64.83582, -15.94159, -65.02646, -16.73419, -65.10129, -16.90839, -65.41818, -17.07739, -66.45009, -17.20526, -67.21901, -17.04395, -67.58821, -16.70297, -67.85031, -16.422, -63.79776, -9.8074, -84.73889, -9.29016, -85.44479, -11.74713, -83.74274, -10.73499, -77.15509, -11.82062, -56.40752, -14.10919, -55.188, -11.5705, -64.25732, -5.9801, -66.89452, -16.38757, -66.35094, -16.63306, -65.66956, -16.64917, -50.97485, -3.44922 ]
						},
						{
							"time": 3.3333,
							"vertices": [ -90.56877, -6.66565, -80.80524, 8.9834, -80.41898, 13.80261, -86.43515, 26.95139, -86.60019, 31.29196, -85.1449, 36.35458, -80.25473, 41.233, -77.9975, 43.42163, -66.3129, 46.34528, -59.99472, 46.46661, -50.93402, 43.45111, -45.37933, 39.11554, -38.75967, 32.22815, -38.44052, 30.74908, -41.84805, 27.80377, -44.42102, 24.23688, -45.41431, 22.69977, -51.47842, 9.3761, -60.77995, 1.29785, -60.41444, -0.34888, -59.07362, -11.08801, -59.58218, -19.82025, -60.04224, -21.79858, -63.06892, -24.18622, -73.72235, -27.49982, -82.15176, -27.25632, -86.69807, -24.35645, -90.00035, -21.8877, -91.77701, -13.19061, -47.19064, 30.87927, -59.19351, 28.80469, -65.28763, 25.11078, -75.44925, 15.33224, -69.08153, -1.09381, -77.02856, -6.39737, -80.14082, -12.60254, -79.97057, -19.70731, -73.76352, -21.26721, -66.53812, -20.14197, -70.76024, -6.70367 ]
						},
						{
							"time": 4.2,
							"vertices": [ -47.03134, -9.31058, -35.65454, 11.46469, -35.51083, 17.67123, -44.18298, 34.09042, -44.71085, 39.64362, -43.21423, 46.24014, -37.3006, 52.85114, -33.91, 55.99152, -19.79858, 60.42224, -11.70709, 61.03839, 0.12918, 57.83301, 7.56686, 52.67987, 16.55603, 44.33197, 17.07288, 42.45911, 12.91879, 38.43451, 9.8804, 33.67365, 8.71902, 31.63055, 1.91595, 14.10669, -9.42035, 3.07141, -8.8317, 0.98663, -6.32968, -12.68359, -6.34497, -23.91614, -6.79047, -26.48639, -10.49677, -29.76813, -23.91364, -34.7934, -34.73862, -35.09583, -40.77878, -31.70947, -45.19266, -28.78503, -48.10454, -17.76425, 5.84515, 41.98792, -9.39209, 38.45294, -16.93597, 33.27271, -29.25085, 19.99493, -19.88928, -0.6001, -29.69131, -7.97943, -33.22902, -16.16138, -32.49268, -25.25812, -24.42093, -26.80554, -15.23947, -24.83582, -21.63251, -7.91479 ]
						},
						{
							"time": 5,
							"vertices": [ 33.25937, -2.74899, 35.25403, 25.7067, 22.51019, 30.99484, 9.91095, 51.13806, 8.71878, 58.17526, 10.01309, 66.73343, 9.00464, 80.1319, 29.41052, 84.40518, 41.77014, 100.82129, 55.60156, 104.84998, 77.33554, 103.60944, 92.14056, 97.37567, 110.80847, 86.16077, 112.39136, 83.09583, 106.64661, 74.58557, 109.28204, 66.08643, 109.77579, 60.34839, 122.00436, 35.35608, 91.56586, 17.44458, 59.87747, 6.90179, 72.14011, 0.00891, 54.97949, -28.81445, 54.51706, -30.95435, 51.29495, -33.57819, 39.86893, -37.32727, 30.78043, -37.20544, 25.83243, -34.15628, 22.23218, -31.55075, 32.6788, -13.63724, 93.05841, 78.17236, 67.88058, 66.46069, 56.66949, 54.70331, 30.2818, 34.54428, 68.8472, 9.1358, 55.26315, 0.56836, 47.10251, -9.32159, 33.00494, -29.03326, 39.72046, -30.6109, 47.48862, -29.27753, 60.24921, 4.04865 ]
						},
						{
							"time": 5.8667,
							"vertices": [ 62.77023, -7.31763, 69.82654, 2.43295, 70.29358, 5.55301, 66.96545, 14.38208, 67.05225, 17.21524, 68.2262, 20.44608, 71.62799, 23.40289, 72.38354, 24.62256, 80.93298, 26.10742, 85.05151, 25.90344, 90.815, 23.53497, 94.23709, 20.46393, 98.23831, 15.68402, 98.37982, 14.70697, 96.02969, 12.94202, 94.1951, 10.73505, 93.4798, 9.77881, 88.93588, 1.3764, 82.51904, -3.46637, 82.68326, -4.55457, 83.07565, -11.60577, 82.35388, -17.26782, 81.96582, -18.53503, 79.88861, -19.9541, 72.80493, -21.63446, 67.32828, -21.09875, 64.49844, -19.00751, 62.45905, -17.25262, 61.69168, -11.51132, 92.68939, 15.18304, 84.78278, 14.36981, 80.65015, 12.23767, 73.59744, 6.32654, 77.00775, -4.65173, 71.59683, -7.74878, 69.29309, -11.64917, 69.08606, -16.28192, 73.05704, -17.57526, 77.81113, -17.16595, 75.66391, -8.2287 ]
						},
						{
							"time": 6.6667,
							"vertices": [ 96.38705, 0, 96.38705, 0, 96.38705, 0, 96.38705, 0, 96.38705, 0, 96.38705, 0, 96.38705, 0, 94.061, 0, 96.38705, 0, 96.38705, 0, 96.38705, 0, 96.38705, 0, 96.38705, 0, 96.38705, 0, 96.38705, 0, 96.38705, 0, 96.38705, 0, 96.38705, 0, 96.38705, 0, 96.38705, 0, 96.38705, 0, 96.38705, 0, 96.38705, 0, 96.38705, 0, 96.38705, 0, 96.38705, 0, 96.38705, 0, 96.38705, 0, 96.38705, 0, 96.38705, 0, 96.38705, 0, 96.38705, 0, 96.38705, 0, 96.38705, 0, 96.38705, 0, 96.38705, 0, 96.38705, 0, 96.38705, 0, 96.38705, 0, 96.38705 ]
						}
					]
				},
				"front leaf 3": {
					"front leaf 3": [
						{
							"offset": 44,
							"vertices": [ 2.94598 ]
						},
						{
							"time": 1.6667,
							"vertices": [ -26.94135, -10.53363, -27.21333, -9.06329, -26.0369, -5.28607, -20.6769, 1.40338, -15.763, 5.1452, -8.55603, 6.43549, -5.19739, 5.95483, -1.97049, 5.01752, 2.16351, 2.10742, 4.83565, -12.19342, 3.82681, -19.08197, 3.26247, -22.93512, 27.45401, -20.11023, 35.86975, -16.20325, 37.17871, -15.73846, 38.36594, -17.37628, 38.05006, -21.46777, 36.84479, -28.79926, 32.33046, -38.07178, 25.16209, -48.69403, 18.49594, -55.10352, 13.8006, -56.74561, 1.69647, -53.50146, -19.85736, -38.96423, -20.58299, -34.95782, -16.54268, -26.79565, -18.4787, -22.64166, 21.43999, -35.64862, 11.80374, -40.68994, -4.86725, -32.31378, -10.48743, -28.4729, 1.61708, -11.08478, -5.36932, -4.00879, -16.3819, -7.69818, -12.40489, -2.49408, -6.51665, 0.0061, -2.75157 ]
						},
						{
							"time": 3.3333,
							"vertices": [ 2.42302, 4.49054, 2.41493, 4.22998, 2.07437, 3.63086, 0.91339, 2.6908, -0.06183, 2.2359, -1.33667, 2.2832, -1.89053, 2.48981, -2.40524, 2.7691, -3.00121, 3.41809, -2.92558, 5.95184, -2.49826, 7.08704, -9.57988, 26.49609, -18.01831, 35.50659, -25.03747, 40.89355, -29.48511, 36.15656, -29.10725, 33.17029, -27.28001, 29.93542, -23.70332, 30.8562, -25.61491, 41.01154, -15.49151, 34.30585, -10.17983, 25.1275, -11.15039, 20.39508, 0.20844, 19.53168, 1.02725, 10.30463, 2.24651, 8.88483, 4.46257, 2.29187, 8.88454, 7.2229, -13.58244, 25.16827, -8.52736, 22.85431, -1.8902, 11.04535, 0.40714, 5.70837, -7.68541, 23.21588, -3.09134, 14.29297, 0.52003, 4.39966, -0.35007, 3.66064, -1.44507, 3.45404, -2.08603, 3.59509 ]
						},
						{
							"time": 5,
							"vertices": [ 42.97719, -3.17847, 42.25185, -5.51044, 37.67822, -10.07568, 24.84131, -15.66803, 14.892, -17.33997, 3.49274, -13.72327, -0.9964, -10.47345, -4.94827, -6.6637, -8.71034, 0.68793, -1.69525, 23.39203, 5.00301, 32.58228, -2.37288, 74.33624, -18.69244, 95.41388, -38.01472, 114.6037, -50.58568, 124.6582, -53.4214, 128.3451, -51.83377, 132.78119, -44.12068, 130.04547, -9.11115, 130.11615, 13.30476, 118.50818, 24.34428, 107.14014, 27.82288, 100.78021, 43.5345, 75.5639, 54.36258, 43.30768, 52.36426, 36.9649, 40.31511, 21.99847, 51.26395, 19.9812, -4.75461, 93.65558, 22.52959, 76.03674, 32.85678, 41.93695, 34.41455, 30.60797, 15.43024, 49.88379, 15.61084, 29.64349, 25.55603, 0.75543, 15.84842, -3.7428, 5.43552, -2.87744 ]
						},
						{
							"time": 5.8667,
							"vertices": [ 20.62905, -1.52566, 20.28088, -2.64501, 18.08554, -4.83633, 11.92383, -7.52065, 7.14816, -8.32318, 1.67651, -6.58717, -0.47827, -5.02725, -2.37517, -3.19857, -4.18096, 0.33021, -0.81372, 11.22817, 2.40144, 15.63949, -1.13898, 35.68139, -25.38837, 46.23066, -35.52705, 56.73779, -43.28912, 55.08397, -46.37822, 59.01365, -41.72817, 60.2789, -31.11391, 61.12579, -17.76534, 61.59179, -2.2537, 56.88391, 7.36525, 50.13123, 13.35498, 48.37449, 22.42847, 36.27067, 26.09403, 20.78768, 25.13484, 17.74315, 19.35125, 10.55927, 24.60669, 9.59097, -9.62624, 41.06667, 10.8142, 36.49763, 15.77125, 20.12973, 16.51898, 14.69182, 7.40651, 23.94421, 7.4932, 14.22887, 12.26689, 0.36261, 7.60724, -1.79654, 2.60905, -1.38117 ]
						},
						{
							"time": 6.6667,
							"offset": 44,
							"vertices": [ 2.94598 ]
						}
					]
				},
				"stem": {
					"stem": [
						{
							"vertices": [ -37.26598, -125.93372, -41.13211, -120.52164, -44.33992, -107.31741, -18.84647, -87.58267, 3.39125, -75.6424, 11.55746, -60.40741, 26.62631, -50.5004, 41.55072, -37.49866, 52.75101, -33.37146, 62.26202, -22.94492, 75.83908, -17.9422, 90.83136, -16.55072, 101.11069, -13.99792, 109.05588, -18.77942, 110.22327, -18.70807, 108.11575, -21.23596, 103.41086, -23.21152, 96.78021, -23.61176, 86.48904, -24.6106, 75.11798, -22.81409, 63.85333, -21.71533, 52.74503, -19.67969, 42.815, -17.86023, 29.04871, -14.44421, 16.88934, -11.42731, 8.2085, -6.98242, 3.24329, -3.57477, 0, 0, 0, 0, 0, 0, 0, 0, 0, 0, 0, 0, 0, 0, 0, 0, 0, 0, 0, 0, 3.59048, 3.76587, 9.80965, 5.13446, 20.36542, 5.85913, 32.20215, 3.29529, 46.4084, 0.21875, 55.85284, -1.82672, 67.6998, -4.39301, 77.71529, -7.57623, 89.35905, -9.80078, 96.42178, -12.95636, 103.47768, -15.13931, 108.17804, -17.61102, 110.30598, -20.30969, 109.22075, -20.34094, 103.89789, -27.49463, 93.21814, -29.78687, 81.95403, -36.88251, 68.89682, -41.22394, 60.35379, -50.80396, 48.4088, -54.77533, 38.25235, -68.98615, 23.48636, -84.34752, 15.11351, -98.95911, 0.28613, -112.47113, -22.21227, -128.76193 ]
						},
						{
							"time": 0.8667,
							"vertices": [ 8.21236, -110.52357, 6.13893, -106.70456, 5.11685, -97.88428, 23.23055, -87.1292, 38.89833, -79.34118, 51.58862, -73.41054, 62.58332, -68.77986, 74.06435, -63.21617, 80.72318, -58.4588, 86.60984, -57.95734, 88.14423, -54.19501, 88.75497, -52.87893, 86.49283, -49.97998, 82.19919, -51.8511, 74.38953, -49.44678, 63.53693, -51.34325, 49.90631, -48.40648, 36.24823, -42.73067, 20.37582, -39.1177, 5.94397, -33.63021, -4.79791, -28.65918, -13.57508, -24.04665, -20.03469, -19.66274, -25.54752, -13.71887, -25.00665, -6.677, -21.37054, 1.17883, -13.12891, 3.3192, -6.91257, 4.03485, -1.62064, 2.95465, 0, 0, 0, 0, 0, 0, 0, 0, 0, 0, 0, 0, -0.95932, -4.17596, -5.82371, -6.55496, -10.43399, -7.14341, -16.05362, -10.37157, -20.89077, -8.14471, -19.88795, -8.44327, -14.98348, -10.91478, -9.11967, -11.7202, 0.62915, -13.2818, 11.60752, -15.06457, 27.52159, -19.03678, 38.68299, -23.25939, 54.84731, -27.92758, 67.19756, -34.38516, 76.56812, -38.83934, 84.50963, -40.30922, 90.38001, -47.18872, 92.61555, -50.25202, 93.22956, -56.51442, 91.65616, -60.04363, 88.90701, -68.60849, 81.72778, -73.39784, 71.79709, -80.76184, 58.90875, -88.88293, 46.97206, -96.10808, 33.64352, -104.80261, 17.74791, -113.56406 ]
						},
						{
							"time": 1.6667,
							"vertices": [ 36.25491, -91.04064, 34.61136, -88.36243, 33.53528, -82.03333, 46.20143, -73.5736, 57.5912, -68.91817, 63.96812, -66.36621, 66.74722, -65.58829, 64.78824, -64.36908, 61.35437, -61.32059, 56.88742, -57.35573, 52.72504, -53.66052, 47.11072, -51.44075, 39.7413, -48.1039, 31.95233, -47.64429, 22.54684, -44.51021, 11.5246, -48.01353, -3.86246, -43.62018, -18.36789, -35.4856, -31.84595, -31.19751, -42.08932, -25.51917, -46.02752, -19.23437, -46.55869, -13.98163, -44.4679, -8.40253, -34.81693, -1.33551, -21.72356, 0.58136, -13.42978, 4.43384, -4.87393, 2.88132, -1.49637, 3.00305, 0, 0, 0, 0, 0, 0, 0, 0, 0, 0, 0, 0, 0, 0, 0, 0, -1.26909, -3.50043, -3.8403, -3.6123, -8.75204, -9.5791, -17.11083, -11.08621, -27.08621, -17.57797, -39.47685, -18.81033, -42.99496, -17.30933, -42.69975, -15.80716, -37.78674, -13.77176, -25.66922, -15.51385, -16.22202, -18.03387, 1.55945, -21.00731, 14.7717, -28.1826, 24.66522, -32.1252, 34.48232, -33.20959, 44.46222, -38.69482, 51.94736, -42.37843, 58.03709, -48.14629, 61.88071, -51.785, 65.88467, -55.57533, 69.40092, -58.90521, 71.10492, -65.34721, 68.59824, -71.81715, 63.12578, -77.75567, 54.39746, -85.93494, 43.25615, -92.87035 ]
						},
						{
							"time": 2.4667,
							"vertices": [ 48.40851, -75.64429, 47.25525, -75.8183, 44.93591, -75.27003, 43.87672, -69.71612, 43.4037, -66.3738, 40.66061, -64.02224, 36.01703, -62.46472, 27.06707, -60.12103, 19.87518, -57.27882, 10.51997, -53.58226, 1.80207, -50.13716, -8.681, -47.20746, -19.82956, -43.67545, -29.77704, -40.97751, -39.43337, -37.20078, -49.24049, -37.75388, -57.7085, -31.76858, -62.61078, -24.03707, -63.73178, -20.07797, -61.45158, -15.82437, -56.67195, -11.08659, -50.34847, -6.76165, -43.41721, -2.29903, -30.05414, 3.39882, -16.98944, 2.5845, -9.39388, 4.94999, -2.53444, 1.49828, -0.77811, 1.56159, 0, 0, 0, 0, 0, 0, 0, 0, 0, 0, 0, 0, 0, 0, 0, 0, -0.65993, -1.82022, -1.99696, -1.8784, -6.17158, -7.33915, -13.79577, -8.58386, -22.50025, -15.54924, -37.76466, -18.68448, -45.59883, -19.31136, -52.97011, -20.03826, -57.47734, -20.13411, -59.29499, -22.04533, -60.16049, -22.31927, -54.6286, -21.12986, -45.90217, -22.47795, -37.40662, -25.07362, -27.18037, -25.60404, -14.6597, -29.36284, -3.28521, -33.37202, 7.02574, -38.34812, 15.20681, -41.88805, 23.72873, -45.57546, 31.21312, -48.81464, 38.9798, -53.92091, 45.06728, -59.00778, 48.0735, -63.33675, 49.28851, -68.70346, 50.04693, -73.51553 ]
						},
						{
							"time": 3.3333,
							"vertices": [ 80.91809, -84.1364, 78.75403, -88.61737, 71.23911, -95.46315, 49.13271, -85.81734, 33.41393, -76.81412, 19.12968, -71.49307, 7.42892, -62.55865, -4.0638, -48.414, -12.98634, -41.97217, -25.68892, -33.17529, -37.52643, -30.4762, -49.98657, -26.32126, -61.87019, -23.95486, -70.70154, -20.02863, -77.33018, -16.71561, -79.47949, -12.60568, -78.52744, -10.80557, -75.29883, -8.31024, -68.63161, -4.41663, -58.37292, -2.16235, -49.06145, -0.11609, -40.1067, 1.85193, -32.10194, 3.61145, -20.72362, 5.38208, -11.86081, 4.75458, -5.02167, 5.50916, 0, 0, 0, 0, 0, 0, 0, 0, 0, 0, 0, 0, 0, 0, 0, 0, 0, 0, 0, 0, 0, 0, 0, 0, -3.37608, -4.91254, -10.20445, -5.87299, -17.50784, -8.88788, -29.10857, -11.05035, -36.82124, -12.4881, -46.49554, -14.2915, -55.51317, -15.97217, -66.14558, -17.95483, -73.17995, -15.83698, -78.10942, -13.76776, -79.48961, -12.23227, -76.86198, -9.85226, -69.7058, -8.42303, -58.17795, -8.62628, -46.00696, -11.4584, -33.15335, -14.3576, -21.98437, -17.28378, -10.35011, -26.233, -0.97533, -33.12488, 11.5011, -42.28979, 26.64862, -53.0027, 41.26256, -58.13596, 58.5986, -64.32335, 77.36864, -73.2403 ]
						},
						{
							"time": 4.2,
							"vertices": [ 31.71246, -109.96433, 29.18549, -114.15067, 21.20645, -120.1604, 0.46068, -108.70052, -15.483, -98.97817, -29.16156, -90.88554, -40.90126, -83.63094, -53.6192, -75.40782, -61.3979, -71.47242, -66.15736, -62.33057, -67.01965, -58.67975, -66.44189, -52.54869, -63.58915, -48.4464, -58.43109, -44.50064, -53.58327, -39.06913, -45.03, -33.51295, -34.62097, -29.13726, -22.9165, -25.96861, -11.25034, -20.73471, 2.58257, -18.31643, 12.48402, -14.91648, 21.46191, -14.23153, 26.56158, -11.65835, 30.55138, -13.53212, 29.69225, -11.99218, 26.93021, -10.5773, 23.45614, -11.88888, 13.78693, -12.1526, 5.68896, -7.85242, 1.504, -3.38611, 0, 0, 0, 0, 0, 0, 0, 0, 2.10118, 2.39893, 7.81117, 4.4751, 19.0241, 4.71133, 26.64417, -0.5872, 31.22143, -5.73248, 33.38046, -9.47379, 34.93439, -13.47522, 31.11888, -21.03907, 26.16014, -23.34388, 17.41353, -29.84013, 7.73824, -33.30721, -4.90852, -39.213, -16.12767, -40.83916, -27.9185, -44.95316, -39.88078, -48.10075, -49.01877, -49.88422, -55.42235, -49.46933, -58.40213, -52.36793, -61.47854, -56.50293, -61.95403, -57.69888, -61.24591, -61.1947, -55.85928, -58.73562, -47.79338, -63.14651, -35.52556, -67.00871, -19.5278, -73.53348, -4.33997, -80.12564, 11.68924, -88.53696, 29.23708, -98.97993 ]
						},
						{
							"time": 5,
							"vertices": [ -14.87393, -98.85489, -16.66447, -101.7462, -22.26141, -105.86069, -36.59552, -97.7252, -46.50079, -89.71672, -52.79323, -83.16006, -55.14659, -76.76257, -53.92186, -70.0816, -51.0737, -66.85846, -45.99094, -59.85057, -38.95807, -54.77838, -29.61417, -48.39653, -19.85046, -43.3318, -8.53015, -40.70224, 0.60464, -34.59053, 12.73405, -30.09792, 25.3093, -26.27856, 37.96536, -25.78821, 46.59946, -22.59729, 55.16278, -23.89514, 58.25809, -21.98389, 59.42179, -24.89056, 55.49593, -22.88385, 47.14591, -22.92865, 36.31346, -19.3219, 23.79092, -17.16522, 11.57571, -14.44589, 3.32068, -4.73682, 0, 0, 0, 0, 0, 0, 0, 0, 0, 0, 0, 0, 0, 0, 0, 0, 5.04395, 4.85071, 18.06715, 8.60071, 30.68109, 3.07098, 41.95103, -3.31839, 52.5546, -8.28891, 59.26595, -15.77274, 62.9594, -17.81213, 61.70627, -26.4559, 58.42732, -29.13925, 51.65984, -35.37976, 43.32956, -37.5481, 32.64357, -44.32426, 18.63107, -48.72023, 6.11583, -52.11473, -5.27406, -51.24078, -13.77097, -56.28854, -24.0033, -61.18663, -32.38028, -64.72923, -39.21982, -69.33609, -45.68314, -71.09111, -48.79369, -74.39111, -50.95795, -75.45699, -47.60901, -77.02309, -39.54378, -79.07117, -28.62502, -83.79391, -16.50641, -91.19623 ]
						},
						{
							"time": 5.8667,
							"vertices": [ -37.20061, -101.33164, -38.69547, -100.50006, -40.89651, -97.78387, -37.14579, -90.38823, -33.20171, -83.56532, -28.02235, -77.46494, -20.99841, -71.24873, -9.69437, -63.70598, -0.84146, -59.04855, 11.18283, -51.57393, 23.56114, -45.18372, 38.27658, -39.79865, 50.68155, -34.69537, 63.15378, -34.59781, 70.62376, -30.83186, 78.04407, -29.2126, 84.28778, -27.75865, 87.64839, -31.19997, 82.97236, -29.96819, 77.61148, -29.35936, 70.17628, -27.27777, 61.80549, -26.90741, 52.225, -24.09334, 39.52925, -20.12642, 27.20861, -16.42771, 15.97694, -12.7177, 7.24285, -8.79291, 1.59393, -2.27367, 0, 0, 0, 0, 0, 0, 0, 0, 0, 0, 0, 0, 0, 0, 0, 0, 2.42109, 2.32834, 10.53928, 6.08659, 20.61187, 4.41242, 32.2403, 1.37146, 44.24058, -2.70971, 57.62409, -6.68067, 66.70341, -9.66634, 74.93292, -15.96787, 81.33124, -19.50235, 87.32496, -24.16689, 89.48452, -26.94197, 88.94429, -35.85603, 82.01331, -39.88835, 74.63704, -43.61441, 65.96079, -44.03743, 56.67439, -51.08807, 43.71875, -55.93843, 31.65069, -62.55457, 19.6907, -68.2513, 7.38765, -72.69844, -2.10081, -77.30798, -13.14555, -81.46564, -22.24955, -85.82256, -26.868, -89.38526, -29.95553, -94.06426, -33.38999, -100.32996 ]
						},
						{
							"time": 6.6667,
							"vertices": [ -37.26598, -125.93372, -41.13211, -120.52164, -44.33992, -107.31741, -18.84647, -87.58267, 3.39125, -75.6424, 11.55746, -60.40741, 26.62631, -50.5004, 41.55072, -37.49866, 52.75101, -33.37146, 62.26202, -22.94492, 75.83908, -17.9422, 90.83136, -16.55072, 101.11069, -13.99792, 109.05588, -18.77942, 110.22327, -18.70807, 108.11575, -21.23596, 103.41086, -23.21152, 96.78021, -23.61176, 86.48904, -24.6106, 75.11798, -22.81409, 63.85333, -21.71533, 52.74503, -19.67969, 42.815, -17.86023, 29.04871, -14.44421, 16.88934, -11.42731, 8.2085, -6.98242, 3.24329, -3.57477, 0, 0, 0, 0, 0, 0, 0, 0, 0, 0, 0, 0, 0, 0, 0, 0, 0, 0, 0, 0, 3.59048, 3.76587, 9.80965, 5.13446, 20.36542, 5.85913, 32.20215, 3.29529, 46.4084, 0.21875, 55.85284, -1.82672, 67.6998, -4.39301, 77.71529, -7.57623, 89.35905, -9.80078, 96.42178, -12.95636, 103.47768, -15.13931, 108.17804, -17.61102, 110.30598, -20.30969, 109.22075, -20.34094, 103.89789, -27.49463, 93.21814, -29.78687, 81.95403, -36.88251, 68.89682, -41.22394, 60.35379, -50.80396, 48.4088, -54.77533, 38.25235, -68.98615, 23.48636, -84.34752, 15.11351, -98.95911, 0.28613, -112.47113, -22.21227, -128.76193 ]
						}
					]
				},
				"top leaf": {
					"top leaf": [
						{
							"vertices": [ -141.72083, -125.34039, -133.0657, -114.0358, -124.12784, -106.3625, -109.06374, -101.45897, -92.66656, -102.66869, -71.44995, -109.81873, -66.98763, -110.49187, -35.54727, -96.92836, -31.48894, -98.95955, -29.00801, -102.56401, -24.20078, -112.50862, -33.59557, -132.7724, -33.55273, -145.62076, -35.42357, -161.37305, -37.29199, -171.3703, -39.15692, -175.07161, -39.34409, -175.02574, -39.34241, -174.92189, -39.26745, -174.84846, -39.04745, -174.79388, -40.19454, -178.09818, -48.45016, -178.09462, -57.73671, -176.11589, -67.4531, -169.27664, -76.67755, -155.79607, -76.60448, -141.3558, -87.53748, -135.22943, -109.83363, -122.73549, -127.25601, -124.07011, -141.47995, -133.36325, -142.2954, -130.50043, -69.87947, -126.97322 ]
						},
						{
							"time": 0.8667,
							"vertices": [ -72.9323, -111.27213, -64.14761, -94.03012, -54.09067, -81.57213, -34.2932, -77.70041, -19.54164, -87.09055, -9.01196, -93.32655, -6.70285, -94.19408, 11.64897, -90.51906, 13.58766, -92.0668, 14.50401, -94.27599, 15.94281, -100.13948, 8.61496, -109.9045, 7.17632, -116.77837, 2.20982, -127.00262, -2.04736, -132.22223, -3.43149, -131.15598, -4.62213, -130.80052, -4.57744, -130.13234, -4.07109, -129.6847, -2.63733, -129.40503, -0.20682, -129.55359, -3.19687, -133.11925, -6.46439, -130.45093, -14.62007, -127.23561, -17.03693, -117.31277, -15.35524, -109.60089, -20.50343, -105.08199, -34.85428, -99.43991, -53.91069, -106.01167, -70.63437, -121.93678, -72.93207, -118.23299, -10.12373, -102.67662 ]
						},
						{
							"time": 1.6667,
							"vertices": [ -29.76132, -90.86349, -18.66187, -75.16129, -9.44693, -66.80339, 3.79233, -69.23862, 11.73596, -71.70834, 21.37631, -77.65656, 23.49887, -78.49809, 40.54486, -75.40514, 42.31302, -76.87001, 43.12399, -78.93001, 44.35724, -84.38069, 37.41142, -93.295, 35.96458, -99.63257, 37.51843, -107.64337, 40.83897, -112.82474, 46.78275, -115.1619, 51.32451, -115.20009, 51.8466, -117.59135, 50.52393, -119.6774, 45.77414, -122.11639, 37.0885, -124.06548, 27.96152, -121.31642, 20.70831, -116.65753, 15.61685, -108.94452, 13.54663, -99.72058, 15.23251, -92.61165, 10.54388, -88.34291, 0.98199, -79.63751, -12.23999, -85.58749, -26.14502, -102.50566, -29.25307, -98.59943, 20.19046, -86.29109 ]
						},
						{
							"time": 2.4667,
							"vertices": [ 46.61996, -64.23204, 46.61996, -64.23204, 46.61996, -64.23204, 46.61996, -64.23204, 46.61996, -64.23204, 46.61996, -64.23204, 46.61996, -64.23204, 46.61996, -64.23204, 46.61996, -64.23204, 46.61996, -64.23204, 46.61996, -64.23204, 46.61996, -64.23204, 46.61996, -64.23204, 46.61996, -64.23204, 46.61996, -64.23204, 46.61996, -64.23204, 46.61996, -64.23204, 46.61996, -64.23204, 46.61996, -64.23204, 46.61996, -64.23204, 46.61996, -64.23204, 46.61996, -64.23204, 46.61996, -64.23204, 46.61996, -64.23204, 46.61996, -64.23204, 46.61996, -64.23204, 46.61996, -64.23204, 46.61996, -64.23204, 46.61996, -64.23204, 46.61996, -64.23204, 47.48193, -65.09404, 46.61996, -64.23204 ]
						},
						{
							"time": 3.3333,
							"vertices": [ 146.82019, -141.05722, 133.58939, -141.74373, 122.76089, -140.03935, 110.19943, -132.32336, 101.16571, -119.97513, 93.43378, -100.62875, 91.2189, -97.06085, 62.64304, -82.96509, 61.63428, -78.86421, 62.69171, -74.93207, 66.83826, -65.52713, 86.86365, -59.96049, 95.94174, -52.17986, 102.41782, -38.64081, 103.185, -27.34799, 96.96114, -17.38557, 90.2917, -12.35571, 92.13872, -8.2506, 96.37756, -6.6163, 106.06712, -8.2135, 121.03616, -14.84459, 131.51288, -28.90154, 137.12907, -43.72856, 136.2067, -60.70148, 129.16498, -76.59869, 118.88922, -85.25739, 121.14319, -96.69969, 125.73969, -120.03438, 137.1948, -131.57439, 152.35992, -136.04716, 151.59424, -140.3446, 104.64148, -89.16814 ]
						},
						{
							"time": 4.2,
							"vertices": [ 104.35617, -241.72754, 84.70425, -220.70784, 72.7626, -205.65042, 59.22507, -185.71849, 56.03348, -163.49765, 49.46234, -139.75267, 47.23965, -134.7994, 13.05667, -111.81209, 12.47125, -106.3838, 14.50403, -101.528, 21.43838, -90.19264, 48.05595, -86.51297, 61.02885, -78.10909, 73.5352, -66.45012, 79.02615, -58.1758, 81.6926, -50.51421, 80.14648, -50.02136, 80.22098, -49.15013, 80.89275, -48.57797, 82.77138, -48.24742, 92.13699, -47.06975, 101.37784, -57.34813, 111.73262, -73.97827, 111.14972, -95.9697, 99.38675, -115.12428, 84.72765, -124.44667, 85.64282, -139.49588, 90.90823, -169.71722, 105.01556, -208.34242, 122.00949, -244.84225, 113.96484, -247.68167, 65.79843, -127.00092 ]
						},
						{
							"time": 5,
							"vertices": [ 62.92334, -184.14162, 39.57079, -173.23112, 27.88261, -163.1943, 12.45268, -148.70819, 9.69079, -133.66977, 1.94223, -115.26144, -0.24295, -111.88033, -27.87854, -98.86844, -28.91703, -94.95537, -27.97206, -91.16801, -24.16181, -82.08115, -5.06493, -76.39621, 3.50047, -68.78011, 14.96981, -56.52318, 14.37222, -49.14651, 16.57876, -43.62344, 15.53502, -43.32042, 15.56965, -42.73558, 16.00949, -42.34077, 17.26191, -42.08669, 24.70488, -39.33253, 32.8409, -47.40767, 42.83052, -59.96083, 42.24254, -76.24527, 35.77061, -91.60541, 26.07252, -100.08395, 28.43259, -111.01192, 37.86206, -135.9262, 55.05551, -159.05869, 77.01581, -180.59784, 71.94339, -185.8734, 12.48449, -104.08101 ]
						},
						{
							"time": 5.8667,
							"vertices": [ -35.22401, -91.16801, -35.22401, -91.16801, -35.22401, -91.16801, -35.22401, -91.16801, -35.22401, -91.16801, -35.22401, -91.16801, -35.22401, -91.16801, -35.22401, -91.16801, -35.22401, -91.16801, -35.22401, -91.16801, -35.22401, -91.16801, -35.22401, -91.16801, -35.22401, -91.16801, -35.22401, -91.16801, -35.22401, -91.16801, -35.22401, -91.16801, -35.22401, -91.16801, -35.22401, -91.16801, -35.22401, -91.16801, -35.22401, -91.16801, -35.22401, -91.16801, -35.22401, -91.16801, -35.22401, -91.16801, -35.22401, -91.16801, -35.22401, -91.16801, -35.22401, -91.16801, -35.22401, -91.16801, -35.22401, -91.16801, -35.22401, -91.16801, -35.22401, -91.16801, -34.36205, -92.03001, -35.22401, -91.16801 ]
						},
						{
							"time": 6.6667,
							"vertices": [ -141.72083, -125.34039, -133.0657, -114.0358, -124.12784, -106.3625, -109.06374, -101.45897, -92.66656, -102.66869, -71.44995, -109.81873, -66.98763, -110.49187, -35.54727, -96.92836, -31.48894, -98.95955, -29.00801, -102.56401, -24.20078, -112.50862, -33.59557, -132.7724, -33.55273, -145.62076, -35.42357, -161.37305, -37.29199, -171.3703, -39.15692, -175.07161, -39.34409, -175.02574, -39.34241, -174.92189, -39.26745, -174.84846, -39.04745, -174.79388, -40.19454, -178.09818, -48.45016, -178.09462, -57.73671, -176.11589, -67.4531, -169.27664, -76.67755, -155.79607, -76.60448, -141.3558, -87.53748, -135.22943, -109.83363, -122.73549, -127.25601, -124.07011, -141.47995, -133.36325, -142.2954, -130.50043, -69.87947, -126.97322 ]
						}
					]
				}
			}
		}
	}
}
}