%YAML 1.1
%TAG !u! tag:unity3d.com,2011:
--- !u!1 &7302593488130057556
GameObject:
  m_ObjectHideFlags: 0
  m_CorrespondingSourceObject: {fileID: 0}
  m_PrefabInstance: {fileID: 0}
  m_PrefabAsset: {fileID: 0}
  serializedVersion: 6
  m_Component:
  - component: {fileID: 7302593488130057559}
  - component: {fileID: 7302593488130057552}
  - component: {fileID: 2356892733319843250}
  - component: {fileID: 7302593488130057558}
  m_Layer: 0
  m_Name: Alien Squid
  m_TagString: Untagged
  m_Icon: {fileID: 0}
  m_NavMeshLayer: 0
  m_StaticEditorFlags: 0
  m_IsActive: 1
--- !u!4 &7302593488130057559
Transform:
  m_ObjectHideFlags: 0
  m_CorrespondingSourceObject: {fileID: 0}
  m_PrefabInstance: {fileID: 0}
  m_PrefabAsset: {fileID: 0}
  m_GameObject: {fileID: 7302593488130057556}
  m_LocalRotation: {x: 0, y: 0, z: 0, w: 1}
  m_LocalPosition: {x: 0, y: 0, z: 0}
  m_LocalScale: {x: 1, y: 1, z: 1}
  m_Children: []
  m_Father: {fileID: 0}
  m_RootOrder: 0
  m_LocalEulerAnglesHint: {x: 0, y: 0, z: 0}
--- !u!212 &7302593488130057552
SpriteRenderer:
  m_ObjectHideFlags: 0
  m_CorrespondingSourceObject: {fileID: 0}
  m_PrefabInstance: {fileID: 0}
  m_PrefabAsset: {fileID: 0}
  m_GameObject: {fileID: 7302593488130057556}
  m_Enabled: 1
  m_CastShadows: 0
  m_ReceiveShadows: 0
  m_DynamicOccludee: 1
  m_MotionVectors: 1
  m_LightProbeUsage: 1
  m_ReflectionProbeUsage: 1
  m_RayTracingMode: 0
  m_RenderingLayerMask: 1
  m_RendererPriority: 0
  m_Materials:
  - {fileID: 10754, guid: 0000000000000000f000000000000000, type: 0}
  m_StaticBatchInfo:
    firstSubMesh: 0
    subMeshCount: 0
  m_StaticBatchRoot: {fileID: 0}
  m_ProbeAnchor: {fileID: 0}
  m_LightProbeVolumeOverride: {fileID: 0}
  m_ScaleInLightmap: 1
  m_ReceiveGI: 1
  m_PreserveUVs: 0
  m_IgnoreNormalsForChartDetection: 0
  m_ImportantGI: 0
  m_StitchLightmapSeams: 1
  m_SelectedEditorRenderState: 0
  m_MinimumChartSize: 4
  m_AutoUVMaxDistance: 0.5
  m_AutoUVMaxAngle: 89
  m_LightmapParameters: {fileID: 0}
  m_SortingLayerID: -991332387
  m_SortingLayer: -14
  m_SortingOrder: 0
  m_Sprite: {fileID: 21300000, guid: 22927cd484e19c6458b77855cdccd6f9, type: 3}
  m_Color: {r: 1, g: 1, b: 1, a: 1}
  m_FlipX: 0
  m_FlipY: 0
  m_DrawMode: 0
  m_Size: {x: 1.6, y: 1.6}
  m_AdaptiveModeThreshold: 0.5
  m_SpriteTileMode: 0
  m_WasSpriteAssigned: 1
  m_MaskInteraction: 0
  m_SpriteSortPoint: 0
--- !u!114 &2356892733319843250
MonoBehaviour:
  m_ObjectHideFlags: 0
  m_CorrespondingSourceObject: {fileID: 0}
  m_PrefabInstance: {fileID: 0}
  m_PrefabAsset: {fileID: 0}
  m_GameObject: {fileID: 7302593488130057556}
  m_Enabled: 1
  m_EditorHideFlags: 0
  m_Script: {fileID: 11500000, guid: f7bf8ee049e12484aa29b4709cf6245e, type: 3}
  m_Name: 
  m_EditorClassIdentifier: 
  deathAnimation:
    frozenSprite: {fileID: 21300000, guid: a3156f0d72b52a440a1344e469fbc26b, type: 3}
    debris:
    - {fileID: 21300000, guid: f14c12efa694e6d4eb45c95492081291, type: 3}
  animationWalk:
    sprites:
    - {fileID: 21300000, guid: b8632c73ba48dc942a310a9b6d2dc942, type: 3}
    - {fileID: 21300000, guid: e985141eb2255d14ea6587eda1691a0e, type: 3}
    - {fileID: 21300000, guid: 74c3ac0f1370349428141245567b95e5, type: 3}
    - {fileID: 21300000, guid: 310a4c470b9947645822d5115014ec9e, type: 3}
    - {fileID: 21300000, guid: b4a19b6e18c31124488494038c83a2f9, type: 3}
    - {fileID: 21300000, guid: 8dd8a3744ad3bcb4ba7afe573dbc4231, type: 3}
    - {fileID: 21300000, guid: 15517470d0316614bacef2746879577a, type: 3}
    - {fileID: 21300000, guid: 535d2a35e7129ca45baaf9fa99c2fd42, type: 3}
    - {fileID: 21300000, guid: cffa6e6e194eb7940a578ece80008758, type: 3}
    - {fileID: 21300000, guid: 1eabc94f2ad895b438738c9fe6b1a206, type: 3}
    - {fileID: 21300000, guid: 35b11c73dd2117540b1b14aa01c386bf, type: 3}
    - {fileID: 21300000, guid: 7aa6647702f6a484784c6fef25d67b8a, type: 3}
    - {fileID: 21300000, guid: 7cec3ebd8d74f5446a0ec287ce511f5d, type: 3}
    fps: 20
  animationTurn:
    sprites:
    - {fileID: 21300000, guid: 7d800609e7aad7f4facb42eab805da56, type: 3}
    - {fileID: 21300000, guid: de4be0511507116478e1369bffd838b6, type: 3}
    - {fileID: 21300000, guid: ac17849a7d619cd479e74439e99d86e0, type: 3}
    - {fileID: 21300000, guid: a49ae85f4719b9b49a86de2e972f073d, type: 3}
    fps: 20
  animationShoot:
    sprites:
    - {fileID: 21300000, guid: 618b6276559c6444b9eb4ae76d9a5fda, type: 3}
    - {fileID: 21300000, guid: 421d6e7027f0bd844b32b7d6c6eadc3b, type: 3}
    - {fileID: 21300000, guid: 4e34ad9fcae9e1444841188146ef822b, type: 3}
    - {fileID: 21300000, guid: e4f92abe6698a3941a124497d411fc96, type: 3}
    - {fileID: 21300000, guid: 8376cb13762ee5649a518dfef3c37377, type: 3}
    - {fileID: 21300000, guid: 83a2e5fd71dc2574697ec2224dfe7368, type: 3}
    - {fileID: 21300000, guid: e1ac2da2755b5ce42b9de498bb090fdb, type: 3}
    - {fileID: 21300000, guid: 176e1126d23d5a944ad63f4a83141fc6, type: 3}
    - {fileID: 21300000, guid: cf38ac27938956f4f880a96386db0177, type: 3}
    - {fileID: 21300000, guid: 2eae10b8f069cbf44a475aaf99dd38b2, type: 3}
    - {fileID: 21300000, guid: 959bb86f0abd3ae46ad30b9d53e2a992, type: 3}
    - {fileID: 21300000, guid: d882ad9a303f3ba4c91fba0153e0316c, type: 3}
    - {fileID: 21300000, guid: 4a331d69d339dc9458aae7edfef2918d, type: 3}
    - {fileID: 21300000, guid: c7b19baea8ca4ec49bc28b93495855da, type: 3}
    - {fileID: 21300000, guid: 4487e82d49529c04db8916c58ea17873, type: 3}
    - {fileID: 21300000, guid: 3aa294f6d31d40146ab7152c0ad03d1a, type: 3}
    - {fileID: 21300000, guid: 4117d42fa1201d64487435540eea93af, type: 3}
    - {fileID: 21300000, guid: a7d74e6d18ed58646b72fa1699b606d5, type: 3}
    fps: 20
  animationRise:
    sprites:
    - {fileID: 21300000, guid: f5bbc67511e2c744cad826683df9f63c, type: 3}
    fps: 30
  animationFall:
    sprites:
    - {fileID: 21300000, guid: a7ee2453296dcbe48b90079720407c96, type: 3}
    fps: 30
--- !u!114 &7302593488130057558
MonoBehaviour:
  m_ObjectHideFlags: 0
  m_CorrespondingSourceObject: {fileID: 0}
  m_PrefabInstance: {fileID: 0}
  m_PrefabAsset: {fileID: 0}
  m_GameObject: {fileID: 7302593488130057556}
  m_Enabled: 1
  m_EditorHideFlags: 0
  m_Script: {fileID: 11500000, guid: a2cedcea314d944e09159c2372cec04f, type: 3}
  m_Name: 
  m_EditorClassIdentifier: 
