%YAML 1.1
%TAG !u! tag:unity3d.com,2011:
--- !u!1 &1499340828898878701
GameObject:
  m_ObjectHideFlags: 0
  m_CorrespondingSourceObject: {fileID: 0}
  m_PrefabInstance: {fileID: 0}
  m_PrefabAsset: {fileID: 0}
  serializedVersion: 6
  m_Component:
  - component: {fileID: 1499340828898878702}
  - component: {fileID: 1499340828898878703}
  - component: {fileID: 1499340828898878700}
  - component: {fileID: 5711413957727473345}
  m_Layer: 0
  m_Name: Alien Squid Bullet
  m_TagString: Untagged
  m_Icon: {fileID: 0}
  m_NavMeshLayer: 0
  m_StaticEditorFlags: 0
  m_IsActive: 1
--- !u!4 &1499340828898878702
Transform:
  m_ObjectHideFlags: 0
  m_CorrespondingSourceObject: {fileID: 0}
  m_PrefabInstance: {fileID: 0}
  m_PrefabAsset: {fileID: 0}
  m_GameObject: {fileID: 1499340828898878701}
  m_LocalRotation: {x: 0, y: 0, z: 0, w: 1}
  m_LocalPosition: {x: 0, y: 1.25, z: 0}
  m_LocalScale: {x: 1, y: 1, z: 1}
  m_Children: []
  m_Father: {fileID: 0}
  m_RootOrder: 0
  m_LocalEulerAnglesHint: {x: 0, y: 0, z: 0}
--- !u!212 &1499340828898878703
SpriteRenderer:
  m_ObjectHideFlags: 0
  m_CorrespondingSourceObject: {fileID: 0}
  m_PrefabInstance: {fileID: 0}
  m_PrefabAsset: {fileID: 0}
  m_GameObject: {fileID: 1499340828898878701}
  m_Enabled: 1
  m_CastShadows: 0
  m_ReceiveShadows: 0
  m_DynamicOccludee: 1
  m_MotionVectors: 1
  m_LightProbeUsage: 1
  m_ReflectionProbeUsage: 1
  m_RayTracingMode: 0
  m_RenderingLayerMask: 1
  m_RendererPriority: 0
  m_Materials:
  - {fileID: 10754, guid: 0000000000000000f000000000000000, type: 0}
  m_StaticBatchInfo:
    firstSubMesh: 0
    subMeshCount: 0
  m_StaticBatchRoot: {fileID: 0}
  m_ProbeAnchor: {fileID: 0}
  m_LightProbeVolumeOverride: {fileID: 0}
  m_ScaleInLightmap: 1
  m_ReceiveGI: 1
  m_PreserveUVs: 0
  m_IgnoreNormalsForChartDetection: 0
  m_ImportantGI: 0
  m_StitchLightmapSeams: 1
  m_SelectedEditorRenderState: 0
  m_MinimumChartSize: 4
  m_AutoUVMaxDistance: 0.5
  m_AutoUVMaxAngle: 89
  m_LightmapParameters: {fileID: 0}
  m_SortingLayerID: 115992415
  m_SortingLayer: -13
  m_SortingOrder: 0
  m_Sprite: {fileID: 21300000, guid: 00bfe771af83e3d43b96aa25dd558289, type: 3}
  m_Color: {r: 1, g: 1, b: 1, a: 1}
  m_FlipX: 0
  m_FlipY: 0
  m_DrawMode: 0
  m_Size: {x: 3.4375, y: 3.203125}
  m_AdaptiveModeThreshold: 0.5
  m_SpriteTileMode: 0
  m_WasSpriteAssigned: 1
  m_MaskInteraction: 0
  m_SpriteSortPoint: 0
--- !u!114 &1499340828898878700
MonoBehaviour:
  m_ObjectHideFlags: 0
  m_CorrespondingSourceObject: {fileID: 0}
  m_PrefabInstance: {fileID: 0}
  m_PrefabAsset: {fileID: 0}
  m_GameObject: {fileID: 1499340828898878701}
  m_Enabled: 1
  m_EditorHideFlags: 0
  m_Script: {fileID: 11500000, guid: ec083cc8315a5d347bfac0244a9573c0, type: 3}
  m_Name: 
  m_EditorClassIdentifier: 
  deathAnimation:
    frozenSprite: {fileID: 0}
    debris: []
  animationMove:
    sprites:
    - {fileID: 21300000, guid: 00bfe771af83e3d43b96aa25dd558289, type: 3}
    - {fileID: 21300000, guid: 4a24893cda9ca66489a42d3bdf99ee78, type: 3}
    - {fileID: 21300000, guid: 06cd840817bb6844ab9756242f695a41, type: 3}
    - {fileID: 21300000, guid: b925baf8c7dc6164bac86de20dd85b71, type: 3}
    - {fileID: 21300000, guid: f1c697308207e15469959509c4cce020, type: 3}
    - {fileID: 21300000, guid: f20d3618757753f4494c31dabc9390cf, type: 3}
    fps: 30
  animationBurst:
    sprites:
    - {fileID: 21300000, guid: 1691312cbb3891f4e815a92a5f8c5fea, type: 3}
    - {fileID: 21300000, guid: 2de5c8798c72b464f946fa5df22426e4, type: 3}
    - {fileID: 21300000, guid: 621ca6f7caa434f45ad8aae6d95fd707, type: 3}
    - {fileID: 21300000, guid: 81b2a419b48957143880c00d9a1f44e9, type: 3}
    - {fileID: 21300000, guid: 17d5bd62b3faa934292cb5189dd06f3c, type: 3}
    - {fileID: 21300000, guid: 8551cb89a5da0ad418cbf13c299c7b6c, type: 3}
    - {fileID: 21300000, guid: dfef2f3c0eef01f479d7f1ab54dd5267, type: 3}
    - {fileID: 21300000, guid: 84c0fcc89c9ff0c46a668daf14b98217, type: 3}
    fps: 30
--- !u!114 &5711413957727473345
MonoBehaviour:
  m_ObjectHideFlags: 0
  m_CorrespondingSourceObject: {fileID: 0}
  m_PrefabInstance: {fileID: 0}
  m_PrefabAsset: {fileID: 0}
  m_GameObject: {fileID: 1499340828898878701}
  m_Enabled: 1
  m_EditorHideFlags: 0
  m_Script: {fileID: 11500000, guid: a2cedcea314d944e09159c2372cec04f, type: 3}
  m_Name: 
  m_EditorClassIdentifier: 
