%YAML 1.1
%TAG !u! tag:unity3d.com,2011:
--- !u!114 &11400000
MonoBehaviour:
  m_ObjectHideFlags: 0
  m_CorrespondingSourceObject: {fileID: 0}
  m_PrefabInstance: {fileID: 0}
  m_PrefabAsset: {fileID: 0}
  m_GameObject: {fileID: 0}
  m_Enabled: 1
  m_EditorHideFlags: 0
  m_Script: {fileID: 11500000, guid: deada51ddafa6304c894ffaffa3f8d7c, type: 3}
  m_Name: TilesetDesertSecondary
  m_EditorClassIdentifier: 
  type: 1
  flowIntoSlopes: 0
  singleSquare:
  - {fileID: 21300000, guid: 286061bd70b266744956b3c4861078bd, type: 3}
  - {fileID: 21300000, guid: 4d83b66e61240ad40a003ed3171e6293, type: 3}
  - {fileID: 21300000, guid: 92ed03be8f6db394e81680fd4977f02f, type: 3}
  interior:
  - {fileID: 21300000, guid: 88d9fbb56bc66b242a9ae08307dc4301, type: 3}
  - {fileID: 21300000, guid: 1fa6429d127ee5c4ba6b17803e38b309, type: 3}
  - {fileID: 21300000, guid: f7b12531192fd1a4da167a041ae87bfa, type: 3}
  - {fileID: 21300000, guid: a0cab4b3ec934d042b61a1c7d3c08f25, type: 3}
  - {fileID: 21300000, guid: 78af10f07fbb0bb408cbaed7a9522345, type: 3}
  - {fileID: 21300000, guid: dcc79e65ba5723949b888f97f7b6d815, type: 3}
  - {fileID: 21300000, guid: e84c462600830ff4ba343015009820fe, type: 3}
  - {fileID: 21300000, guid: 80aaf027c1ff53445a8a81f557de7d0b, type: 3}
  - {fileID: 21300000, guid: 964c0d3a1335d0c4dba90b1299a5e4c6, type: 3}
  - {fileID: 21300000, guid: 48b55e356fc244241851c27ae27a5d2b, type: 3}
  - {fileID: 21300000, guid: 57678168e07aa7d46ae8d8d51c054a25, type: 3}
  - {fileID: 21300000, guid: 369277c2edd72b44ebcd2395ec9f01e4, type: 3}
  - {fileID: 21300000, guid: 239bff75804ea5a469036f1bbef35d6c, type: 3}
  - {fileID: 21300000, guid: 26a83542708e0f44a92d992d1e5743a8, type: 3}
  - {fileID: 21300000, guid: 1ba23e6617b0573479e27be4bf095c33, type: 3}
  - {fileID: 21300000, guid: 6d9b444ee357ae9408607a583b7c3e23, type: 3}
  - {fileID: 21300000, guid: 461faa720e14a4a4f8b4445a998a9147, type: 3}
  - {fileID: 21300000, guid: 7647d9420f8b3d849940f79eebbe18e8, type: 3}
  - {fileID: 21300000, guid: f21b4bb10a670514c9ce490cf9ae696c, type: 3}
  - {fileID: 21300000, guid: 30b0bda81fa12a64c9c9e543d4a39bb4, type: 3}
  - {fileID: 21300000, guid: 51df47ab60ee15a4291475dcfe32b3b8, type: 3}
  - {fileID: 21300000, guid: 9d4fdda8ee5353042996d5ea9c863b60, type: 3}
  - {fileID: 21300000, guid: cf6e090d5fb753d48a63c535c0140f17, type: 3}
  - {fileID: 21300000, guid: da6c2d0b6be62dd45a7b3d42cd263b97, type: 3}
  - {fileID: 21300000, guid: f01167533f8ef4c4aad208be0b87795a, type: 3}
  interiorStyle: 1
  interiorGridColumns: 5
  interiorGridRows: 5
  interiorUnderneathEdges: 0
  bottom:
  - {fileID: 21300000, guid: e6c7296f67cfd45418bf00abdad8a405, type: 3}
  - {fileID: 21300000, guid: 93969fc236d1f9146955c2dad486d891, type: 3}
  - {fileID: 21300000, guid: ad717f9138195304b91e40fa76ddc05f, type: 3}
  - {fileID: 21300000, guid: 2de3536c38276804b91a896364b6dd7a, type: 3}
  left:
  - {fileID: 21300000, guid: c219e002a60c2a0468f7037f6a3fd7be, type: 3}
  - {fileID: 21300000, guid: 799178efaecfa4741a631c76d79440c2, type: 3}
  - {fileID: 21300000, guid: ed3b26e1cd2ffc2448feab1f2622c60a, type: 3}
  - {fileID: 21300000, guid: b08cac97d4db15d40b2c949e6d81d62b, type: 3}
  right:
  - {fileID: 21300000, guid: 3ed0d6e285a67f045b20d0508e70f1a9, type: 3}
  - {fileID: 21300000, guid: 1e5937f50fa445746aef9d09062324fa, type: 3}
  - {fileID: 21300000, guid: 24164737d56d7684589cdbd9f8f0f612, type: 3}
  - {fileID: 21300000, guid: 20d7525607841f447ab3a3bbc7deb11c, type: 3}
  top:
  - {fileID: 21300000, guid: 6258303ab9224d8468f55d501a4a6a70, type: 3}
  - {fileID: 21300000, guid: a2e6631149f62614589e90d44fb30cf7, type: 3}
  - {fileID: 21300000, guid: 21c6f3951c843bc43984f0f32ade28ab, type: 3}
  - {fileID: 21300000, guid: 2657a833623a4ee4e967e9adc3872d86, type: 3}
  bottomLeft: {fileID: 21300000, guid: 8e0cd9d4f9a807045b23a9c053acdec1, type: 3}
  bottomRight: {fileID: 21300000, guid: 824e1ffddbf3684489f30aa5085b2dbd, type: 3}
  topLeft: {fileID: 21300000, guid: 9e1c5addfa62897418aff1da7af65402, type: 3}
  topRight: {fileID: 21300000, guid: a20ae6d28df804641834aed66ae4c8db, type: 3}
  insideBottomLeft: {fileID: 21300000, guid: 9fe00bbfe907a34489f5e328703c896c, type: 3}
  insideBottomRight: {fileID: 21300000, guid: 33535a5047928074690bcf860b81c5a6, type: 3}
  insideTopLeft: {fileID: 21300000, guid: 2e28be2cfe74f704a9e544f270871311, type: 3}
  insideTopRight: {fileID: 21300000, guid: 7c6af778fc3949340ae1485afcc2483f, type: 3}
  slope22BottomLeft: {fileID: 0}
  slope22BottomRight: {fileID: 0}
  slope22TopLeft: {fileID: 0}
  slope22TopRight: {fileID: 0}
  slope45BottomLeft: {fileID: 0}
  slope45BottomRight: {fileID: 0}
  slope45TopLeft: {fileID: 0}
  slope45TopRight: {fileID: 0}
  slopeJoined22BottomLeft: {fileID: 0}
  slopeJoined22BottomRight: {fileID: 0}
  slopeJoined22TopLeft: {fileID: 0}
  slopeJoined22TopRight: {fileID: 0}
  slopeJoined45BottomLeft: {fileID: 0}
  slopeJoined45BottomRight: {fileID: 0}
  slopeJoined45TopLeft: {fileID: 0}
  slopeJoined45TopRight: {fileID: 0}
  slopeJoinedLeft22BottomLeft: {fileID: 0}
  slopeJoinedLeft22BottomRight: {fileID: 0}
  slopeJoinedLeft22TopLeft: {fileID: 0}
  slopeJoinedLeft22TopRight: {fileID: 0}
  slopeJoinedLeft45BottomLeft: {fileID: 0}
  slopeJoinedLeft45BottomRight: {fileID: 0}
  slopeJoinedLeft45TopLeft: {fileID: 0}
  slopeJoinedLeft45TopRight: {fileID: 0}
  slopeJoinedRight22BottomLeft: {fileID: 0}
  slopeJoinedRight22BottomRight: {fileID: 0}
  slopeJoinedRight22TopLeft: {fileID: 0}
  slopeJoinedRight22TopRight: {fileID: 0}
  slopeJoinedRight45BottomLeft: {fileID: 0}
  slopeJoinedRight45BottomRight: {fileID: 0}
  slopeJoinedRight45TopLeft: {fileID: 0}
  slopeJoinedRight45TopRight: {fileID: 0}
  curve3Plus1BottomLeft: {fileID: 0}
  curve3Plus1BottomRight: {fileID: 0}
  curve3Plus1TopLeft: {fileID: 0}
  curve3Plus1TopRight: {fileID: 0}
  curve3Plus1BottomLeftWithOutside: {fileID: 0}
  curve3Plus1BottomRightWithOutside: {fileID: 0}
  curve3Plus1TopLeftWithOutside: {fileID: 0}
  curve3Plus1TopRightWithOutside: {fileID: 0}
  curveOut3Plus1BottomLeft: {fileID: 0}
  curveOut3Plus1BottomRight: {fileID: 0}
  curveOut3Plus1TopLeft: {fileID: 0}
  curveOut3Plus1TopRight: {fileID: 0}
  singleRowLeft: {fileID: 21300000, guid: d0dc2601bda9316458d3420b26b0b3d1, type: 3}
  singleRowMiddle:
  - {fileID: 21300000, guid: f1b1aa913459cf547beb54d1abffbe25, type: 3}
  - {fileID: 21300000, guid: 48937143235649e47b83628bf3be40c1, type: 3}
  - {fileID: 21300000, guid: 116fdb5430d8a154db68e6152f80e3dc, type: 3}
  singleRowRight: {fileID: 21300000, guid: 8bc6991f93199b642ac1423e53a12b05, type: 3}
  pillar1WideTop: {fileID: 21300000, guid: 82dd20a9559e32642a30c39fca3a8d89, type: 3}
  pillar1WideMiddle:
  - {fileID: 21300000, guid: 7437e626ebf967a41830986ae904e322, type: 3}
  - {fileID: 21300000, guid: 7d9860924b47d8a449dff4b770d91774, type: 3}
  - {fileID: 21300000, guid: 520aef3686cdfee40af69dac6ccdfc5c, type: 3}
  pillar1WideBottom: {fileID: 21300000, guid: 48e3b8a1b6779404082f0ec95a092e1a, type: 3}
  pillar2WideTop: {fileID: 0}
  pillar2WideMiddle: []
  pillar2WideBottom: {fileID: 0}
