%YAML 1.1
%TAG !u! tag:unity3d.com,2011:
--- !u!1 &9091224356559018267
GameObject:
  m_ObjectHideFlags: 0
  m_CorrespondingSourceObject: {fileID: 0}
  m_PrefabInstance: {fileID: 0}
  m_PrefabAsset: {fileID: 0}
  serializedVersion: 6
  m_Component:
  - component: {fileID: 1337228540721201513}
  - component: {fileID: 3844179618057289791}
  - component: {fileID: 7488170381663242684}
  - component: {fileID: 5410632473087295741}
  m_Layer: 0
  m_Name: TrophyGoldLid
  m_TagString: Untagged
  m_Icon: {fileID: 0}
  m_NavMeshLayer: 0
  m_StaticEditorFlags: 0
  m_IsActive: 1
--- !u!4 &1337228540721201513
Transform:
  m_ObjectHideFlags: 0
  m_CorrespondingSourceObject: {fileID: 0}
  m_PrefabInstance: {fileID: 0}
  m_PrefabAsset: {fileID: 0}
  m_GameObject: {fileID: 9091224356559018267}
  m_LocalRotation: {x: 0, y: 0, z: 0, w: 1}
  m_LocalPosition: {x: 0, y: 8.22, z: 0}
  m_LocalScale: {x: 1, y: 1, z: 1}
  m_Children: []
  m_Father: {fileID: 0}
  m_RootOrder: 0
  m_LocalEulerAnglesHint: {x: 0, y: 0, z: 0}
--- !u!212 &3844179618057289791
SpriteRenderer:
  m_ObjectHideFlags: 0
  m_CorrespondingSourceObject: {fileID: 0}
  m_PrefabInstance: {fileID: 0}
  m_PrefabAsset: {fileID: 0}
  m_GameObject: {fileID: 9091224356559018267}
  m_Enabled: 1
  m_CastShadows: 0
  m_ReceiveShadows: 0
  m_DynamicOccludee: 1
  m_MotionVectors: 1
  m_LightProbeUsage: 1
  m_ReflectionProbeUsage: 1
  m_RayTracingMode: 0
  m_RayTraceProcedural: 0
  m_RenderingLayerMask: 1
  m_RendererPriority: 0
  m_Materials:
  - {fileID: 10754, guid: 0000000000000000f000000000000000, type: 0}
  m_StaticBatchInfo:
    firstSubMesh: 0
    subMeshCount: 0
  m_StaticBatchRoot: {fileID: 0}
  m_ProbeAnchor: {fileID: 0}
  m_LightProbeVolumeOverride: {fileID: 0}
  m_ScaleInLightmap: 1
  m_ReceiveGI: 1
  m_PreserveUVs: 0
  m_IgnoreNormalsForChartDetection: 0
  m_ImportantGI: 0
  m_StitchLightmapSeams: 1
  m_SelectedEditorRenderState: 0
  m_MinimumChartSize: 4
  m_AutoUVMaxDistance: 0.5
  m_AutoUVMaxAngle: 89
  m_LightmapParameters: {fileID: 0}
  m_SortingLayerID: 115992415
  m_SortingLayer: -16
  m_SortingOrder: -1
  m_Sprite: {fileID: 21300000, guid: e8bc0b16740834c48b25590d9b250fbb, type: 3}
  m_Color: {r: 1, g: 1, b: 1, a: 1}
  m_FlipX: 0
  m_FlipY: 0
  m_DrawMode: 0
  m_Size: {x: 11.428572, y: 11.428572}
  m_AdaptiveModeThreshold: 0.5
  m_SpriteTileMode: 0
  m_WasSpriteAssigned: 1
  m_MaskInteraction: 0
  m_SpriteSortPoint: 0
--- !u!114 &7488170381663242684
MonoBehaviour:
  m_ObjectHideFlags: 0
  m_CorrespondingSourceObject: {fileID: 0}
  m_PrefabInstance: {fileID: 0}
  m_PrefabAsset: {fileID: 0}
  m_GameObject: {fileID: 9091224356559018267}
  m_Enabled: 1
  m_EditorHideFlags: 0
  m_Script: {fileID: 11500000, guid: a2cedcea314d944e09159c2372cec04f, type: 3}
  m_Name: 
  m_EditorClassIdentifier: 
--- !u!114 &5410632473087295741
MonoBehaviour:
  m_ObjectHideFlags: 0
  m_CorrespondingSourceObject: {fileID: 0}
  m_PrefabInstance: {fileID: 0}
  m_PrefabAsset: {fileID: 0}
  m_GameObject: {fileID: 9091224356559018267}
  m_Enabled: 1
  m_EditorHideFlags: 0
  m_Script: {fileID: 11500000, guid: 52b7d10a4b2039f49a9e65f4adb45742, type: 3}
  m_Name: 
  m_EditorClassIdentifier: 
  animationLidIdle:
    sprites:
    - {fileID: 21300000, guid: 3ef92bb0979bb46438b98e40993226fa, type: 3}
    fps: 30
  animationLidDrop:
    sprites:
    - {fileID: 21300000, guid: 242851a8cf2390e40bc9a20f8371f919, type: 3}
    fps: 30
  animationLidShine:
    sprites:
    - {fileID: 21300000, guid: 3ef92bb0979bb46438b98e40993226fa, type: 3}
    - {fileID: 21300000, guid: dd5f841d00f9fe84b983dc63dae23896, type: 3}
    - {fileID: 21300000, guid: c099e28f48f73d9498bb44ca30fe3fe2, type: 3}
    - {fileID: 21300000, guid: 81ffe42edf8dce549b289d563b3de219, type: 3}
    - {fileID: 21300000, guid: 3e69738e3273aab4ca9a5061807ce1e2, type: 3}
    - {fileID: 21300000, guid: a8d111d5c1bc4514488f695ea6f7651e, type: 3}
    - {fileID: 21300000, guid: eddc0daffe228f244976898367959db5, type: 3}
    - {fileID: 21300000, guid: 67fdb38c8d7d0524380d1bf80da3bef8, type: 3}
    - {fileID: 21300000, guid: f4227a4398d818842975ba07bfaaebc5, type: 3}
    - {fileID: 21300000, guid: 208c2d079ff4ecc4db43d4749e803209, type: 3}
    - {fileID: 21300000, guid: 256799b1962e409438171cfbb9fe481f, type: 3}
    - {fileID: 21300000, guid: f7f338bc9c6796a429f66ad0748159ec, type: 3}
    - {fileID: 21300000, guid: 61faac0dcb088d24db8cfe13a4ac81cb, type: 3}
    fps: 30
  animationLidWobble:
    sprites:
    - {fileID: 21300000, guid: e8bc0b16740834c48b25590d9b250fbb, type: 3}
    - {fileID: 21300000, guid: 983dd35fa69b4dd4fb2cf463ef158dd6, type: 3}
    - {fileID: 21300000, guid: 8c39afbcfc2a61141811b398b33936a1, type: 3}
    - {fileID: 21300000, guid: 4110286b5fe4484478b9416ff940f294, type: 3}
    - {fileID: 21300000, guid: 242851a8cf2390e40bc9a20f8371f919, type: 3}
    - {fileID: 21300000, guid: 168c06fa32123df40bb2e793a7902f35, type: 3}
    - {fileID: 21300000, guid: 55fd0f0ba11fe6244a23d254af7e81d1, type: 3}
    - {fileID: 21300000, guid: c19d8f537c528694ebca16bdf30b060f, type: 3}
    - {fileID: 21300000, guid: 007d42b18a7e7874298c2bc179c743e9, type: 3}
    - {fileID: 21300000, guid: 29a0171936ebe1747865f40f3ec1d2ca, type: 3}
    - {fileID: 21300000, guid: ebd9d56c167f9a44ab9c94355b84443e, type: 3}
    - {fileID: 21300000, guid: 63d4690b4a0ca3342b534abfd18fb29d, type: 3}
    fps: 30
