
skeleton.png
size: 1291,1082
format: RGBA8888
filter: Linear,Linear
repeat: none
images/Layer 13
  rotate: false
  xy: 2, 2
  size: 567, 339
  orig: 567, 341
  offset: 0, 1
  index: -1
images/Layer 34
  rotate: true
  xy: 2, 343
  size: 737, 800
  orig: 737, 802
  offset: 0, 1
  index: -1
images/Layer 35
  rotate: true
  xy: 804, 289
  size: 791, 485
  orig: 793, 683
  offset: 1, 1
  index: -1
