%YAML 1.1
%TAG !u! tag:unity3d.com,2011:
--- !u!1 &1400430356437598237
GameObject:
  m_ObjectHideFlags: 0
  m_CorrespondingSourceObject: {fileID: 0}
  m_PrefabInstance: {fileID: 0}
  m_PrefabAsset: {fileID: 0}
  serializedVersion: 6
  m_Component:
  - component: {fileID: 1400430356437598234}
  - component: {fileID: 1400430356437598233}
  - component: {fileID: 1400430356437598232}
  - component: {fileID: 1400430356437598235}
  m_Layer: 0
  m_Name: Fish Skull
  m_TagString: Untagged
  m_Icon: {fileID: 0}
  m_NavMeshLayer: 0
  m_StaticEditorFlags: 0
  m_IsActive: 1
--- !u!4 &1400430356437598234
Transform:
  m_ObjectHideFlags: 0
  m_CorrespondingSourceObject: {fileID: 0}
  m_PrefabInstance: {fileID: 0}
  m_PrefabAsset: {fileID: 0}
  m_GameObject: {fileID: 1400430356437598237}
  m_LocalRotation: {x: 0, y: 0, z: 0, w: 1}
  m_LocalPosition: {x: 0, y: 0, z: 0}
  m_LocalScale: {x: 1, y: 1, z: 1}
  m_Children: []
  m_Father: {fileID: 0}
  m_RootOrder: 0
  m_LocalEulerAnglesHint: {x: 0, y: 0, z: 0}
--- !u!212 &1400430356437598233
SpriteRenderer:
  m_ObjectHideFlags: 0
  m_CorrespondingSourceObject: {fileID: 0}
  m_PrefabInstance: {fileID: 0}
  m_PrefabAsset: {fileID: 0}
  m_GameObject: {fileID: 1400430356437598237}
  m_Enabled: 1
  m_CastShadows: 0
  m_ReceiveShadows: 0
  m_DynamicOccludee: 1
  m_MotionVectors: 1
  m_LightProbeUsage: 1
  m_ReflectionProbeUsage: 1
  m_RayTracingMode: 0
  m_RayTraceProcedural: 0
  m_RenderingLayerMask: 1
  m_RendererPriority: 0
  m_Materials:
  - {fileID: 10754, guid: 0000000000000000f000000000000000, type: 0}
  m_StaticBatchInfo:
    firstSubMesh: 0
    subMeshCount: 0
  m_StaticBatchRoot: {fileID: 0}
  m_ProbeAnchor: {fileID: 0}
  m_LightProbeVolumeOverride: {fileID: 0}
  m_ScaleInLightmap: 1
  m_ReceiveGI: 1
  m_PreserveUVs: 0
  m_IgnoreNormalsForChartDetection: 0
  m_ImportantGI: 0
  m_StitchLightmapSeams: 1
  m_SelectedEditorRenderState: 0
  m_MinimumChartSize: 4
  m_AutoUVMaxDistance: 0.5
  m_AutoUVMaxAngle: 89
  m_LightmapParameters: {fileID: 0}
  m_SortingLayerID: -991332387
  m_SortingLayer: -14
  m_SortingOrder: 0
  m_Sprite: {fileID: 21300000, guid: 2577cf15ee9b5da439a9addd68118e15, type: 3}
  m_Color: {r: 1, g: 1, b: 1, a: 1}
  m_FlipX: 0
  m_FlipY: 0
  m_DrawMode: 0
  m_Size: {x: 4, y: 4}
  m_AdaptiveModeThreshold: 0.5
  m_SpriteTileMode: 0
  m_WasSpriteAssigned: 1
  m_MaskInteraction: 0
  m_SpriteSortPoint: 0
--- !u!114 &1400430356437598232
MonoBehaviour:
  m_ObjectHideFlags: 0
  m_CorrespondingSourceObject: {fileID: 0}
  m_PrefabInstance: {fileID: 0}
  m_PrefabAsset: {fileID: 0}
  m_GameObject: {fileID: 1400430356437598237}
  m_Enabled: 1
  m_EditorHideFlags: 0
  m_Script: {fileID: 11500000, guid: 4937b3e6785337e499b1935afd501de7, type: 3}
  m_Name: 
  m_EditorClassIdentifier: 
  deathAnimation:
    frozenSprite: {fileID: 21300000, guid: 2577cf15ee9b5da439a9addd68118e15, type: 3}
    debris:
    - {fileID: 21300000, guid: 2577cf15ee9b5da439a9addd68118e15, type: 3}
    sfxDeath: {fileID: 8300000, guid: 93d098b08c3dd194892aff1e83371fae, type: 3}
  animationIdle:
    sprites:
    - {fileID: 21300000, guid: 2577cf15ee9b5da439a9addd68118e15, type: 3}
    - {fileID: 21300000, guid: 8814e713ee043e646a5250e8a180ff3f, type: 3}
    - {fileID: 21300000, guid: 1def296f9a7696b46846dffd3bb1e67c, type: 3}
    - {fileID: 21300000, guid: ef0c035417bc0de4d89ae656c9d6184a, type: 3}
    - {fileID: 21300000, guid: 12ce8fb412abbb846ab1c86b3bb6ca04, type: 3}
    - {fileID: 21300000, guid: 0832527725c3b0c4e9c9bcf339af92d8, type: 3}
    - {fileID: 21300000, guid: 49bfa9b06263b1b44b5718038321d910, type: 3}
    - {fileID: 21300000, guid: 337abc24f2366e74d9a9dac948122cee, type: 3}
    - {fileID: 21300000, guid: 5aeb78b64e3a09b42bee3545e95a2c3f, type: 3}
    fps: 20
  animationHitWall:
    sprites:
    - {fileID: 21300000, guid: 2577cf15ee9b5da439a9addd68118e15, type: 3}
    - {fileID: 21300000, guid: 2577cf15ee9b5da439a9addd68118e15, type: 3}
    fps: 25
  animationTurn:
    sprites:
    - {fileID: 21300000, guid: cf9a773d6439c744b9a1946a32425d21, type: 3}
    - {fileID: 21300000, guid: 53b0d1410752ff8478be3975b229afc6, type: 3}
    - {fileID: 21300000, guid: 718d293711361944e9a1c4849468d3ad, type: 3}
    - {fileID: 21300000, guid: 4b0459751e48d7c4b9fa5399ead50e0b, type: 3}
    - {fileID: 21300000, guid: 28a8d3b32ac618a438a492dadb7d9aca, type: 3}
    fps: 20
  animationFlopping:
    sprites:
    - {fileID: 21300000, guid: 2577cf15ee9b5da439a9addd68118e15, type: 3}
    - {fileID: 21300000, guid: 2577cf15ee9b5da439a9addd68118e15, type: 3}
    - {fileID: 21300000, guid: 2577cf15ee9b5da439a9addd68118e15, type: 3}
    - {fileID: 21300000, guid: 2577cf15ee9b5da439a9addd68118e15, type: 3}
    - {fileID: 21300000, guid: 2577cf15ee9b5da439a9addd68118e15, type: 3}
    fps: 30
--- !u!114 &1400430356437598235
MonoBehaviour:
  m_ObjectHideFlags: 0
  m_CorrespondingSourceObject: {fileID: 0}
  m_PrefabInstance: {fileID: 0}
  m_PrefabAsset: {fileID: 0}
  m_GameObject: {fileID: 1400430356437598237}
  m_Enabled: 1
  m_EditorHideFlags: 0
  m_Script: {fileID: 11500000, guid: a2cedcea314d944e09159c2372cec04f, type: 3}
  m_Name: 
  m_EditorClassIdentifier: 
