%YAML 1.1
%TAG !u! tag:unity3d.com,2011:
--- !u!1 &3994343821407629651
GameObject:
  m_ObjectHideFlags: 0
  m_CorrespondingSourceObject: {fileID: 0}
  m_PrefabInstance: {fileID: 0}
  m_PrefabAsset: {fileID: 0}
  serializedVersion: 6
  m_Component:
  - component: {fileID: 1028323454808364804}
  - component: {fileID: 2248955228116751297}
  - component: {fileID: 5611881487007070405}
  - component: {fileID: 4791376484956982810}
  m_Layer: 0
  m_Name: AB Block Blue
  m_TagString: Untagged
  m_Icon: {fileID: 0}
  m_NavMeshLayer: 0
  m_StaticEditorFlags: 0
  m_IsActive: 1
--- !u!4 &1028323454808364804
Transform:
  m_ObjectHideFlags: 0
  m_CorrespondingSourceObject: {fileID: 0}
  m_PrefabInstance: {fileID: 0}
  m_PrefabAsset: {fileID: 0}
  m_GameObject: {fileID: 3994343821407629651}
  m_LocalRotation: {x: 0, y: 0, z: 0, w: 1}
  m_LocalPosition: {x: 0, y: 0, z: 0}
  m_LocalScale: {x: 1, y: 1, z: 1}
  m_Children: []
  m_Father: {fileID: 0}
  m_RootOrder: 0
  m_LocalEulerAnglesHint: {x: 0, y: 0, z: 0}
--- !u!212 &2248955228116751297
SpriteRenderer:
  m_ObjectHideFlags: 0
  m_CorrespondingSourceObject: {fileID: 0}
  m_PrefabInstance: {fileID: 0}
  m_PrefabAsset: {fileID: 0}
  m_GameObject: {fileID: 3994343821407629651}
  m_Enabled: 1
  m_CastShadows: 0
  m_ReceiveShadows: 0
  m_DynamicOccludee: 1
  m_MotionVectors: 1
  m_LightProbeUsage: 1
  m_ReflectionProbeUsage: 1
  m_RayTracingMode: 0
  m_RayTraceProcedural: 0
  m_RenderingLayerMask: 1
  m_RendererPriority: 0
  m_Materials:
  - {fileID: 10754, guid: 0000000000000000f000000000000000, type: 0}
  m_StaticBatchInfo:
    firstSubMesh: 0
    subMeshCount: 0
  m_StaticBatchRoot: {fileID: 0}
  m_ProbeAnchor: {fileID: 0}
  m_LightProbeVolumeOverride: {fileID: 0}
  m_ScaleInLightmap: 1
  m_ReceiveGI: 1
  m_PreserveUVs: 0
  m_IgnoreNormalsForChartDetection: 0
  m_ImportantGI: 0
  m_StitchLightmapSeams: 1
  m_SelectedEditorRenderState: 0
  m_MinimumChartSize: 4
  m_AutoUVMaxDistance: 0.5
  m_AutoUVMaxAngle: 89
  m_LightmapParameters: {fileID: 0}
  m_SortingLayerID: 115992415
  m_SortingLayer: -12
  m_SortingOrder: 0
  m_Sprite: {fileID: 21300000, guid: 60f20b858fefd684c9df1ed70038aa54, type: 3}
  m_Color: {r: 1, g: 1, b: 1, a: 1}
  m_FlipX: 0
  m_FlipY: 0
  m_DrawMode: 0
  m_Size: {x: 16, y: 16}
  m_AdaptiveModeThreshold: 0.5
  m_SpriteTileMode: 0
  m_WasSpriteAssigned: 1
  m_MaskInteraction: 0
  m_SpriteSortPoint: 0
--- !u!114 &5611881487007070405
MonoBehaviour:
  m_ObjectHideFlags: 0
  m_CorrespondingSourceObject: {fileID: 0}
  m_PrefabInstance: {fileID: 0}
  m_PrefabAsset: {fileID: 0}
  m_GameObject: {fileID: 3994343821407629651}
  m_Enabled: 1
  m_EditorHideFlags: 0
  m_Script: {fileID: 11500000, guid: b2719c2d327404263b55a41bcdad3b03, type: 3}
  m_Name: 
  m_EditorClassIdentifier: 
  colour: 1
  solidAnimation:
    sprites:
    - {fileID: 21300000, guid: 60f20b858fefd684c9df1ed70038aa54, type: 3}
    fps: 30
  nonsolidAnimation:
    sprites:
    - {fileID: 21300000, guid: b4719431831bb304684990a94ce9633c, type: 3}
    - {fileID: 21300000, guid: 3c476f5f4ff02c9438a0b3a451ca52dc, type: 3}
    - {fileID: 21300000, guid: 7a17c65c02e8cdf4eb76d6fd91dba45c, type: 3}
    - {fileID: 21300000, guid: 32b2a3142e49338439f464298b198049, type: 3}
    - {fileID: 21300000, guid: 8af056affc8b8bb49b34ea49e92ce648, type: 3}
    fps: 15
  appearAnimation:
    sprites:
    - {fileID: 21300000, guid: c30c615716b496e4f80bd1c84f5b1ff0, type: 3}
    - {fileID: 21300000, guid: 8eba4203641987048883f9f7dcbfecc7, type: 3}
    - {fileID: 21300000, guid: e7722b14a2f74174bad7a04517d541f0, type: 3}
    - {fileID: 21300000, guid: 081cbc1fb32e0a94b94bd04c8cb410c7, type: 3}
    - {fileID: 21300000, guid: 60f20b858fefd684c9df1ed70038aa54, type: 3}
    fps: 30
  disappearAnimation:
    sprites:
    - {fileID: 21300000, guid: 60f20b858fefd684c9df1ed70038aa54, type: 3}
    - {fileID: 21300000, guid: 081cbc1fb32e0a94b94bd04c8cb410c7, type: 3}
    - {fileID: 21300000, guid: e7722b14a2f74174bad7a04517d541f0, type: 3}
    - {fileID: 21300000, guid: 8eba4203641987048883f9f7dcbfecc7, type: 3}
    - {fileID: 21300000, guid: c30c615716b496e4f80bd1c84f5b1ff0, type: 3}
    fps: 30
--- !u!114 &4791376484956982810
MonoBehaviour:
  m_ObjectHideFlags: 0
  m_CorrespondingSourceObject: {fileID: 0}
  m_PrefabInstance: {fileID: 0}
  m_PrefabAsset: {fileID: 0}
  m_GameObject: {fileID: 3994343821407629651}
  m_Enabled: 1
  m_EditorHideFlags: 0
  m_Script: {fileID: 11500000, guid: a2cedcea314d944e09159c2372cec04f, type: 3}
  m_Name: 
  m_EditorClassIdentifier: 
