%YAML 1.1
%TAG !u! tag:unity3d.com,2011:
--- !u!1 &1720274073409153320
GameObject:
  m_ObjectHideFlags: 0
  m_CorrespondingSourceObject: {fileID: 0}
  m_PrefabInstance: {fileID: 0}
  m_PrefabAsset: {fileID: 0}
  serializedVersion: 6
  m_Component:
  - component: {fileID: 6837065060685276817}
  - component: {fileID: 3590664118785979565}
  - component: {fileID: 1720274073409153327}
  - component: {fileID: 8153812312193638589}
  m_Layer: 0
  m_Name: AB Coin Red
  m_TagString: Untagged
  m_Icon: {fileID: 0}
  m_NavMeshLayer: 0
  m_StaticEditorFlags: 0
  m_IsActive: 1
--- !u!4 &6837065060685276817
Transform:
  m_ObjectHideFlags: 0
  m_CorrespondingSourceObject: {fileID: 0}
  m_PrefabInstance: {fileID: 0}
  m_PrefabAsset: {fileID: 0}
  m_GameObject: {fileID: 1720274073409153320}
  m_LocalRotation: {x: 0, y: 0, z: 0, w: 1}
  m_LocalPosition: {x: -1.22, y: -9.9, z: 0}
  m_LocalScale: {x: 1, y: 1, z: 1}
  m_Children: []
  m_Father: {fileID: 0}
  m_RootOrder: 0
  m_LocalEulerAnglesHint: {x: 0, y: 0, z: 0}
--- !u!212 &3590664118785979565
SpriteRenderer:
  m_ObjectHideFlags: 0
  m_CorrespondingSourceObject: {fileID: 0}
  m_PrefabInstance: {fileID: 0}
  m_PrefabAsset: {fileID: 0}
  m_GameObject: {fileID: 1720274073409153320}
  m_Enabled: 1
  m_CastShadows: 0
  m_ReceiveShadows: 0
  m_DynamicOccludee: 1
  m_MotionVectors: 1
  m_LightProbeUsage: 1
  m_ReflectionProbeUsage: 1
  m_RayTracingMode: 0
  m_RayTraceProcedural: 0
  m_RenderingLayerMask: 1
  m_RendererPriority: 0
  m_Materials:
  - {fileID: 10754, guid: 0000000000000000f000000000000000, type: 0}
  m_StaticBatchInfo:
    firstSubMesh: 0
    subMeshCount: 0
  m_StaticBatchRoot: {fileID: 0}
  m_ProbeAnchor: {fileID: 0}
  m_LightProbeVolumeOverride: {fileID: 0}
  m_ScaleInLightmap: 1
  m_ReceiveGI: 1
  m_PreserveUVs: 0
  m_IgnoreNormalsForChartDetection: 0
  m_ImportantGI: 0
  m_StitchLightmapSeams: 1
  m_SelectedEditorRenderState: 0
  m_MinimumChartSize: 4
  m_AutoUVMaxDistance: 0.5
  m_AutoUVMaxAngle: 89
  m_LightmapParameters: {fileID: 0}
  m_SortingLayerID: -1751151575
  m_SortingLayer: -2
  m_SortingOrder: 0
  m_Sprite: {fileID: 21300000, guid: 8402ddfbd586aa34ea2da1aacbe67993, type: 3}
  m_Color: {r: 1, g: 1, b: 1, a: 1}
  m_FlipX: 0
  m_FlipY: 0
  m_DrawMode: 0
  m_Size: {x: 45.714287, y: 45.714287}
  m_AdaptiveModeThreshold: 0.5
  m_SpriteTileMode: 0
  m_WasSpriteAssigned: 1
  m_MaskInteraction: 0
  m_SpriteSortPoint: 0
--- !u!114 &1720274073409153327
MonoBehaviour:
  m_ObjectHideFlags: 0
  m_CorrespondingSourceObject: {fileID: 0}
  m_PrefabInstance: {fileID: 0}
  m_PrefabAsset: {fileID: 0}
  m_GameObject: {fileID: 1720274073409153320}
  m_Enabled: 1
  m_EditorHideFlags: 0
  m_Script: {fileID: 11500000, guid: 61aeafca05adbe64089ceaf3b921e2a4, type: 3}
  m_Name: 
  m_EditorClassIdentifier: 
  animationNormal:
    sprites:
    - {fileID: 21300000, guid: 8402ddfbd586aa34ea2da1aacbe67993, type: 3}
    fps: 30
  animationCollect:
    sprites:
    - {fileID: 21300000, guid: 8402ddfbd586aa34ea2da1aacbe67993, type: 3}
    - {fileID: 21300000, guid: f622faac3b6062c4a8aca8adf6e45977, type: 3}
    - {fileID: 21300000, guid: ae75e1cb739b0164292d950c32fcb9ab, type: 3}
    - {fileID: 21300000, guid: 46cba41b9d99a044d95e23a0516035d8, type: 3}
    - {fileID: 21300000, guid: e6b2ca43ad14abb4ebfb3be4a48f0213, type: 3}
    - {fileID: 21300000, guid: d1137bca9eee4cb46ae5a4da38666e37, type: 3}
    - {fileID: 21300000, guid: c110d62f2a4c3db48b2ae60c9793fe4a, type: 3}
    - {fileID: 21300000, guid: 7258a982302ba6c44a918f82da8221c3, type: 3}
    - {fileID: 21300000, guid: 4c2bdb12ac0c6eb49a43a00e7e6b88b5, type: 3}
    - {fileID: 21300000, guid: 554ac82209c378846a5cf469208bd469, type: 3}
    fps: 30
  suckActive: 0
  velocity: {x: 0, y: 0}
  colour: 0
  isSilver: 0
  solidAnimation:
    sprites:
    - {fileID: 21300000, guid: 8402ddfbd586aa34ea2da1aacbe67993, type: 3}
    - {fileID: 21300000, guid: 6ae45c14ad00387478f4f3ce61faf7c7, type: 3}
    - {fileID: 21300000, guid: d1137bca9eee4cb46ae5a4da38666e37, type: 3}
    - {fileID: 21300000, guid: a149b1c72103f46419f7117b644d28fa, type: 3}
    - {fileID: 21300000, guid: f622faac3b6062c4a8aca8adf6e45977, type: 3}
    - {fileID: 21300000, guid: ae75e1cb739b0164292d950c32fcb9ab, type: 3}
    - {fileID: 21300000, guid: 946777e87ef25e24cb39a24a88cfc322, type: 3}
    - {fileID: 21300000, guid: 46cba41b9d99a044d95e23a0516035d8, type: 3}
    - {fileID: 21300000, guid: cf317904522ada640b7fde7428022d45, type: 3}
    - {fileID: 21300000, guid: e6b2ca43ad14abb4ebfb3be4a48f0213, type: 3}
    - {fileID: 21300000, guid: 39eb779015aa88141a44bf72c3db6427, type: 3}
    fps: 30
  nonsolidAnimation:
    sprites:
    - {fileID: 21300000, guid: b5722d8c63fb4c949915d4cbe86eec42, type: 3}
    - {fileID: 21300000, guid: b1823af571f3ce8418b772788dece6f5, type: 3}
    - {fileID: 21300000, guid: 9fda276fa4d197e4f9391a81d020630e, type: 3}
    - {fileID: 21300000, guid: ac7be3f3f064a114daca0ef6cceb50f5, type: 3}
    - {fileID: 21300000, guid: 1a13b3860170c254e9371295c0645e4c, type: 3}
    fps: 15
  appearAnimation:
    sprites:
    - {fileID: 21300000, guid: b5722d8c63fb4c949915d4cbe86eec42, type: 3}
    - {fileID: 21300000, guid: ac7be3f3f064a114daca0ef6cceb50f5, type: 3}
    - {fileID: 21300000, guid: d1137bca9eee4cb46ae5a4da38666e37, type: 3}
    - {fileID: 21300000, guid: 6ae45c14ad00387478f4f3ce61faf7c7, type: 3}
    - {fileID: 21300000, guid: 8402ddfbd586aa34ea2da1aacbe67993, type: 3}
    fps: 15
  disappearAnimation:
    sprites:
    - {fileID: 21300000, guid: 8402ddfbd586aa34ea2da1aacbe67993, type: 3}
    - {fileID: 21300000, guid: 6ae45c14ad00387478f4f3ce61faf7c7, type: 3}
    - {fileID: 21300000, guid: d1137bca9eee4cb46ae5a4da38666e37, type: 3}
    - {fileID: 21300000, guid: ac7be3f3f064a114daca0ef6cceb50f5, type: 3}
    - {fileID: 21300000, guid: b5722d8c63fb4c949915d4cbe86eec42, type: 3}
    fps: 15
  isSolid: 0
--- !u!114 &8153812312193638589
MonoBehaviour:
  m_ObjectHideFlags: 0
  m_CorrespondingSourceObject: {fileID: 0}
  m_PrefabInstance: {fileID: 0}
  m_PrefabAsset: {fileID: 0}
  m_GameObject: {fileID: 1720274073409153320}
  m_Enabled: 1
  m_EditorHideFlags: 0
  m_Script: {fileID: 11500000, guid: a2cedcea314d944e09159c2372cec04f, type: 3}
  m_Name: 
  m_EditorClassIdentifier: 
