%YAML 1.1
%TAG !u! tag:unity3d.com,2011:
--- !u!1 &6091151872699584484
GameObject:
  m_ObjectHideFlags: 0
  m_CorrespondingSourceObject: {fileID: 0}
  m_PrefabInstance: {fileID: 0}
  m_PrefabAsset: {fileID: 0}
  serializedVersion: 6
  m_Component:
  - component: {fileID: 6091151872699584491}
  - component: {fileID: 7305749104373033834}
  - component: {fileID: 2517406257882744933}
  - component: {fileID: 2309550690114277453}
  m_Layer: 0
  m_Name: AB Switch
  m_TagString: Untagged
  m_Icon: {fileID: 0}
  m_NavMeshLayer: 0
  m_StaticEditorFlags: 0
  m_IsActive: 1
--- !u!4 &6091151872699584491
Transform:
  m_ObjectHideFlags: 0
  m_CorrespondingSourceObject: {fileID: 0}
  m_PrefabInstance: {fileID: 0}
  m_PrefabAsset: {fileID: 0}
  m_GameObject: {fileID: 6091151872699584484}
  m_LocalRotation: {x: 0, y: 0, z: 0, w: 1}
  m_LocalPosition: {x: 0, y: 0, z: 0}
  m_LocalScale: {x: 1, y: 1, z: 1}
  m_Children: []
  m_Father: {fileID: 0}
  m_RootOrder: 0
  m_LocalEulerAnglesHint: {x: 0, y: 0, z: 0}
--- !u!114 &7305749104373033834
MonoBehaviour:
  m_ObjectHideFlags: 0
  m_CorrespondingSourceObject: {fileID: 0}
  m_PrefabInstance: {fileID: 0}
  m_PrefabAsset: {fileID: 0}
  m_GameObject: {fileID: 6091151872699584484}
  m_Enabled: 1
  m_EditorHideFlags: 0
  m_Script: {fileID: 11500000, guid: 294a38b5039ef3f4080f0d24e24cbc7b, type: 3}
  m_Name: 
  m_EditorClassIdentifier: 
  idleRedAnimation:
    sprites:
    - {fileID: 21300000, guid: e23330229fd75f44fae9162a90913d61, type: 3}
    fps: 30
  redToBlueAnimation:
    sprites:
    - {fileID: 21300000, guid: e23330229fd75f44fae9162a90913d61, type: 3}
    - {fileID: 21300000, guid: 49bab43eab7f3f643bd21aa990fa2415, type: 3}
    - {fileID: 21300000, guid: 5a711cd6a8d818b41bd24b552e1c0d86, type: 3}
    - {fileID: 21300000, guid: 4502eeaa51b20cc41a818e7023b05173, type: 3}
    - {fileID: 21300000, guid: d9943644fb0c2ea42a56f7ac77019341, type: 3}
    - {fileID: 21300000, guid: 4041e52aa40f1824c9e4090758428dba, type: 3}
    fps: 30
  idleBlueAnimation:
    sprites:
    - {fileID: 21300000, guid: 4041e52aa40f1824c9e4090758428dba, type: 3}
    fps: 30
  blueToRedAnimation:
    sprites:
    - {fileID: 21300000, guid: 4041e52aa40f1824c9e4090758428dba, type: 3}
    - {fileID: 21300000, guid: d9943644fb0c2ea42a56f7ac77019341, type: 3}
    - {fileID: 21300000, guid: 4502eeaa51b20cc41a818e7023b05173, type: 3}
    - {fileID: 21300000, guid: 5a711cd6a8d818b41bd24b552e1c0d86, type: 3}
    - {fileID: 21300000, guid: 49bab43eab7f3f643bd21aa990fa2415, type: 3}
    - {fileID: 21300000, guid: e23330229fd75f44fae9162a90913d61, type: 3}
    fps: 30
--- !u!212 &2517406257882744933
SpriteRenderer:
  m_ObjectHideFlags: 0
  m_CorrespondingSourceObject: {fileID: 0}
  m_PrefabInstance: {fileID: 0}
  m_PrefabAsset: {fileID: 0}
  m_GameObject: {fileID: 6091151872699584484}
  m_Enabled: 1
  m_CastShadows: 0
  m_ReceiveShadows: 0
  m_DynamicOccludee: 1
  m_MotionVectors: 1
  m_LightProbeUsage: 1
  m_ReflectionProbeUsage: 1
  m_RayTracingMode: 0
  m_RayTraceProcedural: 0
  m_RenderingLayerMask: 1
  m_RendererPriority: 0
  m_Materials:
  - {fileID: 10754, guid: 0000000000000000f000000000000000, type: 0}
  m_StaticBatchInfo:
    firstSubMesh: 0
    subMeshCount: 0
  m_StaticBatchRoot: {fileID: 0}
  m_ProbeAnchor: {fileID: 0}
  m_LightProbeVolumeOverride: {fileID: 0}
  m_ScaleInLightmap: 1
  m_ReceiveGI: 1
  m_PreserveUVs: 0
  m_IgnoreNormalsForChartDetection: 0
  m_ImportantGI: 0
  m_StitchLightmapSeams: 1
  m_SelectedEditorRenderState: 0
  m_MinimumChartSize: 4
  m_AutoUVMaxDistance: 0.5
  m_AutoUVMaxAngle: 89
  m_LightmapParameters: {fileID: 0}
  m_SortingLayerID: 115992415
  m_SortingLayer: -12
  m_SortingOrder: 0
  m_Sprite: {fileID: 21300000, guid: 4041e52aa40f1824c9e4090758428dba, type: 3}
  m_Color: {r: 1, g: 1, b: 1, a: 1}
  m_FlipX: 0
  m_FlipY: 0
  m_DrawMode: 0
  m_Size: {x: 1.7857143, y: 1}
  m_AdaptiveModeThreshold: 0.5
  m_SpriteTileMode: 0
  m_WasSpriteAssigned: 1
  m_MaskInteraction: 0
  m_SpriteSortPoint: 0
--- !u!114 &2309550690114277453
MonoBehaviour:
  m_ObjectHideFlags: 0
  m_CorrespondingSourceObject: {fileID: 0}
  m_PrefabInstance: {fileID: 0}
  m_PrefabAsset: {fileID: 0}
  m_GameObject: {fileID: 6091151872699584484}
  m_Enabled: 1
  m_EditorHideFlags: 0
  m_Script: {fileID: 11500000, guid: a2cedcea314d944e09159c2372cec04f, type: 3}
  m_Name: 
  m_EditorClassIdentifier: 
