%YAML 1.1
%TAG !u! tag:unity3d.com,2011:
--- !u!114 &11400000
MonoBehaviour:
  m_ObjectHideFlags: 0
  m_CorrespondingSourceObject: {fileID: 0}
  m_PrefabInstance: {fileID: 0}
  m_PrefabAsset: {fileID: 0}
  m_GameObject: {fileID: 0}
  m_Enabled: 1
  m_EditorHideFlags: 0
  m_Script: {fileID: 11500000, guid: a6b194f808b1af6499c93410e504af42, type: 3}
  m_Name: layered banana_Atlas
  m_EditorClassIdentifier: 
  atlasFile: {fileID: 4900000, guid: e6599a94c5487a943a89e99e46ed2510, type: 3}
  materials:
  - {fileID: 2100000, guid: 899d1fce015a0bc4aabcfa02ee560e7a, type: 2}
