
big leaf plant 3.png
size: 1100,300
format: RGBA8888
filter: Linear,Linear
repeat: none
Layer 1 copy
  rotate: true
  xy: 312, 23
  size: 275, 321
  orig: 275, 321
  offset: 0, 0
  index: -1
Layer 2
  rotate: true
  xy: 635, 2
  size: 296, 275
  orig: 296, 275
  offset: 0, 0
  index: -1
Layer 3
  rotate: true
  xy: 912, 30
  size: 268, 186
  orig: 268, 186
  offset: 0, 0
  index: -1
Layer 4
  rotate: true
  xy: 2, 6
  size: 292, 308
  orig: 292, 308
  offset: 0, 0
  index: -1
