{
"skeleton": {
	"hash": "vn7gx5qQ/Y9fPY1goc2K2/ju5Q4",
	"spine": "3.8.99",
	"x": -0.1,
	"y": -319.24,
	"width": 541.1,
	"height": 319.62,
	"images": "./images/",
	"audio": "C:/Users/mat/OneDrive/Desktop/animated foliage/big leaf plant 3"
},
"bones": [
	{ "name": "root" }
],
"slots": [
	{ "name": "Layer 1 copy", "bone": "root", "attachment": "Layer 1 copy" },
	{ "name": "Layer 4", "bone": "root", "attachment": "Layer 4" },
	{ "name": "Layer 3", "bone": "root", "attachment": "Layer 3" },
	{ "name": "Layer 2", "bone": "root", "attachment": "Layer 2" }
],
"skins": [
	{
		"name": "default",
		"attachments": {
			"Layer 1 copy": {
				"Layer 1 copy": {
					"type": "mesh",
					"uvs": [ 0.53403, 0.01396, 0.63716, 0.06844, 0.65688, 0.06592, 0.7604, 0.06126, 0.88299, 0.10403, 0.94799, 0.14535, 0.9895, 0.20785, 1, 0.3196, 1, 0.32844, 0.95923, 0.42138, 0.93495, 0.43891, 0.88774, 0.47959, 0.69291, 0.56313, 0.67636, 0.57637, 0.66873, 0.64306, 0.65906, 0.72771, 0.65313, 0.78756, 0.65342, 0.86839, 0.63576, 0.99705, 0.5042, 0.99762, 0.51371, 0.8704, 0.51973, 0.78989, 0.53619, 0.67352, 0.54911, 0.58213, 0.55189, 0.55507, 0.35344, 0.52591, 0.21146, 0.48881, 0.09366, 0.43196, 0.04117, 0.37616, 0.00345, 0.29655, 0.00354, 0.19511, 0.04277, 0.14047, 0.13447, 0.05876, 0.21014, 0.02157, 0.30116, 0.00424, 0.39037, 0.00191, 0.57873, 0.1559, 0.50268, 0.25906, 0.44774, 0.36766, 0.40126, 0.46178 ],
					"triangles": [ 36, 0, 1, 36, 37, 35, 36, 35, 0, 6, 4, 5, 37, 34, 35, 31, 29, 30, 38, 28, 29, 37, 33, 34, 37, 32, 33, 38, 32, 37, 7, 4, 6, 8, 9, 7, 29, 31, 38, 38, 31, 32, 27, 28, 38, 4, 7, 36, 9, 10, 7, 38, 26, 27, 7, 10, 36, 39, 26, 38, 25, 26, 39, 36, 2, 3, 38, 37, 12, 24, 38, 12, 39, 38, 24, 25, 39, 24, 36, 1, 2, 3, 4, 36, 11, 36, 10, 11, 37, 36, 11, 12, 37, 13, 24, 12, 23, 24, 13, 14, 23, 13, 22, 23, 14, 15, 22, 14, 15, 21, 22, 16, 21, 15, 21, 16, 17, 20, 21, 17, 18, 20, 17, 19, 20, 18 ],
					"vertices": [ 412.86, -3.48, 441.22, -20.97, 446.64, -20.16, 475.11, -18.67, 508.82, -32.39, 526.7, -45.66, 538.11, -65.72, 541, -101.59, 541, -104.43, 529.79, -134.26, 523.11, -139.89, 510.13, -152.95, 456.55, -179.76, 452, -184.02, 449.9, -205.42, 447.24, -232.59, 445.61, -251.81, 445.69, -277.75, 440.83, -319.05, 404.65, -319.24, 407.27, -278.4, 408.93, -252.56, 413.45, -215.2, 417, -185.86, 417.77, -177.18, 363.2, -167.82, 324.15, -155.91, 291.76, -137.66, 277.32, -119.75, 266.95, -94.19, 266.97, -61.63, 277.76, -44.09, 302.98, -17.86, 323.79, -5.92, 348.82, -0.36, 373.35, 0.39, 425.15, -49.04, 404.24, -82.16, 389.13, -117.02, 376.35, -147.23 ],
					"hull": 36,
					"edges": [ 0, 70, 0, 2, 2, 4, 4, 6, 6, 8, 8, 10, 10, 12, 12, 14, 14, 16, 16, 18, 18, 20, 20, 22, 22, 24, 24, 26, 30, 32, 32, 34, 34, 36, 36, 38, 46, 48, 48, 50, 50, 52, 52, 54, 54, 56, 56, 58, 58, 60, 60, 62, 62, 64, 64, 66, 66, 68, 68, 70, 42, 44, 44, 46, 38, 40, 40, 42, 26, 28, 28, 30 ],
					"width": 275,
					"height": 321
				}
			},
			"Layer 2": {
				"Layer 2": {
					"type": "mesh",
					"uvs": [ 0.76569, 0.00301, 0.88038, 0.04421, 0.91599, 0.07718, 0.98773, 0.21011, 0.9817, 0.20531, 1, 0.35896, 1, 0.43674, 0.94881, 0.54671, 0.94597, 0.56127, 0.9461, 0.64395, 0.86189, 0.7609, 0.84288, 0.7873, 0.85119, 0.81843, 0.85134, 0.85645, 0.85152, 0.90276, 0.85173, 0.95448, 0.8519, 0.99706, 0.6844, 0.99643, 0.68213, 0.97193, 0.66726, 0.93432, 0.65588, 0.90553, 0.62584, 0.90552, 0.35798, 0.90547, 0.27752, 0.89516, 0.20552, 0.86869, 0.10213, 0.80653, 0.0475, 0.70329, 0.03061, 0.59435, 0.03307, 0.56144, 0.00325, 0.50725, 0.00337, 0.3913, 0.06898, 0.30002, 0.20663, 0.24573, 0.3995, 0.20538, 0.43217, 0.16887, 0.53773, 0.06159, 0.57923, 0.03377, 0.67074, 0.00387, 0.68047, 0.89211, 0.72351, 0.86538, 0.77813, 0.84043, 0.81952, 0.81014, 0.66888, 0.61771, 0.56955, 0.45378, 0.51658, 0.38607, 0.41395, 0.26313, 0.45533, 0.74243, 0.26993, 0.74243, 0.10273, 0.65869, 0.56624, 0.71749, 0.83442, 0.55713, 0.90891, 0.43774, 0.93209, 0.24174 ],
					"triangles": [ 3, 4, 2, 52, 2, 4, 45, 33, 34, 44, 34, 35, 45, 34, 44, 52, 4, 5, 5, 51, 52, 0, 1, 52, 52, 1, 2, 6, 51, 5, 36, 44, 35, 37, 43, 44, 52, 43, 37, 37, 44, 36, 52, 37, 0, 51, 43, 52, 7, 51, 6, 50, 43, 51, 50, 51, 7, 8, 50, 7, 28, 30, 31, 29, 30, 28, 42, 43, 50, 32, 28, 31, 48, 28, 32, 27, 28, 48, 26, 27, 48, 43, 46, 44, 49, 43, 42, 44, 47, 45, 49, 46, 43, 45, 47, 32, 45, 32, 33, 46, 47, 44, 48, 32, 47, 9, 10, 50, 9, 50, 8, 42, 50, 10, 11, 42, 10, 25, 26, 48, 25, 48, 47, 41, 42, 11, 42, 39, 49, 41, 11, 12, 41, 40, 42, 40, 39, 42, 24, 25, 47, 38, 49, 39, 22, 23, 47, 24, 47, 23, 46, 22, 47, 21, 49, 38, 46, 49, 21, 22, 46, 21, 20, 21, 38, 19, 20, 38, 18, 38, 39, 19, 38, 18, 18, 15, 17, 13, 40, 41, 18, 13, 14, 18, 14, 15, 13, 41, 12, 18, 39, 40, 40, 13, 18, 16, 17, 15 ],
					"vertices": [ 383.64, -45.83, 417.59, -57.16, 428.13, -66.22, 449.37, -102.78, 447.58, -101.46, 453, -143.72, 453, -165.1, 437.85, -195.35, 437.01, -199.35, 437.04, -222.09, 412.12, -254.25, 406.49, -261.51, 408.95, -270.07, 409, -280.52, 409.05, -293.26, 409.11, -307.48, 409.16, -319.19, 359.58, -319.02, 358.91, -312.28, 354.51, -301.94, 351.14, -294.02, 342.25, -294.02, 262.96, -294, 239.14, -291.17, 217.83, -283.89, 187.23, -266.8, 171.06, -238.41, 166.06, -208.45, 166.79, -199.4, 157.96, -184.49, 158, -152.61, 177.42, -127.51, 218.16, -112.58, 275.25, -101.48, 284.92, -91.44, 316.17, -61.94, 328.45, -54.29, 355.54, -46.06, 358.42, -290.33, 371.16, -282.98, 387.33, -276.12, 399.58, -267.79, 354.99, -214.87, 325.59, -169.79, 309.91, -151.17, 279.53, -117.36, 291.78, -249.17, 236.9, -249.17, 187.41, -226.14, 324.61, -242.31, 403.99, -198.21, 426.04, -165.38, 432.9, -111.48 ],
					"hull": 38,
					"edges": [ 0, 74, 0, 2, 2, 4, 4, 6, 6, 8, 8, 10, 10, 12, 12, 14, 14, 16, 16, 18, 22, 24, 32, 34, 34, 36, 44, 46, 46, 48, 48, 50, 50, 52, 52, 54, 54, 56, 56, 58, 58, 60, 60, 62, 62, 64, 64, 66, 66, 68, 68, 70, 70, 72, 72, 74, 40, 42, 42, 44, 18, 20, 20, 22, 24, 26, 26, 28, 28, 30, 30, 32, 36, 38, 38, 40 ],
					"width": 296,
					"height": 275
				}
			},
			"Layer 3": {
				"Layer 3": {
					"type": "mesh",
					"uvs": [ 0.30698, 0, 0.32955, 0, 0.48743, 0.03967, 0.68736, 0.01313, 0.8498, 0.06176, 0.95255, 0.16555, 1, 0.29876, 1, 0.37713, 0.98165, 0.53486, 0.90859, 0.66911, 0.81059, 0.74936, 0.73893, 0.78669, 0.74621, 0.85125, 0.75329, 0.91402, 0.76241, 0.99483, 0.60774, 0.99547, 0.59534, 0.94488, 0.57915, 0.87878, 0.55387, 0.80871, 0.51046, 0.80807, 0.31265, 0.80516, 0.23599, 0.77547, 0.10431, 0.67738, 0.04141, 0.5871, 0.00358, 0.47878, 0.00336, 0.30917, 0.02341, 0.21923, 0.08675, 0.07722, 0.57554, 0.21795, 0.54085, 0.3429, 0.55819, 0.43973, 0.50616, 0.41474, 0.58854, 0.55843, 0.65792, 0.55218, 0.75547, 0.52719, 0.90072, 0.42723, 0.5777, 0.68025, 0.50833, 0.64901, 0.46931, 0.58029, 0.36958, 0.57717, 0.23517, 0.57405, 0.13111, 0.48971, 0.06825, 0.41786, 0.29588, 0.40537, 0.3891, 0.40537, 0.43896, 0.22732, 0.47581, 0.14298 ],
					"triangles": [ 46, 1, 2, 28, 2, 3, 46, 2, 28, 45, 1, 46, 28, 45, 46, 29, 45, 28, 35, 5, 6, 45, 0, 1, 31, 44, 45, 43, 27, 0, 42, 26, 27, 42, 25, 26, 45, 43, 0, 44, 43, 45, 29, 31, 45, 27, 43, 42, 35, 4, 5, 7, 35, 6, 30, 29, 28, 31, 29, 30, 24, 25, 42, 41, 42, 43, 4, 28, 3, 34, 4, 35, 34, 28, 4, 30, 28, 34, 8, 35, 7, 33, 30, 34, 32, 30, 33, 40, 41, 43, 39, 43, 44, 40, 43, 39, 38, 44, 31, 38, 31, 30, 38, 30, 32, 39, 44, 38, 23, 24, 42, 23, 42, 41, 37, 38, 32, 9, 35, 8, 34, 35, 9, 22, 23, 41, 22, 41, 40, 36, 37, 32, 10, 34, 9, 20, 21, 40, 22, 40, 21, 11, 33, 34, 11, 34, 10, 39, 20, 40, 19, 37, 36, 36, 32, 33, 39, 38, 37, 37, 20, 39, 19, 20, 37, 18, 19, 36, 36, 11, 18, 33, 11, 36, 17, 11, 12, 17, 18, 11, 16, 17, 12, 16, 12, 13, 15, 16, 13, 15, 13, 14 ],
					"vertices": [ 81.27, -134, 87.32, -134, 129.63, -141.38, 183.21, -136.44, 226.75, -145.49, 254.28, -164.79, 267, -189.57, 267, -204.15, 262.08, -233.48, 242.5, -258.45, 216.24, -273.38, 197.03, -280.33, 198.98, -292.33, 200.88, -304.01, 203.32, -319.04, 161.87, -319.16, 158.55, -309.75, 154.21, -297.45, 147.44, -284.42, 135.8, -284.3, 82.79, -283.76, 62.25, -278.24, 26.96, -259.99, 10.1, -243.2, -0.04, -223.05, -0.1, -191.51, 5.27, -174.78, 22.25, -148.36, 153.24, -174.54, 143.95, -197.78, 148.6, -215.79, 134.65, -211.14, 156.73, -237.87, 175.32, -236.71, 201.47, -232.06, 240.39, -213.47, 153.82, -260.53, 135.23, -254.72, 124.77, -241.93, 98.05, -241.35, 62.03, -240.77, 34.14, -225.09, 17.29, -211.72, 78.29, -209.4, 103.28, -209.4, 116.64, -176.28, 126.52, -160.59 ],
					"hull": 28,
					"edges": [ 0, 54, 0, 2, 2, 4, 4, 6, 6, 8, 8, 10, 10, 12, 12, 14, 14, 16, 16, 18, 18, 20, 20, 22, 28, 30, 34, 36, 40, 42, 42, 44, 44, 46, 46, 48, 48, 50, 50, 52, 52, 54, 30, 32, 32, 34, 22, 24, 24, 26, 26, 28, 36, 38, 38, 40 ],
					"width": 268,
					"height": 186
				}
			},
			"Layer 4": {
				"Layer 4": {
					"type": "mesh",
					"uvs": [ 0.35667, 0.00332, 0.51078, 0.03965, 0.52453, 0.05521, 0.72612, 0.01123, 0.84856, 0.02287, 0.92867, 0.0574, 0.98018, 0.09888, 0.99665, 0.14391, 0.99697, 0.25138, 0.98173, 0.33056, 0.93566, 0.43566, 0.76345, 0.54954, 0.7749, 0.59644, 0.79791, 0.69418, 0.8254, 0.76941, 0.86394, 0.93451, 0.869, 0.99706, 0.73966, 0.99692, 0.66973, 0.75976, 0.61904, 0.6318, 0.59654, 0.59039, 0.31779, 0.57562, 0.19084, 0.53943, 0.12331, 0.509, 0.05189, 0.46672, 0.01139, 0.36467, 0.00282, 0.2071, 0.02445, 0.1419, 0.07517, 0.06958, 0.18053, 0.01701, 0.25465, 0.00299 ],
					"triangles": [ 5, 7, 8, 7, 5, 6, 28, 25, 26, 4, 5, 9, 8, 9, 5, 27, 28, 26, 23, 24, 25, 28, 29, 30, 0, 28, 30, 28, 0, 25, 22, 25, 0, 2, 0, 1, 25, 22, 23, 0, 21, 22, 9, 11, 3, 4, 9, 3, 10, 11, 9, 2, 3, 11, 2, 21, 0, 2, 20, 21, 11, 20, 2, 19, 20, 11, 12, 19, 11, 19, 12, 13, 18, 19, 13, 18, 13, 14, 17, 18, 14, 17, 14, 15, 17, 15, 16 ],
					"vertices": [ 109.15, -13.02, 154.15, -24.21, 158.16, -29, 217.03, -15.46, 252.78, -19.04, 276.17, -29.68, 291.21, -42.45, 296.02, -56.33, 296.12, -89.42, 291.66, -113.81, 278.21, -146.18, 227.93, -181.26, 231.27, -195.7, 237.99, -225.81, 246.02, -248.98, 257.27, -299.83, 258.75, -319.1, 220.98, -319.05, 200.56, -246, 185.76, -206.59, 179.19, -193.84, 97.79, -189.29, 60.73, -178.14, 41.01, -168.77, 20.15, -155.75, 8.32, -124.32, 5.82, -75.79, 12.14, -55.7, 26.95, -33.43, 57.71, -17.24, 79.36, -12.92 ],
					"hull": 31,
					"edges": [ 0, 60, 0, 2, 2, 4, 4, 6, 6, 8, 8, 10, 10, 12, 12, 14, 14, 16, 16, 18, 18, 20, 20, 22, 22, 24, 26, 28, 30, 32, 32, 34, 36, 38, 38, 40, 40, 42, 42, 44, 44, 46, 46, 48, 48, 50, 50, 52, 52, 54, 54, 56, 56, 58, 58, 60, 24, 26, 34, 36, 28, 30 ],
					"width": 292,
					"height": 308
				}
			}
		}
	}
],
"animations": {
	"animation": {
		"deform": {
			"default": {
				"Layer 1 copy": {
					"Layer 1 copy": [
						{
							"offset": 32,
							"vertices": [ -1.74298, -0.58099 ],
							"curve": 0.25,
							"c3": 0.75
						},
						{
							"time": 1.6667,
							"vertices": [ 54.04959, -0.02967, 51.44458, -3.67973, 51.50397, -4.41531, 51.44678, -8.25174, 49.29816, -12.65459, 47.35474, -14.93514, 44.55719, -16.2864, 39.71381, -16.34904, 39.33246, -16.32337, 35.42773, -14.5475, 34.73254, -13.60004, 33.09662, -11.73813, 29.98096, -4.30037, 14.57996, -5.0E-5, 9.72, 0, 9.4231, -2.47498, 7.40414, -4.18155, 4.00168, -5.50128, 0, 0, 0, 0, 5.38583, 2.73529, 6.67419, 2.11659, 9.80743, 2.81735, 11.66391, 0.972, 15.552, 0.972, 32.43094, 8.12793, 34.38373, 13.26338, 37.1279, 17.44844, 39.66418, 19.22476, 43.18967, 20.38598, 47.56229, 20.08806, 49.81992, 18.48029, 53.11359, 14.85632, 54.52841, 11.95363, 55.04877, 8.54203, 54.92688, 5.24054, 47.81995, -1.26781, 43.56201, 1.84097, 39.01764, 4.18526, 35.07626, 6.17537 ],
							"curve": 0.25,
							"c3": 0.75
						},
						{
							"time": 3.3333,
							"offset": 32,
							"vertices": [ -1.74298, -0.58099 ]
						}
					]
				},
				"Layer 2": {
					"Layer 2": [
						{
							"offset": 44,
							"vertices": [ 2.32401, 1.74298 ],
							"curve": 0.25,
							"c3": 0.75
						},
						{
							"time": 1.6667,
							"vertices": [ -22.72983, -1.94316, -22.20047, -0.21274, -21.75574, 0.3316, -19.93512, 1.45168, -19.9996, 1.35986, -17.87061, 1.68753, -16.78949, 1.715, -15.24152, 0.98773, -15.03818, 0.95032, -13.88889, 0.98129, -12.23141, -0.23744, -11.85715, -0.51266, -6.52106, -0.862, -5.26797, -2.63397, -3.07297, -0.43903, -0.439, 0.439, 0, 0, 0, 0, -1.75601, 0, -2.19501, -0.87799, -10.1431, -3.26886, -10.13181, -3.71835, -7.79825, -5.86777, -10.14398, -8.9335, -10.48463, -10.02002, -11.30972, -11.58865, -12.72401, -12.44243, -14.2319, -12.73343, -14.69026, -12.70816, -15.43234, -13.17343, -17.04407, -13.21225, -18.33766, -12.26282, -19.14439, -10.22238, -19.77829, -7.35081, -20.29822, -6.87491, -21.82922, -5.33311, -22.23169, -4.72226, -22.68195, -3.36346, -10.33884, -2.90573, -10.72662, -2.27118, -11.09412, -1.46259, -8.45782, 0.02383, -14.14871, -3.1756, -16.38983, -4.71931, -17.31094, -5.53563, -18.98105, -7.11453, -12.33423, -6.32675, -12.26405, -9.10074, -13.36488, -11.63174, -12.72302, -4.67609, -15.05344, -0.72011, -16.74115, 0.35245, -19.47427, 0.63029 ],
							"curve": 0.25,
							"c3": 0.75
						},
						{
							"time": 3.3333,
							"offset": 44,
							"vertices": [ 2.32401, 1.74298 ]
						}
					]
				},
				"Layer 3": {
					"Layer 3": [
						{
							"offset": 44,
							"vertices": [ 0.58099, 0.58099 ],
							"curve": 0.25,
							"c3": 0.75
						},
						{
							"time": 1.6667,
							"vertices": [ 32.48666, 6.43729, 32.45967, 5.86673, 31.57492, 1.90814, 31.80168, -3.16843, 30.7542, -7.23482, 28.81033, -9.74649, 26.41626, -10.83549, 25.0412, -10.77051, 22.29562, -10.1758, 20.02731, -8.21741, 18.73645, -5.67316, 18.16696, -3.83057, 9.71997, 0.97202, 5.83197, 0, 0, 0, 0, 0, 4.85999, 0, 7.776, 0.97198, 18.00177, 0.86642, 18.06488, 1.96344, 18.35245, 6.96182, 18.96488, 8.87534, 21.47664, 12.64659, 22.50272, 13.63828, 24.44841, 14.50482, 27.42479, 14.36984, 28.97883, 13.78839, 31.39502, 12.06926, 28.34154, -0.17142, 26.19061, 0.80914, 24.47087, 0.45102, 24.97148, 1.74567, 22.35187, -0.21783, 22.37856, -1.97691, 22.70049, -4.464, 24.28073, -8.21907, 20.22731, 0.15723, 20.85829, 1.88519, 22.1107, 2.81474, 22.28471, 5.33333, 22.50014, 8.72885, 24.10433, 11.28969, 25.44005, 12.81955, 25.38723, 7.05429, 25.27583, 4.69753, 28.3403, 3.28929, 29.77608, 2.28758 ],
							"curve": 0.25,
							"c3": 0.75
						},
						{
							"time": 3.3333,
							"offset": 44,
							"vertices": [ 0.58099, 0.58099 ]
						}
					]
				},
				"Layer 4": {
					"Layer 4": [
						{
							"offset": 8,
							"vertices": [ 1.16202, 0.58099 ],
							"curve": 0.25,
							"c3": 0.75
						},
						{
							"time": 1.6667,
							"vertices": [ -22.80479, -5.71101, -21.78638, -0.22366, -21.23988, 0.29304, -23.29353, 7.26667, -22.03807, 12.30421, -22.01332, 14.47501, -20.58765, 16.37454, -18.95605, 17.05276, -14.98038, 17.3038, -12.01825, 16.94564, -8.03192, 15.56421, -14.69603, 8.17702, -11.77979, 9.18137, -6.5222, -0.203, -4.51782, 0.59166, -0.09476, 1.77676, 0, 0, 0, 0, -4.60332, -3.41263, -8.00792, -4.86496, -11.03883, -1.63362, -1.54659, -5.79826, -2.61729, -10.33226, -3.60045, -12.76924, -5.0139, -15.36874, -8.70421, -17.01732, -14.51635, -17.66918, -16.97463, -17.05603, -19.75799, -15.43816, -21.92595, -11.85931, -22.60146, -9.29062 ],
							"curve": 0.25,
							"c3": 0.75
						},
						{
							"time": 3.3333,
							"offset": 8,
							"vertices": [ 1.16202, 0.58099 ]
						}
					]
				}
			}
		}
	}
}
}